13 0.0204482 0.0131324
23 0.513927 -0.0332491
38 1.48704 -0.0558746
51 2.32217 -0.0144926
63 3.08747 0.0317212
113 2.6334 0.869353
214 0.161858 -4.07573
253 0.688597 -3.5485
326 2.97365 -0.522193
384 1.00158 -2.51153
442 2.86513 -3.32206
559 2.94508 -3.08149
635 2.13434 -3.39341
705 1.59631 -3.31158
759 0.810315 -3.40721
809 -0.733337 -4.44192
874 -0.696517 -8.06608
962 4.10752 -6.91901
1012 3.91183 -6.17824
1088 1.15277 -9.50437
1154 4.44659 -9.88131
1262 5.06103 -4.48118
1317 4.71454 -7.07283
1358 6.02747 -6.25429
1394 5.92249 -5.0344
1450 4.04443 -6.76813
1525 8.05594 -7.32515
1594 9.60062 -5.01634
1638 9.8527 -4.33004
1690 9.78855 -3.5732
1737 9.10127 -2.92429
1780 8.32303 -2.81477
1851 8.1623 -2.46036
1909 11.2397 -2.4712
1961 14.3371 -1.69951
1992 13.506 -1.00657
1994 13.4168 -0.933135
2026 13.9673 -1.67783
2053 14.106 -1.00478
2079 14.9613 -0.453149
2081 15.0638 -0.409786
2083 15.1308 -0.37744
2085 15.1943 -0.345384
2087 15.2783 -0.299016
2115 14.9112 -0.457222
2147 15.4414 0.067111
2176 14.9239 -0.27979
2207 15.5058 0.0724613
2236 14.765 -0.330927
2269 15.4519 0.0806009
2301 14.7801 -0.369975
2331 15.1425 -0.16412
2332 15.1421 -0.164312
2333 15.1419 -0.16441
2334 15.1417 -0.164554
2335 15.1415 -0.164683
2336 15.1413 -0.164791
2337 15.1411 -0.164881
2338 15.141 -0.164966
2339 15.1409 -0.165039
2340 15.1408 -0.165096
2341 15.1407 -0.165151
2342 15.1406 -0.165201
2343 15.1405 -0.165244
2344 15.1404 -0.165281
2345 15.1404 -0.165318
2346 15.1403 -0.165353
2347 15.1403 -0.165388
2348 15.1402 -0.16542
2349 15.1402 -0.165451
2350 15.1401 -0.16547
2351 15.1401 -0.16548
2352 15.1401 -0.16549
2353 15.1401 -0.165499
2354 15.1401 -0.165509
2355 15.14 -0.165515
2356 15.14 -0.165516
2357 15.14 -0.16552
2358 15.14 -0.165525
2359 15.14 -0.165528
2360 15.14 -0.165531
2361 15.14 -0.165535
2362 15.14 -0.165534
2363 15.14 -0.165531
2364 15.14 -0.165528
2365 15.14 -0.16553
2366 15.14 -0.165529
2367 15.14 -0.165525
2368 15.14 -0.165526
2369 15.14 -0.165522
2370 15.14 -0.165519
2371 15.14 -0.16552
2372 15.14 -0.16552
2373 15.14 -0.165522
2374 15.14 -0.16552
2375 15.14 -0.165515
2376 15.14 -0.165515
2377 15.14 -0.165521
2378 15.14 -0.165521
2379 15.14 -0.165518
2380 15.14 -0.165518
2381 15.14 -0.165515
2382 15.14 -0.165518
2383 15.14 -0.165524
