1404 9.36919
1456 8.70303
1509 8.23049
1518 8.02983
1524 7.90945
1526 7.8317
1528 7.80632
1530 7.7614
1532 7.71408
1534 7.66918
1536 7.62336
1538 7.56887
1540 7.52222
1542 7.47468
1544 7.42786
1546 7.37923
1548 7.32776
1550 7.27933
1552 7.22956
1554 7.18162
1556 7.1346
1558 7.08746
1560 7.04114
1562 6.99453
1564 6.94809
1566 6.90213
1568 6.85759
1570 6.8134
1572 6.77152
1574 6.72918
1576 6.68671
1578 6.64626
1586 6.54488
1588 6.5447
1590 6.52894
1617 6.2695
1626 6.01262
1628 6.01252
1631 5.96025
1633 5.87854
1635 5.80748
1637 5.74105
1639 5.67545
1641 5.61262
1643 5.55135
1645 5.49158
1647 5.43385
1649 5.37328
1651 5.314
1658 5.1665
1660 5.16635
1662 5.14065
1664 5.08591
1666 5.03503
1668 4.98187
1670 4.92488
1672 4.8683
1674 4.80967
1676 4.75369
1678 4.69807
1680 4.64439
1682 4.59159
1684 4.53781
1686 4.48465
1688 4.43132
1690 4.38038
1692 4.32966
1694 4.27928
1696 4.22947
1698 4.17869
1700 4.1284
1702 4.07761
1704 4.02963
1706 3.98066
1708 3.93332
1710 3.88711
1712 3.8408
1714 3.79574
1716 3.75045
1718 3.70573
1720 3.66048
1722 3.61788
1724 3.57494
1726 3.53444
1728 3.49479
1730 3.45565
1732 3.41712
1734 3.37992
1736 3.34298
1738 3.30684
1740 3.27124
1742 3.23796
1744 3.20566
1746 3.17459
1748 3.14509
1750 3.11639
1752 3.08893
1754 3.06325
1756 3.03916
1758 3.01521
1760 2.9936
1762 2.97336
1764 2.95424
1766 2.93613
1768 2.91985
1770 2.90522
1772 2.89228
1774 2.88041
1776 2.87027
1778 2.86179
1780 2.85515
1782 2.85
1784 2.84643
1786 2.84456
1788 2.8444
1822 2.55117
1955 1.85637
1957 1.81931
1959 1.80231
1961 1.78825
1963 1.77553
1965 1.76517
1967 1.75868
1969 1.75455
1971 1.75314
2014 1.61713
2113 0.374559
2115 0.255478
2117 0.200383
2118 0.175727
2119 0.164664
2120 0.155319
2121 0.155
