23 0.00626256 -0.019225
34 0.498078 0.0419671
51 1.67083 0.0678261
108 1.916 -0.696602
157 1.81264 -0.159939
216 0.379212 -2.62269
316 1.83266 -1.23987
360 1.78337 -2.09452
411 1.76097 -3.02537
457 1.74911 -4.22833
535 1.24792 -4.67626
626 0.331982 -4.67083
686 -0.154496 -4.63748
733 -1.05805 -5.25777
770 -1.41455 -5.90036
822 -0.955513 -6.88001
881 2.03268 -7.72293
929 3.11238 -6.84579
962 3.47471 -6.06293
1011 3.44442 -5.28944
1066 3.76403 -4.7867
1133 4.52313 -5.32675
1188 4.93099 -6.06572
1244 6.62046 -7.4654
1305 8.11199 -7.56417
1389 11.3424 -3.99328
1401 11.8479 -3.4202
1404 11.9793 -3.2609
1406 12.0662 -3.15394
1408 12.1335 -3.06958
1410 12.2002 -2.9879
1412 12.2677 -2.90332
1414 12.3343 -2.82114
1416 12.3818 -2.7618
1418 12.4672 -2.65561
1420 12.5343 -2.57133
1422 12.6005 -2.48931
1424 12.6678 -2.40467
1426 12.7156 -2.34506
1428 12.7632 -2.2859
1430 12.8055 -2.23353
1432 12.8443 -2.18558
1434 12.8893 -2.13019
1436 12.9328 -2.07669
1446 12.9778 -2.01313
1460 12.9959 -1.98396
1469 13.0683 -1.99888
1471 13.0685 -1.99881
1473 13.1272 -1.99843
1475 13.1898 -1.99801
1477 13.2571 -1.99764
1479 13.2602 -1.99787
1481 13.3193 -1.99737
1483 13.3786 -1.99689
1485 13.4505 -1.99622
1487 13.5198 -1.99616
1489 13.5833 -1.99574
1491 13.6464 -1.9954
1493 13.7195 -1.99504
1495 13.7923 -1.99451
1497 13.8631 -1.99415
1499 13.9329 -1.99372
1501 14.004 -1.99332
1503 14.0767 -1.99295
1505 14.176 -1.99195
1507 14.224 -1.99256
1509 14.3061 -1.99179
1511 14.4187 -1.99222
1513 14.5324 -1.99175
1515 14.6649 -1.99166
1517 14.7781 -1.99199
1519 14.8765 -1.99161
1521 14.9835 -1.99193
1523 15.0728 -1.99191
1557 14.8531 -2.21423
1585 15.28 -1.88244
1605 15.0343 -1.30434
1607 15.0324 -1.29976
1609 15.0077 -1.21202
1611 14.9666 -1.08032
1613 14.9271 -0.948335
1615 14.9126 -0.904337
1622 14.894 -0.833932
1636 14.9092 -0.819944
1645 14.9776 -0.830696
1674 14.8176 -0.80095
1696 14.932 -0.526107
1710 14.8251 -0.157414
1711 14.8061 -0.0911063
1712 14.7931 -0.0517916
1713 14.7916 -0.0471255
1714 14.7916 -0.0471742
1715 14.7917 -0.0472171
1716 14.7917 -0.0472414
1717 14.7918 -0.0472694
1718 14.7918 -0.0472917
1719 14.7919 -0.0473161
1720 14.7919 -0.0473465
1721 14.7919 -0.0473734
1722 14.7919 -0.0474008
1723 14.792 -0.0474174
1724 14.792 -0.0474306
1725 14.792 -0.0474446
1726 14.792 -0.0474657
1727 14.792 -0.0474781
1728 14.792 -0.0474823
1729 14.792 -0.047482
1730 14.792 -0.0474801
1731 14.7921 -0.0474897
1732 14.7921 -0.0475069
1733 14.7921 -0.0475192
1734 14.7921 -0.0475165
1735 14.7921 -0.0475083
1736 14.7921 -0.0475103
1737 14.7921 -0.0475216
1738 14.7921 -0.0475197
1739 14.7921 -0.0475114
1740 14.7921 -0.0475033
1741 14.7921 -0.0474937
1742 14.7921 -0.0474832
1743 14.7921 -0.0474726
1744 14.7921 -0.0474679
1745 14.7921 -0.0474656
1746 14.7921 -0.0474649
1747 14.7921 -0.0474674
1748 14.7921 -0.0474665
1749 14.7921 -0.0474646
1750 14.7921 -0.0474595
1751 14.7921 -0.0474613
1752 14.7921 -0.0474642
1753 14.7921 -0.047466
1754 14.7921 -0.0474577
1755 14.7921 -0.0474384
1756 14.7921 -0.0474193
1757 14.7921 -0.0474066
1758 14.7921 -0.0474004
1759 14.7921 -0.0473975
1760 14.7921 -0.0473977
1761 14.7921 -0.047397
1762 14.7921 -0.0473898
1763 14.7921 -0.0473802
1764 14.7921 -0.0473774
1765 14.7921 -0.0473725
1766 14.7921 -0.0473676
1767 14.7921 -0.0473647
1768 14.7921 -0.0473639
1769 14.7921 -0.0473599
1770 14.7921 -0.0473451
1771 14.7921 -0.0473374
1772 14.7921 -0.0473384
1773 14.7921 -0.0473406
1774 14.7921 -0.0473361
1775 14.7921 -0.0473241
1776 14.792 -0.0473136
1777 14.792 -0.0473073
1778 14.792 -0.0472939
1779 14.792 -0.0472754
1780 14.792 -0.0472698
1781 14.792 -0.0472703
1782 14.792 -0.0472661
1783 14.792 -0.0472569
1784 14.792 -0.0472532
1785 14.792 -0.0472541
1786 14.792 -0.047252
1787 14.792 -0.0472517
1788 14.792 -0.0472408
1789 14.792 -0.0472266
1790 14.792 -0.0472133
1791 14.792 -0.0471949
1792 14.792 -0.0471768
1793 14.792 -0.0471607
1794 14.792 -0.0471553
1795 14.792 -0.0471551
1796 14.792 -0.0471517
1797 14.792 -0.0471578
1798 14.792 -0.0471692
1799 14.792 -0.0471732
1800 14.792 -0.0471749
1801 14.792 -0.0471732
1802 14.792 -0.0471735
1803 14.792 -0.0471732
1804 14.792 -0.0471708
1805 14.792 -0.04717
1806 14.792 -0.0471631
1807 14.792 -0.04715
1808 14.792 -0.0471451
1809 14.792 -0.0471375
1810 14.792 -0.0471301
1811 14.792 -0.047125
1812 14.792 -0.0471187
1813 14.792 -0.0471208
1814 14.792 -0.0471234
1815 14.792 -0.0471261
1816 14.792 -0.0471287
1817 14.792 -0.0471313
1818 14.792 -0.0471339
1819 14.792 -0.0471365
1820 14.792 -0.0471391
1821 14.792 -0.0471416
1822 14.792 -0.0471442
1823 14.792 -0.0471468
1824 14.792 -0.0471494
1825 14.792 -0.047152
1826 14.792 -0.0471546
1827 14.792 -0.0471572
1828 14.792 -0.0471598
1829 14.792 -0.0471624
1830 14.792 -0.047165
1831 14.792 -0.0471676
1832 14.792 -0.0471702
1833 14.792 -0.0471727
1834 14.792 -0.0471753
1835 14.792 -0.0471779
1836 14.792 -0.0471805
1837 14.792 -0.0471831
1838 14.792 -0.0471857
1839 14.792 -0.0471883
1840 14.792 -0.0471909
1841 14.792 -0.0471934
1842 14.792 -0.047196
1843 14.792 -0.0471986
1844 14.792 -0.0472012
1845 14.792 -0.0472038
1846 14.792 -0.0472064
1847 14.792 -0.047209
1848 14.792 -0.0472115
1849 14.792 -0.0472141
1850 14.792 -0.0472167
1851 14.792 -0.0472193
1852 14.792 -0.0472219
1853 14.792 -0.0472244
1854 14.792 -0.0472269
1855 14.792 -0.0472293
1856 14.792 -0.0472317
1857 14.792 -0.0472341
1858 14.792 -0.0472365
1859 14.792 -0.0472389
1860 14.792 -0.0472412
1861 14.792 -0.0472433
1862 14.792 -0.0472449
1863 14.792 -0.0472463
1864 14.792 -0.0472477
1865 14.792 -0.0472493
1866 14.792 -0.0472513
1867 14.792 -0.0472536
1868 14.792 -0.0472561
1869 14.792 -0.0472585
1870 14.792 -0.0472609
1871 14.792 -0.0472632
1872 14.792 -0.0472653
1873 14.792 -0.0472669
1874 14.792 -0.0472684
1875 14.792 -0.0472698
1876 14.792 -0.0472718
1877 14.792 -0.0472742
1878 14.792 -0.0472767
1879 14.792 -0.0472787
1880 14.792 -0.0472803
1881 14.792 -0.0472824
1882 14.792 -0.0472848
1883 14.792 -0.0472873
1884 14.792 -0.0472894
1885 14.792 -0.0472911
1886 14.792 -0.0472928
1887 14.792 -0.0472947
1888 14.792 -0.0472971
1889 14.792 -0.0472996
1890 14.792 -0.0473017
1891 14.792 -0.0473033
1892 14.792 -0.0473053
1893 14.792 -0.0473077
1894 14.792 -0.0473102
1895 14.792 -0.0473123
1896 14.7921 -0.047314
1897 14.7921 -0.0473157
1898 14.7921 -0.0473177
1899 14.7921 -0.04732
1900 14.7921 -0.0473225
1901 14.7921 -0.0473246
1902 14.7921 -0.0473262
1903 14.7921 -0.0473282
1904 14.7921 -0.0473306
1905 14.7921 -0.0473331
1906 14.7921 -0.0473352
1907 14.7921 -0.0473369
1908 14.7921 -0.0473386
1909 14.7921 -0.0473406
1910 14.7921 -0.047343
1911 14.7921 -0.0473455
1912 14.7921 -0.0473475
1913 14.7921 -0.0473491
1914 14.7921 -0.0473511
1915 14.7921 -0.0473536
1916 14.7921 -0.0473561
1917 14.7921 -0.0473582
1918 14.7921 -0.0473598
1919 14.7921 -0.0473615
1920 14.7921 -0.0473635
1921 14.7921 -0.0473659
1922 14.7921 -0.0473684
1923 14.7921 -0.0473705
1924 14.7921 -0.0473721
1925 14.7921 -0.0473741
1926 14.7921 -0.0473765
1927 14.7921 -0.047379
1928 14.7921 -0.0473811
1929 14.7921 -0.0473828
1930 14.7921 -0.0473845
1931 14.7921 -0.0473864
1932 14.7921 -0.0473888
1933 14.7921 -0.0473913
1934 14.7921 -0.0473934
1935 14.7921 -0.047395
1936 14.7921 -0.047397
1937 14.7921 -0.0473994
1938 14.7921 -0.0474019
1939 14.7921 -0.047404
1940 14.7921 -0.0474057
1941 14.7921 -0.0474074
1942 14.7921 -0.0474093
1943 14.7921 -0.0474117
1944 14.7921 -0.0474142
1945 14.7921 -0.0474163
1946 14.7921 -0.0474179
1947 14.7921 -0.0474199
1948 14.7921 -0.0474223
1949 14.7921 -0.0474248
1950 14.7921 -0.0474269
1951 14.7921 -0.0474286
1952 14.7921 -0.0474303
1953 14.7921 -0.0474322
1954 14.7921 -0.0474346
1955 14.7921 -0.0474371
1956 14.7921 -0.0474392
1957 14.7921 -0.0474408
1958 14.7921 -0.0474428
1959 14.7921 -0.0474452
1960 14.7921 -0.0474477
1961 14.7921 -0.0474498
1962 14.7921 -0.0474514
1963 14.7921 -0.0474531
1964 14.7921 -0.0474551
1965 14.7921 -0.0474575
1966 14.7921 -0.04746
1967 14.7921 -0.047462
1968 14.7921 -0.0474636
1969 14.7921 -0.0474656
1970 14.7921 -0.047468
1971 14.7921 -0.0474706
1972 14.7921 -0.0474726
1973 14.7921 -0.0474743
1974 14.7921 -0.047476
1975 14.7921 -0.047478
1976 14.7921 -0.0474804
1977 14.7921 -0.0474829
1978 14.7921 -0.0474849
1979 14.7921 -0.0474865
1980 14.7921 -0.0474885
1981 14.7921 -0.0474909
1982 14.7921 -0.0474934
1983 14.7921 -0.0474955
1984 14.7921 -0.0474972
1985 14.7921 -0.0474989
1986 14.7921 -0.0475009
1987 14.7921 -0.0475032
1988 14.7921 -0.0475057
1989 14.7921 -0.0475078
1990 14.7921 -0.0475094
1991 14.7921 -0.0475114
1992 14.7921 -0.0475138
1993 14.7921 -0.0475163
1994 14.7921 -0.0475184
1995 14.7921 -0.0475201
1996 14.7921 -0.0475217
1997 14.7921 -0.0475237
1998 14.7921 -0.0475261
1999 14.7921 -0.0475286
2000 14.7921 -0.0475307
2001 14.7921 -0.0475322
2002 14.7921 -0.0475342
2003 14.7921 -0.0475367
2004 14.7921 -0.0475392
2005 14.7921 -0.0475412
2006 14.7921 -0.0475429
2007 14.7921 -0.0475446
2008 14.7921 -0.0475466
2009 14.7921 -0.047549
2010 14.7921 -0.0475514
2011 14.7921 -0.0475535
2012 14.7921 -0.0475551
2013 14.7921 -0.0475571
2014 14.7921 -0.0475595
2015 14.7921 -0.047562
2016 14.7921 -0.0475641
2017 14.7921 -0.0475658
2018 14.7921 -0.0475675
2019 14.7921 -0.0475694
2020 14.7921 -0.0475718
2021 14.7921 -0.0475743
2022 14.7921 -0.0475764
2023 14.7921 -0.0475779
2024 14.7921 -0.0475799
2025 14.7921 -0.0475823
2026 14.7921 -0.0475849
2027 14.7921 -0.0475869
2028 14.7921 -0.0475886
2029 14.7921 -0.0475903
2030 14.7921 -0.0475923
2031 14.7921 -0.0475946
2032 14.7921 -0.0475971
2033 14.7921 -0.0475992
2034 14.7921 -0.0476008
2035 14.7921 -0.0476028
2036 14.7921 -0.0476052
2037 14.7921 -0.0476077
2038 14.7921 -0.0476098
2039 14.7921 -0.0476114
2040 14.7921 -0.0476131
2041 14.7921 -0.0476151
2042 14.7921 -0.0476175
2043 14.7921 -0.04762
2044 14.7921 -0.047622
2045 14.7921 -0.0476236
2046 14.7921 -0.0476255
2047 14.7921 -0.047628
2048 14.7921 -0.0476305
2049 14.7921 -0.0476326
2050 14.7921 -0.0476343
2051 14.7921 -0.047636
2052 14.7921 -0.0476379
2053 14.7921 -0.0476403
2054 14.7921 -0.0476428
2055 14.7921 -0.0476449
2056 14.7921 -0.0476464
2057 14.7921 -0.0476484
2058 14.7921 -0.0476508
2059 14.7921 -0.0476533
2060 14.7921 -0.0476554
2061 14.7921 -0.0476571
2062 14.7921 -0.0476588
2063 14.7921 -0.0476608
2064 14.7921 -0.0476631
2065 14.7921 -0.0476656
2066 14.7921 -0.0476677
2067 14.7921 -0.0476692
2068 14.7921 -0.0476712
2069 14.7921 -0.0476736
2070 14.7921 -0.0476762
2071 14.7922 -0.0476782
2072 14.7922 -0.0476799
2073 14.7922 -0.0476816
2074 14.7922 -0.0476836
2075 14.7922 -0.0476859
2076 14.7922 -0.0476884
2077 14.7922 -0.0476905
2078 14.7922 -0.047692
2079 14.7922 -0.047694
2080 14.7922 -0.0476964
2081 14.7922 -0.0476989
2082 14.7922 -0.047701
2083 14.7922 -0.0477027
2084 14.7922 -0.0477044
2085 14.7922 -0.0477064
2086 14.7922 -0.0477087
2087 14.7922 -0.0477112
2088 14.7922 -0.0477133
2089 14.7922 -0.0477149
2090 14.7922 -0.0477168
2091 14.7922 -0.0477192
2092 14.7922 -0.0477217
2093 14.7922 -0.0477238
2094 14.7922 -0.0477255
2095 14.7922 -0.0477272
2096 14.7922 -0.0477291
2097 14.7922 -0.0477315
2098 14.7922 -0.047734
2099 14.7922 -0.0477361
2100 14.7922 -0.0477376
2101 14.7922 -0.0477396
2102 14.7922 -0.047742
2103 14.7922 -0.0477445
2104 14.7922 -0.0477466
2105 14.7922 -0.0477483
2106 14.7922 -0.04775
2107 14.7922 -0.0477519
2108 14.7922 -0.0477543
2109 14.7922 -0.0477568
2110 14.7922 -0.0477588
2111 14.7922 -0.0477604
2112 14.7922 -0.0477624
2113 14.7922 -0.0477648
2114 14.7922 -0.0477673
2115 14.7922 -0.0477694
2116 14.7922 -0.047771
2117 14.7922 -0.0477727
2118 14.7922 -0.0477747
2119 14.7922 -0.0477771
2120 14.7922 -0.0477796
2121 14.7922 -0.0477816
2122 14.7922 -0.0477832
2123 14.7922 -0.0477852
2124 14.7922 -0.0477876
2125 14.7922 -0.0477901
2126 14.7922 -0.0477922
2127 14.7922 -0.0477938
2128 14.7922 -0.0477955
2129 14.7922 -0.0477971
2130 14.7922 -0.0477991
2131 14.7922 -0.0478011
2132 14.7922 -0.0478027
2133 14.7922 -0.0478042
2134 14.7922 -0.0478059
2135 14.7922 -0.0478074
2136 14.7922 -0.0478095
2137 14.7922 -0.047812
2138 14.7922 -0.0478144
2139 14.7922 -0.0478164
2140 14.7922 -0.0478182
2141 14.7922 -0.0478208
2142 14.7922 -0.0478233
2143 14.7922 -0.0478256
2144 14.7922 -0.047828
2145 14.7922 -0.04783
2146 14.7922 -0.0478316
2147 14.7922 -0.0478331
2148 14.7922 -0.0478346
2149 14.7922 -0.0478366
2150 14.7922 -0.0478386
2151 14.7922 -0.0478405
2152 14.7922 -0.047843
2153 14.7922 -0.0478455
2154 14.7922 -0.0478479
2155 14.7922 -0.0478499
2156 14.7922 -0.0478515
2157 14.7922 -0.0478531
2158 14.7922 -0.0478551
2159 14.7922 -0.0478576
2160 14.7922 -0.0478601
2161 14.7922 -0.0478625
2162 14.7922 -0.0478649
2163 14.7922 -0.0478672
2164 14.7922 -0.0478692
2165 14.7922 -0.0478707
2166 14.7922 -0.0478723
2167 14.7922 -0.0478738
2168 14.7922 -0.0478757
2169 14.7922 -0.0478778
2170 14.7922 -0.0478797
2171 14.7922 -0.0478822
2172 14.7922 -0.0478844
2173 14.7922 -0.047887
2174 14.7922 -0.047889
2175 14.7922 -0.0478907
2176 14.7922 -0.0478923
2177 14.7922 -0.0478943
2178 14.7922 -0.0478968
2179 14.7922 -0.0478993
2180 14.7922 -0.0479016
2181 14.7922 -0.047904
2182 14.7922 -0.0479063
2183 14.7922 -0.0479083
2184 14.7922 -0.0479099
2185 14.7922 -0.0479114
2186 14.7922 -0.0479129
2187 14.7922 -0.0479149
2188 14.7922 -0.0479169
2189 14.7922 -0.0479188
2190 14.7922 -0.0479213
2191 14.7922 -0.0479238
2192 14.7922 -0.0479262
2193 14.7922 -0.0479281
2194 14.7922 -0.0479298
2195 14.7922 -0.0479314
2196 14.7922 -0.0479334
2197 14.7922 -0.0479359
2198 14.7922 -0.0479384
2199 14.7922 -0.0479408
2200 14.7922 -0.0479431
2201 14.7922 -0.0479454
2202 14.7922 -0.0479474
2203 14.7922 -0.0479489
2204 14.7922 -0.0479505
2205 14.7922 -0.047952
2206 14.7922 -0.047954
2207 14.7922 -0.047956
2208 14.7922 -0.047958
2209 14.7922 -0.0479604
2210 14.7922 -0.0479629
2211 14.7922 -0.0479653
2212 14.7922 -0.0479673
2213 14.7922 -0.0479689
2214 14.7922 -0.0479705
2215 14.7922 -0.0479725
2216 14.7922 -0.047975
2217 14.7922 -0.0479775
2218 14.7922 -0.0479799
2219 14.7922 -0.0479822
2220 14.7922 -0.0479845
2221 14.7922 -0.0479865
2222 14.7922 -0.0479881
2223 14.7922 -0.0479896
2224 14.7922 -0.0479911
2225 14.7922 -0.0479931
2226 14.7922 -0.0479951
2227 14.7922 -0.047997
2228 14.7922 -0.0479995
2229 14.7922 -0.048002
2230 14.7922 -0.0480044
2231 14.7922 -0.0480064
2232 14.7922 -0.048008
2233 14.7922 -0.0480096
2234 14.7922 -0.0480116
2235 14.7922 -0.0480141
2236 14.7922 -0.0480165
2237 14.7922 -0.0480191
2238 14.7922 -0.0480217
2239 14.7922 -0.0480242
2240 14.7922 -0.0480265
2241 14.7922 -0.0480288
2242 14.7922 -0.0480314
2243 14.7922 -0.048034
2244 14.7923 -0.0480364
2245 14.7923 -0.0480388
2246 14.7923 -0.0480411
2247 14.7923 -0.0480436
2248 14.7923 -0.0480462
2249 14.7923 -0.0480487
2250 14.7923 -0.0480511
2251 14.7923 -0.0480534
2252 14.7923 -0.0480559
2253 14.7923 -0.0480585
2254 14.7923 -0.048061
2255 14.7923 -0.0480634
2256 14.7923 -0.0480657
2257 14.7923 -0.0480682
2258 14.7923 -0.0480708
2259 14.7923 -0.0480733
2260 14.7923 -0.0480756
2261 14.7923 -0.048078
2262 14.7923 -0.0480805
2263 14.7923 -0.0480831
2264 14.7923 -0.0480856
2265 14.7923 -0.0480879
2266 14.7923 -0.0480903
2267 14.7923 -0.0480928
2268 14.7923 -0.0480954
2269 14.7923 -0.0480978
2270 14.7923 -0.0481002
2271 14.7923 -0.0481025
2272 14.7923 -0.048105
2273 14.7923 -0.0481076
2274 14.7923 -0.0481101
2275 14.7923 -0.0481125
2276 14.7923 -0.0481148
2277 14.7923 -0.0481173
2278 14.7923 -0.0481199
2279 14.7923 -0.0481224
2280 14.7923 -0.0481247
2281 14.7923 -0.0481271
2282 14.7923 -0.0481296
2283 14.7923 -0.0481322
2284 14.7923 -0.0481347
2285 14.7923 -0.048137
2286 14.7923 -0.0481393
2287 14.7923 -0.0481418
2288 14.7923 -0.0481444
2289 14.7923 -0.0481465
2290 14.7923 -0.0481481
2291 14.7923 -0.0481497
2292 14.7923 -0.0481513
2293 14.7923 -0.0481532
2294 14.7923 -0.0481557
2295 14.7923 -0.0481577
2296 14.7923 -0.0481597
2297 14.7923 -0.0481622
2298 14.7923 -0.0481641
2299 14.7923 -0.048166
2300 14.7923 -0.0481683
2301 14.7923 -0.0481703
2302 14.7923 -0.0481723
2303 14.7923 -0.0481746
2304 14.7923 -0.048177
2305 14.7923 -0.048179
2306 14.7923 -0.048181
2307 14.7923 -0.048183
2308 14.7923 -0.0481846
2309 14.7923 -0.0481861
2310 14.7923 -0.048188
2311 14.7923 -0.0481905
2312 14.7923 -0.0481929
2313 14.7923 -0.0481953
2314 14.7923 -0.0481977
2315 14.7923 -0.0482001
2316 14.7923 -0.048202
2317 14.7923 -0.0482036
2318 14.7923 -0.0482053
2319 14.7923 -0.0482073
2320 14.7923 -0.0482093
2321 14.7923 -0.0482114
2322 14.7923 -0.0482138
2323 14.7923 -0.0482162
2324 14.7923 -0.0482187
2325 14.7923 -0.0482206
2326 14.7923 -0.0482225
2327 14.7923 -0.0482248
2328 14.7923 -0.0482268
2329 14.7923 -0.0482287
2330 14.7923 -0.048231
2331 14.7923 -0.0482334
2332 14.7923 -0.0482354
2333 14.7923 -0.0482375
2334 14.7923 -0.0482398
2335 14.7923 -0.0482417
2336 14.7923 -0.0482434
2337 14.7923 -0.0482451
2338 14.7923 -0.0482467
2339 14.7923 -0.0482486
2340 14.7923 -0.048251
2341 14.7923 -0.0482535
2342 14.7923 -0.0482555
2343 14.7923 -0.0482576
2344 14.7923 -0.04826
2345 14.7923 -0.0482619
2346 14.7923 -0.0482638
2347 14.7923 -0.0482658
2348 14.7923 -0.0482679
2349 14.7923 -0.0482704
2350 14.7923 -0.0482725
2351 14.7923 -0.0482746
2352 14.7923 -0.048277
2353 14.7923 -0.048279
2354 14.7923 -0.0482811
2355 14.7923 -0.0482831
2356 14.7923 -0.0482848
2357 14.7923 -0.0482869
2358 14.7923 -0.0482888
2359 14.7923 -0.0482904
2360 14.7923 -0.0482919
2361 14.7923 -0.0482938
2362 14.7923 -0.048296
2363 14.7923 -0.0482983
2364 14.7923 -0.0483006
2365 14.7923 -0.0483029
2366 14.7923 -0.0483053
2367 14.7923 -0.0483073
2368 14.7923 -0.0483093
2369 14.7923 -0.0483118
2370 14.7923 -0.0483137
2371 14.7923 -0.0483152
2372 14.7923 -0.0483171
2373 14.7923 -0.0483195
2374 14.7923 -0.0483221
2375 14.7923 -0.0483246
2376 14.7923 -0.0483271
2377 14.7923 -0.0483296
2378 14.7923 -0.0483322
2379 14.7923 -0.0483341
2380 14.7923 -0.0483356
2381 14.7923 -0.048337
2382 14.7923 -0.048339
2383 14.7923 -0.0483415
2384 14.7923 -0.048344
2385 14.7923 -0.0483465
2386 14.7923 -0.0483485
2387 14.7923 -0.0483501
2388 14.7923 -0.0483523
2389 14.7923 -0.0483548
2390 14.7923 -0.0483573
2391 14.7923 -0.0483593
2392 14.7923 -0.0483609
2393 14.7923 -0.048363
2394 14.7923 -0.0483656
2395 14.7923 -0.0483681
2396 14.7923 -0.0483701
2397 14.7923 -0.0483717
2398 14.7923 -0.0483738
2399 14.7923 -0.0483758
2400 14.7923 -0.0483772
2401 14.7923 -0.0483787
2402 14.7923 -0.0483806
2403 14.7923 -0.0483831
2404 14.7923 -0.0483856
2405 14.7924 -0.0483879
2406 14.7924 -0.0483903
2407 14.7924 -0.0483928
2408 14.7924 -0.0483951
2409 14.7924 -0.0483973
2410 14.7924 -0.0483993
2411 14.7924 -0.0484009
2412 14.7924 -0.0484025
2413 14.7924 -0.0484044
2414 14.7924 -0.0484068
2415 14.7924 -0.0484092
2416 14.7924 -0.0484115
2417 14.7924 -0.0484133
2418 14.7924 -0.0484148
2419 14.7924 -0.0484163
2420 14.7924 -0.0484184
2421 14.7924 -0.0484208
2422 14.7924 -0.0484233
2423 14.7924 -0.0484258
2424 14.7924 -0.0484278
2425 14.7924 -0.0484294
2426 14.7924 -0.0484313
2427 14.7924 -0.0484332
2428 14.7924 -0.0484347
2429 14.7924 -0.0484363
2430 14.7924 -0.0484379
2431 14.7924 -0.0484398
2432 14.7924 -0.0484417
2433 14.7924 -0.0484433
2434 14.7924 -0.0484449
2435 14.7924 -0.0484464
2436 14.7924 -0.0484483
2437 14.7924 -0.0484502
2438 14.7924 -0.0484518
2439 14.7924 -0.0484534
2440 14.7924 -0.048455
2441 14.7924 -0.0484569
2442 14.7924 -0.0484588
2443 14.7924 -0.0484603
2444 14.7924 -0.0484619
2445 14.7924 -0.0484635
2446 14.7924 -0.0484654
2447 14.7924 -0.0484673
2448 14.7924 -0.0484689
2449 14.7924 -0.0484705
2450 14.7924 -0.048472
2451 14.7924 -0.0484739
2452 14.7924 -0.0484759
2453 14.7924 -0.0484774
2454 14.7924 -0.048479
2455 14.7924 -0.0484806
2456 14.7924 -0.0484825
2457 14.7924 -0.0484844
2458 14.7924 -0.0484859
2459 14.7924 -0.0484875
2460 14.7924 -0.0484891
2461 14.7924 -0.048491
2462 14.7924 -0.0484929
2463 14.7924 -0.0484945
2464 14.7924 -0.0484961
2465 14.7924 -0.0484977
2466 14.7924 -0.0484996
2467 14.7924 -0.0485015
2468 14.7924 -0.048503
2469 14.7924 -0.0485046
2470 14.7924 -0.0485062
2471 14.7924 -0.0485081
2472 14.7924 -0.04851
2473 14.7924 -0.0485115
2474 14.7924 -0.0485131
2475 14.7924 -0.0485147
2476 14.7924 -0.0485166
2477 14.7924 -0.0485185
2478 14.7924 -0.0485201
2479 14.7924 -0.0485217
2480 14.7924 -0.0485232
2481 14.7924 -0.0485252
2482 14.7924 -0.0485271
2483 14.7924 -0.0485286
2484 14.7924 -0.0485302
2485 14.7924 -0.0485318
2486 14.7924 -0.0485337
2487 14.7924 -0.0485356
2488 14.7924 -0.0485371
2489 14.7924 -0.0485387
2490 14.7924 -0.0485403
2491 14.7924 -0.0485422
2492 14.7924 -0.0485441
2493 14.7924 -0.0485456
2494 14.7924 -0.0485473
2495 14.7924 -0.0485489
2496 14.7924 -0.0485508
2497 14.7924 -0.0485527
2498 14.7924 -0.0485542
2499 14.7924 -0.0485558
2500 14.7924 -0.0485574
2501 14.7924 -0.0485593
2502 14.7924 -0.0485612
2503 14.7924 -0.0485627
2504 14.7924 -0.0485643
2505 14.7924 -0.0485659
2506 14.7924 -0.0485678
2507 14.7924 -0.0485697
2508 14.7924 -0.0485713
2509 14.7924 -0.0485734
2510 14.7924 -0.0485754
2511 14.7924 -0.0485773
2512 14.7924 -0.0485798
2513 14.7924 -0.0485822
2514 14.7924 -0.0485843
2515 14.7924 -0.0485859
2516 14.7924 -0.048588
2517 14.7924 -0.0485905
2518 14.7924 -0.0485929
2519 14.7924 -0.0485949
2520 14.7924 -0.0485968
2521 14.7924 -0.0485993
2522 14.7924 -0.0486018
2523 14.7924 -0.0486036
2524 14.7924 -0.0486053
2525 14.7924 -0.0486074
2526 14.7924 -0.0486099
2527 14.7924 -0.0486121
2528 14.7924 -0.048614
2529 14.7924 -0.0486156
2530 14.7924 -0.0486177
2531 14.7924 -0.0486201
2532 14.7924 -0.0486223
2533 14.7924 -0.0486247
2534 14.7924 -0.0486271
2535 14.7924 -0.048629
2536 14.7924 -0.0486305
2537 14.7924 -0.0486321
2538 14.7924 -0.048634
2539 14.7924 -0.048636
2540 14.7924 -0.0486374
2541 14.7924 -0.048639
2542 14.7924 -0.048641
2543 14.7924 -0.0486433
2544 14.7924 -0.0486452
2545 14.7924 -0.0486472
2546 14.7924 -0.048649
2547 14.7924 -0.0486505
2548 14.7924 -0.0486521
2549 14.7924 -0.0486539
2550 14.7924 -0.0486556
2551 14.7924 -0.0486573
2552 14.7924 -0.0486589
2553 14.7924 -0.0486608
2554 14.7924 -0.0486632
2555 14.7924 -0.0486651
2556 14.7924 -0.0486667
2557 14.7924 -0.0486683
2558 14.7924 -0.04867
2559 14.7924 -0.0486719
2560 14.7924 -0.0486738
2561 14.7924 -0.0486754
2562 14.7924 -0.0486769
2563 14.7924 -0.0486789
2564 14.7924 -0.0486812
2565 14.7924 -0.0486831
2566 14.7924 -0.048685
2567 14.7924 -0.0486869
2568 14.7924 -0.0486884
2569 14.7924 -0.04869
2570 14.7924 -0.0486917
2571 14.7924 -0.0486933
2572 14.7924 -0.0486952
2573 14.7924 -0.0486975
2574 14.7924 -0.0486999
2575 14.7924 -0.048702
2576 14.7924 -0.0487036
2577 14.7924 -0.0487052
2578 14.7924 -0.0487069
2579 14.7924 -0.048709
2580 14.7924 -0.0487115
2581 14.7924 -0.048714
2582 14.7924 -0.0487163
2583 14.7924 -0.0487187
2584 14.7924 -0.0487206
2585 14.7924 -0.0487222
2586 14.7924 -0.0487237
2587 14.7924 -0.0487254
2588 14.7924 -0.048727
2589 14.7924 -0.0487285
2590 14.7924 -0.0487305
2591 14.7924 -0.048733
2592 14.7925 -0.0487354
2593 14.7925 -0.0487377
2594 14.7925 -0.04874
2595 14.7925 -0.048742
2596 14.7925 -0.0487436
2597 14.7925 -0.0487453
2598 14.7925 -0.0487474
2599 14.7925 -0.04875
2600 14.7925 -0.0487524
2601 14.7925 -0.0487547
2602 14.7925 -0.0487571
2603 14.7925 -0.048759
2604 14.7925 -0.0487606
2605 14.7925 -0.0487622
2606 14.7925 -0.0487638
2607 14.7925 -0.0487654
2608 14.7925 -0.048767
2609 14.7925 -0.0487689
2610 14.7925 -0.0487714
2611 14.7925 -0.0487738
2612 14.7925 -0.0487761
2613 14.7925 -0.0487784
2614 14.7925 -0.0487804
2615 14.7925 -0.048782
2616 14.7925 -0.0487837
2617 14.7925 -0.0487858
2618 14.7925 -0.0487883
2619 14.7925 -0.0487907
2620 14.7925 -0.0487931
2621 14.7925 -0.0487954
2622 14.7925 -0.0487974
2623 14.7925 -0.0487989
2624 14.7925 -0.0488005
2625 14.7925 -0.0488021
2626 14.7925 -0.0488038
2627 14.7925 -0.0488053
2628 14.7925 -0.0488073
2629 14.7925 -0.0488098
2630 14.7925 -0.0488121
2631 14.7925 -0.0488145
2632 14.7925 -0.0488168
2633 14.7925 -0.0488187
2634 14.7925 -0.0488204
2635 14.7925 -0.048822
2636 14.7925 -0.0488242
2637 14.7925 -0.0488267
2638 14.7925 -0.0488291
2639 14.7925 -0.0488314
2640 14.7925 -0.0488338
2641 14.7925 -0.0488357
2642 14.7925 -0.0488373
2643 14.7925 -0.0488388
2644 14.7925 -0.0488405
2645 14.7925 -0.0488421
2646 14.7925 -0.0488436
2647 14.7925 -0.0488456
2648 14.7925 -0.0488481
2649 14.7925 -0.0488505
2650 14.7925 -0.0488528
2651 14.7925 -0.0488551
2652 14.7925 -0.048857
2653 14.7925 -0.0488587
2654 14.7925 -0.0488603
2655 14.7925 -0.0488624
2656 14.7925 -0.048865
2657 14.7925 -0.0488674
2658 14.7925 -0.0488697
2659 14.7925 -0.0488721
2660 14.7925 -0.048874
2661 14.7925 -0.0488756
2662 14.7925 -0.0488775
2663 14.7925 -0.04888
2664 14.7925 -0.0488824
2665 14.7925 -0.0488843
2666 14.7925 -0.0488858
2667 14.7925 -0.0488874
2668 14.7925 -0.0488896
2669 14.7925 -0.0488921
2670 14.7925 -0.0488944
2671 14.7925 -0.0488968
2672 14.7925 -0.0488991
2673 14.7925 -0.048901
2674 14.7925 -0.0489026
2675 14.7925 -0.0489047
2676 14.7925 -0.048907
2677 14.7925 -0.048909
2678 14.7925 -0.0489105
2679 14.7925 -0.0489121
2680 14.7925 -0.0489142
2681 14.7925 -0.0489167
2682 14.7925 -0.0489191
2683 14.7925 -0.0489213
2684 14.7925 -0.0489233
2685 14.7925 -0.048925
2686 14.7925 -0.0489269
2687 14.7925 -0.0489293
2688 14.7925 -0.0489315
2689 14.7925 -0.0489333
2690 14.7925 -0.0489353
2691 14.7925 -0.0489377
2692 14.7925 -0.0489401
2693 14.7925 -0.0489425
2694 14.7925 -0.0489444
2695 14.7925 -0.048946
2696 14.7925 -0.0489482
2697 14.7925 -0.0489506
2698 14.7925 -0.048953
2699 14.7925 -0.0489552
2700 14.7925 -0.0489571
2701 14.7925 -0.0489589
2702 14.7925 -0.0489609
2703 14.7925 -0.0489632
2704 14.7925 -0.0489654
2705 14.7925 -0.0489672
2706 14.7925 -0.0489692
2707 14.7925 -0.0489716
2708 14.7925 -0.048974
2709 14.7925 -0.0489764
2710 14.7925 -0.0489783
2711 14.7925 -0.0489798
2712 14.7925 -0.0489817
2713 14.7925 -0.048984
2714 14.7925 -0.048986
2715 14.7925 -0.0489877
2716 14.7925 -0.0489898
2717 14.7925 -0.0489922
2718 14.7925 -0.0489945
2719 14.7925 -0.0489968
2720 14.7925 -0.0489987
2721 14.7925 -0.0490006
2722 14.7925 -0.0490027
2723 14.7925 -0.0490042
2724 14.7925 -0.0490059
2725 14.7925 -0.049008
2726 14.7925 -0.0490105
2727 14.7925 -0.0490128
2728 14.7925 -0.0490147
2729 14.7925 -0.0490163
2730 14.7925 -0.0490183
2731 14.7925 -0.0490206
2732 14.7925 -0.0490226
2733 14.7925 -0.0490242
2734 14.7925 -0.0490258
2735 14.7925 -0.0490279
2736 14.7925 -0.0490303
2737 14.7925 -0.0490327
2738 14.7925 -0.0490349
2739 14.7925 -0.0490373
2740 14.7925 -0.0490396
2741 14.7925 -0.0490418
2742 14.7925 -0.0490438
2743 14.7925 -0.0490455
2744 14.7925 -0.0490471
2745 14.7925 -0.0490492
2746 14.7925 -0.0490515
2747 14.7925 -0.0490538
2748 14.7925 -0.0490562
2749 14.7925 -0.0490581
2750 14.7925 -0.0490601
2751 14.7925 -0.049062
2752 14.7925 -0.0490642
2753 14.7925 -0.0490666
2754 14.7925 -0.049069
2755 14.7925 -0.0490709
2756 14.7925 -0.0490729
2757 14.7926 -0.049075
2758 14.7926 -0.0490771
2759 14.7926 -0.0490796
2760 14.7926 -0.049082
2761 14.7926 -0.0490845
2762 14.7926 -0.0490865
2763 14.7926 -0.0490881
2764 14.7926 -0.0490896
2765 14.7926 -0.0490911
2766 14.7926 -0.0490928
