1389 5.41518
1401 4.65117
1404 4.44503
1406 4.30748
1408 4.19989
1410 4.09465
1412 3.98683
1414 3.88134
1416 3.80556
1418 3.66976
1420 3.56247
1422 3.45748
1424 3.34987
1426 3.27382
1428 3.19819
1430 3.13121
1432 3.06978
1434 2.99879
1436 2.93019
1446 2.85343
1460 2.82002
1469 2.77973
1471 2.77956
1473 2.73884
1475 2.6961
1477 2.65111
1479 2.64923
1481 2.61041
1483 2.57224
1485 2.52701
1487 2.48508
1489 2.44745
1491 2.4112
1493 2.37065
1495 2.33164
1497 2.29549
1499 2.26131
1501 2.22831
1503 2.19643
1505 2.15564
1507 2.13833
1509 2.10918
1511 2.0753
1513 2.04589
1515 2.01965
1517 2.0043
1519 1.99544
1521 1.99199
1605 1.30479
1607 1.30016
1609 1.21205
1611 1.08084
1613 0.951132
1615 0.908551
1622 0.840637
1636 0.82496
1710 0.235305
1711 0.214266
1712 0.213303
1731 0.2133
1732 0.213295
1733 0.21329
1734 0.213286
1735 0.213283
1736 0.21328
1737 0.213276
1738 0.213274
1739 0.213272
1740 0.213271
1741 0.21327
1742 0.213269
1743 0.213268
1744 0.213267
1745 0.213266
1746 0.213265
1747 0.213264
1748 0.213264
1749 0.213263
1750 0.213263
1751 0.213262
1752 0.213262
1753 0.213261
1754 0.213261
612 0.0350143
2614 0.035012
2616 0.0350118
2617 0.0350099
2619 0.0350015
2620 0.0350011
2621 0.0350006
2624 0.0349981
2625 0.0349957
2627 0.0349932
2632 0.0349884
2634 0.0349862
2636 0.0349845
2637 0.0349831
2639 0.0349789
2641 0.0349773
2642 0.0349761
2643 0.0349705
2644 0.0349701
2645 0.0349672
2647 0.0349653
2653 0.0349574
2655 0.0349552
2657 0.0349534
2658 0.0349521
2660 0.0349479
2662 0.0349463
2663 0.0349452
2664 0.0349395
2665 0.0349394
2669 0.034938
2672 0.0349352
2673 0.0349348
2674 0.0349326
2675 0.0349318
2677 0.0349309
2678 0.0349295
2679 0.0349269
2682 0.0349167
2686 0.034916
2690 0.0349124
2691 0.0349114
2692 0.0349091
2693 0.0349085
2696 0.0349043
2703 0.0348996
2704 0.0348939
2723 0.0348905
2725 0.0348857
2726 0.0348814
2727 0.034875
2728 0.034875
2730 0.0348723
2731 0.0348631
2732 0.0348546
2735 0.0348513
2736 0.0348487
2739 0.0348477
2740 0.0348471
2741 0.0348448
2742 0.0348434
2743 0.0348415
2744 0.0348371
2749 0.0348369
2750 0.0348356
2751 0.0348344
2752 0.034834
2753 0.0348233
2755 0.0348206
2758 0.0348196
2759 0.0348189
2760 0.0348187
2764 0.0348091
