1 -1.57774e-06 0.000743298
2 -1.87288e-06 0.000669674
3 -1.91532e-05 -0.000962951
4 -2.12854e-05 -0.000737675
5 -7.50119e-05 -0.0012019
6 6.46033e-05 -0.000423751
7 0.000700731 0.00140371
8 0.00189606 0.00326899
9 0.00208162 0.00407095
10 0.0082626 0.00871092
11 0.00838316 0.00860647
12 0.0157721 0.0102368
13 0.0159138 0.0101104
14 0.022105 0.00913163
15 0.0221884 0.00900589
16 0.0242685 0.00749445
17 0.162549 -0.0103521
18 0.164965 -0.0121581
19 0.232265 -0.0303771
20 0.366149 -0.0608688
21 0.368595 -0.0621026
22 0.43683 -0.0747978
23 0.493991 -0.094896
24 0.491715 -0.096045
25 0.491896 -0.0959736
26 0.491819 -0.0957473
27 0.491815 -0.0956241
28 0.491526 -0.0955225
29 0.492963 -0.0951942
30 0.574113 -0.0876075
31 0.646319 -0.0824213
32 0.715428 -0.0765872
33 0.717729 -0.0764821
34 0.852535 -0.0625834
35 0.920759 -0.0547677
36 0.923252 -0.0545252
37 0.991605 -0.0462534
38 1.1259 -0.0289513
39 1.12856 -0.0286269
40 1.26232 -0.010448
41 1.24737 -0.0132252
42 1.33689 0.000750726
43 1.40611 0.0114554
44 1.4742 0.0219825
45 1.54222 0.0324645
46 1.61024 0.0429113
47 1.61308 0.0433393
48 1.74639 0.063706
49 1.74928 0.0641402
50 1.81734 0.0744812
51 1.9506 0.0946986
52 1.93484 0.0921028
53 2.02437 0.106267
54 2.09379 0.116717
55 2.16155 0.126045
56 2.16478 0.126444
57 2.23321 0.134946
58 2.30169 0.142609
59 2.43581 0.155468
60 2.43879 0.155687
61 2.57286 0.166156
62 2.6414 0.170717
63 2.61594 0.167294
64 2.71513 0.175197
65 2.78475 0.179528
66 2.85339 0.183507
67 2.85656 0.183666
68 2.99123 0.190865
69 2.99429 0.190994
70 3.1289 0.197472
71 3.19771 0.200545
72 3.17174 0.197975
73 3.21049 0.201052
74 3.27816 0.204362
75 3.41259 0.210719
76 3.48142 0.213832
77 3.54999 0.216825
78 3.55179 0.216111
79 3.56877 0.216514
80 3.58438 0.2164
81 3.59734 0.215648
82 3.59728 0.215549
83 3.60527 0.214385
84 3.60902 0.213425
85 3.61163 0.213053
86 3.61389 0.212487
87 3.61777 0.211036
88 3.62101 0.209362
89 3.62173 0.209207
90 3.62414 0.207735
91 3.62846 0.20424
92 3.63099 0.201784
93 3.6318 0.201445
94 3.63554 0.196091
95 3.63612 0.195741
96 3.63913 0.189391
97 3.64027 0.185792
98 3.64101 0.182367
99 3.64148 0.178913
100 3.64153 0.175974
101 3.64137 0.173367
102 3.64167 0.172903
103 3.64046 0.168346
104 3.63989 0.166638
105 3.63916 0.16452
106 3.63925 0.16414
107 3.63706 0.160869
108 3.63538 0.158019
109 3.6392 0.137215
110 3.55013 0.0397261
111 3.54762 0.0381786
112 3.49929 -0.0118927
113 3.40527 -0.110486
114 3.35737 -0.160549
115 3.3096 -0.210826
116 3.30737 -0.212567
117 3.21452 -0.311666
118 3.1674 -0.362002
119 3.16838 -0.347511
120 3.16445 -0.352201
121 3.16113 -0.35744
122 3.15907 -0.362338
123 3.1588 -0.363161
124 3.15782 -0.368448
125 3.1584 -0.372142
126 3.15829 -0.372355
127 3.15985 -0.375909
128 3.16174 -0.377378
129 3.16324 -0.378049
130 3.16341 -0.378864
131 3.16626 -0.379376
132 3.17158 -0.3789
133 3.23373 -0.378717
134 3.30185 -0.360249
135 3.36834 -0.339455
136 3.43509 -0.319956
137 3.43802 -0.318652
138 3.4942 -0.293654
139 3.52356 -0.286471
140 3.53221 -0.284967
141 3.54135 -0.284612
142 3.54455 -0.284383
143 3.54648 -0.284619
144 3.54788 -0.284977
145 3.54828 -0.285123
146 3.5515 -0.286394
147 3.55369 -0.287497
148 3.55431 -0.287764
149 3.55952 -0.291206
150 3.55977 -0.291364
151 3.5623 -0.29339
152 3.56477 -0.295774
153 3.56835 -0.300169
154 3.56892 -0.300599
155 3.57247 -0.306557
156 3.57397 -0.309908
157 3.57492 -0.312828
158 3.57591 -0.316368
159 3.57635 -0.319415
160 3.57662 -0.322652
161 3.57656 -0.325989
162 3.57612 -0.328817
163 3.57621 -0.329052
164 3.5747 -0.333787
165 3.57395 -0.335506
166 3.57406 -0.336001
167 3.57112 -0.34116
168 3.571 -0.341157
169 3.56938 -0.3435
170 3.56538 -0.34784
171 3.52045 -0.413076
172 3.46896 -0.461753
173 3.41737 -0.50856
174 3.41495 -0.509847
175 3.31503 -0.602902
176 3.26477 -0.650312
177 3.2148 -0.698196
178 3.21261 -0.699747
179 3.16306 -0.748007
180 3.06669 -0.843755
181 3.07505 -0.823771
182 3.06927 -0.829938
183 3.06004 -0.841365
184 3.05965 -0.842157
185 3.05531 -0.85527
186 3.05555 -0.861381
187 3.05637 -0.860723
188 3.05641 -0.860578
189 3.05397 -0.857977
190 3.05372 -0.85892
191 3.05381 -0.860393
192 3.05389 -0.861079
193 3.05857 -0.881993
194 3.17696 -0.929848
195 3.17997 -0.930081
196 3.30541 -0.98162
197 3.36759 -1.00952
198 3.4293 -1.03974
199 3.49029 -1.07186
200 3.4825 -1.05648
201 3.49585 -1.06276
202 3.49605 -1.06298
203 3.50007 -1.06662
204 3.50065 -1.06738
205 3.50467 -1.07204
206 3.50657 -1.07475
207 3.50828 -1.07754
208 3.50869 -1.07816
209 3.51044 -1.08148
210 3.51191 -1.08509
211 3.51302 -1.08844
212 3.51374 -1.09168
213 3.5142 -1.09777
214 3.51431 -1.09818
215 3.51344 -1.10349
216 3.51353 -1.10395
217 3.51198 -1.10837
218 3.5107 -1.11151
219 3.50929 -1.11376
220 3.5077 -1.11623
221 3.50873 -1.14082
222 3.46741 -1.19118
223 3.3768 -1.29311
224 3.33109 -1.34461
225 3.32893 -1.34621
226 3.24049 -1.44922
227 3.19612 -1.50175
228 3.15204 -1.55492
229 3.15004 -1.5569
230 3.10632 -1.61038
231 3.07185 -1.63956
232 3.06387 -1.65032
233 3.06065 -1.65625
234 3.05852 -1.66238
235 3.05831 -1.6631
236 3.05754 -1.66912
237 3.05868 -1.67322
238 3.05868 -1.67316
239 3.05756 -1.67434
240 3.05954 -1.67663
241 3.06443 -1.67936
242 3.06808 -1.68086
243 3.07124 -1.6814
244 3.13626 -1.70363
245 3.20653 -1.7071
246 3.27604 -1.70928
247 3.3443 -1.71333
248 3.41326 -1.72074
249 3.48131 -1.73073
250 3.48697 -1.72113
251 3.49576 -1.72249
252 3.50248 -1.72436
253 3.50243 -1.72417
254 3.50604 -1.72536
255 3.50775 -1.72641
256 3.51299 -1.72998
257 3.5131 -1.73007
258 3.51745 -1.73395
259 3.51786 -1.73432
260 3.52004 -1.73674
261 3.52347 -1.74124
262 3.52388 -1.74168
263 3.52701 -1.74738
264 3.52838 -1.75073
265 3.5286 -1.7511
266 3.5305 -1.75816
267 3.53074 -1.7612
268 3.53098 -1.76502
269 3.53112 -1.76544
270 3.53004 -1.77144
271 3.52942 -1.77344
272 3.52877 -1.77536
273 3.52882 -1.77571
274 3.52671 -1.78
275 3.52673 -1.78054
276 3.52486 -1.78345
277 3.52085 -1.78804
278 3.47755 -1.8545
279 3.4266 -1.90349
280 3.4241 -1.90478
281 3.32307 -1.99659
282 3.32071 -1.99784
283 3.22049 -2.08977
284 3.16956 -2.13666
285 3.11887 -2.18368
286 3.06837 -2.23089
287 3.06617 -2.23248
288 3.01929 -2.26467
289 3.01389 -2.27049
290 3.01 -2.27573
291 3.00688 -2.28192
292 3.00665 -2.2825
293 3.00536 -2.28976
294 3.00554 -2.29182
295 3.00536 -2.29248
296 3.00595 -2.29412
297 3.00127 -2.31772
298 3.06828 -2.4227
299 3.10896 -2.4793
300 3.14907 -2.5358
301 3.18802 -2.59318
302 3.18988 -2.59524
303 3.22706 -2.65349
304 3.29465 -2.77078
305 3.32666 -2.83155
306 3.33153 -2.8262
307 3.33385 -2.82967
308 3.33384 -2.82933
309 3.33503 -2.8333
310 3.33612 -2.83963
311 3.33622 -2.84291
312 3.33629 -2.8436
313 3.33608 -2.8462
314 3.33544 -2.8491
315 3.33487 -2.85129
316 3.33377 -2.85425
317 3.3337 -2.85492
318 3.29776 -2.93141
319 3.25652 -2.98976
320 3.21589 -3.04547
321 3.17574 -3.10143
322 3.17397 -3.10317
323 3.09773 -3.21455
324 3.09604 -3.21653
325 3.02251 -3.32953
326 2.98572 -3.38795
327 2.94957 -3.44646
328 2.94802 -3.44871
329 2.91701 -3.48982
330 2.91371 -3.49609
331 2.91107 -3.50288
332 2.90959 -3.50943
333 2.90932 -3.51563
334 2.9091 -3.51677
335 2.91033 -3.52135
336 2.91051 -3.52404
337 2.91113 -3.52684
338 2.91195 -3.53131
339 2.91209 -3.53525
340 2.91199 -3.53611
341 2.9121 -3.53916
342 2.91204 -3.54012
343 2.91212 -3.53852
344 2.91201 -3.53947
345 2.91181 -3.54116
346 2.9101 -3.54779
347 2.91 -3.54819
348 2.90763 -3.55323
349 2.9074 -3.55412
350 2.90541 -3.55741
351 2.90315 -3.56053
352 2.89878 -3.56522
353 2.89643 -3.5674
354 2.89625 -3.56766
355 2.89135 -3.57117
356 2.89112 -3.57143
357 2.88485 -3.5746
358 2.88463 -3.57475
359 2.88116 -3.57583
360 2.87429 -3.57732
361 2.87414 -3.57731
362 2.86772 -3.5775
363 2.86451 -3.57728
364 2.78771 -3.58346
365 2.78276 -3.58422
366 2.71518 -3.57189
367 2.57987 -3.54948
368 2.51143 -3.53909
369 2.44265 -3.52981
370 2.44018 -3.52897
371 2.305 -3.51406
372 2.30253 -3.51338
373 2.16757 -3.5013
374 2.09886 -3.49584
375 2.12056 -3.48951
376 2.10938 -3.48915
377 2.08817 -3.48857
378 2.07798 -3.48933
379 2.06826 -3.4909
380 2.0585 -3.49354
381 2.04909 -3.4974
382 2.04061 -3.50252
383 2.04108 -3.50363
384 2.03837 -3.50635
385 2.03652 -3.50919
386 2.03497 -3.51245
387 2.034 -3.51573
388 2.03345 -3.51876
389 2.01366 -3.59187
390 2.02454 -3.61732
391 2.02733 -3.61632
392 2.02937 -3.63753
393 2.02971 -3.66481
394 2.03145 -3.66305
395 2.03058 -3.66793
396 2.03055 -3.66799
397 2.02967 -3.66951
398 2.02845 -3.67187
399 2.02511 -3.67685
400 2.02263 -3.67996
401 2.0204 -3.68235
402 2.01763 -3.68497
403 2.01488 -3.68721
404 2.01308 -3.68838
405 2.01266 -3.68881
406 2.00994 -3.69053
407 2.00687 -3.69205
408 2.00046 -3.6943
409 1.99665 -3.6951
410 1.99311 -3.69535
411 1.99275 -3.69548
412 1.98603 -3.6947
413 1.98287 -3.69402
414 1.98059 -3.69322
415 1.98038 -3.69322
416 1.90353 -3.6791
417 1.8375 -3.6511
418 1.83556 -3.64931
419 1.71109 -3.59351
420 1.70913 -3.59189
421 1.64558 -3.56405
422 1.58177 -3.53656
423 1.51806 -3.5101
424 1.3923 -3.46003
425 1.3279 -3.43521
426 1.26338 -3.41086
427 1.27875 -3.40841
428 1.27752 -3.40822
429 1.26117 -3.40367
430 1.25237 -3.40286
431 1.25146 -3.40284
432 1.23662 -3.40466
433 1.23619 -3.40476
434 1.23266 -3.40711
435 1.22907 -3.4091
436 1.2269 -3.41168
437 1.22544 -3.41458
438 1.22467 -3.41747
439 1.22422 -3.42053
440 1.22393 -3.4208
441 1.20563 -3.43158
442 1.21194 -3.49768
443 1.2296 -3.63315
444 1.23064 -3.63602
445 1.23773 -3.70456
446 1.24624 -3.84066
447 1.24789 -3.91008
448 1.25742 -3.89819
449 1.25753 -3.93104
450 1.25833 -3.93009
451 1.25738 -3.94111
452 1.2572 -3.94194
453 1.25627 -3.9441
454 1.25606 -3.94455
455 1.2543 -3.94767
456 1.25201 -3.95118
457 1.25031 -3.95332
458 1.24815 -3.95577
459 1.24547 -3.95845
460 1.24274 -3.96078
461 1.23997 -3.96283
462 1.23969 -3.96312
463 1.23415 -3.96625
464 1.23106 -3.96753
465 1.23074 -3.96776
466 1.22764 -3.96875
467 1.22135 -3.96966
468 1.21738 -3.96988
469 1.21419 -3.96952
470 1.21118 -3.96891
471 1.20893 -3.96815
472 1.20763 -3.96751
473 1.20426 -3.96646
474 1.20084 -3.96478
475 1.1989 -3.96332
476 1.17619 -3.96737
477 1.06906 -3.89147
478 1.06734 -3.88928
479 0.957719 -3.80817
480 0.902159 -3.76674
481 0.846509 -3.72545
482 0.790948 -3.68436
483 0.735216 -3.64336
484 0.679563 -3.60253
485 0.623768 -3.56178
486 0.645196 -3.56613
487 0.632103 -3.5572
488 0.625507 -3.55389
489 0.618196 -3.55156
490 0.610778 -3.55055
491 0.604353 -3.55096
492 0.599348 -3.55249
493 0.602543 -3.55214
494 0.600367 -3.5519
495 0.597985 -3.5536
496 0.595899 -3.55598
497 0.593715 -3.56152
498 0.59296 -3.56488
499 0.592775 -3.56509
500 0.592629 -3.56809
501 0.586535 -3.6342
502 0.585385 -3.63851
503 0.61112 -3.77272
504 0.622049 -3.84117
505 0.630399 -3.91012
506 0.64152 -3.91679
507 0.642903 -3.92546
508 0.643151 -3.93018
509 0.643279 -3.93113
510 0.643132 -3.93144
511 0.642338 -3.93364
512 0.641416 -3.93558
513 0.640227 -3.93774
514 0.638104 -3.94104
515 0.636263 -3.94344
516 0.634294 -3.94572
517 0.632556 -3.94746
518 0.630158 -3.94971
519 0.62977 -3.95021
520 0.624643 -3.9541
521 0.557853 -4.00823
522 0.554411 -4.01083
523 0.439793 -4.08373
524 0.381088 -4.12019
525 0.322515 -4.15654
526 0.263859 -4.19298
527 0.205336 -4.22936
528 0.146809 -4.2658
529 0.144514 -4.26702
530 0.0298493 -4.33881
531 0.040969 -4.32632
532 0.0344256 -4.33089
533 0.0286216 -4.33604
534 0.0290231 -4.33574
535 0.0250383 -4.34207
536 0.0241808 -4.34551
537 0.0242767 -4.34792
538 0.0246203 -4.34921
539 0.0246476 -4.34963
540 0.0245092 -4.34986
541 0.0253813 -4.35221
542 0.0683789 -4.39357
543 0.134997 -4.42622
544 0.20059 -4.45057
545 0.203875 -4.45091
546 0.327184 -4.50447
547 0.388646 -4.5348
548 0.397809 -4.52558
549 0.400518 -4.52555
550 0.400791 -4.52603
551 0.405256 -4.52977
552 0.40708 -4.53183
553 0.409143 -4.53449
554 0.411335 -4.53766
555 0.413075 -4.5405
556 0.413326 -4.54098
557 0.414906 -4.54403
558 0.417508 -4.55088
559 0.418321 -4.55431
560 0.418455 -4.55473
561 0.418941 -4.56093
562 0.418743 -4.56427
563 0.418272 -4.56737
564 0.417687 -4.56922
565 0.417112 -4.57101
566 0.416276 -4.57338
567 0.416281 -4.57395
568 0.414974 -4.57698
569 0.411387 -4.58176
570 0.41007 -4.60595
571 0.326956 -4.70781
572 0.2813 -4.75986
573 0.235686 -4.81184
574 0.190091 -4.86386
575 0.188047 -4.86548
576 0.144398 -4.9156
577 0.0540736 -5.02049
578 0.0520997 -5.0223
579 0.00715458 -5.07465
580 -0.0805881 -5.17778
581 -0.0718277 -5.15582
582 -0.0818963 -5.16852
583 -0.0859282 -5.17531
584 -0.088961 -5.18291
585 -0.0904121 -5.1904
586 -0.0897669 -5.19158
587 -0.0895631 -5.19275
588 -0.0897172 -5.19333
589 -0.089691 -5.19387
590 -0.0936747 -5.21885
591 -0.0194495 -5.32298
592 -0.0172286 -5.32472
593 0.0252714 -5.37935
594 0.105304 -5.48861
595 0.107218 -5.49051
596 0.182169 -5.60254
597 0.21854 -5.66093
598 0.220202 -5.66323
599 0.288039 -5.77988
600 0.321197 -5.84015
601 0.353619 -5.9011
602 0.385214 -5.96238
603 0.416251 -6.0242
604 0.446703 -6.08624
605 0.47658 -6.14826
606 0.505983 -6.21038
607 0.535109 -6.2729
608 0.563942 -6.33561
609 0.592422 -6.3982
610 0.593738 -6.40104
611 0.648899 -6.52406
612 0.676824 -6.58706
613 0.704622 -6.65025
614 0.73212 -6.71304
615 0.759646 -6.77621
616 0.787088 -6.83941
617 0.814361 -6.90242
618 0.815668 -6.90543
619 0.842931 -6.96866
620 0.896053 -7.09223
621 0.897339 -7.09521
622 0.950234 -7.21866
623 0.977305 -7.28199
624 1.00432 -7.34528
625 1.03133 -7.40859
626 1.05832 -7.47189
627 1.05962 -7.47494
628 1.08659 -7.53825
629 1.1392 -7.66185
630 1.16613 -7.72517
631 1.19306 -7.7885
632 1.19356 -7.78968
633 1.22129 -7.85493
634 1.27382 -7.97854
635 1.27513 -7.98165
636 1.30205 -8.04501
637 1.35456 -8.1686
638 1.34694 -8.14985
639 1.35015 -8.15675
640 1.35386 -8.16302
641 1.35602 -8.16538
642 1.35643 -8.16611
643 1.35892 -8.16826
644 1.3599 -8.16978
645 1.36437 -8.17085
646 1.36632 -8.17108
647 1.3674 -8.17126
648 1.36819 -8.17196
649 1.43144 -8.15519
650 1.48816 -8.11658
651 1.54473 -8.0763
652 1.54692 -8.07403
653 1.65871 -8.00005
654 1.71772 -7.96508
655 1.7784 -7.93183
656 1.83982 -7.90057
657 1.90255 -7.87093
658 1.96569 -7.84284
659 2.02903 -7.81629
660 2.09304 -7.79091
661 2.15818 -7.76637
662 2.22321 -7.74282
663 2.22603 -7.74171
664 2.29104 -7.71912
665 2.4186 -7.67705
666 2.48444 -7.65627
667 2.55041 -7.636
668 2.61699 -7.61607
669 2.68246 -7.59679
670 2.68575 -7.59584
671 2.81522 -7.55877
672 2.81832 -7.55788
673 2.94805 -7.52178
674 3.01439 -7.5036
675 3.08071 -7.48555
676 3.08392 -7.48467
677 3.2137 -7.44968
678 3.28009 -7.43191
679 3.34679 -7.41414
680 3.34996 -7.4133
681 3.47995 -7.37888
682 3.54649 -7.36134
683 3.61315 -7.3438
684 3.67968 -7.32633
685 3.74626 -7.30888
686 3.74949 -7.30803
687 3.87943 -7.27403
688 3.94604 -7.25663
689 3.94929 -7.25578
690 4.07923 -7.22187
691 4.14584 -7.20449
692 4.1491 -7.20364
693 4.27906 -7.16976
694 4.28234 -7.16891
695 4.4123 -7.13507
696 4.47892 -7.11773
697 4.54554 -7.1004
698 4.61216 -7.08307
699 4.67878 -7.06575
700 4.7454 -7.04843
701 4.81202 -7.03111
702 4.87865 -7.0138
703 4.94528 -6.99649
704 5.0119 -6.97918
705 5.07853 -6.96188
706 5.08184 -6.96102
707 5.21179 -6.92729
708 5.27842 -6.90999
709 5.34505 -6.8927
710 5.41169 -6.87542
711 5.47832 -6.85813
712 5.54496 -6.84085
713 5.54827 -6.84
714 5.67823 -6.8063
715 5.74486 -6.78903
716 5.74818 -6.78817
717 5.87814 -6.75449
718 5.94478 -6.73723
719 6.01142 -6.71997
720 6.07806 -6.70271
721 6.05965 -6.70738
722 6.06562 -6.70559
723 6.06749 -6.70506
724 6.07876 -6.69948
725 6.07897 -6.69932
726 6.08279 -6.69572
727 6.08378 -6.69527
728 6.08496 -6.69366
729 6.08614 -6.69095
730 6.08613 -6.68943
731 6.08624 -6.68863
732 6.08665 -6.68819
733 6.0855 -6.68581
734 6.09449 -6.67181
735 5.98005 -6.61813
736 5.97631 -6.61774
737 5.91199 -6.5909
738 5.84981 -6.56254
739 5.73075 -6.50228
740 5.67112 -6.46835
741 5.61232 -6.43247
742 5.60949 -6.43085
743 5.49756 -6.35605
744 5.49491 -6.35438
745 5.38658 -6.27526
746 5.33194 -6.23323
747 5.32937 -6.23131
748 5.27529 -6.18844
749 5.1712 -6.10268
750 5.16881 -6.10077
751 5.11643 -6.05629
752 5.06236 -6.01332
753 5.06305 -6.01466
754 5.06231 -6.01376
755 5.05899 -6.00963
756 5.05717 -6.00691
757 5.05646 -6.00595
758 5.05482 -6.00299
759 5.05348 -6.00015
760 5.05228 -5.9971
761 5.05128 -5.9937
762 5.05062 -5.98736
763 5.05058 -5.98413
764 5.05071 -5.98147
765 5.05304 -5.9008
766 5.0662 -5.83005
767 5.0673 -5.82688
768 5.08055 -5.7597
769 5.10316 -5.62605
770 5.11269 -5.55786
771 5.12093 -5.4892
772 5.12799 -5.42058
773 5.13414 -5.35212
774 5.13449 -5.34925
775 5.14355 -5.29534
776 5.14355 -5.29465
777 5.14402 -5.28438
778 5.14386 -5.28208
779 5.14352 -5.27942
780 5.14341 -5.27849
781 5.13969 -5.24945
782 5.10354 -5.12436
783 5.08328 -5.05853
784 5.06288 -4.99275
785 5.04267 -4.92693
786 5.02287 -4.86109
787 5.02204 -4.85855
788 5.00273 -4.79256
789 4.98379 -4.72631
790 4.94775 -4.59616
791 4.92994 -4.53003
792 4.91233 -4.46338
793 4.89497 -4.39676
794 4.8942 -4.39381
795 4.86072 -4.26321
796 4.84384 -4.19654
797 4.84308 -4.19353
798 4.82626 -4.1267
799 4.79365 -3.99611
800 4.79288 -3.99308
801 4.76043 -3.8625
802 4.74388 -3.7956
803 4.72741 -3.72885
804 4.72663 -3.72572
805 4.71017 -3.65884
806 4.69374 -3.59197
807 4.66171 -3.46139
808 4.64533 -3.39454
809 4.62896 -3.32769
810 4.62818 -3.32451
811 4.5962 -3.19397
812 4.60087 -3.21385
813 4.59663 -3.19647
814 4.5943 -3.18519
815 4.59326 -3.1778
816 4.5931 -3.1715
817 4.59305 -3.17039
818 4.59282 -3.16884
819 4.59304 -3.16664
820 4.59364 -3.16327
821 4.59463 -3.16012
822 4.59467 -3.15888
823 4.59794 -3.1533
824 4.59945 -3.15125
825 4.6015 -3.14836
826 4.60393 -3.14562
827 4.60416 -3.14499
828 4.60902 -3.14111
829 4.61159 -3.13944
830 4.61444 -3.13779
831 4.61483 -3.13716
832 4.62097 -3.13523
833 4.62151 -3.13458
834 4.62826 -3.13398
835 4.62875 -3.13357
836 4.6347 -3.13427
837 4.63511 -3.13404
838 4.64003 -3.13541
839 4.6409 -3.13496
840 4.64426 -3.13679
841 4.64675 -3.13745
842 4.65241 -3.14093
843 4.65508 -3.14288
844 4.65674 -3.14446
845 4.6594 -3.14652
846 4.68016 -3.14609
847 4.77248 -3.24072
848 4.77383 -3.24319
849 4.86826 -3.34172
850 4.87025 -3.34456
851 4.965 -3.44162
852 4.96655 -3.44384
853 5.0625 -3.54003
854 5.06426 -3.54221
855 5.16099 -3.63751
856 5.21016 -3.68565
857 5.19602 -3.68211
858 5.19641 -3.6824
859 5.20583 -3.68983
860 5.21102 -3.69219
861 5.21632 -3.69351
862 5.22105 -3.69367
863 5.22467 -3.69292
864 5.22374 -3.69272
865 5.22301 -3.69362
866 5.22503 -3.69316
867 5.22703 -3.69147
868 5.22849 -3.68952
869 5.24961 -3.68761
870 5.27654 -3.62994
871 5.32797 -3.50404
872 5.32866 -3.50102
873 5.38289 -3.37702
874 5.38373 -3.37415
875 5.41279 -3.31157
876 5.43622 -3.24177
877 5.43517 -3.23983
878 5.43511 -3.2398
879 5.43668 -3.23788
880 5.43983 -3.23464
881 5.44204 -3.23272
882 5.44473 -3.23067
883 5.44536 -3.2302
884 5.44801 -3.22847
885 5.45311 -3.22572
886 5.45676 -3.22418
887 5.46025 -3.2231
888 5.46081 -3.22283
889 5.46735 -3.22189
890 5.47017 -3.22183
891 5.47374 -3.22196
892 5.4741 -3.2219
893 5.47709 -3.2225
894 5.48335 -3.22441
895 5.48323 -3.22454
896 5.48844 -3.227
897 5.49126 -3.22876
898 5.51571 -3.22756
899 5.56784 -3.26607
900 5.67346 -3.3523
901 5.72709 -3.39612
902 5.78099 -3.43976
903 5.83476 -3.48282
904 5.83275 -3.49296
905 5.8317 -3.49559
906 5.83291 -3.49726
907 5.83363 -3.49755
908 5.83576 -3.49977
909 5.8393 -3.50442
910 5.84111 -3.5074
911 5.84287 -3.5109
912 5.84391 -3.51404
913 5.84425 -3.5144
914 5.84508 -3.51769
915 5.84553 -3.52388
916 5.84547 -3.52711
917 5.84514 -3.52998
918 5.84472 -3.53284
919 5.84097 -3.60942
920 5.82307 -3.67873
921 5.82163 -3.6811
922 5.80306 -3.74813
923 5.78572 -3.81472
924 5.75461 -3.94803
925 5.75367 -3.95065
926 5.72668 -4.08367
927 5.71407 -4.15173
928 5.70211 -4.2197
929 5.70144 -4.22246
930 5.68728 -4.26641
931 5.68594 -4.27593
932 5.68449 -4.29265
933 5.68501 -4.301
934 5.68513 -4.30178
935 5.68872 -4.31423
936 5.68872 -4.31361
937 5.69192 -4.31799
938 5.69214 -4.31855
939 5.6943 -4.32057
940 5.69981 -4.32268
941 5.69996 -4.32306
942 5.70306 -4.3237
943 5.70598 -4.32363
944 5.72224 -4.33953
945 5.78374 -4.33167
946 5.91842 -4.30881
947 5.98689 -4.29933
948 5.98972 -4.29853
949 6.1256 -4.28812
950 6.19439 -4.28636
951 6.26347 -4.28686
952 6.24961 -4.27906
953 6.28132 -4.27989
954 6.28227 -4.28008
955 6.30343 -4.28268
956 6.30917 -4.28402
957 6.30797 -4.28356
958 6.30946 -4.28409
959 6.31339 -4.28601
960 6.31568 -4.28738
961 6.31916 -4.28974
962 6.3217 -4.29185
963 6.32225 -4.29216
964 6.32523 -4.29472
965 6.33007 -4.30064
966 6.33214 -4.30361
967 6.33376 -4.30645
968 6.33517 -4.30946
969 6.33632 -4.31272
970 6.33706 -4.3159
971 6.33739 -4.31636
972 6.33768 -4.32267
973 6.33752 -4.32613
974 6.33754 -4.32633
975 6.33631 -4.33158
976 6.33628 -4.33172
977 6.33453 -4.33632
978 6.33322 -4.33934
979 6.33947 -4.36143
980 6.3081 -4.41781
981 6.27187 -4.47734
982 6.20252 -4.59503
983 6.2007 -4.59716
984 6.13411 -4.71623
985 6.10139 -4.77679
986 6.06942 -4.83754
987 6.03788 -4.89912
988 6.00668 -4.96121
989 6.00849 -4.93907
990 6.00214 -4.95267
991 6.00193 -4.95369
992 5.99979 -4.96103
993 5.99891 -4.97472
994 5.99895 -4.97533
995 6.0006 -4.97906
996 6.00085 -4.98033
997 6.00094 -4.98153
998 6.00474 -4.98456
999 6.00497 -4.98523
1000 6.0108 -4.9872
1001 6.01108 -4.98761
1002 6.07792 -5.01315
1003 6.14891 -5.02136
1004 6.21776 -5.02751
1005 6.28627 -5.03572
1006 6.35383 -5.04596
1007 6.42158 -5.05883
1008 6.42384 -5.04875
1009 6.43288 -5.05072
1010 6.43278 -5.05042
1011 6.44162 -5.05346
1012 6.44176 -5.05354
1013 6.44571 -5.05598
1014 6.44639 -5.05651
1015 6.44908 -5.05859
1016 6.45399 -5.06311
1017 6.51424 -5.12416
1018 6.56044 -5.178
1019 6.60475 -5.23129
1020 6.60616 -5.23325
1021 6.69287 -5.33742
1022 6.69443 -5.33945
1023 6.73879 -5.39218
1024 6.78331 -5.44463
1025 6.87115 -5.5468
1026 6.87293 -5.54893
1027 6.96161 -5.65074
1028 6.94848 -5.6386
1029 6.94886 -5.639
1030 6.95764 -5.64727
1031 6.96224 -5.64989
1032 6.96317 -5.6506
1033 6.96829 -5.65225
1034 6.97561 -5.65207
1035 6.97549 -5.6517
1036 6.97572 -5.65185
1037 6.97725 -5.65221
1038 6.97789 -5.65238
1039 6.99966 -5.65596
1040 7.06201 -5.54638
1041 7.06299 -5.54322
1042 7.1255 -5.42261
1043 7.15839 -5.3621
1044 7.15194 -5.34734
1045 7.15034 -5.34451
1046 7.15173 -5.34275
1047 7.15236 -5.3425
1048 7.15614 -5.33913
1049 7.15867 -5.33731
1050 7.15908 -5.33712
1051 7.16371 -5.33429
1052 7.16435 -5.334
1053 7.17041 -5.33133
1054 7.17394 -5.33025
1055 7.17693 -5.32962
1056 7.18198 -5.32882
1057 7.18435 -5.32886
1058 7.18834 -5.32887
1059 7.19154 -5.32931
1060 7.19345 -5.32987
1061 7.19636 -5.33066
1062 7.19675 -5.33066
1063 7.19966 -5.33166
1064 7.27865 -5.36007
1065 7.34032 -5.39529
1066 7.39999 -5.43101
1067 7.45921 -5.46651
1068 7.46117 -5.4682
1069 7.52075 -5.50343
1070 7.63809 -5.57116
1071 7.69824 -5.60539
1072 7.70033 -5.60692
1073 7.76048 -5.64072
1074 7.79529 -5.66793
1075 7.80296 -5.67206
1076 7.81687 -5.67802
1077 7.81785 -5.67826
1078 7.83242 -5.68004
1079 7.83927 -5.67905
1080 7.83958 -5.67895
1081 7.84015 -5.67786
1082 7.8426 -5.67807
1083 7.84589 -5.6748
1084 7.84756 -5.67222
1085 7.84848 -5.66973
1086 7.84925 -5.6669
1087 7.86728 -5.66033
1088 7.86354 -5.53908
1089 7.86309 -5.53572
1090 7.85199 -5.39985
1091 7.85117 -5.39687
1092 7.84861 -5.32756
1093 7.85121 -5.19187
1094 7.84083 -5.18785
1095 7.84203 -5.17587
1096 7.84102 -5.17691
1097 7.84161 -5.17211
1098 7.84245 -5.1705
1099 7.84339 -5.16882
1100 7.84388 -5.16806
1101 7.84699 -5.16362
1102 7.84918 -5.16095
1103 7.84959 -5.16039
1104 7.85473 -5.15533
1105 7.85486 -5.15522
1106 7.8573 -5.15322
1107 7.86209 -5.15015
1108 7.86526 -5.14842
1109 7.86843 -5.14706
1110 7.86908 -5.14654
1111 7.87584 -5.14502
1112 7.87881 -5.14465
1113 7.87928 -5.14441
1114 7.88257 -5.14439
1115 7.88562 -5.14469
1116 7.89075 -5.14596
1117 7.89265 -5.14673
1118 7.89478 -5.14764
1119 7.89716 -5.14888
1120 7.89758 -5.14888
1121 7.90212 -5.15227
1122 7.90469 -5.15441
1123 7.90719 -5.1568
1124 7.90777 -5.15694
1125 7.9329 -5.16274
1126 7.97499 -5.2136
1127 8.01742 -5.26864
1128 8.10082 -5.37652
1129 8.10191 -5.37898
1130 8.14401 -5.43409
1131 8.22724 -5.5416
1132 8.26948 -5.59617
1133 8.31201 -5.65074
1134 8.35459 -5.70512
1135 8.33989 -5.70058
1136 8.3402 -5.70089
1137 8.34836 -5.70935
1138 8.35278 -5.71209
1139 8.35345 -5.71246
1140 8.35816 -5.71425
1141 8.36463 -5.71462
1142 8.36492 -5.71469
1143 8.36819 -5.7141
1144 8.37043 -5.71356
1145 8.44312 -5.69175
1146 8.44889 -5.69079
1147 8.56585 -5.62086
1148 8.62599 -5.58728
1149 8.68734 -5.55552
1150 8.68779 -5.55487
1151 8.75212 -5.52415
1152 8.87696 -5.47085
1153 8.94074 -5.44609
1154 8.92174 -5.44673
1155 8.94489 -5.43816
1156 8.94891 -5.43704
1157 8.95266 -5.43649
1158 8.95621 -5.43629
1159 8.95866 -5.43633
1160 8.96187 -5.43649
1161 9.0456 -5.44345
1162 9.05167 -5.44383
1163 9.18504 -5.46602
1164 9.25283 -5.47701
1165 9.32091 -5.48745
1166 9.32371 -5.48795
1167 9.45777 -5.50685
1168 9.46035 -5.50728
1169 9.51155 -5.51654
1170 9.52216 -5.51752
1171 9.53155 -5.51785
1172 9.5422 -5.51742
1173 9.55124 -5.51608
1174 9.55928 -5.5139
1175 9.56045 -5.51372
1176 9.57576 -5.50567
1177 9.57555 -5.50396
1178 9.57713 -5.50217
1179 9.5778 -5.50194
1180 9.57914 -5.49984
1181 9.57927 -5.49541
1182 9.57947 -5.49522
1183 9.5787 -5.49303
1184 9.57899 -5.49277
1185 9.55637 -5.43918
1186 9.51014 -5.38637
1187 9.4624 -5.33485
1188 9.41606 -5.28203
1189 9.37233 -5.22905
1190 9.3308 -5.17434
1191 9.29073 -5.11729
1192 9.2872 -5.13006
1193 9.27762 -5.1183
1194 9.27611 -5.11425
1195 9.27504 -5.11093
1196 9.27498 -5.11028
1197 9.27423 -5.10682
1198 9.2738 -5.10354
1199 9.27377 -5.09781
1200 9.27378 -5.09734
1201 9.27459 -5.0931
1202 9.27463 -5.09259
1203 9.27591 -5.08909
1204 9.27712 -5.08622
1205 9.27895 -5.08276
1206 9.28086 -5.07993
1207 9.28295 -5.07724
1208 9.28316 -5.07672
1209 9.28818 -5.07134
1210 9.34239 -5.00598
1211 9.39484 -4.95869
1212 9.44724 -4.91321
1213 9.49953 -4.86805
1214 9.50168 -4.86673
1215 9.5539 -4.82147
1216 9.65611 -4.73221
1217 9.70809 -4.68694
1218 9.76013 -4.64149
1219 9.76227 -4.63992
1220 9.79879 -4.61644
1221 9.80444 -4.61132
1222 9.80936 -4.6064
1223 9.81579 -4.59697
1224 9.81614 -4.59632
1225 9.81755 -4.59139
1226 9.81704 -4.58661
1227 9.8172 -4.58688
1228 9.81651 -4.58412
1229 9.81474 -4.58206
1230 9.81244 -4.57997
1231 9.81244 -4.57997
1232 9.80672 -4.57828
1233 9.7458 -4.55267
1234 9.67605 -4.54403
1235 9.60653 -4.53708
1236 9.60333 -4.53745
1237 9.46913 -4.51948
1238 9.45741 -4.52895
1239 9.44469 -4.52686
1240 9.43499 -4.52454
1241 9.43098 -4.52379
1242 9.43009 -4.52366
1243 9.42829 -4.5225
1244 9.42612 -4.52094
1245 9.42548 -4.52036
1246 9.42113 -4.51678
1247 9.4187 -4.51432
1248 9.41819 -4.51382
1249 9.41381 -4.50838
1250 9.41222 -4.50584
1251 9.41068 -4.50305
1252 9.409 -4.49937
1253 9.40803 -4.49635
1254 9.40706 -4.49268
1255 9.4069 -4.49232
1256 9.40633 -4.48561
1257 9.40654 -4.48249
1258 9.40699 -4.47948
1259 9.40768 -4.47695
1260 9.40849 -4.47461
1261 9.40937 -4.47261
1262 9.41053 -4.4701
1263 9.4105 -4.46946
1264 9.4145 -4.46382
1265 9.41699 -4.46066
1266 9.45955 -4.39274
1267 9.50911 -4.34188
1268 9.51151 -4.34063
1269 9.56142 -4.29208
1270 9.6591 -4.19679
1271 9.7088 -4.14854
1272 9.71102 -4.14706
1273 9.76056 -4.09875
1274 9.85743 -4.00344
1275 9.90672 -3.95516
1276 9.95595 -3.90681
1277 9.94704 -3.92743
1278 9.95647 -3.9177
1279 9.96024 -3.91233
1280 9.96289 -3.90676
1281 9.96319 -3.90603
1282 9.96442 -3.90061
1283 9.96396 -3.89689
1284 9.96363 -3.89594
1285 9.96275 -3.89298
1286 9.96064 -3.89107
1287 9.95794 -3.88936
1288 9.9578 -3.88889
1289 9.95145 -3.88736
1290 9.947 -3.86909
1291 9.81833 -3.86052
1292 9.81509 -3.86093
1293 9.68071 -3.85095
1294 9.67753 -3.85094
1295 9.54431 -3.83284
1296 9.53611 -3.84148
1297 9.53644 -3.84242
1298 9.51598 -3.83697
1299 9.51682 -3.83792
1300 9.51032 -3.83527
1301 9.50844 -3.83417
1302 9.50789 -3.83375
1303 9.50379 -3.83074
1304 9.50307 -3.83016
1305 9.50035 -3.82769
1306 9.4981 -3.82536
1307 9.49618 -3.82313
1308 9.4933 -3.8189
1309 9.49271 -3.81827
1310 9.49019 -3.81276
1311 9.48988 -3.81234
1312 9.4727 -3.78963
1313 9.43984 -3.66145
1314 9.42404 -3.5943
1315 9.40801 -3.52703
1316 9.40781 -3.5246
1317 9.39134 -3.45758
1318 9.37418 -3.39073
1319 9.33845 -3.26023
1320 9.33789 -3.25762
1321 9.31885 -3.19142
1322 9.27963 -3.06164
1323 9.28885 -3.07639
1324 9.28851 -3.07555
1325 9.28613 -3.06763
1326 9.28405 -3.05183
1327 9.28368 -3.05039
1328 9.28459 -3.04101
1329 9.28825 -3.03573
1330 9.28787 -3.03393
1331 9.2918 -3.02967
1332 9.2919 -3.02915
1333 9.29469 -3.02761
1334 9.29784 -3.02673
1335 9.30128 -3.02773
1336 9.30218 -3.02818
1337 9.30252 -3.02736
1338 9.30524 -3.03084
1339 9.30625 -3.03295
1340 9.3127 -3.0277
1341 9.34715 -3.14822
1342 9.36453 -3.21562
1343 9.38366 -3.28163
1344 9.3845 -3.28487
1345 9.42837 -3.41
1346 9.42732 -3.41948
1347 9.42877 -3.42347
1348 9.42935 -3.42463
1349 9.43162 -3.42756
1350 9.43319 -3.42944
1351 9.43513 -3.43152
1352 9.43537 -3.43176
1353 9.4909 -3.48549
1354 9.54281 -3.53366
1355 9.5938 -3.58052
1356 9.64481 -3.62702
1357 9.64691 -3.62892
1358 9.74715 -3.72025
1359 9.74923 -3.72213
1360 9.84915 -3.81341
1361 9.90005 -3.86
1362 9.88532 -3.84622
1363 9.88687 -3.84772
1364 9.88787 -3.84865
1365 9.88823 -3.84912
1366 9.88985 -3.85027
1367 9.89195 -3.85141
1368 9.89617 -3.85308
1369 9.89687 -3.85351
1370 9.90004 -3.8544
1371 9.90705 -3.85488
1372 9.90732 -3.85493
1373 9.9105 -3.85485
1374 9.91657 -3.85362
1375 9.99529 -3.84316
1376 10 -3.84304
1377 10.1291 -3.79936
1378 10.195 -3.77802
1379 10.1974 -3.77684
1380 10.2634 -3.75676
1381 10.3296 -3.73801
1382 10.3963 -3.72027
1383 10.4632 -3.70353
1384 10.5953 -3.67362
1385 10.6631 -3.6594
1386 10.6493 -3.65679
1387 10.6499 -3.65669
1388 10.6584 -3.65482
1389 10.6662 -3.65236
1390 10.6734 -3.64897
1391 10.6795 -3.64313
1392 10.6802 -3.64293
1393 10.6819 -3.63989
1394 10.6824 -3.63869
1395 10.6826 -3.6381
1396 10.6828 -3.63797
1397 10.684 -3.63883
1398 10.6836 -3.63718
1399 10.6466 -3.60064
1400 10.6462 -3.59728
1401 10.521 -3.54002
1402 10.5175 -3.53945
1403 10.3998 -3.47793
1404 10.3404 -3.44267
1405 10.3375 -3.44125
1406 10.2265 -3.36646
1407 10.1713 -3.32485
1408 10.1169 -3.28137
1409 10.1144 -3.27964
1410 10.0619 -3.23518
1411 9.9618 -3.14489
1412 9.95943 -3.14275
1413 9.86234 -3.04891
1414 9.81368 -2.99965
1415 9.76592 -2.9502
1416 9.7637 -2.94791
1417 9.71635 -2.89766
1418 9.62494 -2.7982
1419 9.57879 -2.74692
1420 9.53302 -2.69545
1421 9.53095 -2.69312
1422 9.4424 -2.59185
1423 9.44028 -2.58941
1424 9.35242 -2.48736
1425 9.3078 -2.435
1426 9.3057 -2.43254
1427 9.21877 -2.32986
1428 9.17459 -2.27739
1429 9.17244 -2.27483
1430 9.08602 -2.1717
1431 9.04189 -2.11884
1432 8.99784 -2.06599
1433 8.95384 -2.01305
1434 8.90988 -1.96007
1435 8.90778 -1.95754
1436 8.82208 -1.85405
1437 8.77824 -1.80101
1438 8.73437 -1.74791
1439 8.69054 -1.6948
1440 8.6884 -1.69221
1441 8.60289 -1.58851
1442 8.55908 -1.53532
1443 8.51533 -1.48216
1444 8.47162 -1.42903
1445 8.46991 -1.42696
1446 8.38416 -1.32267
1447 8.38201 -1.32005
1448 8.29676 -1.21627
1449 8.25308 -1.16307
1450 8.2094 -1.10987
1451 8.20725 -1.10725
1452 8.16358 -1.05403
1453 8.07837 -0.95027
1454 8.09506 -0.970616
1455 8.08908 -0.963309
1456 8.07894 -0.948586
1457 8.07462 -0.938377
1458 8.07234 -0.927376
1459 8.07155 -0.925632
1460 8.07446 -0.919099
1461 8.07423 -0.91884
1462 8.07276 -0.916673
1463 8.07497 -0.914112
1464 8.07776 -0.912412
1465 8.07779 -0.911744
1466 8.08246 -0.911876
1467 8.08339 -0.912122
1468 8.08343 -0.911889
1469 8.08377 -0.911239
1470 8.08538 -0.91271
1471 8.09134 -0.908969
1472 8.14629 -1.02287
1473 8.17578 -1.08605
1474 8.20645 -1.14844
1475 8.23836 -1.20932
1476 8.23989 -1.21229
1477 8.30826 -1.32856
1478 8.30984 -1.3313
1479 8.33929 -1.38299
1480 8.34885 -1.39662
1481 8.34667 -1.39418
1482 8.34608 -1.39359
1483 8.3362 -1.37902
1484 8.3368 -1.37946
1485 8.3297 -1.36691
1486 8.32586 -1.35913
1487 8.32492 -1.3559
1488 8.32145 -1.34741
1489 8.32064 -1.34351
1490 8.32067 -1.34339
1491 8.31668 -1.32822
1492 8.3158 -1.32136
1493 8.31502 -1.31433
1494 8.31476 -1.31346
1495 8.31438 -1.29938
1496 8.3142 -1.29861
1497 8.31464 -1.28289
1498 8.31557 -1.27649
1499 8.31638 -1.28074
1500 8.31669 -1.28221
1501 8.31556 -1.28705
1502 8.31368 -1.29206
1503 8.3093 -1.30031
1504 8.30917 -1.30029
1505 8.30456 -1.30654
1506 8.30289 -1.30777
1507 8.3005 -1.31039
1508 8.30037 -1.31058
1509 8.24656 -1.37322
1510 8.19089 -1.41765
1511 8.13596 -1.45988
1512 8.13363 -1.46085
1513 8.02635 -1.54487
1514 8.0241 -1.546
1515 7.96992 -1.58893
1516 7.86451 -1.67439
1517 7.8113 -1.71786
1518 7.75836 -1.76156
1519 7.7561 -1.76316
1520 7.71791 -1.78604
1521 7.70658 -1.79628
1522 7.706 -1.79705
1523 7.70123 -1.80289
1524 7.69872 -1.80769
1525 7.69682 -1.81388
1526 7.69603 -1.81784
1527 7.69572 -1.82106
1528 7.68592 -1.90353
1529 7.68501 -1.90913
1530 7.69214 -2.0448
1531 7.6937 -2.1138
1532 7.69407 -2.11617
1533 7.69068 -2.25144
1534 7.6863 -2.31944
1535 7.68031 -2.38728
1536 7.68329 -2.39274
1537 7.68209 -2.41025
1538 7.6823 -2.42015
1539 7.68263 -2.41939
1540 7.68336 -2.42508
1541 7.68368 -2.4275
1542 7.68388 -2.42955
1543 7.68414 -2.4309
1544 7.68478 -2.43302
1545 7.6848 -2.43431
1546 7.68771 -2.4385
1547 7.68958 -2.44106
1548 7.69168 -2.44341
1549 7.69437 -2.44605
1550 7.6969 -2.44803
1551 7.69932 -2.4498
1552 7.76125 -2.50446
1553 7.82295 -2.53985
1554 7.82555 -2.54048
1555 7.88644 -2.57354
1556 8.00541 -2.63886
1557 8.00798 -2.63975
1558 8.06857 -2.67298
1559 8.18704 -2.73867
1560 8.19242 -2.73211
1561 8.19488 -2.73173
1562 8.19501 -2.73177
1563 8.20121 -2.73604
1564 8.20665 -2.73958
1565 8.21028 -2.74184
1566 8.21267 -2.74359
1567 8.21534 -2.746
1568 8.21543 -2.74609
1569 8.21645 -2.74709
1570 8.21827 -2.7488
1571 8.2205 -2.751
1572 8.22256 -2.7533
1573 8.22405 -2.75529
1574 8.22554 -2.75759
1575 8.22653 -2.75944
1576 8.22724 -2.76104
1577 8.22756 -2.76147
1578 8.22883 -2.76568
1579 8.22934 -2.76859
1580 8.22966 -2.77231
1581 8.23 -2.7731
1582 8.22867 -2.78164
1583 8.22763 -2.78425
1584 8.22788 -2.78519
1585 8.22455 -2.79263
1586 8.22243 -2.7965
1587 8.2222 -2.79608
1588 8.21877 -2.80114
1589 8.21637 -2.80367
1590 8.21404 -2.80574
1591 8.21141 -2.80791
1592 8.20865 -2.80981
1593 8.20516 -2.81206
1594 8.2019 -2.81352
1595 8.1984 -2.81488
1596 8.19506 -2.81575
1597 8.19483 -2.8159
1598 8.18987 -2.81616
1599 8.18963 -2.81639
1600 8.18378 -2.81751
1601 8.18091 -2.81765
1602 8.17757 -2.81786
1603 8.1773 -2.81798
1604 8.17371 -2.81773
1605 8.16816 -2.81663
1606 8.16546 -2.81573
1607 8.16353 -2.81472
1608 8.16043 -2.81323
1609 8.16036 -2.81312
1610 8.15792 -2.81145
1611 8.15537 -2.80966
1612 8.1504 -2.80477
1613 8.14818 -2.80205
1614 8.14814 -2.80191
1615 8.14455 -2.79636
1616 8.14314 -2.79331
1617 8.14177 -2.79001
1618 8.14071 -2.78679
1619 8.10756 -2.7188
1620 8.08935 -2.65019
1621 8.07283 -2.58251
1622 8.05611 -2.51538
1623 8.03847 -2.44784
1624 8.03833 -2.4452
1625 8.00181 -2.31408
1626 7.98266 -2.2476
1627 7.98223 -2.24495
1628 7.94293 -2.11511
1629 7.95522 -2.13087
1630 7.95259 -2.12216
1631 7.94894 -2.1078
1632 7.94773 -2.09843
1633 7.94773 -2.09843
1634 7.94851 -2.08866
1635 7.95234 -2.08293
1636 7.95316 -2.08044
1637 7.95557 -2.07788
1638 7.95834 -2.07646
1639 7.96169 -2.07561
1640 7.96473 -2.0759
1641 7.96482 -2.07604
1642 7.96632 -2.07667
1643 7.96718 -2.07724
1644 8.00572 -2.11229
1645 8.00823 -2.11385
1646 8.07735 -2.22932
1647 8.07882 -2.2325
1648 8.15137 -2.34679
1649 8.19187 -2.40324
1650 8.23387 -2.45762
1651 8.23585 -2.46022
1652 8.3245 -2.56279
1653 8.37212 -2.61343
1654 8.3742 -2.61573
1655 8.40864 -2.65717
1656 8.40762 -2.65651
1657 8.40182 -2.65116
1658 8.39738 -2.64644
1659 8.39934 -2.6483
1660 8.40003 -2.64886
1661 8.39523 -2.64206
1662 8.39709 -2.64354
1663 8.39514 -2.63923
1664 8.39196 -2.63207
1665 8.3927 -2.63147
1666 8.391 -2.62611
1667 8.39324 -2.63047
1668 8.39355 -2.63101
1669 8.39403 -2.63416
1670 8.39377 -2.64079
1671 8.39315 -2.64459
1672 8.39322 -2.64505
1673 8.39209 -2.6489
1674 8.39573 -2.67328
1675 8.33307 -2.78803
1676 8.29748 -2.84764
1677 8.29558 -2.84958
1678 8.22687 -2.96709
1679 8.22514 -2.96902
1680 8.19119 -3.02908
1681 8.12674 -3.14839
1682 8.12744 -3.13109
1683 8.11563 -3.15209
1684 8.11423 -3.15526
1685 8.11342 -3.15852
1686 8.1133 -3.15929
1687 8.11276 -3.16312
1688 8.1129 -3.16405
1689 8.11274 -3.15736
1690 8.11258 -3.15671
1691 8.11243 -3.15754
1692 8.11227 -3.15938
1693 8.11234 -3.16253
1694 8.11232 -3.16596
1695 8.11211 -3.16946
1696 8.11164 -3.17264
1697 8.11088 -3.17557
1698 8.10831 -3.18225
1699 8.10814 -3.18295
1700 8.10638 -3.18706
1701 8.10358 -3.19348
1702 8.10206 -3.19615
1703 8.09999 -3.19934
1704 8.09985 -3.1996
1705 8.09769 -3.20226
1706 8.09295 -3.20695
1707 8.09068 -3.20862
1708 8.08796 -3.21055
1709 8.08757 -3.21112
1710 8.08406 -3.21286
1711 8.08084 -3.21431
1712 8.07388 -3.21645
1713 8.06969 -3.2172
1714 8.0695 -3.21719
1715 8.06257 -3.21707
1716 8.05938 -3.21661
1717 8.05927 -3.21654
1718 8.05659 -3.21584
1719 8.05423 -3.21511
1720 8.0489 -3.21289
1721 8.0462 -3.21121
1722 8.04598 -3.21115
1723 8.04108 -3.20728
1724 8.03946 -3.20552
1725 8.03736 -3.20339
1726 8.03705 -3.20328
1727 8.03357 -3.19809
1728 8.03114 -3.1943
1729 8.03127 -3.19416
1730 8.02871 -3.18762
1731 8.02863 -3.18742
1732 8.02724 -3.18009
1733 8.02728 -3.1766
1734 8.02763 -3.17364
1735 8.0278 -3.17363
1736 8.02808 -3.17122
1737 8.03504 -3.10065
1738 8.05743 -3.03303
1739 8.08185 -2.96777
1740 8.1063 -2.90252
1741 8.13024 -2.83751
1742 8.15357 -2.77218
1743 8.1549 -2.76959
1744 8.19876 -2.64026
1745 8.22046 -2.57459
1746 8.24168 -2.50881
1747 8.24278 -2.50623
1748 8.26411 -2.46189
1749 8.26847 -2.44675
1750 8.26854 -2.44547
1751 8.26981 -2.43693
1752 8.26995 -2.4288
1753 8.26883 -2.42128
1754 8.26674 -2.41775
1755 8.26698 -2.41709
1756 8.26664 -2.4156
1757 8.25654 -2.40741
1758 8.25605 -2.40681
1759 8.24321 -2.39932
1760 8.24338 -2.40002
1761 8.24078 -2.39756
1762 8.23719 -2.39224
1763 8.2359 -2.38874
1764 8.23519 -2.3852
1765 8.23504 -2.38183
1766 8.235 -2.38155
1767 8.228 -2.35492
1768 8.2486 -2.22569
1769 8.25966 -2.15777
1770 8.2604 -2.15547
1771 8.27734 -2.02086
1772 8.27782 -2.01848
1773 8.28731 -1.88328
1774 8.29037 -1.90093
1775 8.29234 -1.85893
1776 8.2927 -1.86035
1777 8.2959 -1.83872
1778 8.29617 -1.84079
1779 8.29713 -1.83784
1780 8.29761 -1.83607
1781 8.29767 -1.83497
1782 8.29883 -1.83232
1783 8.34017 -1.76043
1784 8.34275 -1.75544
1785 8.38984 -1.70446
1786 8.43683 -1.65377
1787 8.52808 -1.55387
1788 8.57393 -1.50228
1789 8.57587 -1.50066
1790 8.62091 -1.44869
1791 8.66145 -1.41421
1792 8.66191 -1.41333
1793 8.66614 -1.40751
1794 8.67101 -1.39689
1795 8.67195 -1.39072
1796 8.67149 -1.38532
1797 8.67087 -1.3859
1798 8.67088 -1.38592
1799 8.67151 -1.3851
1800 8.67159 -1.38401
1801 8.66784 -1.38099
1802 8.66553 -1.37969
1803 8.60927 -1.34246
1804 8.54144 -1.3216
1805 8.47398 -1.30439
1806 8.40683 -1.28625
1807 8.34051 -1.26696
1808 8.33758 -1.26666
1809 8.20914 -1.22386
1810 8.14475 -1.20083
1811 8.08064 -1.17646
1812 8.01647 -1.15084
1813 7.95271 -1.12448
1814 7.8893 -1.09746
1815 7.8865 -1.09645
1816 7.82335 -1.06878
1817 7.70023 -1.01328
1818 7.63769 -0.984555
1819 7.57499 -0.955353
1820 7.57222 -0.954165
1821 7.4503 -0.896384
1822 7.44762 -0.895218
1823 7.38568 -0.865492
1824 7.26464 -0.806793
1825 7.2027 -0.776469
1826 7.14095 -0.746087
1827 7.07916 -0.715535
1828 7.0175 -0.684945
1829 7.01462 -0.683543
1830 6.89419 -0.623491
1831 6.83267 -0.592727
1832 6.7712 -0.561911
1833 6.76828 -0.560458
1834 6.70677 -0.529552
1835 6.58677 -0.469101
1836 6.58383 -0.467626
1837 6.5224 -0.436619
1838 6.40255 -0.375987
1839 6.39961 -0.374511
1840 6.27977 -0.313755
1841 6.21839 -0.282605
1842 6.15702 -0.251435
1843 6.09565 -0.220253
1844 6.03429 -0.189056
1845 5.97298 -0.157872
1846 5.91163 -0.126652
1847 5.85027 -0.0954184
1848 5.78892 -0.0641806
1849 5.72761 -0.0329499
1850 5.7246 -0.0314211
1851 5.66511 -0.00110902
1852 5.54365 0.0608853
1853 5.56008 0.0519632
1854 5.55845 0.052809
1855 5.54388 0.059069
1856 5.53529 0.0611329
1857 5.52732 0.0617851
1858 5.52013 0.0611557
1859 5.51449 0.0594996
1860 5.51673 0.0587105
1861 5.51734 0.0612139
1862 5.5145 0.0603882
1863 5.51338 0.0604541
1864 5.5108 0.057434
1865 5.46433 0.00235087
1866 5.43739 -0.0629659
1867 5.43692 -0.0661198
1868 5.41344 -0.131346
1869 5.36559 -0.25773
1870 5.3647 -0.260774
1871 5.31272 -0.385296
1872 5.3118 -0.388191
1873 5.25594 -0.510585
1874 5.25479 -0.513476
1875 5.19618 -0.634527
1876 5.19579 -0.635587
1877 5.13422 -0.757305
1878 5.1025 -0.818423
1879 5.0705 -0.879379
1880 5.03812 -0.940338
1881 5.0056 -1.00111
1882 5.00421 -1.00388
1883 4.97147 -1.06449
1884 4.90688 -1.18291
1885 4.90574 -1.18511
1886 4.87225 -1.24611
1887 4.80715 -1.36374
1888 4.8111 -1.36322
1889 4.80947 -1.36647
1890 4.80885 -1.36733
1891 4.80635 -1.37034
1892 4.80542 -1.3715
1893 4.80182 -1.37498
1894 4.80091 -1.37603
1895 4.79836 -1.37824
1896 4.7931 -1.38168
1897 4.78996 -1.38339
1898 4.78569 -1.38537
1899 4.78203 -1.38656
1900 4.77897 -1.38728
1901 4.77513 -1.38803
1902 4.77219 -1.38817
1903 4.76915 -1.38814
1904 4.76883 -1.38824
1905 4.76459 -1.38752
1906 4.76426 -1.3876
1907 4.76061 -1.38635
1908 4.75793 -1.38522
1909 4.75488 -1.38356
1910 4.75224 -1.38163
1911 4.74975 -1.37953
1912 4.74741 -1.37721
1913 4.74589 -1.37523
1914 4.7441 -1.37292
1915 4.74233 -1.37016
1916 4.74226 -1.37003
1917 4.74027 -1.36529
1918 4.73912 -1.36182
1919 4.73848 -1.35815
1920 4.73832 -1.35448
1921 4.73852 -1.35097
1922 4.73894 -1.34784
1923 4.73717 -1.27596
1924 4.75032 -1.20589
1925 4.75169 -1.20329
1926 4.77916 -1.0696
1927 4.79235 -1.00135
1928 4.80472 -0.933491
1929 4.81628 -0.86514
1930 4.82722 -0.796609
1931 4.8376 -0.728488
1932 4.84747 -0.65985
1933 4.85288 -0.67843
1934 4.85407 -0.66968
1935 4.85491 -0.654492
1936 4.85486 -0.65402
1937 4.85308 -0.641695
1938 4.8529 -0.641049
1939 4.84902 -0.633473
1940 4.84704 -0.631421
1941 4.84677 -0.630781
1942 4.84201 -0.628069
1943 4.83899 -0.627116
1944 4.83864 -0.626738
1945 4.83561 -0.626435
1946 4.81981 -0.611548
1947 4.69943 -0.639709
1948 4.63176 -0.65835
1949 4.62913 -0.659854
1950 4.5766 -0.68698
1951 4.55954 -0.692447
1952 4.53823 -0.69908
1953 4.53748 -0.699087
1954 4.5281 -0.701464
1955 4.51227 -0.703583
1956 4.51008 -0.703904
1957 4.5077 -0.703587
1958 4.50667 -0.703336
1959 4.50395 -0.702459
1960 4.50365 -0.70236
1961 4.50169 -0.701582
1962 4.49937 -0.700501
1963 4.49372 -0.696902
1964 4.49357 -0.696785
1965 4.49095 -0.694708
1966 4.48835 -0.692241
1967 4.48402 -0.686831
1968 4.48239 -0.684257
1969 4.48203 -0.683942
1970 4.47918 -0.677866
1971 4.47817 -0.674616
1972 4.478 -0.67434
1973 4.47693 -0.667873
1974 4.4769 -0.664663
1975 4.47711 -0.661319
1976 4.47771 -0.658483
1977 4.47767 -0.658223
1978 4.47863 -0.655633
1979 4.48013 -0.651989
1980 4.48157 -0.648447
1981 4.48352 -0.645174
1982 4.48369 -0.645319
1983 4.51686 -0.574975
1984 4.56041 -0.518603
1985 4.5627 -0.51712
1986 4.64759 -0.410293
1987 4.69065 -0.355885
1988 4.7331 -0.301404
1989 4.73511 -0.299428
1990 4.81705 -0.191132
1991 4.85841 -0.13566
1992 4.8603 -0.133555
1993 4.94037 -0.024222
1994 4.93881 -0.0395516
1995 4.94183 -0.0350386
1996 4.94448 -0.0294904
1997 4.94609 -0.0240653
1998 4.94625 -0.023396
1999 4.9461 -0.014528
2000 4.94584 -0.0152731
2001 4.94639 -0.0157988
2002 4.94661 -0.0136908
2003 4.9425 -0.0104616
2004 4.93966 -0.00882716
2005 4.93947 -0.00839109
2006 4.93345 -0.00688523
2007 4.86955 0.0162889
2008 4.79941 0.0227067
2009 4.72933 0.0275611
2010 4.66086 0.0335277
2011 4.59252 0.0422037
2012 4.5248 0.0532352
2013 4.52193 0.0533334
2014 4.45118 0.0584276
2015 4.45128 0.0579272
2016 4.441 0.0605977
2017 4.42873 0.0651092
2018 4.42793 0.0653589
2019 4.42553 0.0669732
2020 4.42217 0.069521
2021 4.42171 0.0698878
2022 4.41908 0.0721441
2023 4.41434 0.0770671
2024 4.41251 0.0794083
2025 4.41203 0.0798812
2026 4.40882 0.0851847
2027 4.40754 0.0878691
2028 4.40619 0.0911781
2029 4.40506 0.0949993
2030 4.40493 0.0952883
2031 4.40414 0.101765
2032 4.40403 0.102095
2033 4.40412 0.105363
2034 4.4045 0.108494
2035 4.40527 0.111205
2036 4.4059 0.113732
2037 4.40826 0.118656
2038 4.40994 0.121587
2039 4.41179 0.123969
2040 4.41186 0.124314
2041 4.41403 0.126786
2042 4.46112 0.190883
2043 4.5148 0.23699
2044 4.51736 0.238056
2045 4.57125 0.281924
2046 4.6252 0.32565
2047 4.73037 0.412196
2048 4.7837 0.456096
2049 4.78607 0.45752
2050 4.89004 0.544675
2051 4.89238 0.546239
2052 4.94157 0.576244
2053 4.942 0.57679
2054 4.95159 0.586894
2055 4.95178 0.587226
2056 4.95467 0.592566
2057 4.95652 0.603183
2058 4.95574 0.603611
2059 4.95588 0.603348
2060 4.95522 0.605752
2061 4.95389 0.607366
2062 4.95392 0.608235
2063 4.95139 0.609971
2064 4.89314 0.65017
2065 4.88981 0.652537
2066 4.75849 0.689735
2067 4.69153 0.708708
2068 4.6258 0.728143
2069 4.56018 0.749065
2070 4.55051 0.740587
2071 4.54288 0.742322
2072 4.54324 0.741509
2073 4.53733 0.744678
2074 4.53497 0.746509
2075 4.53277 0.748452
2076 4.53085 0.750385
2077 4.52847 0.753061
2078 4.52662 0.755391
2079 4.52428 0.758736
2080 4.52312 0.760808
2081 4.52118 0.764583
2082 4.51987 0.768094
2083 4.51903 0.771372
2084 4.51848 0.774748
2085 4.51819 0.778452
2086 4.51813 0.778737
2087 4.51825 0.781919
2088 4.51868 0.784896
2089 4.51928 0.787629
2090 4.521 0.792121
2091 4.52225 0.794813
2092 4.52226 0.795348
2093 4.52577 0.800479
2094 4.52499 0.824678
2095 4.60791 0.927829
2096 4.61008 0.92927
2097 4.65416 0.982794
2098 4.69772 1.03657
2099 4.74055 1.09066
2100 4.82267 1.19847
2101 4.82454 1.20042
2102 4.86575 1.25595
2103 4.94502 1.36606
2104 4.94277 1.3497
2105 4.94309 1.3503
2106 4.94758 1.35661
2107 4.95713 1.36497
2108 4.96319 1.36806
2109 4.96395 1.3689
2110 4.97755 1.36967
2111 4.97724 1.36793
2112 4.97729 1.36799
2113 4.97912 1.368
2114 4.9811 1.36633
2115 4.99632 1.374
2116 5.06112 1.26626
2117 5.06245 1.26309
2118 5.09508 1.2012
2119 5.12877 1.14003
2120 5.16369 1.07983
2121 5.23655 0.965154
2122 5.27592 0.907924
2123 5.3161 0.852244
2124 5.31785 0.849608
2125 5.40055 0.742786
2126 5.44402 0.689065
2127 5.4881 0.635971
2128 5.53288 0.583379
2129 5.53483 0.580964
2130 5.62386 0.479478
2131 5.67011 0.427928
2132 5.67215 0.425568
2133 5.71864 0.374434
2134 5.81025 0.2755
2135 5.85731 0.225328
2136 5.90454 0.175401
2137 5.95222 0.125399
2138 5.95294 0.124604
2139 6.00203 0.0734172
2140 6.04981 0.0238413
2141 6.09771 -0.0256702
2142 6.19153 -0.12216
2143 6.19374 -0.124446
2144 6.28779 -0.220533
2145 6.33604 -0.269682
2146 6.38435 -0.318818
2147 6.43268 -0.367881
2148 6.48108 -0.416945
2149 6.48335 -0.419257
2150 6.57783 -0.514822
2151 6.6263 -0.563762
2152 6.67475 -0.612642
2153 6.72324 -0.661516
2154 6.7256 -0.66389
2155 6.8203 -0.759232
2156 6.82265 -0.761601
2157 6.91736 -0.856875
2158 6.96589 -0.905683
2159 7.01443 -0.954487
2160 7.06298 -1.00329
2161 7.11153 -1.05208
2162 7.16008 -1.10087
2163 7.16246 -1.10327
2164 7.21102 -1.15206
2165 7.25958 -1.20085
2166 7.30815 -1.24964
2167 7.40289 -1.3448
2168 7.45146 -1.39358
2169 7.50003 -1.44236
2170 7.54861 -1.49113
2171 7.59718 -1.5399
2172 7.64576 -1.58867
2173 7.64816 -1.59108
2174 7.74292 -1.68621
2175 7.7915 -1.73497
2176 7.84009 -1.78373
2177 7.88867 -1.8325
2178 7.93726 -1.88126
2179 7.98585 -1.93001
2180 8.03445 -1.97877
2181 8.01936 -1.96378
2182 8.02059 -1.96499
2183 8.0296 -1.97265
2184 8.03063 -1.97353
2185 8.03952 -1.97728
2186 8.04445 -1.97811
2187 8.04774 -1.9779
2188 8.04713 -1.97798
2189 8.04655 -1.97932
2190 8.04651 -1.98094
2191 8.04965 -1.98029
2192 8.09913 -1.93755
2193 8.13508 -1.87772
2194 8.13634 -1.87463
2195 8.16985 -1.81385
2196 8.20471 -1.75437
2197 8.24133 -1.69628
2198 8.31823 -1.58552
2199 8.31992 -1.58285
2200 8.4026 -1.47635
2201 8.40452 -1.47379
2202 8.44874 -1.42077
2203 8.53753 -1.3195
2204 8.58404 -1.26867
2205 8.63108 -1.21847
2206 8.63315 -1.21615
2207 8.72668 -1.11949
2208 8.72885 -1.11719
2209 8.82356 -1.02185
2210 8.82587 -1.01952
2211 8.92174 -0.925227
2212 8.97119 -0.877242
2213 9.02073 -0.829509
2214 9.02309 -0.827225
2215 9.07291 -0.779585
2216 9.12285 -0.732098
2217 9.17291 -0.684739
2218 9.22306 -0.637491
2219 9.32114 -0.545535
2220 9.37144 -0.498576
2221 9.42194 -0.451547
2222 9.4243 -0.449333
2223 9.47473 -0.402491
2224 9.52523 -0.355681
2225 9.57578 -0.308884
2226 9.67451 -0.217665
2227 9.72505 -0.171034
2228 9.77569 -0.124383
2229 9.77816 -0.122102
2230 9.82883 -0.075462
2231 9.92771 0.0154711
2232 9.97838 0.0620463
2233 9.98086 0.0643281
2234 10.0798 0.155185
2235 10.0823 0.15747
2236 10.133 0.204024
2237 10.1837 0.250569
2238 10.2344 0.297115
2239 10.3333 0.387912
2240 10.3185 0.375018
2241 10.3255 0.380934
2242 10.3318 0.385234
2243 10.3396 0.389055
2244 10.348 0.391453
2245 10.3495 0.392302
2246 10.3555 0.390984
2247 10.3562 0.391422
2248 10.3557 0.392599
2249 10.3592 0.392428
2250 10.3619 0.391116
2251 10.4247 0.352575
2252 10.4727 0.300531
2253 10.4742 0.297833
2254 10.52 0.246169
2255 10.6131 0.148368
2256 10.6624 0.0999201
2257 10.6643 0.0976109
2258 10.7146 0.050465
2259 10.8155 -0.0385604
2260 10.8179 -0.0407182
2261 10.9216 -0.126734
2262 10.976 -0.169905
2263 10.9783 -0.171868
2264 11.0327 -0.214155
2265 11.1401 -0.295069
2266 11.1425 -0.296977
2267 11.2509 -0.37637
2268 11.3066 -0.416418
2269 11.3626 -0.456273
2270 11.3653 -0.458197
2271 11.4754 -0.535668
2272 11.4779 -0.537517
2273 11.5343 -0.576858
2274 11.6449 -0.653394
2275 11.6475 -0.655252
2276 11.7043 -0.694336
2277 11.8153 -0.770358
2278 11.8179 -0.772209
2279 11.8748 -0.810995
2280 11.986 -0.886566
2281 12.043 -0.925171
2282 12.1 -0.963776
2283 12.1571 -1.00229
2284 12.1598 -1.00416
2285 12.2169 -1.04267
2286 12.3283 -1.11774
2287 12.331 -1.11961
2288 12.4425 -1.19463
2289 12.4453 -1.1965
2290 12.5568 -1.27144
2291 12.6139 -1.30982
2292 12.6167 -1.3117
2293 12.6738 -1.35008
2294 12.7853 -1.4249
2295 12.7881 -1.42679
2296 12.8453 -1.46514
2297 12.9025 -1.50348
2298 13.014 -1.57824
2299 13.0712 -1.61655
2300 13.0741 -1.61844
2301 13.1856 -1.69314
2302 13.2429 -1.73147
2303 13.2457 -1.73335
2304 13.3029 -1.77164
2305 13.4144 -1.84635
2306 13.397 -1.83504
2307 13.4033 -1.83898
2308 13.4044 -1.83971
2309 13.4096 -1.84233
2310 13.4171 -1.84493
2311 13.4197 -1.84545
2312 13.4227 -1.84595
2313 13.4255 -1.84617
2314 13.4514 -1.85633
2315 13.5123 -1.84202
2316 13.6402 -1.7982
2317 13.7055 -1.77685
2318 13.7082 -1.77567
2319 13.774 -1.75559
2320 13.9041 -1.72004
2321 13.9713 -1.70379
2322 14.0386 -1.68885
2323 14.1065 -1.67505
2324 14.0825 -1.67235
2325 14.0864 -1.67052
2326 14.0866 -1.67086
2327 14.0863 -1.67124
2328 14.0867 -1.6716
2329 14.0873 -1.67191
2330 14.0886 -1.67188
2331 14.0921 -1.67017
2332 14.0943 -1.66808
2333 14.0952 -1.66781
2334 14.0971 -1.66516
2335 14.0983 -1.65956
2336 14.0989 -1.65641
2337 14.0993 -1.65608
2338 14.117 -1.64074
2339 14.1066 -1.57791
2340 14.091 -1.51017
2341 14.0642 -1.37694
2342 14.0524 -1.30834
2343 14.0515 -1.30546
2344 14.042 -1.23674
2345 14.0294 -1.10187
2346 14.0252 -1.03301
2347 14.0224 -0.963998
2348 14.0209 -0.894964
2349 14.0203 -0.826035
2350 14.0202 -0.757114
2351 14.0207 -0.688626
2352 14.0145 -0.699216
2353 14.0146 -0.698333
2354 14.016 -0.680685
2355 14.0163 -0.679174
2356 14.0183 -0.668797
2357 14.0215 -0.658548
2358 14.0244 -0.653843
2359 14.0269 -0.649979
2360 14.0273 -0.649027
2361 14.0302 -0.646763
2362 14.0334 -0.644905
2363 14.0396 -0.643217
2364 14.0401 -0.642682
2365 14.0421 -0.643045
2366 14.1137 -0.622348
2367 14.1849 -0.615225
2368 14.2536 -0.609806
2369 14.3222 -0.602787
2370 14.3063 -0.616457
2371 14.3166 -0.61629
2372 14.3163 -0.616523
2373 14.3147 -0.616669
2374 14.3154 -0.616238
2375 14.3153 -0.616073
2376 14.3152 -0.615993
2377 14.3144 -0.616155
2378 14.3155 -0.615556
2379 14.3918 -0.584618
2380 14.4592 -0.557669
2381 14.5228 -0.53154
2382 14.525 -0.530667
2383 14.6494 -0.476715
2384 14.6517 -0.475709
2385 14.6997 -0.454687
2386 14.7034 -0.452754
2387 14.7057 -0.451338
2388 14.7091 -0.449087
2389 14.7097 -0.448759
2390 14.7124 -0.446675
2391 14.7167 -0.442699
2392 14.7155 -0.443631
2393 14.7161 -0.443288
2394 14.7156 -0.444095
2395 14.7158 -0.444159
2396 14.7158 -0.444357
2397 14.7164 -0.443947
2398 14.7161 -0.444921
2399 14.7161 -0.444974
2400 14.7161 -0.446674
2401 14.7181 -0.446818
2402 14.717 -0.443903
2403 14.7135 -0.439829
2404 14.7111 -0.437636
2405 14.7111 -0.437195
2406 14.7124 -0.417284
2407 14.5936 -0.365168
2408 14.5902 -0.364892
2409 14.5256 -0.337935
2410 14.4031 -0.280147
2411 14.3965 -0.292174
2412 14.3967 -0.294171
2413 14.3968 -0.293948
2414 14.3974 -0.294324
2415 14.3978 -0.294441
2416 14.3981 -0.294428
2417 14.3984 -0.294537
2418 14.3985 -0.294532
2419 14.3982 -0.293904
2420 14.3972 -0.292737
2421 14.3966 -0.291614
2422 14.3964 -0.29119
2423 14.396 -0.288056
2424 14.3967 -0.284181
2425 14.3979 -0.28263
2426 14.4001 -0.279707
2427 14.4028 -0.277761
2428 14.4059 -0.275998
2429 14.4089 -0.274776
2430 14.4681 -0.238497
2431 14.5358 -0.217881
2432 14.539 -0.217809
2433 14.6703 -0.179292
2434 14.7361 -0.158761
2435 14.8015 -0.136929
2436 14.8672 -0.113578
2437 14.9319 -0.0897364
2438 14.9347 -0.0890563
2439 14.9854 -0.0791499
2440 14.9913 -0.0778883
2441 14.99 -0.0781364
2442 14.9905 -0.0777066
2443 14.9894 -0.0779368
2444 14.9891 -0.0778323
2445 14.9889 -0.0777561
2446 14.9888 -0.0776604
2447 14.9886 -0.0775934
2448 14.9885 -0.0775343
2449 14.9884 -0.0774752
2450 14.9883 -0.0774268
2451 14.9882 -0.0773594
2452 14.9882 -0.077314
2453 14.9881 -0.0772812
2454 14.9881 -0.0772449
2455 14.988 -0.0772115
2456 14.988 -0.0771791
2457 14.9882 -0.0770404
2458 14.9882 -0.0770218
2459 14.9882 -0.0770047
2460 14.9879 -0.077093
2461 14.9879 -0.0770891
2462 14.9878 -0.0770766
2463 14.9878 -0.0770626
2464 14.9878 -0.0770466
2465 14.9878 -0.0770269
2466 14.9878 -0.0770214
2467 14.9878 -0.0770108
2468 14.9878 -0.0770028
2469 14.9878 -0.0769931
2470 14.9878 -0.0769945
2471 14.9878 -0.0769877
2472 14.9878 -0.0769878
2473 14.9879 -0.0769361
2474 14.9878 -0.0769794
2475 14.9879 -0.0769348
2476 14.9878 -0.0769612
2477 14.9879 -0.0769245
2478 14.9878 -0.0769489
2479 14.9879 -0.0769141
2480 14.9879 -0.0769096
2481 14.9879 -0.0769297
2482 14.9878 -0.0769371
2483 14.9878 -0.0769373
2484 14.9878 -0.0769366
2485 14.9878 -0.0769348
2486 14.9879 -0.0769102
2487 14.9878 -0.0769293
2488 14.9879 -0.0769147
2489 14.9879 -0.0769142
2490 14.9879 -0.0768965
2491 14.9879 -0.0769035
2492 14.9879 -0.076889
2493 14.9879 -0.0768955
2494 14.9879 -0.0768902
2495 14.988 -0.076879
2496 14.9879 -0.0769004
2497 14.9879 -0.0768959
2498 14.9879 -0.0768838
2499 14.9879 -0.0768811
2500 14.988 -0.0768755
2501 14.988 -0.0768678
2502 14.988 -0.0768611
2503 14.988 -0.076858
2504 14.988 -0.0768606
2505 14.988 -0.0768574
2506 14.988 -0.0768561
2507 14.988 -0.0768588
2508 14.988 -0.0768598
2509 14.988 -0.0768581
2510 14.988 -0.0768554
2511 14.988 -0.0768551
2512 14.988 -0.0768421
2513 14.988 -0.0768416
2514 14.9881 -0.0768333
2515 14.9881 -0.0768372
2516 14.9881 -0.0768345
2517 14.9881 -0.0768333
2518 14.9881 -0.0768374
2519 14.988 -0.0768429
2520 14.9881 -0.0768365
2521 14.9881 -0.0768377
2522 14.9881 -0.0768317
2523 14.988 -0.0768401
2524 14.9881 -0.0768358
2525 14.988 -0.0768411
2526 14.9881 -0.0768292
2527 14.9881 -0.0768297
2528 14.9881 -0.0768219
2529 14.9881 -0.0768212
2530 14.9881 -0.0768145
2531 14.9881 -0.0768178
2532 14.9881 -0.0768081
2533 14.9881 -0.0768046
2534 14.9881 -0.0768072
2535 14.9881 -0.0768081
2536 14.9881 -0.0768146
2537 14.9881 -0.0768102
2538 14.9881 -0.076805
2539 14.9881 -0.0768113
2540 14.9881 -0.0768044
2541 14.9881 -0.0768126
2542 14.9881 -0.0768092
2543 14.9881 -0.076815
2544 14.9881 -0.0768181
2545 14.9881 -0.0768166
2546 14.9881 -0.0768146
2547 14.9882 -0.0767926
2548 14.9881 -0.0768079
2549 14.9882 -0.0767934
2550 14.9881 -0.0768029
2551 14.9881 -0.0767989
2552 14.9881 -0.0768015
2553 14.9881 -0.0768002
2554 14.9881 -0.0767981
2555 14.9882 -0.0767817
2556 14.9882 -0.0767872
2557 14.9882 -0.0767967
2558 14.9882 -0.0767925
2559 14.9882 -0.0767885
2560 14.9882 -0.0767832
2561 14.9882 -0.076769
2562 14.9882 -0.0767705
2563 14.9882 -0.076761
2564 14.9882 -0.0767591
2565 14.9883 -0.0767387
2566 14.9883 -0.07674
2567 14.9883 -0.0767426
2568 14.9883 -0.0767433
2569 14.9883 -0.0767437
2570 14.9883 -0.0767426
2571 14.9883 -0.0767364
2572 14.9883 -0.0767359
2573 14.9883 -0.0767344
2574 14.9883 -0.076733
2575 14.9883 -0.0767267
2576 14.9883 -0.0767261
2577 14.9883 -0.0767272
2578 14.9883 -0.0767286
2579 14.9883 -0.0767251
2580 14.9883 -0.0767165
2581 14.9883 -0.0767288
2582 14.9883 -0.0767236
2583 14.9883 -0.0767183
2584 14.9883 -0.0767222
2585 14.9883 -0.0767171
2586 14.9884 -0.0767062
2587 14.9884 -0.0767099
2588 14.9884 -0.0767021
2589 14.9883 -0.0767216
2590 14.9884 -0.0767077
2591 14.9884 -0.0767062
2592 14.9884 -0.0767039
2593 14.9884 -0.0767057
2594 14.9884 -0.0767026
2595 14.9884 -0.0766969
2596 14.9884 -0.0766977
2597 14.9884 -0.0766917
2598 14.9884 -0.0766893
2599 14.9884 -0.076691
2600 14.9884 -0.0766786
2601 14.9884 -0.0766856
2602 14.9884 -0.0766832
2603 14.9884 -0.0766836
2604 14.9884 -0.0766847
2605 14.9885 -0.0766742
2606 14.9885 -0.0766703
2607 14.9885 -0.0766692
2608 14.9885 -0.0766684
2609 14.9885 -0.0766659
2610 14.9885 -0.076663
2611 14.9885 -0.076657
2612 14.9885 -0.0766533
2613 14.9885 -0.0766472
2614 14.9885 -0.0766536
2615 14.9885 -0.0766463
2616 14.9885 -0.0766527
2617 14.9885 -0.0766584
2618 14.9885 -0.0766547
2619 14.9885 -0.0766518
2620 14.9885 -0.0766514
2621 14.9885 -0.0766546
2622 14.9885 -0.0766579
2623 14.9885 -0.0766563
2624 14.9885 -0.0766635
2625 14.9885 -0.0766626
2626 14.9885 -0.076663
2627 14.9885 -0.076659
2628 14.9885 -0.0766595
2629 14.9885 -0.0766525
2630 14.9886 -0.0766327
2631 14.9886 -0.0766306
2632 14.9886 -0.0766269
2633 14.9886 -0.0766254
2634 14.9886 -0.0766294
2635 14.9886 -0.0766251
2636 14.9886 -0.076624
2637 14.9886 -0.0766189
2638 14.9886 -0.0766203
2639 14.9886 -0.0766192
2640 14.9886 -0.076626
2641 14.9886 -0.0766284
2642 14.9886 -0.076627
2643 14.9886 -0.0766258
2644 14.9886 -0.07662
2645 14.9886 -0.0766258
2646 14.9886 -0.0766205
2647 14.9886 -0.0766194
2648 14.9886 -0.0766137
2649 14.9886 -0.0766082
2650 14.9886 -0.0766069
2651 14.9886 -0.0766234
2652 14.9886 -0.0766237
2653 14.9886 -0.0766241
2654 14.9886 -0.0766228
2655 14.9886 -0.0766242
2656 14.9886 -0.076626
2657 14.9886 -0.0766191
2658 14.9886 -0.0766201
2659 14.9886 -0.0766132
2660 14.9886 -0.0766101
2661 14.9886 -0.0766185
2662 14.9886 -0.0766152
2663 14.9886 -0.0766227
2664 14.9886 -0.0766192
2665 14.9886 -0.0766208
2666 14.9886 -0.0766152
2667 14.9886 -0.0766146
2668 14.9886 -0.0766155
2669 14.9886 -0.0766102
2670 14.9886 -0.0766095
2671 14.9886 -0.0766065
2672 14.9886 -0.0766033
2673 14.9886 -0.0766021
2674 14.9886 -0.0765951
2675 14.9886 -0.0766008
2676 14.9886 -0.0766031
2677 14.9886 -0.0766055
2678 14.9886 -0.0766033
2679 14.9886 -0.0766051
2680 14.9886 -0.0766048
2681 14.9886 -0.0766063
2682 14.9886 -0.0766033
2683 14.9886 -0.0766034
2684 14.9886 -0.0766157
2685 14.9886 -0.0765994
2686 14.9886 -0.0765935
2687 14.9886 -0.0765985
2688 14.9886 -0.0766007
2689 14.9886 -0.076594
2690 14.9886 -0.0766017
2691 14.9886 -0.0765992
2692 14.9887 -0.0765915
2693 14.9887 -0.0765916
2694 14.9886 -0.0766159
2695 14.9886 -0.0766034
2696 14.9886 -0.0766067
2697 14.9886 -0.0766052
2698 14.9886 -0.0765971
2699 14.9887 -0.076587
2700 14.9887 -0.0765913
2701 14.9887 -0.0765915
2702 14.9887 -0.0765921
2703 14.9887 -0.076573
2704 14.9887 -0.0765843
2705 14.9887 -0.076582
2706 14.9887 -0.0765748
2707 14.9887 -0.0765781
2708 14.9887 -0.0765757
2709 14.9887 -0.0765755
2710 14.9887 -0.0765693
2711 14.9887 -0.0765689
2712 14.9887 -0.0765765
2713 14.9887 -0.07657
2714 14.9887 -0.0765765
2715 14.9887 -0.0765817
2716 14.9887 -0.0765806
2717 14.9887 -0.0765841
2718 14.9887 -0.0765856
2719 14.9887 -0.076581
2720 14.9887 -0.0765805
2721 14.9887 -0.0765794
2722 14.9887 -0.07658
2723 14.9887 -0.0765808
2724 14.9887 -0.0765809
2725 14.9887 -0.0765776
2726 14.9887 -0.0765778
2727 14.9887 -0.0765778
2728 14.9887 -0.0765782
2729 14.9887 -0.0765822
2730 14.9887 -0.076577
2731 14.9887 -0.0765797
2732 14.9887 -0.0765784
2733 14.9887 -0.076566
2734 14.9887 -0.0765647
2735 14.9887 -0.0765682
2736 14.9887 -0.0765722
2737 14.9887 -0.0765687
2738 14.9887 -0.0765563
2739 14.9887 -0.0765706
2740 14.9887 -0.0765651
2741 14.9887 -0.0765652
2742 14.9887 -0.0765518
2743 14.9888 -0.0765502
2744 14.9888 -0.076532
2745 14.9888 -0.0765377
2746 14.9888 -0.0765255
2747 14.9888 -0.0765231
2748 14.9888 -0.0765251
2749 14.9888 -0.0765258
2750 14.9888 -0.0765245
2751 14.9888 -0.0765205
2752 14.9888 -0.0765234
2753 14.9888 -0.0765212
2754 14.9888 -0.076522
2755 14.9888 -0.0765213
2756 14.9888 -0.0765204
2757 14.9888 -0.0765187
2758 14.9889 -0.0765098
2759 14.9888 -0.0765141
2760 14.9889 -0.076507
2761 14.9889 -0.0765072
2762 14.9889 -0.0765067
2763 14.9889 -0.0765086
2764 14.9889 -0.0765103
2765 14.9888 -0.0765111
2766 14.9889 -0.0765067
2767 14.9889 -0.0765056
2768 14.9889 -0.0765056
2769 14.9889 -0.0764976
2770 14.9889 -0.076492
2771 14.9888 -0.0765141
2772 14.9889 -0.0765082
2773 14.9889 -0.0765008
2774 14.9889 -0.0764963
2775 14.9889 -0.0764905
2776 14.9889 -0.0764919
2777 14.9889 -0.0764884
2778 14.9889 -0.076478
2779 14.9889 -0.0764861
2780 14.9889 -0.0764856
2781 14.9889 -0.0764915
2782 14.9889 -0.0764927
2783 14.9889 -0.0764881
2784 14.9889 -0.0764919
2785 14.9889 -0.0764921
2786 14.9889 -0.0764974
2787 14.9889 -0.0764857
2788 14.9889 -0.0764909
2789 14.9889 -0.0765057
2790 14.9889 -0.0765009
2791 14.9889 -0.0764943
2792 14.9889 -0.0764865
2793 14.9889 -0.0764853
2794 14.9889 -0.0764889
2795 14.9889 -0.076486
2796 14.9889 -0.0764829
2797 14.9889 -0.0764775
2798 14.9889 -0.0764807
2799 14.9889 -0.0764855
2800 14.9889 -0.0764877
2801 14.9889 -0.0764773
2802 14.9889 -0.0764795
2803 14.9889 -0.0764743
2804 14.9889 -0.0764745
2805 14.989 -0.0764678
2806 14.989 -0.0764644
2807 14.989 -0.076463
2808 14.989 -0.0764638
2809 14.9889 -0.0764716
2810 14.989 -0.0764648
2811 14.989 -0.0764596
2812 14.989 -0.0764589
2813 14.989 -0.0764527
2814 14.989 -0.0764514
2815 14.989 -0.0764487
2816 14.989 -0.076442
2817 14.989 -0.0764292
2818 14.989 -0.0764325
2819 14.989 -0.076433
2820 14.9891 -0.0764234
2821 14.9891 -0.076422
2822 14.9891 -0.0764214
2823 14.9891 -0.0764174
2824 14.9891 -0.0764145
2825 14.9891 -0.0764126
2826 14.9891 -0.0764158
2827 14.9891 -0.0764088
2828 14.9891 -0.0764106
2829 14.9891 -0.0764115
2830 14.9891 -0.0764183
2831 14.9891 -0.076423
2832 14.9891 -0.0764202
2833 14.9891 -0.076426
2834 14.989 -0.0764342
2835 14.989 -0.0764346
2836 14.9891 -0.0764272
2837 14.989 -0.0764296
2838 14.989 -0.0764307
2839 14.9891 -0.0764277
2840 14.9891 -0.0764287
2841 14.989 -0.0764378
2842 14.989 -0.0764324
2843 14.989 -0.0764321
2844 14.989 -0.0764334
2845 14.9891 -0.0764192
2846 14.9891 -0.0764247
2847 14.9891 -0.0764247
2848 14.9891 -0.0764196
2849 14.9891 -0.0764175
2850 14.9891 -0.0764253
2851 14.9891 -0.0764235
2852 14.9891 -0.0764243
2853 14.9891 -0.0764251
2854 14.9891 -0.0764244
2855 14.9891 -0.0764203
2856 14.9891 -0.0764136
2857 14.9891 -0.0764029
2858 14.9891 -0.0764069
2859 14.9891 -0.0764065
2860 14.9891 -0.0764004
2861 14.9891 -0.0763967
2862 14.9891 -0.0764052
2863 14.9891 -0.076414
2864 14.9891 -0.076401
2865 14.9891 -0.0764074
2866 14.9891 -0.0764043
2867 14.9891 -0.0763897
2868 14.9891 -0.0763895
2869 14.9891 -0.0763879
2870 14.9892 -0.0763805
2871 14.9892 -0.0763765
2872 14.9892 -0.0763814
2873 14.9892 -0.0763761
2874 14.9892 -0.0763703
2875 14.9892 -0.0763718
2876 14.9892 -0.0763722
2877 14.9892 -0.0763724
2878 14.9892 -0.0763756
2879 14.9892 -0.0763775
2880 14.9892 -0.0763666
2881 14.9892 -0.0763755
2882 14.9892 -0.0763731
2883 14.9892 -0.0763733
2884 14.9892 -0.076375
2885 14.9892 -0.0763764
2886 14.9892 -0.0763557
2887 14.9892 -0.076363
2888 14.9892 -0.0763723
2889 14.9892 -0.0763653
2890 14.9892 -0.0763684
2891 14.9892 -0.0763619
2892 14.9892 -0.0763686
2893 14.9892 -0.0763518
2894 14.9892 -0.0763528
2895 14.9892 -0.0763512
2896 14.9892 -0.0763625
2897 14.9892 -0.0763655
2898 14.9892 -0.0763638
2899 14.9892 -0.0763544
2900 14.9892 -0.0763597
2901 14.9892 -0.0763492
2902 14.9892 -0.076347
2903 14.9892 -0.0763511
2904 14.9892 -0.076358
2905 14.9892 -0.0763562
2906 14.9892 -0.0763574
2907 14.9892 -0.0763585
2908 14.9892 -0.0763781
2909 14.9892 -0.0763774
2910 14.9892 -0.076368
2911 14.9892 -0.0763659
2912 14.9892 -0.0763706
2913 14.9892 -0.0763654
2914 14.9892 -0.0763552
2915 14.9892 -0.0763572
2916 14.9892 -0.0763561
2917 14.9892 -0.0763557
2918 14.9892 -0.0763484
2919 14.9892 -0.0763593
2920 14.9892 -0.0763593
2921 14.9892 -0.0763569
2922 14.9892 -0.0763539
2923 14.9893 -0.0763445
2924 14.9892 -0.0763509
2925 14.9892 -0.0763537
2926 14.9892 -0.0763489
2927 14.9892 -0.0763523
2928 14.9892 -0.0763494
2929 14.9892 -0.0763545
2930 14.9892 -0.0763468
2931 14.9893 -0.0763361
2932 14.9893 -0.0763419
2933 14.9893 -0.0763431
2934 14.9893 -0.076336
2935 14.9893 -0.0763418
2936 14.9893 -0.0763427
2937 14.9893 -0.0763435
2938 14.9893 -0.07634
2939 14.9893 -0.0763324
2940 14.9893 -0.0763363
2941 14.9893 -0.0763305
2942 14.9893 -0.0763269
2943 14.9893 -0.0763253
2944 14.9893 -0.0763267
2945 14.9893 -0.0763255
2946 14.9893 -0.076326
2947 14.9893 -0.0763257
2948 14.9893 -0.0763195
2949 14.9893 -0.0763178
2950 14.9893 -0.0763224
2951 14.9893 -0.0763259
2952 14.9893 -0.0763242
2953 14.9893 -0.0763248
2954 14.9893 -0.0763271
2955 14.9893 -0.0763249
2956 14.9893 -0.0763206
2957 14.9893 -0.0763244
2958 14.9893 -0.0763149
2959 14.9893 -0.0763179
2960 14.9893 -0.0763134
2961 14.9893 -0.0763068
2962 14.9894 -0.0763037
2963 14.9894 -0.076297
2964 14.9894 -0.0762964
2965 14.9894 -0.0762929
2966 14.9894 -0.0763009
2967 14.9894 -0.0762991
2968 14.9894 -0.0762874
2969 14.9894 -0.0762878
2970 14.9894 -0.0762848
2971 14.9894 -0.0762821
2972 14.9894 -0.0762799
2973 14.9894 -0.0762682
2974 14.9895 -0.0762644
2975 14.9895 -0.0762604
2976 14.9895 -0.0762633
2977 14.9895 -0.0762606
2978 14.9895 -0.0762451
2979 14.9895 -0.0762437
2980 14.9895 -0.076241
2981 14.9895 -0.0762424
2982 14.9895 -0.0762402
2983 14.9895 -0.0762389
2984 14.9895 -0.0762541
2985 14.9895 -0.0762495
2986 14.9895 -0.0762364
2987 14.9895 -0.0762395
2988 14.9895 -0.0762403
2989 14.9895 -0.0762404
2990 14.9895 -0.0762416
2991 14.9895 -0.0762393
2992 14.9895 -0.0762364
2993 14.9895 -0.0762346
2994 14.9895 -0.076228
2995 14.9896 -0.0762169
2996 14.9896 -0.0762138
2997 14.9896 -0.0762089
2998 14.9896 -0.0762127
2999 14.9896 -0.0762139
3000 14.9896 -0.0762115
3001 14.9896 -0.0762045
3002 14.9896 -0.0762048
3003 14.9896 -0.0762025
3004 14.9896 -0.0762049
3005 14.9896 -0.0762005
3006 14.9896 -0.0761963
3007 14.9896 -0.076187
3008 14.9896 -0.0761897
3009 14.9896 -0.0761878
3010 14.9896 -0.0761916
3011 14.9896 -0.0761944
3012 14.9896 -0.0761911
3013 14.9896 -0.0761875
3014 14.9896 -0.076185
3015 14.9896 -0.076186
3016 14.9897 -0.0761705
3017 14.9897 -0.0761647
3018 14.9897 -0.0761719
3019 14.9897 -0.0761723
3020 14.9897 -0.0761619
3021 14.9897 -0.0761606
3022 14.9897 -0.0761602
3023 14.9897 -0.0761587
3024 14.9897 -0.0761589
3025 14.9897 -0.0761544
3026 14.9897 -0.0761539
3027 14.9897 -0.076155
3028 14.9897 -0.0761537
3029 14.9897 -0.0761471
3030 14.9897 -0.0761522
3031 14.9897 -0.0761517
3032 14.9897 -0.0761525
3033 14.9897 -0.0761493
3034 14.9897 -0.0761504
3035 14.9897 -0.0761494
3036 14.9897 -0.076156
3037 14.9897 -0.0761433
3038 14.9897 -0.0761513
3039 14.9897 -0.0761599
3040 14.9897 -0.0761469
3041 14.9897 -0.0761492
3042 14.9897 -0.076151
3043 14.9898 -0.0761416
3044 14.9897 -0.0761473
3045 14.9897 -0.0761459
3046 14.9898 -0.0761247
3047 14.9898 -0.0761277
3048 14.9898 -0.0761221
3049 14.9898 -0.0761112
3050 14.9898 -0.0761147
3051 14.9898 -0.0761156
3052 14.9898 -0.0761026
3053 14.9898 -0.0761052
3054 14.9898 -0.0761056
3055 14.9898 -0.0761179
3056 14.9898 -0.07611
3057 14.9898 -0.0761042
3058 14.9899 -0.0760956
3059 14.9898 -0.0761016
3060 14.9899 -0.0760964
3061 14.9899 -0.0760952
3062 14.9899 -0.0760972
3063 14.9899 -0.0760983
3064 14.9899 -0.0760984
3065 14.9899 -0.0760991
3066 14.9899 -0.0760799
3067 14.9899 -0.0760959
3068 14.9899 -0.0760941
3069 14.9899 -0.0760952
3070 14.9899 -0.0760927
3071 14.9899 -0.0760791
3072 14.9899 -0.0760829
3073 14.9899 -0.0760756
3074 14.9899 -0.0760786
3075 14.9899 -0.0760893
3076 14.9899 -0.0760825
3077 14.9899 -0.0760715
3078 14.9899 -0.0760758
3079 14.9899 -0.0760727
3080 14.9899 -0.0760734
3081 14.9899 -0.0760677
3082 14.99 -0.0760493
3083 14.99 -0.0760489
3084 14.99 -0.0760457
3085 14.99 -0.0760492
3086 14.99 -0.0760472
3087 14.99 -0.0760491
3088 14.99 -0.0760416
3089 14.99 -0.0760442
3090 14.99 -0.0760296
3091 14.99 -0.0760322
3092 14.99 -0.0760312
3093 14.99 -0.0760327
3094 14.99 -0.0760324
3095 14.99 -0.0760308
3096 14.99 -0.0760323
3097 14.99 -0.0760233
3098 14.99 -0.0760216
3099 14.99 -0.0760349
3100 14.99 -0.0760284
3101 14.99 -0.0760271
3102 14.99 -0.0760218
3103 14.99 -0.0760205
3104 14.9901 -0.0760157
3105 14.9901 -0.0760182
3106 14.9901 -0.0760161
3107 14.99 -0.0760236
3108 14.9901 -0.0760165
3109 14.9901 -0.0760097
3110 14.9901 -0.0760106
3111 14.9901 -0.0760077
3112 14.9901 -0.0760092
3113 14.9901 -0.0760092
3114 14.9901 -0.0760027
3115 14.9901 -0.0759986
3116 14.9901 -0.0759971
3117 14.9901 -0.0759909
3118 14.9901 -0.0759886
3119 14.9901 -0.0759921
3120 14.9901 -0.0759982
3121 14.9901 -0.0759981
3122 14.9901 -0.075997
3123 14.9901 -0.0759906
3124 14.9901 -0.0759982
3125 14.9901 -0.0760007
3126 14.9901 -0.0759993
3127 14.9901 -0.076006
3128 14.9901 -0.0760134
3129 14.9901 -0.0760111
3130 14.9901 -0.0760115
3131 14.9901 -0.0760136
3132 14.9901 -0.0760068
3133 14.9901 -0.0760094
3134 14.9901 -0.0760093
3135 14.9901 -0.0760093
3136 14.9901 -0.0760101
3137 14.9901 -0.0759911
3138 14.9901 -0.0760025
3139 14.9901 -0.0760002
3140 14.9901 -0.0759977
3141 14.9901 -0.075994
3142 14.9901 -0.0760038
3143 14.9901 -0.0759975
3144 14.9901 -0.0759912
3145 14.9901 -0.0759934
3146 14.9901 -0.0759939
3147 14.9901 -0.0759903
3148 14.9901 -0.0759831
3149 14.9902 -0.0759742
3150 14.9901 -0.0759791
3151 14.9902 -0.0759758
3152 14.9902 -0.075965
3153 14.9902 -0.0759607
3154 14.9902 -0.075968
3155 14.9902 -0.0759632
3156 14.9902 -0.0759527
3157 14.9903 -0.0759332
3158 14.9903 -0.0759314
3159 14.9903 -0.0759371
3160 14.9902 -0.0759385
3161 14.9902 -0.0759404
3162 14.9902 -0.0759418
3163 14.9903 -0.0759323
3164 14.9902 -0.0759412
3165 14.9902 -0.0759382
3166 14.9903 -0.0759229
3167 14.9903 -0.0759284
3168 14.9903 -0.0759271
3169 14.9903 -0.0759202
3170 14.9903 -0.0759158
3171 14.9903 -0.0759166
3172 14.9903 -0.0759178
3173 14.9903 -0.0759231
3174 14.9903 -0.0759235
3175 14.9903 -0.0759291
3176 14.9902 -0.075944
3177 14.9903 -0.0759362
3178 14.9903 -0.0759357
3179 14.9902 -0.0759378
3180 14.9903 -0.0759336
3181 14.9903 -0.0759323
3182 14.9903 -0.0759331
3183 14.9903 -0.0759365
3184 14.9903 -0.0759304
3185 14.9903 -0.0759298
3186 14.9903 -0.0759247
3187 14.9903 -0.07592
3188 14.9903 -0.0759166
3189 14.9903 -0.0759154
3190 14.9903 -0.0759118
3191 14.9903 -0.0759041
3192 14.9903 -0.0758987
3193 14.9903 -0.0758985
3194 14.9903 -0.0758976
3195 14.9904 -0.0758903
3196 14.9904 -0.075895
3197 14.9904 -0.0758943
3198 14.9903 -0.0759053
3199 14.9903 -0.0759014
3200 14.9903 -0.0759012
3201 14.9904 -0.0758912
3202 14.9903 -0.0759039
3203 14.9903 -0.0759012
3204 14.9903 -0.0759012
3205 14.9903 -0.0758972
3206 14.9904 -0.0758908
3207 14.9904 -0.0758929
3208 14.9904 -0.0758884
3209 14.9904 -0.075877
3210 14.9904 -0.0758788
3211 14.9904 -0.0758795
3212 14.9904 -0.0758809
3213 14.9904 -0.0758803
3214 14.9904 -0.0758853
3215 14.9904 -0.075878
3216 14.9904 -0.0758836
3217 14.9904 -0.075875
3218 14.9904 -0.0758764
3219 14.9904 -0.0758567
3220 14.9904 -0.0758647
3221 14.9904 -0.0758662
3222 14.9904 -0.0758615
3223 14.9904 -0.0758616
3224 14.9904 -0.0758582
3225 14.9905 -0.0758551
3226 14.9905 -0.0758536
3227 14.9905 -0.075847
3228 14.9905 -0.0758403
3229 14.9905 -0.0758417
3230 14.9905 -0.0758246
3231 14.9905 -0.0758301
3232 14.9905 -0.0758316
3233 14.9905 -0.0758329
3234 14.9905 -0.0758236
3235 14.9905 -0.0758273
3236 14.9905 -0.075829
3237 14.9905 -0.0758282
3238 14.9905 -0.0758269
3239 14.9905 -0.0758239
3240 14.9905 -0.0758285
3241 14.9905 -0.0758227
3242 14.9905 -0.075825
3243 14.9905 -0.0758185
3244 14.9905 -0.0758206
3245 14.9905 -0.0758194
3246 14.9905 -0.075816
3247 14.9905 -0.0758195
3248 14.9905 -0.0758156
3249 14.9905 -0.075819
3250 14.9905 -0.0758163
3251 14.9905 -0.0758149
3252 14.9906 -0.0758121
3253 14.9906 -0.0758127
3254 14.9905 -0.0758221
3255 14.9905 -0.0758157
3256 14.9905 -0.0758264
3257 14.9905 -0.0758215
3258 14.9905 -0.0758266
3259 14.9906 -0.0758141
3260 14.9905 -0.0758163
3261 14.9906 -0.0758144
3262 14.9906 -0.0758101
3263 14.9906 -0.0758043
3264 14.9906 -0.0758118
3265 14.9906 -0.0758136
3266 14.9905 -0.0758203
3267 14.9905 -0.0758257
3268 14.9905 -0.0758149
3269 14.9905 -0.0758218
3270 14.9905 -0.0758254
3271 14.9905 -0.0758242
