22 0.01082 -0.0183188
31 0.429024 0.021028
49 1.61153 0.0603777
99 1.90074 -0.391971
168 1.57226 -1.06405
231 1.57471 -1.75386
322 0.855377 -2.67049
429 1.33384 -4.81503
479 0.521443 -4.75742
537 -0.132576 -4.80158
575 -1.40913 -5.32177
645 -0.618368 -9.10604
665 -0.753706 -9.80783
721 1.9538 -10.9531
767 3.1326 -9.02287
839 3.11512 -6.93734
883 3.45572 -6.16073
963 3.97508 -5.64414
1089 3.71792 -4.7851
1163 4.72197 -5.50756
1221 4.86495 -6.10907
1268 5.63325 -6.78408
1304 6.71763 -6.8871
1349 7.54513 -6.97872
1385 8.41295 -6.36479
1433 8.93018 -4.48154
1515 7.88802 -2.49034
1577 5.88595 0.326331
1667 3.52627 -2.12682
1738 7.74505 -2.59259
1807 8.43482 1.05217
1887 11.434 -2.05582
1903 12.1658 -2.7932
1908 12.3646 -2.99308
1939 12.0067 -2.83282
1960 12.3333 -2.68247
1964 12.4045 -2.6344
1966 12.5069 -2.58349
1968 12.5711 -2.54619
1970 12.6278 -2.51236
1972 12.6801 -2.47994
1974 12.7417 -2.44195
1976 12.8022 -2.40464
1978 12.8588 -2.37049
1980 12.9136 -2.33739
1982 12.9679 -2.30515
1984 13.0278 -2.27005
1986 13.0893 -2.2345
1988 13.1502 -2.20002
1990 13.211 -2.16599
1992 13.2688 -2.13426
2003 13.3569 -2.07701
2017 13.3838 -2.05372
2025 13.4498 -2.06369
2027 13.4503 -2.06354
2029 13.5092 -2.064
2031 13.5721 -2.06489
2033 13.6368 -2.06599
2035 13.7028 -2.06746
2037 13.7689 -2.06915
2039 13.8338 -2.07114
2041 13.8998 -2.07331
2043 13.971 -2.07603
2045 14.0391 -2.07884
2047 14.1082 -2.08149
2049 14.1846 -2.08442
2051 14.2528 -2.08751
2053 14.3194 -2.08999
2055 14.3854 -2.09244
2057 14.4604 -2.09527
2059 14.5345 -2.09791
2061 14.6054 -2.10033
2063 14.6737 -2.10249
2065 14.7389 -2.10445
2067 14.8077 -2.10649
2069 14.8755 -2.10844
2071 14.9466 -2.11048
2073 15.0168 -2.11238
2102 14.797 -2.21111
2128 15.043 -2.08389
2132 15.1105 -2.0353
2134 15.2119 -1.97665
2136 15.2758 -1.93537
2138 15.3436 -1.89055
2140 15.4082 -1.84798
2142 15.474 -1.80383
2144 15.5347 -1.76349
2146 15.5882 -1.72751
2156 15.661 -1.66748
2170 15.6833 -1.64699
2178 15.749 -1.65786
2207 15.4622 -1.62852
2211 15.3854 -1.61115
2213 15.2662 -1.59865
2215 15.1901 -1.58644
2217 15.1173 -1.5732
2219 15.0414 -1.55823
2221 14.9748 -1.5448
2223 14.9088 -1.53065
2251 15.1047 -1.64861
2278 14.7252 -1.47626
2292 14.405 -1.16181
2299 14.1075 -0.866387
2301 14.0285 -0.792512
2332 14.0698 -1.04552
2351 14.3349 -0.894733
2353 14.3367 -0.889895
2355 14.3669 -0.838299
2357 14.3999 -0.782741
2359 14.4384 -0.717727
2361 14.4776 -0.652913
2363 14.5145 -0.593163
2365 14.5499 -0.536845
2367 14.5889 -0.476486
2376 14.6339 -0.39894
2390 14.6541 -0.386262
2397 14.7189 -0.394995
2417 14.8179 -0.0918524
2418 14.8349 -0.0248471
2419 14.8359 0.0196153
2420 14.836 0.0248792
2421 14.8361 0.0246886
2422 14.8363 0.0245201
2423 14.8364 0.0243723
2424 14.8365 0.0242373
2425 14.8366 0.0241149
2426 14.8367 0.0240131
2427 14.8368 0.0239282
2428 14.8369 0.0238504
2429 14.8369 0.0237876
2430 14.837 0.0237388
2431 14.837 0.0236944
2432 14.8371 0.0236526
2433 14.8371 0.0236114
2434 14.8371 0.0235777
2435 14.8372 0.0235506
2436 14.8372 0.0235261
2437 14.8372 0.0235021
2438 14.8372 0.0234839
2439 14.8373 0.0234709
2440 14.8373 0.0234566
2441 14.8373 0.023445
2442 14.8373 0.0234367
2443 14.8373 0.0234284
2444 14.8373 0.0234265
2445 14.8373 0.0234271
2446 14.8373 0.0234246
2447 14.8374 0.0234244
2448 14.8374 0.0234232
2449 14.8374 0.0234216
2450 14.8374 0.0234227
2451 14.8374 0.023412
2452 14.8374 0.0233941
2453 14.8374 0.0233697
2454 14.8374 0.0233502
2455 14.8374 0.0233477
2456 14.8374 0.0233496
2457 14.8374 0.0233579
2458 14.8374 0.0233642
2459 14.8374 0.0233584
2460 14.8374 0.0233548
2461 14.8374 0.0233603
2462 14.8374 0.0233602
2463 14.8374 0.0233514
2464 14.8374 0.0233433
2465 14.8374 0.0233421
2466 14.8374 0.0233449
2467 14.8374 0.0233465
2468 14.8374 0.0233473
2469 14.8374 0.0233511
2470 14.8374 0.0233604
2471 14.8374 0.023368
2472 14.8374 0.0233759
2473 14.8374 0.0233826
2474 14.8374 0.0233834
2475 14.8374 0.023386
2476 14.8374 0.02339
2477 14.8374 0.0233942
2478 14.8374 0.0233975
2479 14.8374 0.023401
2480 14.8374 0.0234097
2481 14.8374 0.0234148
2482 14.8374 0.0234166
2483 14.8374 0.0234221
2484 14.8374 0.0234279
2485 14.8374 0.0234369
2486 14.8374 0.0234452
2487 14.8374 0.0234523
2488 14.8374 0.0234589
2489 14.8374 0.0234618
2490 14.8374 0.0234665
2491 14.8374 0.023465
2492 14.8374 0.0234642
2493 14.8374 0.0234717
2494 14.8374 0.0234811
2495 14.8374 0.0234866
2496 14.8374 0.0234914
2497 14.8374 0.023496
2498 14.8374 0.023495
2499 14.8374 0.0234811
2500 14.8374 0.023473
2501 14.8374 0.0234708
2502 14.8374 0.0234687
2503 14.8374 0.0234705
2504 14.8374 0.0234733
2505 14.8374 0.0234756
2506 14.8374 0.0234719
2507 14.8374 0.0234681
2508 14.8374 0.0234715
2509 14.8374 0.0234699
2510 14.8374 0.0234631
2511 14.8374 0.0234649
2512 14.8374 0.023475
2513 14.8374 0.0234824
2514 14.8374 0.0234861
2515 14.8374 0.0234872
2516 14.8374 0.0234907
2517 14.8374 0.0234976
2518 14.8374 0.0235014
2519 14.8374 0.0235007
2520 14.8374 0.0234983
2521 14.8374 0.0235038
2522 14.8374 0.0235078
2523 14.8374 0.0235122
2524 14.8374 0.0235205
2525 14.8374 0.0235332
2526 14.8374 0.0235442
2527 14.8374 0.0235454
2528 14.8374 0.0235451
2529 14.8374 0.0235344
2530 14.8374 0.0235282
2531 14.8374 0.0235313
2532 14.8374 0.0235422
2533 14.8374 0.0235588
2534 14.8375 0.0235696
2535 14.8375 0.0235688
2536 14.8375 0.0235706
2537 14.8375 0.0235826
2538 14.8375 0.0235834
2539 14.8375 0.0235813
2540 14.8375 0.0235873
2541 14.8375 0.0235882
2542 14.8375 0.0235939
2543 14.8375 0.0236007
2544 14.8375 0.0236056
2545 14.8375 0.0236117
2546 14.8375 0.0236162
2547 14.8375 0.0236181
2548 14.8375 0.0236189
2549 14.8375 0.0236248
2550 14.8375 0.0236319
2551 14.8375 0.0236365
2552 14.8375 0.0236408
2553 14.8375 0.023645
2554 14.8375 0.023649
2555 14.8375 0.0236624
2556 14.8375 0.0236741
2557 14.8375 0.0236789
2558 14.8375 0.0236849
2559 14.8375 0.0236947
2560 14.8375 0.0236961
2561 14.8375 0.023697
2562 14.8375 0.023707
2563 14.8375 0.0237171
2564 14.8375 0.0237219
2565 14.8375 0.0237265
2566 14.8375 0.0237266
2567 14.8375 0.0237175
2568 14.8375 0.0237164
2569 14.8375 0.0237203
2570 14.8375 0.0237252
2571 14.8375 0.0237382
2572 14.8375 0.0237301
2573 14.8375 0.0237163
2574 14.8375 0.0237194
2575 14.8375 0.0237228
2576 14.8375 0.0237296
2577 14.8375 0.0237395
2578 14.8375 0.0237471
2579 14.8375 0.023751
2580 14.8375 0.0237542
2581 14.8375 0.0237643
2582 14.8375 0.0237752
2583 14.8375 0.0237797
2584 14.8375 0.0237834
2585 14.8375 0.0237908
2586 14.8375 0.0237953
2587 14.8375 0.023801
2588 14.8375 0.0238003
2589 14.8375 0.0237902
2590 14.8375 0.02379
2591 14.8375 0.0237951
2592 14.8375 0.0237972
2593 14.8375 0.0238007
2594 14.8375 0.0238067
2595 14.8375 0.0238182
2596 14.8375 0.0238282
2597 14.8375 0.0238338
2598 14.8375 0.0238438
2599 14.8375 0.0238551
2600 14.8375 0.0238644
2601 14.8375 0.0238696
2602 14.8375 0.023878
2603 14.8375 0.023886
2604 14.8375 0.0238921
2605 14.8375 0.0239075
2606 14.8375 0.023919
2607 14.8376 0.0239222
2608 14.8376 0.0239285
2609 14.8376 0.0239348
2610 14.8376 0.0239378
2611 14.8376 0.0239417
2612 14.8376 0.0239456
2613 14.8376 0.0239512
2614 14.8376 0.023955
2615 14.8376 0.0239501
2616 14.8376 0.023948
2617 14.8376 0.0239532
2618 14.8376 0.0239592
2619 14.8376 0.0239659
2620 14.8376 0.0239719
2621 14.8376 0.0239738
2622 14.8376 0.0239722
2623 14.8376 0.0239707
2624 14.8376 0.0239772
2625 14.8376 0.0239841
2626 14.8376 0.0239885
2627 14.8376 0.0239929
2628 14.8376 0.0239962
2629 14.8376 0.023999
2630 14.8376 0.0239945
2631 14.8376 0.023997
2632 14.8376 0.0240073
2633 14.8376 0.0240177
2634 14.8376 0.0240259
2635 14.8376 0.0240311
2636 14.8376 0.0240389
2637 14.8376 0.0240446
2638 14.8376 0.0240441
2639 14.8376 0.0240421
2640 14.8376 0.0240446
2641 14.8376 0.0240492
2642 14.8376 0.0240559
2643 14.8376 0.0240626
2644 14.8376 0.0240632
2645 14.8376 0.0240645
2646 14.8376 0.0240621
2647 14.8376 0.0240629
2648 14.8376 0.0240711
2649 14.8376 0.0240736
2650 14.8376 0.0240707
2651 14.8376 0.0240635
2652 14.8376 0.0240602
2653 14.8376 0.0240635
2654 14.8376 0.0240711
2655 14.8376 0.0240762
2656 14.8376 0.0240827
2657 14.8376 0.0240811
2658 14.8376 0.0240641
2659 14.8376 0.0240536
2660 14.8376 0.0240599
2661 14.8376 0.0240622
2662 14.8376 0.0240608
2663 14.8376 0.0240714
2664 14.8376 0.0240808
2665 14.8376 0.0240846
2666 14.8376 0.0240869
2667 14.8376 0.0240868
2668 14.8376 0.0240847
2669 14.8376 0.0240815
2670 14.8376 0.0240819
2671 14.8376 0.0240842
2672 14.8376 0.0240867
2673 14.8376 0.0240891
2674 14.8376 0.0240889
2675 14.8376 0.0240909
2676 14.8376 0.0241011
2677 14.8376 0.0241108
2678 14.8376 0.0241292
2679 14.8376 0.0241443
2680 14.8376 0.0241491
2681 14.8376 0.0241555
2682 14.8376 0.0241644
2683 14.8376 0.0241757
2684 14.8376 0.0241913
2685 14.8376 0.0242011
2686 14.8376 0.0242015
2687 14.8376 0.0242034
2688 14.8376 0.0242105
2689 14.8376 0.0242136
2690 14.8376 0.0242003
2691 14.8376 0.0241944
2692 14.8376 0.0242007
2693 14.8376 0.0242081
2694 14.8376 0.0242154
2695 14.8376 0.0242191
2696 14.8376 0.0242232
2697 14.8376 0.0242308
2698 14.8376 0.0242367
2699 14.8376 0.024237
2700 14.8376 0.0242372
2701 14.8376 0.0242389
2702 14.8376 0.0242403
2703 14.8376 0.0242411
2704 14.8376 0.0242464
2705 14.8376 0.0242518
2706 14.8376 0.0242551
2707 14.8376 0.0242608
2708 14.8376 0.0242629
2709 14.8376 0.0242652
2710 14.8376 0.0242578
2711 14.8376 0.0242511
2712 14.8376 0.0242389
2713 14.8376 0.0242316
2714 14.8376 0.0242338
2715 14.8376 0.0242341
2716 14.8376 0.0242381
2717 14.8376 0.024245
2718 14.8376 0.02425
2719 14.8376 0.0242563
2720 14.8376 0.0242631
2721 14.8376 0.0242675
2722 14.8376 0.0242712
2723 14.8376 0.0242758
2724 14.8377 0.0242829
2725 14.8377 0.0242899
2726 14.8377 0.0242948
2727 14.8377 0.0243031
2728 14.8377 0.0243178
2729 14.8377 0.0243293
2730 14.8377 0.0243354
2731 14.8377 0.0243395
2732 14.8377 0.024344
2733 14.8377 0.0243492
2734 14.8377 0.024355
2735 14.8377 0.0243665
2736 14.8377 0.0243766
2737 14.8377 0.0243805
2738 14.8377 0.0243852
2739 14.8377 0.0243942
2740 14.8377 0.0244072
2741 14.8377 0.0244175
2742 14.8377 0.0244222
2743 14.8377 0.0244191
2744 14.8377 0.0244168
2745 14.8377 0.0244204
2746 14.8377 0.0244247
2747 14.8377 0.0244292
2748 14.8377 0.0244326
2749 14.8377 0.0244295
2750 14.8377 0.0244313
2751 14.8377 0.0244371
2752 14.8377 0.0244461
2753 14.8377 0.0244575
2754 14.8377 0.0244639
2755 14.8377 0.0244728
2756 14.8377 0.0244805
2757 14.8377 0.0244836
2758 14.8377 0.0244844
2759 14.8377 0.02449
2760 14.8377 0.0245038
2761 14.8377 0.0245166
2762 14.8377 0.024525
2763 14.8377 0.0245328
2764 14.8377 0.0245375
2765 14.8377 0.024546
2766 14.8377 0.0245561
2767 14.8377 0.0245558
2768 14.8377 0.0245452
2769 14.8377 0.0245413
2770 14.8377 0.0245381
2771 14.8377 0.0245355
2772 14.8377 0.0245402
2773 14.8377 0.0245493
2774 14.8377 0.024558
2775 14.8377 0.0245621
2776 14.8377 0.0245671
2777 14.8377 0.0245748
2778 14.8377 0.0245829
2779 14.8377 0.0245895
2780 14.8377 0.0245969
2781 14.8377 0.0245973
2782 14.8377 0.0246022
2783 14.8377 0.0246116
2784 14.8377 0.0246281
2785 14.8378 0.0246416
2786 14.8378 0.0246488
2787 14.8378 0.024656
2788 14.8378 0.0246611
2789 14.8378 0.0246664
2790 14.8378 0.0246758
2791 14.8378 0.0246825
2792 14.8378 0.0246837
2793 14.8378 0.024687
2794 14.8378 0.0246915
2795 14.8378 0.0246942
2796 14.8378 0.0246991
2797 14.8378 0.0247066
2798 14.8378 0.0247088
2799 14.8378 0.0247091
2800 14.8378 0.0247098
2801 14.8378 0.0247118
2802 14.8378 0.0247175
2803 14.8378 0.0247227
2804 14.8378 0.0247293
2805 14.8378 0.0247323
2806 14.8378 0.024732
2807 14.8378 0.024731
2808 14.8378 0.0247329
2809 14.8378 0.0247346
2810 14.8378 0.0247396
2811 14.8378 0.024741
2812 14.8378 0.024741
2813 14.8378 0.0247469
2814 14.8378 0.0247517
2815 14.8378 0.0247542
2816 14.8378 0.0247566
2817 14.8378 0.0247603
2818 14.8378 0.0247709
2819 14.8378 0.0247794
2820 14.8378 0.0247787
2821 14.8378 0.0247783
2822 14.8378 0.0247852
2823 14.8378 0.024787
2824 14.8378 0.0247865
2825 14.8378 0.0247903
2826 14.8378 0.0247949
2827 14.8378 0.0248021
2828 14.8378 0.0248088
2829 14.8378 0.0248226
2830 14.8378 0.0248416
2831 14.8378 0.0248542
2832 14.8378 0.0248618
2833 14.8378 0.0248677
2834 14.8378 0.0248704
2835 14.8378 0.0248741
2836 14.8378 0.0248805
2837 14.8378 0.0248863
2838 14.8378 0.0248923
2839 14.8378 0.024897
2840 14.8378 0.0249048
2841 14.8378 0.0249148
2842 14.8378 0.0249211
2843 14.8378 0.0249202
2844 14.8378 0.0249215
2845 14.8378 0.0249264
2846 14.8378 0.0249311
2847 14.8378 0.0249349
2848 14.8378 0.0249379
2849 14.8378 0.0249413
2850 14.8378 0.0249466
2851 14.8378 0.0249633
2852 14.8378 0.024978
2853 14.8378 0.024979
2854 14.8378 0.0249777
2855 14.8378 0.0249831
2856 14.8378 0.0249923
2857 14.8379 0.0249991
2858 14.8379 0.0250095
2859 14.8379 0.0250207
2860 14.8379 0.0250287
2861 14.8379 0.0250324
2862 14.8379 0.025039
2863 14.8379 0.0250537
2864 14.8379 0.0250661
2865 14.8379 0.0250708
2866 14.8379 0.0250762
2867 14.8379 0.0250826
2868 14.8379 0.0250895
2869 14.8379 0.0250969
2870 14.8379 0.0251032
2871 14.8379 0.0251096
2872 14.8379 0.0251125
2873 14.8379 0.0251035
2874 14.8379 0.0250995
2875 14.8379 0.025104
2876 14.8379 0.0251067
2877 14.8379 0.0251075
2878 14.8379 0.0251106
2879 14.8379 0.0251163
2880 14.8379 0.0251303
2881 14.8379 0.0251407
2882 14.8379 0.0251428
2883 14.8379 0.0251536
2884 14.8379 0.025166
2885 14.8379 0.0251834
2886 14.8379 0.0252008
2887 14.8379 0.0252061
2888 14.8379 0.0252108
2889 14.8379 0.0252186
2890 14.8379 0.0252235
2891 14.8379 0.0252328
2892 14.8379 0.0252291
2893 14.8379 0.0252236
2894 14.8379 0.0252291
2895 14.8379 0.0252308
2896 14.8379 0.0252334
2897 14.8379 0.0252376
2898 14.8379 0.0252418
2899 14.8379 0.0252473
2900 14.8379 0.0252527
2901 14.8379 0.0252599
2902 14.8379 0.0252679
2903 14.8379 0.0252723
2904 14.8379 0.0252752
2905 14.8379 0.0252833
2906 14.8379 0.0252848
2907 14.8379 0.0252709
2908 14.8379 0.0252619
2909 14.8379 0.0252653
2910 14.8379 0.0252682
2911 14.8379 0.0252716
2912 14.8379 0.0252797
2913 14.8379 0.0252874
2914 14.8379 0.0252913
2915 14.8379 0.025296
2916 14.8379 0.0252999
2917 14.8379 0.0253015
2918 14.8379 0.0253
2919 14.8379 0.0253034
2920 14.8379 0.0253146
2921 14.8379 0.0253183
2922 14.8379 0.0253149
2923 14.8379 0.0253149
2924 14.8379 0.0253125
2925 14.8379 0.0253169
2926 14.8379 0.0253268
2927 14.8379 0.0253361
2928 14.8379 0.0253451
2929 14.8379 0.0253505
2930 14.8379 0.0253551
2931 14.838 0.0253634
2932 14.838 0.0253647
2933 14.838 0.0253637
2934 14.838 0.0253686
2935 14.838 0.0253722
2936 14.838 0.0253746
2937 14.838 0.0253808
2938 14.838 0.0253884
2939 14.838 0.0253939
2940 14.838 0.0253984
2941 14.838 0.0254014
2942 14.838 0.0254038
2943 14.838 0.0254101
2944 14.838 0.0254022
2945 14.838 0.0253944
2946 14.838 0.0253956
2947 14.838 0.0253989
2948 14.838 0.0253931
2949 14.838 0.025389
2950 14.838 0.0253878
2951 14.838 0.025386
2952 14.838 0.0253803
2953 14.838 0.0253646
2954 14.8379 0.025358
2955 14.838 0.0253631
2956 14.838 0.0253706
2957 14.838 0.0253743
2958 14.838 0.0253806
2959 14.838 0.0253886
2960 14.838 0.0253935
2961 14.838 0.0253973
2962 14.838 0.0254033
2963 14.838 0.0254094
2964 14.838 0.0254122
2965 14.838 0.0254142
2966 14.838 0.0254173
2967 14.838 0.025422
2968 14.838 0.0254291
2969 14.838 0.0254337
2970 14.838 0.0254373
2971 14.838 0.025437
2972 14.838 0.0254358
2973 14.838 0.0254235
2974 14.838 0.0254164
2975 14.838 0.0254225
2976 14.838 0.025429
2977 14.838 0.0254363
2978 14.838 0.0254407
2979 14.838 0.0254495
2980 14.838 0.0254574
2981 14.838 0.0254634
2982 14.838 0.0254737
2983 14.838 0.0254824
2984 14.838 0.0254846
2985 14.838 0.0254938
2986 14.838 0.0255087
2987 14.838 0.0255149
2988 14.838 0.0255162
2989 14.838 0.0255231
2990 14.838 0.025536
2991 14.838 0.0255331
2992 14.838 0.0255271
2993 14.838 0.0255316
2994 14.838 0.0255411
2995 14.838 0.0255499
2996 14.838 0.0255573
2997 14.838 0.0255588
2998 14.838 0.0255587
2999 14.838 0.0255596
3000 14.838 0.0255548
3001 14.838 0.0255557
3002 14.838 0.0255638
3003 14.838 0.0255731
3004 14.838 0.0255823
3005 14.838 0.025587
3006 14.838 0.0255894
3007 14.838 0.025592
3008 14.838 0.025597
3009 14.838 0.0256054
3010 14.838 0.0256126
3011 14.838 0.0256182
3012 14.838 0.0256228
3013 14.838 0.0256303
3014 14.838 0.0256382
3015 14.838 0.0256408
3016 14.838 0.0256392
3017 14.838 0.0256395
3018 14.838 0.0256395
3019 14.838 0.0256413
3020 14.838 0.0256443
3021 14.838 0.0256489
3022 14.838 0.0256587
3023 14.838 0.0256701
3024 14.838 0.0256772
3025 14.838 0.0256825
3026 14.838 0.0256875
3027 14.838 0.0256918
3028 14.838 0.0256963
3029 14.838 0.0256992
3030 14.838 0.0257011
3031 14.838 0.0257116
3032 14.838 0.0257158
3033 14.838 0.0257134
3034 14.838 0.0257182
3035 14.8381 0.0257227
3036 14.8381 0.025724
3037 14.8381 0.0257273
3038 14.8381 0.0257335
3039 14.8381 0.0257325
3040 14.8381 0.0257319
3041 14.8381 0.0257387
3042 14.8381 0.025742
3043 14.8381 0.0257445
3044 14.8381 0.0257475
3045 14.8381 0.0257568
3046 14.8381 0.0257681
3047 14.8381 0.0257702
3048 14.8381 0.0257728
3049 14.8381 0.0257781
3050 14.8381 0.0257827
3051 14.8381 0.0257892
3052 14.8381 0.0258002
3053 14.8381 0.0258113
3054 14.8381 0.0258155
3055 14.8381 0.0258167
3056 14.8381 0.0258238
3057 14.8381 0.0258314
3058 14.8381 0.0258384
3059 14.8381 0.0258463
3060 14.8381 0.0258527
3061 14.8381 0.025858
3062 14.8381 0.0258616
3063 14.8381 0.0258659
3064 14.8381 0.025869
3065 14.8381 0.0258706
3066 14.8381 0.0258803
3067 14.8381 0.0258905
3068 14.8381 0.0258908
3069 14.8381 0.0258936
3070 14.8381 0.0258972
3071 14.8381 0.0258934
3072 14.8381 0.0258843
3073 14.8381 0.0258801
3074 14.8381 0.0258856
3075 14.8381 0.0258732
3076 14.8381 0.0258665
3077 14.8381 0.0258761
3078 14.8381 0.0258816
3079 14.8381 0.0258754
3080 14.8381 0.0258567
3081 14.8381 0.0258397
3082 14.8381 0.0258339
3083 14.8381 0.0258349
3084 14.8381 0.0258311
3085 14.8381 0.0258297
3086 14.8381 0.0258242
3087 14.8381 0.0258249
3088 14.8381 0.0258295
3089 14.8381 0.0258312
3090 14.8381 0.0258451
3091 14.8381 0.0258611
3092 14.8381 0.0258702
3093 14.8381 0.0258796
3094 14.8381 0.0258855
3095 14.8381 0.0258872
3096 14.8381 0.0258904
3097 14.8381 0.0259015
3098 14.8381 0.0258975
3099 14.8381 0.0258894
3100 14.8381 0.0258946
3101 14.8381 0.0258995
3102 14.8381 0.025901
3103 14.8381 0.0259031
3104 14.8381 0.0259101
3105 14.8381 0.025919
3106 14.8381 0.0259266
3107 14.8381 0.0259349
3108 14.8381 0.0259371
3109 14.8381 0.0259249
3110 14.8381 0.0259189
3111 14.8381 0.0259228
3112 14.8381 0.0259278
3113 14.8381 0.0259317
3114 14.8381 0.0259305
3115 14.8381 0.0259358
3116 14.8381 0.0259441
3117 14.8381 0.0259475
3118 14.8381 0.0259507
3119 14.8381 0.0259526
3120 14.8381 0.0259576
3121 14.8381 0.0259493
3122 14.8381 0.0259403
3123 14.8381 0.0259439
3124 14.8381 0.0259483
3125 14.8381 0.0259528
3126 14.8381 0.0259544
3127 14.8381 0.0259619
3128 14.8381 0.0259732
3129 14.8381 0.0259763
3130 14.8381 0.0259765
3131 14.8381 0.0259826
3132 14.8381 0.0259898
3133 14.8381 0.0259936
3134 14.8381 0.0259979
3135 14.8381 0.0260035
3136 14.8381 0.0260083
3137 14.8381 0.0260165
3138 14.8381 0.0260257
3139 14.8381 0.0260234
3140 14.8381 0.026018
3141 14.8381 0.0260223
3142 14.8381 0.0260207
3143 14.8381 0.0260191
3144 14.8381 0.0260206
3145 14.8381 0.0260242
3146 14.8381 0.0260261
3147 14.8381 0.0260251
3148 14.8381 0.0260193
3149 14.8381 0.0260176
3150 14.8381 0.0260243
3151 14.8381 0.0260275
3152 14.8381 0.0260276
3153 14.8381 0.0260252
3154 14.8381 0.0260178
3155 14.8381 0.0260162
3156 14.8381 0.0260171
3157 14.8381 0.026018
3158 14.8381 0.0260221
3159 14.8381 0.0260293
3160 14.8381 0.0260366
3161 14.8381 0.0260394
3162 14.8381 0.0260449
3163 14.8381 0.0260503
3164 14.8381 0.0260583
3165 14.8381 0.0260657
3166 14.8381 0.0260688
3167 14.8381 0.0260715
3168 14.8381 0.0260752
3169 14.8381 0.0260785
3170 14.8382 0.0260823
3171 14.8382 0.0260837
3172 14.8382 0.0260913
3173 14.8382 0.0261032
3174 14.8382 0.026116
3175 14.8382 0.0261271
3176 14.8382 0.0261342
3177 14.8382 0.0261477
3178 14.8382 0.0261607
3179 14.8382 0.026166
3180 14.8382 0.0261685
3181 14.8382 0.0261755
3182 14.8382 0.0261856
3183 14.8382 0.0261905
3184 14.8382 0.0261958
3185 14.8382 0.0261911
3186 14.8382 0.0261834
3187 14.8382 0.0261838
3188 14.8382 0.0261886
3189 14.8382 0.0261914
3190 14.8382 0.026194
3191 14.8382 0.0262025
3192 14.8382 0.0262092
3193 14.8382 0.0262116
3194 14.8382 0.0262094
3195 14.8382 0.0262092
3196 14.8382 0.0262161
3197 14.8382 0.026224
3198 14.8382 0.0262308
3199 14.8382 0.0262418
3200 14.8382 0.0262476
3201 14.8382 0.0262504
3202 14.8382 0.0262545
3203 14.8382 0.0262502
3204 14.8382 0.0262503
3205 14.8382 0.026262
3206 14.8382 0.0262725
3207 14.8382 0.0262826
3208 14.8382 0.0262891
3209 14.8382 0.0262914
3210 14.8382 0.0262978
3211 14.8382 0.0263024
3212 14.8382 0.0263066
3213 14.8382 0.0263125
3214 14.8382 0.0263218
3215 14.8382 0.0263338
3216 14.8382 0.0263247
3217 14.8382 0.026308
3218 14.8382 0.026306
3219 14.8382 0.0263098
3220 14.8382 0.0263146
3221 14.8382 0.0263191
3222 14.8382 0.0263222
3223 14.8382 0.0263234
3224 14.8382 0.0263242
3225 14.8382 0.0263117
3226 14.8382 0.0263012
3227 14.8382 0.0263047
3228 14.8382 0.0263104
3229 14.8382 0.0263167
3230 14.8382 0.0263247
3231 14.8382 0.0263244
3232 14.8382 0.0263227
3233 14.8382 0.0263191
3234 14.8382 0.0263143
3235 14.8382 0.0263135
3236 14.8382 0.0263145
3237 14.8382 0.0263174
3238 14.8382 0.0263254
3239 14.8382 0.0263335
3240 14.8382 0.0263469
3241 14.8382 0.0263447
3242 14.8382 0.0263388
3243 14.8382 0.0263438
3244 14.8382 0.0263535
3245 14.8382 0.0263649
3246 14.8382 0.0263575
3247 14.8382 0.0263509
3248 14.8382 0.0263561
3249 14.8382 0.0263616
3250 14.8382 0.0263647
3251 14.8382 0.0263605
3252 14.8382 0.0263604
3253 14.8382 0.026364
3254 14.8382 0.0263634
3255 14.8382 0.0263656
3256 14.8382 0.0263693
3257 14.8382 0.026373
3258 14.8382 0.026378
3259 14.8382 0.0263949
3260 14.8382 0.0264118
3261 14.8382 0.02642
3262 14.8382 0.0264307
3263 14.8382 0.0264307
3264 14.8382 0.0264242
3265 14.8382 0.0264237
3266 14.8382 0.0264271
3267 14.8382 0.0264326
3268 14.8382 0.0264244
3269 14.8382 0.0264189
3270 14.8382 0.0264335
3271 14.8383 0.0264452
3272 14.8383 0.0264505
