1887 4.11614
1903 3.97925
1960 3.78247
1964 3.69817
1966 3.59023
1968 3.51887
1970 3.45532
1972 3.39587
1974 3.32608
1976 3.25767
1978 3.19438
1980 3.13309
1982 3.073
1984 3.00709
1986 2.94002
1988 2.87435
1990 2.80929
1992 2.7481
2003 2.64834
2017 2.61338
2025 2.58108
2027 2.58065
2029 2.54611
2031 2.51049
2033 2.47519
2035 2.4407
2037 2.40768
2039 2.37689
2041 2.34716
2043 2.31707
2045 2.29016
2047 2.26449
2049 2.23825
2051 2.21721
2053 2.19801
2055 2.18083
2057 2.16365
2059 2.14892
2061 2.13708
2063 2.12765
2065 2.12059
2067 2.11525
2069 2.11211
2071 2.11116
2128 2.08434
2132 2.0383
2134 1.98798
2136 1.95492
2138 1.92152
2140 1.89253
2142 1.86506
2144 1.84277
2146 1.82491
2156 1.79372
2170 1.78312
2207 1.69283
2211 1.65661
2213 1.62067
2215 1.59779
2217 1.57756
2219 1.55878
2221 1.54501
2223 1.53337
2299 1.24385
2351 1.11485
2353 1.1099
2355 1.05052
2357 0.986293
2359 0.911355
2361 0.836199
2363 0.766536
2365 0.700581
2367 0.629338
2376 0.541463
2390 0.51851
2418 0.167002
2419 0.165311
2424 0.165274
2425 0.165157
2426 0.165053
2427 0.164962
2428 0.164882
2429 0.164809
2430 0.164746
2431 0.16469
2432 0.164642
2433 0.164599
2434 0.164561
2435 0.164527
2436 0.164498
2437 0.164472
0.0775338
2607 0.0775323
2608 0.0775312
2609 0.0775279
2610 0.0775239
2611 0.0775159
2612 0.0775108
2613 0.0775026
2615 0.0775013
2630 0.0774831
2631 0.0774802
2632 0.0774752
2633 0.0774732
2635 0.0774728
2636 0.0774713
2637 0.0774644
2638 0.0774664
2648 0.0774574
2649 0.07745
2650 0.0774482
2671 0.0774477
2672 0.0774434
2673 0.0774418
2674 0.0774323
2675 0.07744
2686 0.0774302
2692 0.0774275
2699 0.0774215
2700 0.0774272
2703 0.0774027
2710 0.0773976
2711 0.0773971
2733 0.0773932
2734 0.0773915
2738 0.0773801
2742 0.0773741
2743 0.0773719
2744 0.0773475
2745 0.0773551
2746 0.0773387
2747 0.0773355
2748 0.0773383
2751 0.0773321
2756 0.0773319
2757 0.0773297
2758 0.0773177
2760 0.077314
2761 0.0773142
2762 0.0773135
2767 0.0773121
2768 0.077312
2769 0.0773013
2770 0.0772938
2775 0.0772918
2777 0.0772889
2778 0.0772751
2797 0.0772744
2801 0.0772741
2803 0.0772701
2804 0.0772703
2805 0.0772615
2806 0.0772568
2807 0.077255
2811 0.0772504
2812 0.0772495
2813 0.0772411
2814 0.0772395
2815 0.0772358
2816 0.0772269
2817 0.0772098
2818 0.0772143
2820 0.077202
2821 0.0772002
2822 0.0771994
2823 0.077194
2824 0.0771902
2825 0.0771877
2827 0.0771825
2857 0.0771747
2858 0.07718
2860 0.0771713
2861 0.0771663
2867 0.077157
2868 0.0771567
2869 0.0771547
2870 0.0771448
2871 0.0771395
2873 0.077139
2874 0.0771312
2880 0.0771263
2886 0.0771118
2893 0.0771065
2895 0.0771057
2901 0.0771031
2902 0.0771002
2923 0.0770968
2931 0.0770857
2934 0.0770856
2939 0.0770807
2941 0.0770783
2942 0.0770734
2943 0.0770713
2944 0.0770732
2948 0.0770637
2949 0.0770614
2958 0.0770575
2960 0.0770555
2961 0.0770467
2962 0.0770427
2963 0.0770338
2964 0.0770329
2965 0.0770283
2968 0.0770211
2969 0.0770216
2970 0.0770176
2971 0.077014
2972 0.077011
2973 0.0769955
2974 0.0769905
2975 0.0769852
2978 0.076965
2979 0.076963
2980 0.0769596
2982 0.0769584
2983 0.0769567
2986 0.0769534
2992 0.0769534
2993 0.076951
2994 0.0769423
2995 0.0769277
2996 0.0769236
2997 0.076917
3001 0.0769113
3002 0.0769116
3003 0.0769087
3005 0.076906
3006 0.0769004
3007 0.0768881
3014 0.0768855
3016 0.0768664
3017 0.0768587
3020 0.076855
3021 0.0768533
3022 0.0768528
3023 0.0768508
3024 0.0768511
3025 0.0768452
3026 0.0768445
3028 0.0768442
3029 0.0768356
3030 0.0768423
3037 0.0768306
3043 0.0768283
3046 0.076806
3048 0.0768026
3049 0.0767883
3050 0.0767929
3052 0.0767769
3053 0.0767804
3058 0.0767677
3059 0.0767757
3061 0.0767672
3066 0.0767472
3071 0.0767461
3073 0.0767415
3074 0.0767455
3077 0.0767362
3081 0.0767312
3082 0.076707
3083 0.0767065
3084 0.0767023
3088 0.0766969
3089 0.0767004
3090 0.0766812
3091 0.0766847
3097 0.0766729
3098 0.0766708
3103 0.0766693
3104 0.0766631
3105 0.0766664
3109 0.0766552
3111 0.0766526
3112 0.0766545
3114 0.076646
3115 0.0766407
3116 0.0766388
3117 0.0766307
3118 0.0766277
3148 0.0766204
3149 0.0766089
3152 0.0765968
3153 0.0765912
3156 0.0765807
3157 0.0765553
3158 0.076553
3166 0.076542
3169 0.0765383
3170 0.0765327
3189 0.0765321
3190 0.0765275
3191 0.0765175
3192 0.0765104
3193 0.0765102
3194 0.0765089
3195 0.0764995
3196 0.0765056
3208 0.076497
3209 0.0764823
3217 0.0764797
3218 0.0764815
3219 0.0764559
3220 0.0764663
3225 0.0764538
3226 0.0764519
3227 0.0764433
3228 0.0764346
3229 0.0764364
3230 0.0764142
3231 0.0764214
3234 0.076413
3241 0.0764118
3243 0.0764063
3246 0.0764032
3248 0.0764026
3251 0.0764017
3252 0.0763981
3253 0.0763989
3262 0.0763956
3263 0.076388
