14 0.0186889 0.00771407
21 0.306944 -0.0102241
30 0.868642 -0.0487081
39 1.42932 -0.0529591
48 1.98889 -0.0377172
56 2.47923 -0.0183084
63 2.89934 0.000736206
69 3.25196 0.0184035
110 3.19193 -0.476621
154 3.14122 -1.39009
207 3.16846 -2.1933
259 3.18503 -2.96925
343 2.52103 -3.42694
391 1.58919 -3.42738
437 0.674128 -3.589
479 0.0973225 -4.60408
525 0.270744 -5.52255
565 1.24273 -6.0656
609 2.3045 -6.10543
655 3.2806 -6.08687
713 3.93263 -5.9973
763 4.5636 -5.48482
805 4.81223 -4.71184
867 4.73188 -4.14764
927 4.75462 -3.54992
1047 4.6822 -4.3298
1112 6.82581 -5.36263
1155 7.70992 -5.52372
1214 8.39581 -5.54074
1257 9.44065 -5.41522
1306 9.90721 -4.59893
1355 9.97125 -3.82168
1400 9.2199 -3.10854
1445 8.47672 -2.89402
1519 8.36332 -2.70753
1576 7.84483 -1.41894
1617 6.95036 -0.898532
1667 6.11862 -0.887966
1715 5.22167 -0.884681
1793 4.89359 -0.404655
1851 4.85728 0.287737
1909 4.88155 0.965459
1981 7.54888 -1.07451
2050 6.10433 2.0468
2130 9.08188 -0.811141
2184 12.1783 -1.52563
2227 14.5209 -0.873905
2247 15.1332 -0.293697
2269 14.8503 -0.000139013
2270 14.8508 -0.000161485
2271 14.8514 -0.000208794
2272 14.8518 -0.000195474
2273 14.8521 -0.000187593
2274 14.8525 -0.000186953
2275 14.8527 -0.00018225
2276 14.853 -0.000170656
2277 14.8532 -0.000159088
2278 14.8534 -0.000150707
2279 14.8535 -0.000148969
2280 14.8537 -0.000149572
2281 14.8538 -0.000149752
2282 14.8539 -0.000145189
2283 14.854 -0.000140037
2284 14.8541 -0.000141019
2285 14.8542 -0.000138404
2286 14.8543 -0.000140031
2287 14.8543 -0.000142681
2288 14.8544 -0.000141888
2289 14.8544 -0.000143053
2290 14.8545 -0.000140398
2291 14.8545 -0.000141145
2292 14.8545 -0.00014296
2293 14.8546 -0.000145709
2294 14.8546 -0.000149805
2295 14.8546 -0.000153202
2296 14.8547 -0.000152634
2297 14.8547 -0.000150171
2298 14.8547 -0.000145803
2299 14.8547 -0.000137562
2300 14.8547 -0.000127836
2301 14.8547 -0.000122464
2302 14.8547 -0.000121329
2303 14.8547 -0.00012413
2304 14.8547 -0.000130417
2305 14.8547 -0.00013122
2306 14.8547 -0.000134562
2307 14.8548 -0.000137779
2308 14.8547 -0.000130194
2309 14.8547 -0.000118489
2310 14.8547 -0.000111954
2311 14.8547 -0.000109905
2312 14.8547 -0.000104083
2313 14.8547 -9.34426e-05
2314 14.8547 -8.25995e-05
2315 14.8547 -7.49783e-05
2316 14.8547 -7.14754e-05
2317 14.8547 -7.0417e-05
2318 14.8547 -7.10892e-05
2319 14.8547 -6.6466e-05
2320 14.8547 -6.20019e-05
2321 14.8547 -6.39943e-05
2322 14.8547 -6.28299e-05
2323 14.8547 -6.53957e-05
2324 14.8547 -6.66951e-05
2325 14.8547 -6.52281e-05
2326 14.8547 -6.55932e-05
2327 14.8547 -5.74278e-05
2328 14.8547 -5.40934e-05
2329 14.8547 -5.53235e-05
2330 14.8547 -5.9116e-05
2331 14.8547 -6.40824e-05
2332 14.8547 -6.7089e-05
2333 14.8547 -6.62436e-05
2334 14.8547 -6.41445e-05
2335 14.8547 -5.99055e-05
2336 14.8547 -5.23727e-05
2337 14.8547 -4.45386e-05
2338 14.8546 -3.83681e-05
2339 14.8546 -3.58159e-05
2340 14.8546 -3.88736e-05
2341 14.8547 -4.53571e-05
2342 14.8547 -4.93928e-05
2343 14.8547 -5.72969e-05
2344 14.8547 -6.2943e-05
2345 14.8547 -6.23112e-05
2346 14.8547 -6.32148e-05
2347 14.8547 -6.01972e-05
2348 14.8547 -5.61788e-05
2349 14.8547 -5.58119e-05
2350 14.8547 -5.5516e-05
2351 14.8547 -5.07554e-05
2352 14.8547 -4.59432e-05
2353 14.8547 -4.41059e-05
2354 14.8547 -4.34843e-05
2355 14.8547 -4.31562e-05
2356 14.8546 -3.75008e-05
2357 14.8546 -3.19407e-05
2358 14.8546 -3.15765e-05
2359 14.8546 -2.98282e-05
2360 14.8546 -2.30799e-05
2361 14.8546 -1.22107e-05
2362 14.8546 -3.62787e-06
2363 14.8546 -6.57352e-07
2364 14.8546 5.86817e-06
2365 14.8546 9.51701e-06
2366 14.8546 7.59806e-06
2367 14.8546 1.06184e-05
2368 14.8546 1.34446e-05
2369 14.8546 1.14539e-05
2370 14.8546 1.34602e-05
2371 14.8546 1.6084e-05
2372 14.8546 1.4003e-05
2373 14.8546 1.22935e-05
2374 14.8546 1.5321e-05
2375 14.8546 2.26393e-05
2376 14.8546 2.92603e-05
2377 14.8546 2.90061e-05
2378 14.8546 2.45069e-05
2379 14.8546 2.1219e-05
2380 14.8546 1.33498e-05
2381 14.8546 7.71878e-06
2382 14.8546 7.09232e-06
2383 14.8546 4.52303e-06
2384 14.8546 5.72651e-06
2385 14.8546 8.67064e-06
2386 14.8546 8.45956e-06
2387 14.8546 7.67854e-06
2388 14.8546 1.15742e-05
2389 14.8546 1.55682e-05
2390 14.8546 1.66533e-05
2391 14.8546 1.66753e-05
2392 14.8546 1.61269e-05
2393 14.8546 1.93957e-05
2394 14.8546 2.85585e-05
2395 14.8545 3.88086e-05
2396 14.8545 4.32479e-05
2397 14.8545 4.5545e-05
2398 14.8545 4.77748e-05
2399 14.8545 4.84699e-05
2400 14.8545 4.63114e-05
2401 14.8545 4.36481e-05
2402 14.8545 4.57201e-05
2403 14.8545 4.99526e-05
2404 14.8545 5.53843e-05
2405 14.8545 5.65743e-05
2406 14.8545 5.43811e-05
2407 14.8545 5.75616e-05
2408 14.8545 6.13871e-05
2409 14.8545 6.2052e-05
2410 14.8545 6.1615e-05
2411 14.8545 6.78668e-05
2412 14.8545 8.16018e-05
2413 14.8545 8.91194e-05
2414 14.8545 8.79449e-05
2415 14.8545 8.47146e-05
2416 14.8545 8.29811e-05
2417 14.8545 8.27142e-05
2418 14.8545 8.90642e-05
2419 14.8545 9.19291e-05
2420 14.8545 8.96824e-05
2421 14.8545 8.85761e-05
2422 14.8545 9.18738e-05
2423 14.8545 9.21416e-05
2424 14.8545 8.97049e-05
2425 14.8545 9.16082e-05
2426 14.8545 9.03444e-05
2427 14.8545 9.35096e-05
2428 14.8545 9.61885e-05
2429 14.8545 9.37277e-05
2430 14.8545 8.96689e-05
2431 14.8545 9.02439e-05
2432 14.8545 9.10896e-05
2433 14.8545 8.93557e-05
2434 14.8545 8.90895e-05
2435 14.8545 9.54384e-05
2436 14.8545 9.83e-05
2437 14.8545 9.60554e-05
2438 14.8545 9.49497e-05
2439 14.8545 9.82472e-05
2440 14.8545 9.85135e-05
2441 14.8545 9.60788e-05
2442 14.8545 9.79813e-05
2443 14.8545 9.67174e-05
2444 14.8544 9.98825e-05
2445 14.8544 0.000102559
2446 14.8544 0.000100101
2447 14.8545 9.60452e-05
2448 14.8545 9.66211e-05
2449 14.8545 9.74659e-05
2450 14.8545 9.57333e-05
2451 14.8545 9.54672e-05
2452 14.8544 0.000101813
2453 14.8544 0.000104673
2454 14.8544 0.00010243
2455 14.8544 0.000101324
2456 14.8544 0.000104619
2457 14.8544 0.000104885
2458 14.8544 0.000102452
2459 14.8544 0.000104354
2460 14.8544 0.000103091
2461 14.8544 0.000106255
2462 14.8544 0.000108929
2463 14.8544 0.000106471
2464 14.8544 0.000102416
2465 14.8544 0.000102992
2466 14.8544 0.000103837
2467 14.8544 0.000102105
2468 14.8544 0.000101839
2469 14.8544 0.000108183
2470 14.8544 0.00011104
2471 14.8544 0.000108799
2472 14.8544 0.000107694
2473 14.8544 0.000110989
2474 14.8544 0.000111255
2475 14.8544 0.000108824
2476 14.8544 0.000110724
2477 14.8544 0.000109462
2478 14.8544 0.000112625
2479 14.8544 0.000115297
2480 14.8544 0.000112841
2481 14.8544 0.000108749
2482 14.8544 0.000109426
2483 14.8544 0.000110275
2484 14.8544 0.000108543
2485 14.8544 0.000108277
2486 14.8544 0.000114613
2487 14.8544 0.000117476
2488 14.8544 0.000115235
2489 14.8544 0.00011413
2490 14.8544 0.000117419
2491 14.8544 0.000117689
2492 14.8544 0.000115257
2493 14.8544 0.000117156
2494 14.8544 0.000115897
2495 14.8544 0.000119054
2496 14.8544 0.000121728
2497 14.8544 0.000119272
2498 14.8544 0.000115223
2499 14.8544 0.000115797
2500 14.8544 0.000116642
2501 14.8544 0.000114912
2502 14.8544 0.000114647
2503 14.8544 0.000120982
2504 14.8544 0.000123839
2505 14.8544 0.000121601
2506 14.8544 0.000120498
2507 14.8544 0.000123789
2508 14.8544 0.000124056
2509 14.8544 0.000121627
2510 14.8544 0.000123526
2511 14.8544 0.000122265
2512 14.8544 0.000125423
2513 14.8544 0.000128094
2514 14.8544 0.00012564
2515 14.8544 0.000121592
2516 14.8544 0.000122167
2517 14.8544 0.000123012
2518 14.8544 0.000121283
2519 14.8544 0.000121018
2520 14.8544 0.000127352
2521 14.8544 0.000129892
2522 14.8544 0.00012772
2523 14.8544 0.000126618
2524 14.8544 0.000129899
2525 14.8544 0.000130177
2526 14.8544 0.000127745
2527 14.8544 0.00012964
2528 14.8544 0.000128386
2529 14.8544 0.000131534
2530 14.8544 0.000134211
2531 14.8544 0.000131757
2532 14.8544 0.000127713
2533 14.8544 0.000128283
2534 14.8544 0.000129131
2535 14.8544 0.000127403
2536 14.8544 0.000127138
2537 14.8544 0.000134609
2538 14.8544 0.000138926
2539 14.8544 0.000137051
2540 14.8544 0.000138972
2541 14.8544 0.0001385
2542 14.8544 0.000137629
2543 14.8544 0.000140963
2544 14.8544 0.000149405
2545 14.8544 0.000153745
2546 14.8544 0.000156223
2547 14.8544 0.000157154
2548 14.8544 0.000162761
2549 14.8543 0.000170745
2550 14.8543 0.000169338
2551 14.8544 0.000164809
2552 14.8544 0.000162879
2553 14.8544 0.000162059
2554 14.8544 0.000164057
2555 14.8544 0.000166812
2556 14.8544 0.00016566
2557 14.8544 0.000162496
2558 14.8543 0.000170082
2559 14.8543 0.000174648
2560 14.8544 0.000168067
2561 14.8544 0.000164798
2562 14.8544 0.000165289
2563 14.8544 0.000168497
2564 14.8543 0.000171024
2565 14.8543 0.000173
2566 14.8543 0.000181573
2567 14.8543 0.000193503
2568 14.8543 0.000195189
2569 14.8543 0.000192325
2570 14.8543 0.000190775
2571 14.8543 0.000188431
2572 14.8543 0.000188954
2573 14.8543 0.000190183
2574 14.8543 0.000191025
2575 14.8543 0.000189871
2576 14.8543 0.000196879
2577 14.8543 0.000200568
2578 14.8543 0.000193309
2579 14.8543 0.000189651
2580 14.8543 0.000189381
2581 14.8543 0.000186451
2582 14.8543 0.000184193
2583 14.8543 0.000185808
2584 14.8543 0.000188216
2585 14.8543 0.000195291
2586 14.8543 0.000198047
2587 14.8543 0.000195815
2588 14.8543 0.000193983
2589 14.8543 0.000191525
2590 14.8543 0.000194196
2591 14.8543 0.000195808
2592 14.8543 0.000195339
2593 14.8543 0.000195454
2594 14.8543 0.000203305
2595 14.8543 0.000209
2596 14.8543 0.000209315
2597 14.8543 0.000210485
2598 14.8543 0.000214582
2599 14.8543 0.000217181
2600 14.8543 0.000221699
2601 14.8543 0.000228346
2602 14.8543 0.000228388
2603 14.8543 0.000226357
2604 14.8543 0.000224302
2605 14.8543 0.000222455
2606 14.8543 0.000221638
2607 14.8543 0.000223633
2608 14.8543 0.000226384
2609 14.8543 0.000225234
2610 14.8543 0.000222074
2611 14.8543 0.000229649
2612 14.8543 0.000234206
2613 14.8542 0.000239759
2614 14.8542 0.000252824
2615 14.8542 0.000261433
2616 14.8542 0.000261322
2617 14.8542 0.000258284
2618 14.8542 0.000258318
2619 14.8542 0.000258746
2620 14.8542 0.000258718
2621 14.8542 0.000258403
2622 14.8542 0.000256386
2623 14.8542 0.000252887
2624 14.8542 0.000251208
2625 14.8542 0.000258724
2626 14.8542 0.000262387
2627 14.8542 0.000260655
2628 14.8542 0.000262143
2629 14.8542 0.000260964
2630 14.8542 0.000256762
2631 14.8542 0.000255212
2632 14.8542 0.000261867
2633 14.8542 0.000269293
2634 14.8542 0.000274622
2635 14.8542 0.0002759
2636 14.8542 0.000278148
2637 14.8542 0.000280606
2638 14.8542 0.000279218
2639 14.8542 0.000276601
2640 14.8542 0.000273375
2641 14.8542 0.000271656
2642 14.8542 0.000271394
2643 14.8542 0.000278847
2644 14.8542 0.000283143
2645 14.8542 0.000281278
2646 14.8542 0.000283195
2647 14.8542 0.000282722
2648 14.8542 0.000281857
2649 14.8542 0.000285182
2650 14.8542 0.000293598
2651 14.8542 0.000297923
2652 14.8542 0.000300541
2653 14.8542 0.000301317
2654 14.8542 0.000306894
2655 14.8541 0.000314859
2656 14.8541 0.000313465
2657 14.8541 0.000308949
2658 14.8542 0.000307023
2659 14.8542 0.000306208
