20 0.00897276 -0.0187392
28 0.360084 0.0152823
40 1.12982 0.0588473
52 1.89749 0.0652679
90 1.92255 -0.502256
110 1.40416 -1.00776
169 1.79562 -2.04086
194 1.33499 -2.6392
279 1.87903 -3.34095
329 1.88588 -4.1526
370 1.48073 -3.75049
467 0.469154 -4.71807
517 -0.361338 -4.71447
564 -1.07102 -5.33958
605 -1.19767 -6.25994
657 -0.803244 -6.97497
694 0.244559 -7.20327
739 1.01485 -7.29642
789 1.88328 -7.31339
843 2.67679 -7.19668
876 3.37344 -6.61504
925 3.46129 -5.83549
1006 3.79825 -5.17965
1053 4.54448 -4.98262
1145 4.92964 -6.1169
1190 5.79952 -6.70016
1237 6.60316 -6.859
1291 7.41704 -6.79996
1328 8.33843 -6.4552
1364 9.01634 -6.07257
1409 8.94294 -4.70346
1471 6.39609 -2.39775
1536 9.48328 -3.17725
1572 10.8256 -2.11212
1592 11.4052 -2.3085
1597 11.5542 -2.38
1599 11.6474 -2.43638
1601 11.7139 -2.47087
1603 11.7738 -2.50246
1605 11.8286 -2.53075
1607 11.8924 -2.56419
1609 11.954 -2.59573
1611 12.012 -2.62553
1613 12.069 -2.65413
1615 12.1231 -2.6809
1617 12.1873 -2.71225
1619 12.2513 -2.74307
1621 12.3148 -2.77327
1623 12.3797 -2.80362
1625 12.4425 -2.83249
1627 12.5072 -2.86172
1629 12.572 -2.89049
1631 12.6359 -2.91836
1638 12.7697 -2.97548
1644 12.7808 -2.97805
1646 12.7817 -2.97794
1648 12.8308 -2.97714
1650 12.8943 -2.97653
1652 12.9578 -2.97395
1654 13.02 -2.97225
1656 13.0793 -2.97048
1658 13.1521 -2.96824
1660 13.2255 -2.9661
1662 13.297 -2.96347
1664 13.3686 -2.96142
1666 13.4376 -2.95927
1668 13.5071 -2.95733
1670 13.5738 -2.95554
1672 13.643 -2.9538
1674 13.7101 -2.95245
1676 13.7788 -2.95111
1678 13.8475 -2.94988
1680 13.9147 -2.9486
1682 13.9818 -2.94736
1684 14.0566 -2.94577
1686 14.1264 -2.94422
1688 14.1953 -2.9428
1690 14.2637 -2.94142
1692 14.3322 -2.94008
1694 14.4007 -2.93874
1696 14.4702 -2.93737
1698 14.5397 -2.93595
1700 14.61 -2.93448
1702 14.6797 -2.93309
1704 14.7486 -2.93182
1706 14.8166 -2.93065
1708 14.8857 -2.92952
1710 14.9561 -2.92842
1712 15.023 -2.9274
1714 15.0916 -2.92635
1743 14.8276 -3.06876
1763 14.6499 -2.72485
1780 14.8365 -2.38221
1782 14.939 -2.32321
1784 14.9983 -2.27891
1786 15.0585 -2.2324
1788 15.1128 -2.18983
1790 15.1714 -2.14212
1792 15.2293 -2.09667
1794 15.2802 -2.05534
1803 15.3527 -2.00301
1810 15.4194 -2.01067
1838 15.0916 -2.09717
1861 15.4218 -1.94781
1880 15.9808 -1.40571
1882 16.054 -1.32538
1902 15.9729 -1.09909
1906 15.9217 -1.02728
1908 15.8418 -0.947795
1910 15.7931 -0.891417
1912 15.7485 -0.839371
1914 15.708 -0.791032
1916 15.6605 -0.734593
1918 15.6147 -0.679686
1920 15.571 -0.627901
1922 15.5296 -0.577766
1931 15.4711 -0.497977
1938 15.4773 -0.442036
1950 15.4867 -0.445993
1976 15.2931 -0.363865
1980 15.2192 -0.326612
1982 15.1077 -0.292535
1984 15.0383 -0.265345
1986 14.9701 -0.236217
1987 14.9402 -0.218942
1988 14.8997 -0.204576
1989 14.893 -0.20211
1990 14.8925 -0.201833
1991 14.8924 -0.201725
1992 14.8923 -0.201583
1993 14.8921 -0.201477
1994 14.8922 -0.20146
1995 14.8923 -0.201458
1996 14.8924 -0.201456
1997 14.8925 -0.201454
1998 14.8925 -0.201452
1999 14.8926 -0.20145
2000 14.8926 -0.201449
2001 14.8927 -0.201447
2002 14.8927 -0.201445
2003 14.8928 -0.201443
2004 14.8928 -0.201441
2005 14.8928 -0.20144
2006 14.8928 -0.201438
2007 14.8928 -0.201436
2008 14.8929 -0.201435
2009 14.8929 -0.201433
2010 14.8929 -0.201432
2011 14.8929 -0.20143
2012 14.8929 -0.201428
2013 14.8929 -0.201426
2014 14.8929 -0.201425
2015 14.8929 -0.201423
2016 14.8929 -0.201422
2017 14.8929 -0.20142
2018 14.8929 -0.201418
2019 14.8929 -0.201417
2020 14.8929 -0.201415
2021 14.8929 -0.201414
2022 14.8929 -0.201412
2023 14.8929 -0.20141
2024 14.8929 -0.201409
2025 14.8929 -0.201407
2026 14.8929 -0.201404
2027 14.8929 -0.201402
2028 14.8929 -0.2014
2029 14.8929 -0.201399
2030 14.8929 -0.201397
2031 14.8929 -0.201396
2032 14.8929 -0.201394
2033 14.8929 -0.201393
2034 14.8929 -0.201391
2035 14.8929 -0.20139
2036 14.8929 -0.201388
2037 14.8929 -0.201386
2038 14.8929 -0.201385
2039 14.8929 -0.201383
2040 14.8929 -0.201382
2041 14.8929 -0.20138
2042 14.8929 -0.201378
2043 14.8929 -0.201377
2044 14.8929 -0.201375
2045 14.8929 -0.201373
2046 14.8929 -0.201372
2047 14.8929 -0.20137
2048 14.8929 -0.201368
2049 14.8929 -0.201366
2050 14.8929 -0.201365
2051 14.8929 -0.201363
2052 14.8928 -0.201361
2053 14.8928 -0.20136
2054 14.8928 -0.201359
2055 14.8928 -0.201357
2056 14.8928 -0.201355
2057 14.8928 -0.201353
2058 14.8928 -0.201352
2059 14.8928 -0.20135
2060 14.8928 -0.201349
2061 14.8928 -0.201347
2062 14.8928 -0.201345
2063 14.8928 -0.201344
2064 14.8928 -0.201342
2065 14.8928 -0.201341
2066 14.8928 -0.201339
2067 14.8928 -0.201337
2068 14.8928 -0.201336
2069 14.8928 -0.201334
2070 14.8928 -0.201332
2071 14.8928 -0.20133
2072 14.8928 -0.201329
2073 14.8928 -0.201327
2074 14.8928 -0.201326
2075 14.8928 -0.201324
2076 14.8928 -0.201322
2077 14.8928 -0.201321
2078 14.8928 -0.201319
2079 14.8928 -0.201317
2080 14.8928 -0.201316
2081 14.8927 -0.201314
2082 14.8927 -0.201313
2083 14.8927 -0.201311
2084 14.8927 -0.20131
2085 14.8927 -0.201308
2086 14.8927 -0.201307
2087 14.8927 -0.201305
2088 14.8927 -0.201303
2089 14.8927 -0.201301
2090 14.8927 -0.2013
2091 14.8927 -0.201298
2092 14.8927 -0.201296
2093 14.8927 -0.201295
2094 14.8927 -0.201293
2095 14.8927 -0.201291
2096 14.8927 -0.20129
2097 14.8927 -0.201288
2098 14.8927 -0.201286
2099 14.8927 -0.201285
2100 14.8927 -0.201283
2101 14.8927 -0.201281
2102 14.8927 -0.20128
2103 14.8927 -0.201278
2104 14.8927 -0.201276
2105 14.8927 -0.201275
2106 14.8927 -0.201273
2107 14.8927 -0.201272
2108 14.8927 -0.20127
2109 14.8926 -0.201268
2110 14.8926 -0.201266
2111 14.8926 -0.201264
2112 14.8926 -0.201263
2113 14.8926 -0.201261
2114 14.8926 -0.201259
2115 14.8926 -0.201258
2116 14.8926 -0.201256
2117 14.8926 -0.201254
2118 14.8926 -0.201253
2119 14.8926 -0.201251
2120 14.8926 -0.20125
2121 14.8926 -0.201248
2122 14.8926 -0.201247
2123 14.8926 -0.201245
2124 14.8926 -0.201243
2125 14.8926 -0.201242
2126 14.8926 -0.20124
2127 14.8926 -0.201239
2128 14.8926 -0.201237
2129 14.8926 -0.201235
2130 14.8926 -0.201233
2131 14.8926 -0.201232
2132 14.8926 -0.20123
2133 14.8926 -0.201228
2134 14.8926 -0.201226
2135 14.8926 -0.201225
2136 14.8926 -0.201223
2137 14.8925 -0.201221
2138 14.8925 -0.20122
2139 14.8925 -0.201218
2140 14.8925 -0.201217
2141 14.8925 -0.201215
2142 14.8925 -0.201214
2143 14.8925 -0.201212
2144 14.8925 -0.20121
2145 14.8925 -0.201209
2146 14.8925 -0.201207
2147 14.8925 -0.201205
2148 14.8925 -0.201203
2149 14.8925 -0.201202
2150 14.8925 -0.201201
2151 14.8925 -0.201199
2152 14.8925 -0.201197
2153 14.8925 -0.201196
2154 14.8925 -0.201194
2155 14.8925 -0.201193
2156 14.8925 -0.201191
2157 14.8925 -0.20119
2158 14.8925 -0.201188
2159 14.8925 -0.201186
2160 14.8925 -0.201184
2161 14.8925 -0.201183
2162 14.8925 -0.201181
2163 14.8925 -0.201179
2164 14.8925 -0.201177
2165 14.8924 -0.201176
2166 14.8924 -0.201174
2167 14.8924 -0.201172
2168 14.8924 -0.201171
2169 14.8924 -0.201169
2170 14.8924 -0.201167
2171 14.8924 -0.201165
2172 14.8924 -0.201164
2173 14.8924 -0.201162
2174 14.8924 -0.201161
2175 14.8924 -0.201159
2176 14.8924 -0.201157
2177 14.8924 -0.201156
2178 14.8924 -0.201154
2179 14.8924 -0.201152
2180 14.8924 -0.201151
2181 14.8924 -0.201149
2182 14.8924 -0.201148
2183 14.8924 -0.201146
2184 14.8924 -0.201145
2185 14.8924 -0.201143
2186 14.8924 -0.201142
2187 14.8924 -0.20114
2188 14.8924 -0.201138
2189 14.8924 -0.201136
2190 14.8924 -0.201135
2191 14.8924 -0.201133
2192 14.8924 -0.201131
2193 14.8923 -0.20113
2194 14.8923 -0.201128
2195 14.8923 -0.201126
2196 14.8923 -0.201125
2197 14.8923 -0.201123
2198 14.8923 -0.201121
2199 14.8923 -0.20112
2200 14.8923 -0.201118
2201 14.8923 -0.201116
2202 14.8923 -0.201115
2203 14.8923 -0.201113
2204 14.8923 -0.201112
2205 14.8923 -0.20111
2206 14.8923 -0.201108
2207 14.8923 -0.201107
2208 14.8923 -0.201105
2209 14.8923 -0.201103
2210 14.8923 -0.201101
2211 14.8923 -0.2011
2212 14.8923 -0.201098
2213 14.8923 -0.201096
2214 14.8923 -0.201095
2215 14.8923 -0.201093
2216 14.8923 -0.201092
2217 14.8923 -0.20109
2218 14.8923 -0.201088
2219 14.8923 -0.201086
2220 14.8923 -0.201085
2221 14.8922 -0.201083
2222 14.8922 -0.201081
2223 14.8922 -0.20108
2224 14.8922 -0.201078
2225 14.8922 -0.201076
2226 14.8922 -0.201075
2227 14.8922 -0.201073
2228 14.8922 -0.201072
2229 14.8922 -0.20107
2230 14.8922 -0.201068
2231 14.8922 -0.201066
2232 14.8922 -0.201065
2233 14.8922 -0.201063
2234 14.8922 -0.201061
2235 14.8922 -0.20106
2236 14.8922 -0.201058
2237 14.8922 -0.201057
2238 14.8922 -0.201055
2239 14.8922 -0.201053
2240 14.8922 -0.201052
2241 14.8922 -0.20105
2242 14.8922 -0.201048
2243 14.8922 -0.201047
2244 14.8922 -0.201045
2245 14.8922 -0.201043
2246 14.8922 -0.201041
2247 14.8922 -0.20104
2248 14.8922 -0.201038
2249 14.8921 -0.201037
2250 14.8921 -0.201035
2251 14.8921 -0.201033
2252 14.8921 -0.201031
2253 14.8921 -0.201029
2254 14.8921 -0.201028
2255 14.8921 -0.201026
2256 14.8921 -0.201025
2257 14.8921 -0.201023
2258 14.8921 -0.201022
2259 14.8921 -0.20102
2260 14.8921 -0.201018
2261 14.8921 -0.201017
2262 14.8921 -0.201015
2263 14.8921 -0.201014
2264 14.8921 -0.201012
2265 14.8921 -0.20101
2266 14.8921 -0.201008
2267 14.8921 -0.201006
2268 14.8921 -0.201005
2269 14.8921 -0.201003
2270 14.8921 -0.201002
2271 14.8921 -0.201
2272 14.8921 -0.200998
2273 14.8921 -0.200997
2274 14.8921 -0.200995
2275 14.8921 -0.200993
2276 14.8921 -0.200992
2277 14.892 -0.20099
2278 14.892 -0.200988
2279 14.892 -0.200986
2280 14.892 -0.200985
2281 14.892 -0.200983
2282 14.892 -0.200982
2283 14.892 -0.20098
2284 14.892 -0.200978
2285 14.892 -0.200976
2286 14.892 -0.200975
2287 14.892 -0.200974
2288 14.892 -0.200972
2289 14.892 -0.20097
2290 14.892 -0.200968
2291 14.892 -0.200966
2292 14.892 -0.200965
2293 14.892 -0.200963
2294 14.892 -0.200962
2295 14.892 -0.20096
2296 14.892 -0.200958
2297 14.892 -0.200956
2298 14.892 -0.200954
2299 14.892 -0.200953
2300 14.892 -0.200952
2301 14.892 -0.20095
2302 14.892 -0.200948
2303 14.892 -0.200946
2304 14.892 -0.200944
2305 14.8919 -0.200943
2306 14.8919 -0.200941
2307 14.8919 -0.20094
2308 14.8919 -0.200938
2309 14.8919 -0.200936
2310 14.8919 -0.200934
2311 14.8919 -0.200933
2312 14.8919 -0.200931
2313 14.8919 -0.20093
2314 14.8919 -0.200928
2315 14.8919 -0.200926
2316 14.8919 -0.200924
2317 14.8919 -0.200922
2318 14.8919 -0.200921
2319 14.8919 -0.200919
2320 14.8919 -0.200918
2321 14.8919 -0.200916
2322 14.8919 -0.200915
2323 14.8919 -0.200913
2324 14.8919 -0.200911
2325 14.8919 -0.20091
2326 14.8919 -0.200908
2327 14.8919 -0.200907
2328 14.8919 -0.200905
2329 14.8919 -0.200903
2330 14.8919 -0.200901
2331 14.8919 -0.200899
2332 14.8919 -0.200898
2333 14.8918 -0.200896
2334 14.8918 -0.200895
2335 14.8918 -0.200893
2336 14.8918 -0.200891
2337 14.8918 -0.200889
2338 14.8918 -0.200888
2339 14.8918 -0.200886
2340 14.8918 -0.200885
2341 14.8918 -0.200883
2342 14.8918 -0.200881
2343 14.8918 -0.200879
2344 14.8918 -0.200877
2345 14.8918 -0.200876
2346 14.8918 -0.200874
2347 14.8918 -0.200873
2348 14.8918 -0.200871
2349 14.8918 -0.200869
2350 14.8918 -0.200867
2351 14.8918 -0.200866
2352 14.8918 -0.200864
2353 14.8918 -0.200863
2354 14.8918 -0.200861
2355 14.8918 -0.200859
2356 14.8918 -0.200857
2357 14.8918 -0.200855
2358 14.8918 -0.200854
2359 14.8918 -0.200852
2360 14.8917 -0.200851
2361 14.8917 -0.200849
2362 14.8917 -0.200847
2363 14.8917 -0.200845
2364 14.8917 -0.200844
2365 14.8917 -0.200842
2366 14.8917 -0.200841
2367 14.8917 -0.200839
2368 14.8917 -0.200837
2369 14.8917 -0.200835
2370 14.8917 -0.200833
2371 14.8917 -0.200832
2372 14.8917 -0.200831
2373 14.8917 -0.200829
2374 14.8917 -0.200827
2375 14.8917 -0.200825
2376 14.8917 -0.200823
2377 14.8917 -0.200822
2378 14.8917 -0.20082
2379 14.8917 -0.200819
2380 14.8917 -0.200817
2381 14.8917 -0.200815
2382 14.8917 -0.200814
2383 14.8917 -0.200812
2384 14.8917 -0.20081
2385 14.8917 -0.200809
2386 14.8917 -0.200807
2387 14.8917 -0.200805
2388 14.8916 -0.200804
2389 14.8916 -0.200802
2390 14.8916 -0.2008
2391 14.8916 -0.200799
2392 14.8916 -0.200797
2393 14.8916 -0.200796
2394 14.8916 -0.200794
2395 14.8916 -0.200792
2396 14.8916 -0.20079
2397 14.8916 -0.200788
2398 14.8916 -0.200787
2399 14.8916 -0.200785
2400 14.8916 -0.200784
2401 14.8916 -0.200782
2402 14.8916 -0.20078
2403 14.8916 -0.200778
2404 14.8916 -0.200777
2405 14.8916 -0.200775
2406 14.8916 -0.200774
2407 14.8916 -0.200772
2408 14.8916 -0.20077
2409 14.8916 -0.200768
2410 14.8916 -0.200767
2411 14.8916 -0.200765
2412 14.8916 -0.200764
2413 14.8916 -0.200762
2414 14.8916 -0.200761
2415 14.8916 -0.200759
2416 14.8916 -0.200757
2417 14.8915 -0.200756
2418 14.8915 -0.200754
2419 14.8915 -0.200753
2420 14.8915 -0.200751
2421 14.8915 -0.200749
2422 14.8915 -0.200747
2423 14.8915 -0.200745
2424 14.8915 -0.200744
2425 14.8915 -0.200742
2426 14.8915 -0.200741
2427 14.8915 -0.200739
2428 14.8915 -0.200737
2429 14.8915 -0.200735
2430 14.8915 -0.200734
2431 14.8915 -0.200732
2432 14.8915 -0.20073
2433 14.8915 -0.200729
2434 14.8915 -0.200727
2435 14.8915 -0.200725
2436 14.8915 -0.200723
2437 14.8915 -0.200722
2438 14.8915 -0.20072
2439 14.8915 -0.200718
2440 14.8915 -0.200717
2441 14.8915 -0.200715
2442 14.8915 -0.200714
2443 14.8915 -0.200712
2444 14.8914 -0.20071
2445 14.8914 -0.200708
2446 14.8914 -0.200707
2447 14.8914 -0.200705
2448 14.8914 -0.200703
2449 14.8914 -0.200701
2450 14.8914 -0.2007
2451 14.8914 -0.200698
2452 14.8914 -0.200696
2453 14.8914 -0.200695
2454 14.8914 -0.200693
2455 14.8914 -0.200692
2456 14.8914 -0.20069
2457 14.8914 -0.200688
2458 14.8914 -0.200687
2459 14.8914 -0.200685
2460 14.8914 -0.200684
2461 14.8914 -0.200682
2462 14.8914 -0.20068
2463 14.8914 -0.200678
2464 14.8914 -0.200676
2465 14.8914 -0.200675
2466 14.8914 -0.200673
2467 14.8914 -0.200672
2468 14.8914 -0.20067
2469 14.8914 -0.200668
2470 14.8914 -0.200666
2471 14.8914 -0.200665
2472 14.8913 -0.200663
2473 14.8913 -0.200661
2474 14.8913 -0.20066
2475 14.8913 -0.200658
2476 14.8913 -0.200656
2477 14.8913 -0.200655
2478 14.8913 -0.200653
2479 14.8913 -0.200651
2480 14.8913 -0.200649
2481 14.8913 -0.200648
2482 14.8913 -0.200646
2483 14.8913 -0.200645
2484 14.8913 -0.200643
2485 14.8913 -0.200641
2486 14.8913 -0.200639
2487 14.8913 -0.200638
2488 14.8913 -0.200636
2489 14.8913 -0.200635
2490 14.8913 -0.200633
2491 14.8913 -0.200631
2492 14.8913 -0.200629
2493 14.8913 -0.200627
2494 14.8913 -0.200626
2495 14.8913 -0.200624
2496 14.8913 -0.200623
2497 14.8913 -0.200621
2498 14.8913 -0.200619
2499 14.8913 -0.200617
2500 14.8912 -0.200616
2501 14.8912 -0.200615
2502 14.8912 -0.200613
2503 14.8912 -0.200611
2504 14.8912 -0.200609
2505 14.8912 -0.200607
2506 14.8912 -0.200606
2507 14.8912 -0.200604
2508 14.8912 -0.200602
2509 14.8912 -0.2006
2510 14.8912 -0.200599
2511 14.8912 -0.200597
2512 14.8912 -0.200595
2513 14.8912 -0.200593
2514 14.8912 -0.200592
2515 14.8912 -0.20059
2516 14.8912 -0.200589
2517 14.8912 -0.200587
2518 14.8912 -0.200585
2519 14.8912 -0.200584
2520 14.8912 -0.200583
2521 14.8912 -0.200581
2522 14.8912 -0.200579
2523 14.8912 -0.200577
2524 14.8912 -0.200576
2525 14.8912 -0.200574
2526 14.8912 -0.200572
2527 14.8912 -0.20057
2528 14.8911 -0.200569
2529 14.8911 -0.200567
2530 14.8911 -0.200565
2531 14.8911 -0.200564
2532 14.8911 -0.200562
2533 14.8911 -0.20056
2534 14.8911 -0.200559
2535 14.8911 -0.200557
2536 14.8911 -0.200555
2537 14.8911 -0.200554
2538 14.8911 -0.200552
2539 14.8911 -0.20055
2540 14.8911 -0.200548
2541 14.8911 -0.200546
2542 14.8911 -0.200545
2543 14.8911 -0.200543
2544 14.8911 -0.200541
2545 14.8911 -0.20054
2546 14.8911 -0.200538
2547 14.8911 -0.200536
2548 14.8911 -0.200535
2549 14.8911 -0.200533
2550 14.8911 -0.200531
2551 14.8911 -0.200529
2552 14.8911 -0.200528
2553 14.8911 -0.200526
2554 14.8911 -0.200524
2555 14.891 -0.200523
2556 14.891 -0.200521
2557 14.891 -0.200519
2558 14.891 -0.200517
2559 14.891 -0.200516
2560 14.891 -0.200514
2561 14.891 -0.200512
2562 14.891 -0.20051
2563 14.891 -0.200509
2564 14.891 -0.200507
2565 14.891 -0.200505
2566 14.891 -0.200504
2567 14.891 -0.200502
2568 14.891 -0.200501
2569 14.891 -0.200499
2570 14.891 -0.200497
2571 14.891 -0.200496
2572 14.891 -0.200494
2573 14.891 -0.200493
2574 14.891 -0.200491
2575 14.891 -0.200489
2576 14.891 -0.200487
2577 14.891 -0.200486
2578 14.891 -0.200484
2579 14.891 -0.200482
2580 14.891 -0.200481
2581 14.891 -0.200479
2582 14.891 -0.200478
2583 14.8909 -0.200476
2584 14.8909 -0.200474
2585 14.8909 -0.200473
2586 14.8909 -0.200471
2587 14.8909 -0.20047
2588 14.8909 -0.200468
2589 14.8909 -0.200466
2590 14.8909 -0.200464
2591 14.8909 -0.200463
2592 14.8909 -0.200461
2593 14.8909 -0.200459
2594 14.8909 -0.200458
2595 14.8909 -0.200456
2596 14.8909 -0.200455
2597 14.8909 -0.200453
2598 14.8909 -0.200451
2599 14.8909 -0.20045
2600 14.8909 -0.200448
2601 14.8909 -0.200446
2602 14.8909 -0.200444
2603 14.8909 -0.200443
2604 14.8909 -0.200442
2605 14.8909 -0.20044
2606 14.8909 -0.200438
2607 14.8909 -0.200436
2608 14.8909 -0.200435
2609 14.8909 -0.200433
2610 14.8909 -0.200431
2611 14.8909 -0.20043
2612 14.8908 -0.200428
2613 14.8908 -0.200427
2614 14.8908 -0.200425
2615 14.8908 -0.200423
2616 14.8908 -0.200421
2617 14.8908 -0.20042
2618 14.8908 -0.200418
2619 14.8908 -0.200416
2620 14.8908 -0.200415
2621 14.8908 -0.200413
2622 14.8908 -0.200412
2623 14.8908 -0.20041
2624 14.8908 -0.200408
2625 14.8908 -0.200407
2626 14.8908 -0.200405
2627 14.8908 -0.200403
2628 14.8908 -0.200402
2629 14.8908 -0.2004
2630 14.8908 -0.200399
2631 14.8908 -0.200397
2632 14.8908 -0.200395
2633 14.8908 -0.200393
2634 14.8908 -0.200392
2635 14.8908 -0.20039
2636 14.8908 -0.200388
2637 14.8908 -0.200387
2638 14.8908 -0.200385
2639 14.8908 -0.200384
2640 14.8907 -0.200382
2641 14.8907 -0.20038
2642 14.8907 -0.200379
2643 14.8907 -0.200377
2644 14.8907 -0.200375
2645 14.8907 -0.200374
2646 14.8907 -0.200372
2647 14.8907 -0.20037
2648 14.8907 -0.200369
2649 14.8907 -0.200367
2650 14.8907 -0.200366
2651 14.8907 -0.200364
2652 14.8907 -0.200363
2653 14.8907 -0.200361
2654 14.8907 -0.20036
2655 14.8907 -0.200358
2656 14.8907 -0.200356
2657 14.8907 -0.200354
2658 14.8907 -0.200352
2659 14.8907 -0.200351
