1 0.000712638 2.16126e-06
2 0.0291082 0.000110414
3 0.0919685 0.000347801
4 0.160813 0.000615862
5 0.200805 0.000756795
6 0.239826 0.000901528
7 0.278498 0.00102397
8 0.315918 0.00115433
9 0.353985 0.00130366
10 0.391434 0.00145072
11 0.429668 0.00163654
12 0.468763 0.00180392
13 0.508036 0.00199227
14 0.544032 0.00212241
15 0.576056 0.0022303
16 0.60976 0.00237589
17 0.646041 0.00256559
18 0.679768 0.00270908
19 0.71554 0.00288084
20 0.752206 0.00302949
21 0.788616 0.00315072
22 0.824511 0.0032802
23 0.860899 0.00337001
24 0.896367 0.00345689
25 0.936275 0.00339177
26 0.979095 0.00334838
27 1.01865 0.00302119
28 1.05525 0.00290126
29 1.09247 0.00241064
30 1.13044 0.00220524
31 1.16722 0.00160506
32 1.20262 0.00137902
33 1.23882 0.000762868
34 1.27406 0.000503559
35 1.3087 -7.86852e-05
36 1.34191 -0.000308628
37 1.37904 -0.000827916
38 1.41389 -0.00107168
39 1.44757 -0.0014623
40 1.48232 -0.00168862
41 1.51694 -0.00201811
42 1.55096 -0.00222378
43 1.58552 -0.00247283
44 1.6169 -0.00262712
45 1.65609 -0.00278028
46 1.69026 -0.00289536
47 1.72575 -0.00286331
48 1.76024 -0.00292401
49 1.79352 -0.00281966
50 1.82813 -0.00284285
51 1.86337 -0.00261512
52 1.89768 -0.00258267
53 1.93082 -0.00226308
54 1.96462 -0.0021712
55 1.99971 -0.00172261
56 2.03351 -0.00157944
57 2.06693 -0.00111937
58 2.10106 -0.000943656
59 2.13439 -0.000441777
60 2.16803 -0.000234944
61 2.202 0.000273714
62 2.23624 0.000522991
63 2.27011 0.00105704
64 2.3036 0.00128978
65 2.33768 0.00172363
66 2.37138 0.00194426
67 2.40608 0.0022819
68 2.43964 0.00247535
69 2.47329 0.00271012
70 2.48076 0.00279269
71 2.48838 0.00307656
72 2.4966 0.00399543
73 2.50278 0.00565016
74 2.50834 0.00753627
75 2.51536 0.0119996
76 2.51842 0.0173572
77 2.52015 0.0189327
78 2.52138 0.0224553
79 2.52088 0.0255205
80 2.53267 0.0395687
81 2.52355 0.0929966
82 2.50629 0.153105
83 2.48615 0.2158
84 2.46582 0.281168
85 2.44745 0.347969
86 2.43346 0.414936
87 2.423 0.482727
88 2.41621 0.550816
89 2.41221 0.61958
90 2.4106 0.688407
91 2.4108 0.757377
92 2.40639 0.803523
93 2.406 0.809357
94 2.40618 0.809127
95 2.40627 0.808616
96 2.40639 0.807635
97 2.40657 0.806423
98 2.40695 0.804898
99 2.40762 0.803146
100 2.40874 0.801118
101 2.41008 0.801308
102 2.40798 0.803575
103 2.40562 0.805092
104 2.40369 0.805723
105 2.40217 0.806328
106 2.39967 0.805843
107 2.39798 0.805244
108 2.39678 0.804556
109 2.3831 0.805971
110 2.33721 0.765459
111 2.28806 0.717263
112 2.23766 0.669197
113 2.18636 0.622846
114 2.13359 0.577918
115 2.07927 0.533829
116 2.02444 0.491419
117 1.96833 0.450139
118 1.91141 0.40941
119 1.85533 0.371131
120 1.79866 0.333957
121 1.74129 0.297642
122 1.6828 0.261922
123 1.62334 0.226398
124 1.56395 0.191715
125 1.5043 0.157552
126 1.4441 0.123734
127 1.38351 0.0902246
128 1.32295 0.057225
129 1.2621 0.024447
130 1.20116 -0.00805955
131 1.14026 -0.0402452
132 1.07933 -0.0721265
133 1.01821 -0.103844
134 0.957006 -0.135403
135 0.895657 -0.166829
136 0.834268 -0.198148
137 0.773109 -0.229184
138 0.711677 -0.260167
139 0.649826 -0.291266
140 0.58838 -0.322044
141 0.526901 -0.352752
142 0.465293 -0.383453
143 0.403665 -0.414127
144 0.342008 -0.444786
145 0.280333 -0.475425
146 0.218661 -0.506072
147 0.157003 -0.536696
148 0.0953371 -0.56731
149 0.0336688 -0.59793
150 -0.0279913 -0.628543
151 -0.089648 -0.659142
152 -0.151311 -0.68973
153 -0.212978 -0.720311
154 -0.274652 -0.750893
155 -0.336338 -0.781453
156 -0.39803 -0.812025
157 -0.459732 -0.842584
158 -0.521423 -0.873139
159 -0.583107 -0.903702
160 -0.644788 -0.934266
161 -0.706473 -0.964811
162 -0.768161 -0.995349
163 -0.829848 -1.0259
164 -0.891539 -1.05643
165 -0.95322 -1.08697
166 -1.01492 -1.1175
167 -1.07662 -1.14804
168 -1.11221 -1.16575
169 -1.11968 -1.16954
170 -1.12588 -1.17305
171 -1.12978 -1.17601
172 -1.13213 -1.17816
173 -1.13374 -1.18036
174 -1.13451 -1.18196
175 -1.13545 -1.18341
176 -1.13509 -1.18526
177 -1.13544 -1.18677
178 -1.1339 -1.18887
179 -1.13207 -1.1905
180 -1.12988 -1.19163
181 -1.1274 -1.19223
182 -1.1248 -1.19226
183 -1.12257 -1.19208
184 -1.11199 -1.19683
185 -1.05258 -1.18027
186 -0.988192 -1.16012
187 -0.919924 -1.14001
188 -0.852735 -1.12145
189 -0.785332 -1.10437
190 -0.717578 -1.08857
191 -0.649916 -1.07405
192 -0.582094 -1.06061
193 -0.514076 -1.04804
194 -0.445912 -1.03628
195 -0.396286 -1.02481
196 -0.387312 -1.02347
197 -0.378325 -1.02196
198 -0.369523 -1.01999
199 -0.363244 -1.01796
200 -0.360404 -1.01692
201 -0.358217 -1.01614
202 -0.355653 -1.01486
203 -0.332942 -1.00665
204 -0.279979 -0.971076
205 -0.223942 -0.930572
206 -0.168113 -0.889872
207 -0.112379 -0.849152
208 -0.0566303 -0.808438
209 -0.00087019 -0.767786
210 0.0543709 -0.727575
211 0.110746 -0.686585
212 0.166538 -0.646052
213 0.222333 -0.605559
214 0.278163 -0.5651
215 0.334019 -0.524648
216 0.389856 -0.48425
217 0.445711 -0.44386
218 0.501568 -0.403491
219 0.55741 -0.363163
220 0.613268 -0.322851
221 0.665154 -0.285406
222 0.724947 -0.242343
223 0.780945 -0.202013
224 0.836907 -0.161777
225 0.892787 -0.121646
226 0.948654 -0.0815742
227 1.00459 -0.041459
228 1.06056 -0.00136069
229 1.11654 0.0387385
230 1.17251 0.0788195
231 1.22849 0.118882
232 1.28446 0.158951
233 1.34046 0.199018
234 1.39647 0.239096
235 1.45248 0.279146
236 1.50848 0.319195
237 1.56448 0.359229
238 1.62048 0.399264
239 1.67647 0.43927
240 1.73213 0.479063
241 1.78803 0.518985
242 1.84408 0.559041
243 1.89959 0.598714
244 1.95548 0.638639
245 2.01169 0.678782
246 2.06771 0.718792
247 2.12373 0.758799
248 2.17973 0.798815
249 2.23406 0.837632
250 2.29176 0.878844
251 2.34778 0.918861
252 2.40379 0.958875
253 2.45979 0.998909
254 2.51582 1.03892
255 2.57183 1.07894
256 2.62784 1.11897
257 2.68386 1.15899
258 2.71557 1.18186
259 2.72161 1.18611
260 2.72606 1.18901
261 2.72974 1.19109
262 2.73328 1.19272
263 2.73677 1.19405
264 2.74049 1.19508
265 2.74406 1.19578
266 2.77371 1.20543
267 2.83891 1.20763
268 2.908 1.20778
269 2.9768 1.20814
270 3.04556 1.20898
271 3.11459 1.21037
272 3.1836 1.21224
273 3.25241 1.21463
274 3.32123 1.21745
275 3.39008 1.22061
276 3.459 1.2241
277 3.52792 1.22782
278 3.59667 1.23178
279 3.66545 1.23594
280 3.73421 1.24026
281 3.8029 1.24472
282 3.87152 1.24931
283 3.9402 1.25401
284 4.00891 1.25879
285 4.07762 1.26363
286 4.14629 1.26854
287 4.21494 1.27348
288 4.28356 1.27846
289 4.34668 1.28307
290 4.42082 1.2885
291 4.48946 1.29357
292 4.5581 1.29868
293 4.62676 1.30384
294 4.69541 1.30902
295 4.76405 1.31424
296 4.83269 1.31947
297 4.87926 1.32234
298 4.90049 1.32384
299 4.91773 1.32473
300 4.93236 1.32492
301 4.94362 1.32435
302 4.95028 1.32345
303 4.95331 1.32288
304 4.95527 1.32263
305 4.95723 1.32216
306 4.95932 1.32157
307 4.96187 1.32055
308 4.96485 1.31895
309 4.96785 1.31686
310 4.97071 1.3146
311 4.97319 1.31217
312 4.97545 1.30984
313 4.97761 1.30717
314 4.97973 1.30413
315 4.98133 1.30082
316 4.98277 1.29778
317 4.98392 1.29425
318 4.9847 1.2906
319 4.98505 1.28701
320 4.9851 1.28358
321 4.98471 1.28036
322 4.98413 1.27777
323 4.98356 1.27582
324 4.98307 1.2741
325 4.9823 1.27198
326 4.98089 1.26949
327 4.97922 1.26692
328 4.97714 1.26406
329 4.97423 1.2611
330 4.97164 1.25867
331 4.96907 1.2564
332 4.95803 1.23546
333 4.90503 1.19663
334 4.84757 1.15714
335 4.79017 1.11796
336 4.73327 1.07938
337 4.67534 1.04012
338 4.61802 1.00127
339 4.56072 0.962441
340 4.50346 0.923649
341 4.44624 0.884875
342 4.40521 0.863973
343 4.39868 0.859308
344 4.39277 0.854529
345 4.38806 0.849741
346 4.38523 0.845294
347 4.38354 0.840622
348 4.38331 0.836668
349 4.38367 0.834549
350 4.38395 0.833704
351 4.38375 0.833284
352 4.38622 0.812264
353 4.4282 0.766902
354 4.47952 0.719705
355 4.52923 0.671912
356 4.57775 0.622621
357 4.62455 0.571802
358 4.66983 0.519558
359 4.70513 0.487102
360 4.71318 0.478282
361 4.7154 0.474792
362 4.71709 0.471393
363 4.71866 0.46765
364 4.71987 0.463953
365 4.72073 0.460296
366 4.72128 0.45661
367 4.72148 0.453087
368 4.72134 0.4499
369 4.721 0.447171
370 4.72048 0.444714
371 4.71986 0.442488
372 4.71898 0.439904
373 4.71402 0.411714
374 4.68442 0.35348
375 4.65142 0.292735
376 4.61859 0.231924
377 4.58595 0.171017
378 4.55367 0.110096
379 4.52176 0.0490305
380 4.49013 -0.0121802
381 4.45869 -0.073485
382 4.42773 -0.13434
383 4.4048 -0.170159
384 4.40126 -0.17762
385 4.39811 -0.185203
386 4.39581 -0.193146
387 4.39483 -0.201122
388 4.39537 -0.208546
389 4.39715 -0.212064
390 4.39691 -0.21297
391 4.39804 -0.214841
392 4.40006 -0.21667
393 4.40265 -0.218275
394 4.40593 -0.219461
395 4.40946 -0.220133
396 4.42626 -0.233831
397 4.48963 -0.234352
398 4.55906 -0.231379
399 4.62837 -0.229247
400 4.69771 -0.228077
401 4.76695 -0.228129
402 4.83404 -0.229376
403 4.88968 -0.224348
404 4.90949 -0.2249
405 4.92564 -0.226077
406 4.9394 -0.227365
407 4.94971 -0.228989
408 4.9566 -0.23038
409 4.95988 -0.23143
410 4.96227 -0.23253
411 4.9648 -0.233883
412 4.96741 -0.235517
413 4.97024 -0.237568
414 4.97317 -0.240046
415 4.97559 -0.242309
416 4.97765 -0.244677
417 4.97942 -0.246789
418 4.98126 -0.249462
419 4.98281 -0.25225
420 4.98433 -0.255258
421 4.98553 -0.258778
422 4.9864 -0.262138
423 4.98703 -0.265668
424 4.98716 -0.269275
425 4.98702 -0.272518
426 4.9866 -0.275657
427 4.98587 -0.278641
428 4.98493 -0.2811
429 4.98418 -0.283349
430 4.98284 -0.286106
431 4.98103 -0.28896
432 4.97903 -0.291631
433 4.97687 -0.294161
434 4.97447 -0.296747
435 4.96435 -0.320534
436 4.91372 -0.363392
437 4.85926 -0.406546
438 4.80477 -0.44933
439 4.7501 -0.491946
440 4.6954 -0.534458
441 4.64074 -0.5769
442 4.58611 -0.619293
443 4.53148 -0.661668
444 4.47743 -0.703604
445 4.43719 -0.726869
446 4.43037 -0.732377
447 4.42441 -0.737789
448 4.4197 -0.743233
449 4.41665 -0.748711
450 4.41488 -0.754693
451 4.41499 -0.759301
452 4.41534 -0.761071
453 4.41549 -0.761783
454 4.41538 -0.762521
455 4.41862 -0.785397
456 4.45973 -0.832803
457 4.50803 -0.88224
458 4.55506 -0.932583
459 4.60081 -0.984121
460 4.64511 -1.03697
461 4.68138 -1.07089
462 4.68908 -1.0791
463 4.69101 -1.08245
464 4.69271 -1.08585
465 4.69406 -1.0893
466 4.69519 -1.09301
467 4.69598 -1.09668
468 4.69644 -1.10022
469 4.69658 -1.10381
470 4.69636 -1.10724
471 4.69591 -1.11017
472 4.6953 -1.11286
473 4.69452 -1.11521
474 4.69365 -1.11771
475 4.68813 -1.14587
476 4.65789 -1.20339
477 4.62408 -1.26357
478 4.59037 -1.32379
479 4.55691 -1.38411
480 4.52371 -1.44462
481 4.49075 -1.50526
482 4.45801 -1.56604
483 4.42551 -1.62696
484 4.39321 -1.68794
485 4.36999 -1.72298
486 4.3662 -1.73044
487 4.36324 -1.73716
488 4.36114 -1.74398
489 4.36018 -1.75067
490 4.36048 -1.75655
491 4.36173 -1.75947
492 4.36162 -1.76024
493 4.36228 -1.76189
494 4.36419 -1.76376
495 4.36652 -1.76544
496 4.36914 -1.76681
497 4.38406 -1.78526
498 4.44569 -1.80187
499 4.5138 -1.81623
500 4.58158 -1.83105
501 4.64931 -1.84632
502 4.71656 -1.86224
503 4.76866 -1.86699
504 4.78441 -1.87035
505 4.79392 -1.87311
506 4.79971 -1.87514
507 4.80264 -1.87659
508 4.8049 -1.87813
509 4.80739 -1.87997
510 4.81004 -1.88225
511 4.81298 -1.88506
512 4.81559 -1.8879
513 4.818 -1.89089
514 4.82026 -1.89415
515 4.82229 -1.89763
516 4.8241 -1.90132
517 4.82555 -1.90525
518 4.82663 -1.90906
519 4.82731 -1.91284
520 4.82761 -1.91642
521 4.82754 -1.91972
522 4.82721 -1.9227
523 4.8266 -1.92518
524 4.82609 -1.92719
525 4.82537 -1.92948
526 4.82415 -1.93192
527 4.82285 -1.93443
528 4.82104 -1.93709
529 4.81459 -1.96296
530 4.77252 -2.0133
531 4.72623 -2.06492
532 4.67986 -2.11642
533 4.63345 -2.16786
534 4.58718 -2.21929
535 4.54101 -2.27076
536 4.49496 -2.32225
537 4.44898 -2.37376
538 4.40308 -2.42531
539 4.36883 -2.45436
540 4.36319 -2.46081
541 4.35863 -2.46686
542 4.35481 -2.47345
543 4.35234 -2.48033
544 4.35144 -2.48704
545 4.35234 -2.49118
546 4.35247 -2.49143
547 4.35178 -2.49203
548 4.3532 -2.49385
549 4.35533 -2.4955
550 4.35769 -2.49691
551 4.36042 -2.49815
552 4.37508 -2.51505
553 4.43761 -2.53029
554 4.5057 -2.54413
555 4.57365 -2.55858
556 4.6415 -2.57373
557 4.70892 -2.58962
558 4.77577 -2.60629
559 4.82594 -2.61231
560 4.84192 -2.61602
561 4.85071 -2.61868
562 4.85628 -2.62067
563 4.85881 -2.62204
564 4.86105 -2.62351
565 4.86317 -2.6251
566 4.86538 -2.627
567 4.86784 -2.62939
568 4.87022 -2.63199
569 4.87252 -2.63485
570 4.87489 -2.63834
571 4.87676 -2.64162
572 4.87842 -2.64508
573 4.87978 -2.64882
574 4.88073 -2.65244
575 4.88139 -2.65606
576 4.88161 -2.65969
577 4.88158 -2.66295
578 4.88104 -2.66617
579 4.88056 -2.66853
580 4.87989 -2.67063
581 4.8792 -2.67241
582 4.87845 -2.67436
583 4.87705 -2.67707
584 4.87492 -2.68005
585 4.86813 -2.70554
586 4.82573 -2.75495
587 4.77895 -2.80579
588 4.73193 -2.8566
589 4.68488 -2.9074
590 4.63792 -2.95823
591 4.59101 -3.00911
592 4.5456 -3.05847
593 4.49746 -3.11088
594 4.4508 -3.16179
595 4.41621 -3.1902
596 4.41088 -3.19622
597 4.40643 -3.20184
598 4.40299 -3.20762
599 4.40068 -3.21381
600 4.39983 -3.21976
601 4.40046 -3.22354
602 4.40079 -3.22467
603 4.40075 -3.22487
604 4.40026 -3.22504
605 4.40636 -3.24619
606 4.45387 -3.28251
607 4.51499 -3.32047
608 4.57342 -3.35753
609 4.63123 -3.39553
610 4.68744 -3.43492
611 4.73258 -3.45796
612 4.74253 -3.46389
613 4.74516 -3.46642
614 4.74734 -3.46898
615 4.74937 -3.47162
616 4.75106 -3.47418
617 4.75258 -3.47689
618 4.75402 -3.47992
619 4.7553 -3.48323
620 4.75625 -3.4865
621 4.75693 -3.48978
622 4.75732 -3.49339
623 4.75734 -3.49702
624 4.757 -3.50035
625 4.75645 -3.50309
626 4.75585 -3.50517
627 4.75529 -3.50698
628 4.75446 -3.5093
629 4.75289 -3.51236
630 4.75079 -3.51547
631 4.74273 -3.54222
632 4.70182 -3.59299
633 4.65657 -3.64529
634 4.61126 -3.69742
635 4.56596 -3.74955
636 4.5207 -3.80175
637 4.47554 -3.85396
638 4.43044 -3.90623
639 4.38539 -3.95856
640 4.34041 -4.01089
641 4.30798 -4.03963
642 4.30308 -4.04556
643 4.2989 -4.05122
644 4.29567 -4.0571
645 4.2936 -4.06317
646 4.29294 -4.06872
647 4.29369 -4.07219
648 4.2939 -4.07265
649 4.29324 -4.07275
650 4.29344 -4.07384
651 4.29492 -4.07513
652 4.29657 -4.07656
653 4.30891 -4.09596
654 4.36828 -4.11954
655 4.43401 -4.14242
656 4.49975 -4.16584
657 4.56488 -4.18976
658 4.62929 -4.21437
659 4.68002 -4.22599
660 4.69346 -4.23042
661 4.69929 -4.23288
662 4.70228 -4.23484
663 4.7048 -4.23668
664 4.70698 -4.2387
665 4.70953 -4.24122
666 4.71184 -4.2438
667 4.71387 -4.24639
668 4.71576 -4.24917
669 4.71746 -4.25212
670 4.71891 -4.25516
671 4.72014 -4.2584
672 4.72111 -4.2618
673 4.72182 -4.26551
674 4.72209 -4.26928
675 4.72204 -4.27273
676 4.72162 -4.27589
677 4.72106 -4.27863
678 4.72029 -4.28103
679 4.71955 -4.28311
680 4.71862 -4.2855
681 4.71518 -4.31265
682 4.68162 -4.36889
683 4.64429 -4.4272
684 4.6071 -4.48549
685 4.57003 -4.54387
686 4.53317 -4.60236
687 4.49653 -4.66095
688 4.46014 -4.71961
689 4.42393 -4.77839
690 4.38787 -4.83728
691 4.36041 -4.87115
692 4.35643 -4.87809
693 4.35269 -4.88534
694 4.34973 -4.8932
695 4.34718 -4.90273
696 4.34483 -4.9127
697 4.3424 -4.92163
698 4.3404 -4.92693
699 4.33979 -4.92835
700 4.33885 -4.93044
701 4.33697 -4.93329
702 4.33489 -4.93605
703 4.33255 -4.93874
704 4.33002 -4.94122
705 4.32765 -4.94315
706 4.3254 -4.94503
707 4.32246 -4.9469
708 4.31933 -4.94856
709 4.31599 -4.94997
710 4.31254 -4.95106
711 4.30914 -4.95176
712 4.30577 -4.95224
713 4.3023 -4.95224
714 4.29934 -4.95188
715 4.29682 -4.95151
716 4.29401 -4.95098
717 4.26855 -4.95466
718 4.20761 -4.93285
719 4.1431 -4.9071
720 4.07869 -4.88177
721 4.01423 -4.85694
722 3.94943 -4.83255
723 3.88443 -4.80858
724 3.81945 -4.78512
725 3.75435 -4.76207
726 3.68915 -4.73927
727 3.64864 -4.7186
728 3.6396 -4.71559
729 3.63121 -4.71327
730 3.62254 -4.71168
731 3.61434 -4.71121
732 3.60674 -4.71187
733 3.6001 -4.71359
734 3.59529 -4.71592
735 3.59223 -4.71813
736 3.58988 -4.72032
737 3.58783 -4.72301
738 3.5861 -4.72611
739 3.58483 -4.72955
740 3.58384 -4.73295
741 3.56819 -4.753
742 3.5593 -4.81766
743 3.55193 -4.88657
744 3.54384 -4.95537
745 3.53492 -5.02411
746 3.52517 -5.09252
747 3.5244 -5.14317
748 3.52195 -5.15953
749 3.52009 -5.17036
750 3.51891 -5.17574
751 3.51807 -5.17758
752 3.5169 -5.17962
753 3.51509 -5.18245
754 3.51281 -5.18556
755 3.51044 -5.18839
756 3.50803 -5.1909
757 3.50557 -5.19316
758 3.50306 -5.19517
759 3.50038 -5.19707
760 3.49742 -5.19877
761 3.49442 -5.20025
762 3.49119 -5.20149
763 3.48786 -5.20244
764 3.48449 -5.20306
765 3.4811 -5.20336
766 3.4778 -5.20328
767 3.47467 -5.20296
768 3.47161 -5.2023
769 3.46893 -5.20143
770 3.46657 -5.20052
771 3.46388 -5.19946
772 3.46116 -5.19763
773 3.45872 -5.1961
774 3.45619 -5.19406
775 3.43179 -5.18666
776 3.38502 -5.14157
777 3.33714 -5.09158
778 3.2894 -5.04145
779 3.24174 -4.99115
780 3.19414 -4.94092
781 3.14653 -4.89074
782 3.09893 -4.8406
783 3.05132 -4.79053
784 3.00373 -4.74049
785 2.97762 -4.70365
786 2.97176 -4.69784
787 2.96614 -4.69269
788 2.96066 -4.68884
789 2.95512 -4.68633
790 2.94952 -4.68505
791 2.94447 -4.68505
792 2.94177 -4.68612
793 2.9416 -4.68601
794 2.94096 -4.68566
795 2.93941 -4.68679
796 2.93786 -4.68895
797 2.91851 -4.7002
798 2.89376 -4.75924
799 2.87047 -4.82476
800 2.84671 -4.89019
801 2.82238 -4.95518
802 2.79716 -5.01949
803 2.78458 -5.07085
804 2.78016 -5.08454
805 2.77795 -5.08958
806 2.77613 -5.0922
807 2.77407 -5.0948
808 2.77183 -5.09728
809 2.76946 -5.09957
810 2.76713 -5.1016
811 2.76465 -5.10347
812 2.76164 -5.10545
813 2.75852 -5.1072
814 2.7551 -5.10878
815 2.75154 -5.11007
816 2.74787 -5.11107
817 2.74416 -5.11168
818 2.74079 -5.1119
819 2.73763 -5.11187
820 2.73454 -5.11148
821 2.73176 -5.11088
822 2.72943 -5.1101
823 2.72735 -5.1094
824 2.72485 -5.10839
825 2.69824 -5.10474
826 2.64266 -5.07179
827 2.58449 -5.03443
828 2.52638 -4.99718
829 2.4681 -4.95999
830 2.40968 -4.92295
831 2.35117 -4.88614
832 2.29248 -4.84943
833 2.23374 -4.81286
834 2.17503 -4.77652
835 2.14084 -4.74876
836 2.13274 -4.74406
837 2.12456 -4.73975
838 2.116 -4.73643
839 2.10717 -4.7345
840 2.0985 -4.73414
841 2.09085 -4.7354
842 2.08818 -4.7375
843 2.08756 -4.73648
844 2.08544 -4.73854
845 2.08368 -4.74077
846 2.08253 -4.74376
847 2.082 -4.74679
848 2.08208 -4.7497
849 2.07249 -4.76566
850 2.08688 -4.82623
851 2.10739 -4.8928
852 2.12701 -4.95953
853 2.14518 -5.02657
854 2.16187 -5.09438
855 2.18129 -5.14676
856 2.1851 -5.16346
857 2.1873 -5.17481
858 2.18806 -5.1814
859 2.18805 -5.18461
860 2.18771 -5.18636
861 2.18725 -5.18803
862 2.18672 -5.18953
863 2.18596 -5.19128
864 2.18482 -5.19349
865 2.18321 -5.19613
866 2.18109 -5.19908
867 2.17869 -5.20189
868 2.17638 -5.20426
869 2.17399 -5.20647
870 2.17116 -5.20874
871 2.16784 -5.211
872 2.16422 -5.21302
873 2.16065 -5.21464
874 2.15716 -5.21601
875 2.15353 -5.21713
876 2.12935 -5.23142
877 2.06555 -5.24523
878 1.99751 -5.25805
879 1.9296 -5.27081
880 1.8619 -5.28374
881 1.79412 -5.2969
882 1.72626 -5.31032
883 1.65836 -5.32395
884 1.59053 -5.33781
885 1.52287 -5.3518
886 1.47981 -5.35608
887 1.47088 -5.35809
888 1.46311 -5.3603
889 1.45575 -5.36331
890 1.4494 -5.36708
891 1.44569 -5.37048
892 1.44383 -5.37273
893 1.44268 -5.37502
894 1.44193 -5.37744
895 1.44219 -5.38006
896 1.44265 -5.38176
897 1.44311 -5.38268
898 1.44068 -5.40123
899 1.48077 -5.43558
900 1.50288 -5.45321
901 1.51439 -5.46134
902 1.51665 -5.46431
903 1.51848 -5.4673
904 1.52002 -5.47035
905 1.52128 -5.47349
906 1.52234 -5.47689
907 1.5232 -5.48056
908 1.52374 -5.4842
909 1.52392 -5.48751
910 1.52378 -5.49055
911 1.52338 -5.49346
912 1.52278 -5.49634
913 1.518 -5.52374
914 1.499 -5.58573
915 1.47747 -5.65142
916 1.45627 -5.71714
917 1.43557 -5.78284
918 1.4154 -5.84874
919 1.39573 -5.91493
920 1.37654 -5.98129
921 1.3578 -6.0477
922 1.33949 -6.11407
923 1.32726 -6.15404
924 1.32508 -6.16242
925 1.32346 -6.17005
926 1.3226 -6.17768
927 1.32274 -6.18474
928 1.32394 -6.19114
929 1.32581 -6.19397
930 1.32539 -6.1944
931 1.32612 -6.19594
932 1.32804 -6.19763
933 1.33017 -6.19913
934 1.33266 -6.20053
935 1.34856 -6.21959
936 1.41002 -6.23906
937 1.47702 -6.25713
938 1.54366 -6.27564
939 1.59672 -6.28177
940 1.61348 -6.28539
941 1.6223 -6.28811
942 1.62728 -6.29
943 1.63008 -6.29168
944 1.63277 -6.29354
945 1.63531 -6.29558
946 1.63784 -6.29789
947 1.64041 -6.30055
948 1.64287 -6.30343
949 1.64487 -6.30613
950 1.64673 -6.309
951 1.64826 -6.31198
952 1.64955 -6.31481
953 1.65076 -6.31831
954 1.65161 -6.32207
955 1.65203 -6.32553
956 1.65219 -6.32878
957 1.65202 -6.33212
958 1.65152 -6.33516
959 1.6553 -6.3622
960 1.64029 -6.42471
961 1.6217 -6.4914
962 1.60354 -6.55802
963 1.58593 -6.62496
964 1.56878 -6.69203
965 1.55243 -6.75894
966 1.5366 -6.826
967 1.5213 -6.89329
968 1.50628 -6.96069
969 1.49232 -7.00117
970 1.49058 -7.01039
971 1.48909 -7.01966
972 1.48846 -7.02866
973 1.4889 -7.03725
974 1.49054 -7.04508
975 1.49244 -7.04819
976 1.49214 -7.04911
977 1.49422 -7.05135
978 1.49676 -7.05324
979 1.49966 -7.05475
980 1.50295 -7.05589
981 1.50637 -7.05658
982 1.52611 -7.07104
983 1.58989 -7.075
984 1.65921 -7.07651
985 1.72816 -7.07861
986 1.79666 -7.08188
987 1.84892 -7.07703
988 1.86795 -7.07831
989 1.88408 -7.0799
990 1.89717 -7.08166
991 1.90649 -7.08337
992 1.91183 -7.08471
993 1.91451 -7.08575
994 1.91687 -7.08696
995 1.91983 -7.08864
996 1.94485 -7.10456
997 1.99889 -7.14119
998 2.05489 -7.18093
999 2.11088 -7.22091
1000 2.16692 -7.26097
1001 2.22301 -7.301
1002 2.27913 -7.34098
1003 2.3353 -7.38089
1004 2.39149 -7.42074
1005 2.4477 -7.46055
1006 2.48078 -7.48458
1007 2.48757 -7.48928
1008 2.49383 -7.49323
1009 2.50011 -7.49624
1010 2.50657 -7.49816
1011 2.51291 -7.49891
1012 2.51868 -7.49846
1013 2.52159 -7.49684
1014 2.52175 -7.49722
1015 2.52306 -7.49751
1016 2.52552 -7.49567
1017 2.52762 -7.49317
1018 2.55056 -7.48482
1019 2.58813 -7.43173
1020 2.62641 -7.37391
1021 2.6651 -7.31633
1022 2.70423 -7.25908
1023 2.74385 -7.20227
1024 2.78391 -7.14585
1025 2.80789 -7.10043
1026 2.81467 -7.08849
1027 2.81732 -7.08543
1028 2.81977 -7.08321
1029 2.82225 -7.0812
1030 2.82492 -7.07938
1031 2.82771 -7.07766
1032 2.83039 -7.07626
1033 2.83365 -7.07484
1034 2.83726 -7.07363
1035 2.84066 -7.07277
1036 2.84406 -7.07225
1037 2.84754 -7.072
1038 2.85091 -7.0722
1039 2.85374 -7.07255
1040 2.85603 -7.07315
1041 2.85776 -7.07361
1042 2.85978 -7.07424
1043 2.8621 -7.07534
1044 2.86463 -7.07666
1045 2.89158 -7.08336
1046 2.94407 -7.12187
1047 2.99817 -7.16461
1048 3.05219 -7.20734
1049 3.10627 -7.25021
1050 3.16045 -7.29302
1051 3.21467 -7.33575
1052 3.26892 -7.37841
1053 3.32323 -7.42097
1054 3.37758 -7.46347
1055 3.40893 -7.49504
1056 3.41711 -7.50135
1057 3.42425 -7.50627
1058 3.43147 -7.50996
1059 3.43927 -7.51243
1060 3.44697 -7.51334
1061 3.45368 -7.51271
1062 3.4565 -7.51094
1063 3.45603 -7.51174
1064 3.45675 -7.51222
1065 3.4582 -7.51095
1066 3.4594 -7.50929
1067 3.47775 -7.50222
1068 3.50612 -7.43727
1069 3.53049 -7.37224
1070 3.55524 -7.30727
1071 3.58068 -7.24284
1072 3.60682 -7.17863
1073 3.61946 -7.12837
1074 3.62412 -7.11484
1075 3.62662 -7.10937
1076 3.62873 -7.10641
1077 3.63121 -7.10339
1078 3.63378 -7.10056
1079 3.63627 -7.0982
1080 3.63884 -7.09603
1081 3.64149 -7.09407
1082 3.64447 -7.09216
1083 3.64757 -7.09049
1084 3.65086 -7.08899
1085 3.6546 -7.08767
1086 3.65833 -7.08678
1087 3.66161 -7.0863
1088 3.66462 -7.08608
1089 3.66774 -7.08614
1090 3.67079 -7.08659
1091 3.67325 -7.08723
1092 3.67539 -7.08779
1093 3.67801 -7.08867
1094 3.68083 -7.09009
1095 3.70771 -7.09384
1096 3.76308 -7.12774
1097 3.82084 -7.16583
1098 3.87859 -7.20391
1099 3.93633 -7.24186
1100 3.99414 -7.27958
1101 4.05208 -7.31714
1102 4.1101 -7.35455
1103 4.16817 -7.39183
1104 4.2263 -7.42899
1105 4.25961 -7.45719
1106 4.26617 -7.46129
1107 4.27231 -7.46448
1108 4.279 -7.46715
1109 4.28577 -7.46867
1110 4.29231 -7.46897
1111 4.29773 -7.46806
1112 4.29962 -7.46674
1113 4.30059 -7.46729
1114 4.30289 -7.4652
1115 4.30483 -7.4626
1116 4.30617 -7.45963
1117 4.30726 -7.45664
1118 4.30782 -7.45309
1119 4.32123 -7.43596
1120 4.32271 -7.37228
1121 4.32149 -7.30283
1122 4.32114 -7.23354
1123 4.32205 -7.16446
1124 4.32417 -7.09521
1125 4.3195 -7.0418
1126 4.32034 -7.02335
1127 4.3213 -7.00959
1128 4.32224 -7.00103
1129 4.32296 -6.99734
1130 4.3236 -6.99587
1131 4.32461 -6.99394
1132 4.32607 -6.99143
1133 4.32789 -6.98872
1134 4.33007 -6.98591
1135 4.33246 -6.98322
1136 4.33492 -6.98083
1137 4.33741 -6.97865
1138 4.34007 -6.97671
1139 4.3427 -6.97496
1140 4.34588 -6.97321
1141 4.3493 -6.97176
1142 4.35266 -6.97063
1143 4.35608 -6.96979
1144 4.35958 -6.9693
1145 4.36295 -6.96921
1146 4.36613 -6.96938
1147 4.36923 -6.96987
1148 4.37199 -6.97064
1149 4.37424 -6.97144
1150 4.37661 -6.97226
1151 4.37897 -6.97372
1152 4.38117 -6.97486
1153 4.38353 -6.97673
1154 4.38577 -6.97847
1155 4.40998 -6.9868
1156 4.4558 -7.03384
1157 4.50224 -7.08512
1158 4.54849 -7.13647
1159 4.59468 -7.18821
1160 4.64077 -7.23982
1161 4.68683 -7.29142
1162 4.73291 -7.343
1163 4.77897 -7.3946
1164 4.82499 -7.44612
1165 4.85023 -7.48385
1166 4.85587 -7.4899
1167 4.8612 -7.49503
1168 4.86649 -7.49896
1169 4.87171 -7.50148
1170 4.87696 -7.5028
1171 4.8818 -7.50289
1172 4.88451 -7.50189
1173 4.88458 -7.50194
1174 4.88465 -7.50265
1175 4.88582 -7.50231
1176 4.88737 -7.50034
1177 4.90675 -7.48945
1178 4.93262 -7.43087
1179 4.95737 -7.36599
1180 4.98286 -7.30148
1181 5.00916 -7.23735
1182 5.03646 -7.174
1183 5.05096 -7.12347
1184 5.05591 -7.11005
1185 5.05826 -7.10512
1186 5.06039 -7.1025
1187 5.06283 -7.09949
1188 5.06512 -7.09715
1189 5.06749 -7.09499
1190 5.06986 -7.0931
1191 5.07248 -7.09126
1192 5.07541 -7.08949
1193 5.07847 -7.08792
1194 5.08166 -7.08663
1195 5.08505 -7.0855
1196 5.08891 -7.08469
1197 5.09253 -7.08425
1198 5.09604 -7.08405
1199 5.12356 -7.07803
1200 5.18769 -7.08244
1201 5.25625 -7.0894
1202 5.32506 -7.0962
1203 5.39388 -7.10268
1204 5.46258 -7.1086
1205 5.53145 -7.11397
1206 5.60039 -7.11893
1207 5.66921 -7.12346
1208 5.73801 -7.12764
1209 5.78059 -7.13396
1210 5.79194 -7.13436
1211 5.80417 -7.13459
1212 5.81701 -7.1343
1213 5.83 -7.13316
1214 5.84257 -7.13098
1215 5.8545 -7.12761
1216 5.86574 -7.12278
1217 5.87314 -7.11745
1218 5.87625 -7.11432
1219 5.87817 -7.112
1220 5.87952 -7.10925
1221 5.88017 -7.10628
1222 5.88004 -7.10343
1223 5.87973 -7.10091
1224 5.88609 -7.08177
1225 5.86035 -7.02593
1226 5.82678 -6.96516
1227 5.79388 -6.90371
1228 5.76232 -6.84178
1229 5.73077 -6.79671
1230 5.72385 -6.78409
1231 5.72121 -6.77805
1232 5.72035 -6.77427
1233 5.71982 -6.77078
1234 5.71975 -6.76777
1235 5.71991 -6.76487
1236 5.7203 -6.76236
1237 5.72078 -6.76029
1238 5.72133 -6.75853
1239 5.72218 -6.75636
1240 5.72342 -6.75373
1241 5.73434 -6.72764
1242 5.76798 -6.6718
1243 5.80498 -6.61341
1244 5.84188 -6.5551
1245 5.87863 -6.49677
1246 5.91521 -6.43831
1247 5.95163 -6.37973
1248 5.98786 -6.32111
1249 6.02392 -6.26245
1250 6.05984 -6.20367
1251 6.08337 -6.16908
1252 6.08776 -6.16167
1253 6.09132 -6.15496
1254 6.09387 -6.14835
1255 6.09522 -6.14173
1256 6.09522 -6.13566
1257 6.09393 -6.13246
1258 6.09408 -6.13201
1259 6.09409 -6.13079
1260 6.09246 -6.12905
1261 6.09029 -6.12749
1262 6.08757 -6.12614
1263 6.08442 -6.12524
1264 6.06995 -6.11022
1265 6.00732 -6.10212
1266 5.93813 -6.09636
1267 5.86927 -6.08984
1268 5.80033 -6.08259
1269 5.74543 -6.08414
1270 5.72763 -6.08216
1271 5.71417 -6.0799
1272 5.70375 -6.07775
1273 5.69734 -6.07612
1274 5.6945 -6.07506
1275 5.69275 -6.07403
1276 5.69046 -6.07255
1277 5.68789 -6.07068
1278 5.68548 -6.06868
1279 5.68335 -6.06667
1280 5.68142 -6.06459
1281 5.67947 -6.06224
1282 5.67766 -6.05957
1283 5.67618 -6.05708
1284 5.67469 -6.05418
1285 5.67332 -6.05062
1286 5.67245 -6.04717
1287 5.67182 -6.04405
1288 5.67151 -6.04062
1289 5.6716 -6.03728
1290 5.67198 -6.0343
1291 5.67255 -6.03165
1292 5.6733 -6.02938
1293 5.67402 -6.02741
1294 5.67495 -6.02504
1295 5.67662 -6.02222
1296 5.6785 -6.01951
1297 5.6849 -5.99414
1298 5.7271 -5.94377
1299 5.7736 -5.89198
1300 5.82002 -5.84044
1301 5.86644 -5.78899
1302 5.91272 -5.73756
1303 5.95893 -5.68612
1304 6.00505 -5.63462
1305 6.05111 -5.58311
1306 6.0971 -5.53159
1307 6.13132 -5.50254
1308 6.13674 -5.4962
1309 6.14134 -5.4903
1310 6.14483 -5.48435
1311 6.14711 -5.47812
1312 6.14797 -5.47198
1313 6.14727 -5.46792
1314 6.14693 -5.46674
1315 6.14692 -5.46646
1316 6.14723 -5.46586
1317 6.14053 -5.44367
1318 6.0921 -5.40406
1319 6.03482 -5.36446
1320 5.97834 -5.32462
1321 5.92299 -5.28369
1322 5.86861 -5.24144
1323 5.82555 -5.21658
1324 5.8167 -5.21079
1325 5.81469 -5.20844
1326 5.81263 -5.20584
1327 5.81084 -5.20323
1328 5.80929 -5.20061
1329 5.80795 -5.19793
1330 5.80675 -5.195
1331 5.80569 -5.19171
1332 5.80495 -5.1884
1333 5.80448 -5.18521
1334 5.80435 -5.18182
1335 5.80453 -5.17855
1336 5.80502 -5.17557
1337 5.80564 -5.17298
1338 5.80641 -5.17061
1339 5.80735 -5.16803
1340 5.80881 -5.16499
1341 5.81491 -5.1369
1342 5.85068 -5.08169
1343 5.89028 -5.0248
1344 5.9296 -4.96809
1345 5.96889 -4.91131
1346 6.00797 -4.85446
1347 6.04689 -4.79749
1348 6.08566 -4.74041
1349 6.12426 -4.68325
1350 6.16273 -4.62598
1351 6.19298 -4.58859
1352 6.20188 -4.57749
1353 6.20481 -4.57354
1354 6.20709 -4.5707
1355 6.20951 -4.568
1356 6.21208 -4.56574
1357 6.2144 -4.56373
1358 6.21707 -4.56186
1359 6.21991 -4.56011
1360 6.223 -4.55865
1361 6.22628 -4.55727
1362 6.22991 -4.55641
1363 6.23316 -4.55581
1364 6.23651 -4.55556
1365 6.23961 -4.55573
1366 6.24237 -4.55601
1367 6.24466 -4.55662
1368 6.24683 -4.55719
1369 6.24916 -4.55787
1370 6.25197 -4.55922
1371 6.2769 -4.56104
1372 6.33177 -4.59584
1373 6.38908 -4.6352
1374 6.44627 -4.67443
1375 6.50344 -4.7135
1376 6.56067 -4.75239
1377 6.61797 -4.79111
1378 6.67535 -4.82969
1379 6.73276 -4.86814
1380 6.7902 -4.90644
1381 6.82409 -4.93668
1382 6.83094 -4.94104
1383 6.8374 -4.94468
1384 6.84413 -4.94753
1385 6.85121 -4.94932
1386 6.85825 -4.94989
1387 6.86467 -4.94922
1388 6.8679 -4.94761
1389 6.86886 -4.9477
1390 6.87079 -4.94633
1391 6.87268 -4.94404
1392 6.87401 -4.94109
1393 6.87469 -4.93801
1394 6.87486 -4.93491
1395 6.87466 -4.93173
1396 6.88266 -4.91407
1397 6.86856 -4.85299
1398 6.85047 -4.78581
1399 6.83364 -4.71831
1400 6.8182 -4.65049
1401 6.80439 -4.58266
1402 6.79219 -4.51471
1403 6.77786 -4.46158
1404 6.77397 -4.44042
1405 6.77105 -4.42503
1406 6.76878 -4.41264
1407 6.76735 -4.40234
1408 6.76677 -4.39556
1409 6.76694 -4.3925
1410 6.7673 -4.39058
1411 6.76784 -4.38863
1412 6.76855 -4.38665
1413 6.76943 -4.3846
1414 6.77081 -4.38194
1415 6.77276 -4.37888
1416 6.77497 -4.37598
1417 6.77724 -4.37338
1418 6.77955 -4.3711
1419 6.7818 -4.36911
1420 6.78433 -4.3671
1421 6.78751 -4.36498
1422 6.79107 -4.36313
1423 6.79468 -4.3615
1424 6.79855 -4.36027
1425 6.80226 -4.35941
1426 6.80605 -4.35885
1427 6.80979 -4.35884
1428 6.81296 -4.35905
1429 6.81586 -4.35956
1430 6.81835 -4.36024
1431 6.82063 -4.36095
1432 6.82359 -4.36192
1433 6.827 -4.36395
1434 6.83004 -4.36584
1435 6.83309 -4.36817
1436 6.8359 -4.37063
1437 6.85938 -4.37879
1438 6.90508 -4.4259
1439 6.95163 -4.47749
1440 6.9979 -4.52924
1441 7.04395 -4.58107
1442 7.08994 -4.63283
1443 7.13591 -4.68462
1444 7.18187 -4.73633
1445 7.21137 -4.77801
1446 7.21941 -4.78968
1447 7.22175 -4.79248
1448 7.22388 -4.79514
1449 7.22573 -4.79831
1450 7.22726 -4.80131
1451 7.22853 -4.80453
1452 7.22954 -4.80789
1453 7.2302 -4.81137
1454 7.23059 -4.81475
1455 7.24036 -4.83882
1456 7.23858 -4.90366
1457 7.23437 -4.97261
1458 7.23031 -5.04168
1459 7.22665 -5.11076
1460 7.22355 -5.17986
1461 7.22099 -5.24892
1462 7.21894 -5.31805
1463 7.21728 -5.38725
1464 7.21602 -5.45647
1465 7.2102 -5.50108
1466 7.21031 -5.51135
1467 7.21066 -5.52199
1468 7.21144 -5.53265
1469 7.21305 -5.54251
1470 7.21565 -5.55154
1471 7.21876 -5.55793
1472 7.22115 -5.5612
1473 7.2233 -5.56333
1474 7.22572 -5.56498
1475 7.22853 -5.5661
1476 7.23152 -5.56663
1477 7.23446 -5.56658
1478 7.23714 -5.56627
1479 7.25836 -5.57354
1480 7.31912 -5.55558
1481 7.38488 -5.53315
1482 7.45054 -5.51209
1483 7.51672 -5.49231
1484 7.58359 -5.47375
1485 7.63254 -5.45367
1486 7.64854 -5.44883
1487 7.65882 -5.44699
1488 7.66765 -5.44569
1489 7.67355 -5.44532
1490 7.67704 -5.44547
1491 7.67919 -5.44584
1492 7.68111 -5.44635
1493 7.68321 -5.44706
1494 7.68553 -5.44804
1495 7.68813 -5.44936
1496 7.69102 -5.45111
1497 7.69382 -5.45317
1498 7.69638 -5.45528
1499 7.69886 -5.45765
1500 7.70113 -5.46019
1501 7.70317 -5.46278
1502 7.70506 -5.46561
1503 7.7067 -5.46859
1504 7.70818 -5.47178
1505 7.70929 -5.47521
1506 7.71009 -5.47849
1507 7.71058 -5.48184
1508 7.7108 -5.4854
1509 7.71048 -5.48907
1510 7.70987 -5.49212
1511 7.70924 -5.49468
1512 7.70848 -5.49726
1513 7.71034 -5.5223
1514 7.68452 -5.58178
1515 7.65478 -5.64449
1516 7.62534 -5.70722
1517 7.59623 -5.77002
1518 7.56759 -5.83307
1519 7.53934 -5.89634
1520 7.51156 -5.95966
1521 7.48421 -6.0231
1522 7.45712 -6.08669
1523 7.43418 -6.12546
1524 7.43107 -6.13338
1525 7.42849 -6.14101
1526 7.4268 -6.14873
1527 7.42629 -6.15616
1528 7.42704 -6.1626
1529 7.4284 -6.16547
1530 7.42833 -6.16647
1531 7.43002 -6.16847
1532 7.43224 -6.17035
1533 7.43523 -6.17177
1534 7.43831 -6.17264
1535 7.44143 -6.17314
1536 7.4599 -6.18506
1537 7.52302 -6.18107
1538 7.59201 -6.17275
1539 7.66099 -6.16531
1540 7.73013 -6.15883
1541 7.79936 -6.15378
1542 7.8688 -6.14994
1543 7.92134 -6.14123
1544 7.9409 -6.14052
1545 7.95727 -6.14044
1546 7.97132 -6.14091
1547 7.98236 -6.14174
1548 7.98938 -6.14273
1549 7.99288 -6.14356
1550 7.99463 -6.14421
1551 7.99649 -6.14506
1552 7.9988 -6.14632
1553 8.00103 -6.14776
1554 8.00335 -6.14942
1555 8.00586 -6.15156
1556 8.00813 -6.15381
1557 8.01022 -6.15612
1558 8.0121 -6.15862
1559 8.01387 -6.16121
1560 8.01542 -6.16403
1561 8.01684 -6.16683
1562 8.03461 -6.1901
1563 8.05722 -6.25201
1564 8.07931 -6.31747
1565 8.10131 -6.38316
1566 8.12327 -6.44858
1567 8.14542 -6.51377
1568 8.16771 -6.57896
1569 8.1902 -6.6441
1570 8.21284 -6.70919
1571 8.23557 -6.77415
1572 8.24521 -6.81525
1573 8.248 -6.82282
1574 8.25077 -6.82914
1575 8.25409 -6.83467
1576 8.25724 -6.83822
1577 8.25949 -6.84007
1578 8.26179 -6.84125
1579 8.26345 -6.84159
1580 8.26485 -6.84211
1581 8.26666 -6.84144
1582 8.26748 -6.84115
1583 8.26844 -6.84103
1584 8.26986 -6.83969
1585 8.27121 -6.83765
1586 8.28817 -6.83036
1587 8.31375 -6.77115
1588 8.33914 -6.70627
1589 8.36535 -6.64176
1590 8.39208 -6.57746
1591 8.40693 -6.52414
1592 8.41179 -6.51084
1593 8.41408 -6.50574
1594 8.41562 -6.50369
1595 8.41731 -6.50173
1596 8.41935 -6.49971
1597 8.42193 -6.49737
1598 8.42439 -6.49531
1599 8.42671 -6.4937
1600 8.42977 -6.49183
1601 8.43297 -6.49017
1602 8.4362 -6.48881
1603 8.43972 -6.48766
1604 8.44345 -6.48679
1605 8.44727 -6.48629
1606 8.45083 -6.48619
1607 8.45395 -6.4864
1608 8.45676 -6.48684
1609 8.45935 -6.48747
1610 8.46183 -6.48828
1611 8.46432 -6.48931
1612 8.46703 -6.49064
1613 8.46978 -6.49243
1614 8.47236 -6.49426
1615 8.4977 -6.50293
1616 8.54676 -6.54607
1617 8.59714 -6.59367
1618 8.64733 -6.64143
1619 8.69743 -6.68918
1620 8.7475 -6.73688
1621 8.79759 -6.7845
1622 8.84768 -6.83206
1623 8.89778 -6.87957
1624 8.94788 -6.92703
1625 8.9755 -6.96106
1626 8.98125 -6.96628
1627 8.9869 -6.97085
1628 8.99302 -6.97467
1629 8.99966 -6.97734
1630 9.00634 -6.97858
1631 9.01219 -6.97838
1632 9.01507 -6.97694
1633 9.01565 -6.97728
1634 9.01734 -6.97653
1635 9.01928 -6.97431
1636 9.02072 -6.9714
1637 9.02166 -6.96825
1638 9.02195 -6.96485
1639 9.03272 -6.95013
1640 9.02593 -6.88834
1641 9.01381 -6.81967
1642 9.00254 -6.75093
1643 8.99258 -6.68208
1644 8.98416 -6.61298
1645 8.97224 -6.55713
1646 8.96965 -6.53477
1647 8.96755 -6.51832
1648 8.96633 -6.50537
1649 8.9655 -6.49387
1650 8.96521 -6.48671
1651 8.96553 -6.48415
1652 8.96596 -6.48259
1653 8.9665 -6.4811
1654 8.96728 -6.47933
1655 8.96845 -6.4771
1656 8.96998 -6.47459
1657 8.97195 -6.47189
1658 8.97409 -6.46935
1659 8.97642 -6.46692
1660 8.97893 -6.46467
1661 8.98163 -6.4625
1662 8.98453 -6.46062
1663 8.98731 -6.45901
1664 8.99029 -6.45763
1665 8.99342 -6.45646
1666 8.99703 -6.45539
1667 9.0008 -6.45494
1668 9.00403 -6.45466
1669 9.00734 -6.45482
1670 9.01034 -6.45524
1671 9.01299 -6.45589
1672 9.01528 -6.45663
1673 9.01744 -6.45747
1674 9.01978 -6.45854
1675 9.02248 -6.46007
1676 9.02524 -6.46211
1677 9.0279 -6.46428
1678 9.0304 -6.46674
1679 9.05359 -6.47623
1680 9.09698 -6.52582
1681 9.14089 -6.57992
1682 9.18442 -6.63421
1683 9.22767 -6.68845
1684 9.2708 -6.74265
1685 9.31386 -6.79678
1686 9.35691 -6.85091
1687 9.39998 -6.90502
1688 9.443 -6.9591
1689 9.46642 -6.99837
1690 9.47209 -7.00509
1691 9.47776 -7.0113
1692 9.48328 -7.01597
1693 9.48867 -7.01896
1694 9.49429 -7.02069
1695 9.49972 -7.02104
1696 9.50289 -7.02
1697 9.50309 -7.01999
1698 9.5036 -7.02055
1699 9.50512 -7.01944
1700 9.50672 -7.01747
1701 9.50814 -7.0151
1702 9.52626 -7.0034
1703 9.54982 -6.9438
1704 9.57278 -6.87821
1705 9.59635 -6.81297
1706 9.62064 -6.7481
1707 9.64574 -6.6836
1708 9.67156 -6.61962
1709 9.68545 -6.56924
1710 9.69037 -6.55521
1711 9.69299 -6.5495
1712 9.69492 -6.54651
1713 9.6968 -6.54413
1714 9.69894 -6.54182
1715 9.70132 -6.53949
1716 9.70372 -6.53742
1717 9.70635 -6.53543
1718 9.70942 -6.53339
1719 9.71285 -6.53151
1720 9.71634 -6.52991
1721 9.71997 -6.52863
1722 9.72369 -6.52762
1723 9.7276 -6.52702
1724 9.73113 -6.52682
1725 9.73425 -6.52694
1726 9.73695 -6.5273
1727 9.73932 -6.52781
1728 9.74158 -6.52844
1729 9.74379 -6.52932
1730 9.74622 -6.53033
1731 9.74908 -6.53199
1732 9.75196 -6.53399
1733 9.77773 -6.54139
1734 9.82768 -6.58385
1735 9.87899 -6.6308
1736 9.92997 -6.67768
1737 9.97781 -6.72177
1738 10.0318 -6.77145
1739 10.0827 -6.81819
1740 10.1336 -6.86488
1741 10.1845 -6.91151
1742 10.2355 -6.95808
1743 10.2638 -6.99222
1744 10.2701 -6.99775
1745 10.276 -7.00239
1746 10.2819 -7.00599
1747 10.288 -7.00835
1748 10.2941 -7.00945
1749 10.2997 -7.00919
1750 10.3023 -7.00792
1751 10.303 -7.00818
1752 10.3048 -7.00732
1753 10.3067 -7.00512
1754 10.3082 -7.00245
1755 10.3094 -6.99961
1756 10.3102 -6.99619
1757 10.3243 -6.98069
1758 10.3296 -6.91706
1759 10.3324 -6.84761
1760 10.3359 -6.77841
1761 10.3405 -6.7092
1762 10.3463 -6.64001
1763 10.3443 -6.5859
1764 10.346 -6.56869
1765 10.3476 -6.55612
1766 10.3487 -6.54888
1767 10.3496 -6.54618
1768 10.3505 -6.54445
1769 10.3516 -6.54238
1770 10.3532 -6.54007
1771 10.3552 -6.53745
1772 10.3573 -6.53502
1773 10.3594 -6.53287
1774 10.3616 -6.53089
1775 10.3641 -6.52889
1776 10.367 -6.527
1777 10.37 -6.5253
1778 10.373 -6.52393
1779 10.3762 -6.52273
1780 10.3796 -6.52179
1781 10.4047 -6.50958
1782 10.4684 -6.50009
1783 10.537 -6.49258
1784 10.6058 -6.48518
1785 10.6744 -6.47766
1786 10.743 -6.46977
1787 10.8118 -6.46168
1788 10.8802 -6.45334
1789 10.9485 -6.4447
1790 11.0168 -6.43585
1791 11.0603 -6.4345
1792 11.0709 -6.43287
1793 11.0805 -6.431
1794 11.0892 -6.42836
1795 11.0973 -6.42472
1796 11.103 -6.42081
1797 11.1058 -6.41808
1798 11.1075 -6.41582
1799 11.1085 -6.41357
1800 11.1091 -6.41138
1801 11.1086 -6.40901
1802 11.1081 -6.4076
1803 11.1078 -6.40649
1804 11.1083 -6.38934
1805 11.0648 -6.35976
1806 11.0401 -6.3442
1807 11.026 -6.33602
1808 11.0217 -6.33248
1809 11.0197 -6.32986
1810 11.0181 -6.32688
1811 11.0164 -6.32349
1812 11.0149 -6.31995
1813 11.0137 -6.3164
1814 11.0128 -6.31301
1815 11.0123 -6.30952
1816 11.0121 -6.30566
1817 11.0123 -6.30216
1818 11.0127 -6.29922
1819 11.0132 -6.29672
1820 11.0139 -6.29454
1821 11.0148 -6.29224
1822 11.0161 -6.28948
1823 11.0249 -6.26259
1824 11.0588 -6.20646
1825 11.096 -6.14822
1826 11.1331 -6.08996
1827 11.1702 -6.03159
1828 11.207 -5.97308
1829 11.2437 -5.9145
1830 11.2801 -5.85591
1831 11.3163 -5.79729
1832 11.3523 -5.73858
1833 11.3771 -5.7044
1834 11.3814 -5.69712
1835 11.3851 -5.69012
1836 11.3879 -5.68286
1837 11.3894 -5.67539
1838 11.3895 -5.66809
1839 11.388 -5.66401
1840 11.388 -5.6638
1841 11.3884 -5.66259
1842 11.3862 -5.66041
1843 11.3833 -5.65857
1844 11.3799 -5.65741
1845 11.3769 -5.65671
1846 11.3618 -5.6431
1847 11.2988 -5.64216
1848 11.2293 -5.64524
1849 11.16 -5.64778
1850 11.0911 -5.64928
1851 11.0219 -5.64963
1852 10.9527 -5.64879
1853 10.8986 -5.65412
1854 10.8786 -5.65343
1855 10.8617 -5.65241
1856 10.8475 -5.65097
1857 10.8367 -5.64949
1858 10.8305 -5.64826
1859 10.8277 -5.64738
1860 10.8257 -5.64644
1861 10.8233 -5.64513
1862 10.8207 -5.64348
1863 10.818 -5.6415
1864 10.8156 -5.63946
1865 10.8131 -5.63712
1866 10.8106 -5.63438
1867 10.8085 -5.63156
1868 10.8067 -5.62889
1869 10.8051 -5.62612
1870 10.8037 -5.62316
1871 10.8026 -5.62004
1872 10.8017 -5.61661
1873 10.8011 -5.61288
1874 10.8009 -5.60934
1875 10.8012 -5.60617
1876 10.8014 -5.6032
1877 10.8024 -5.60013
1878 10.8032 -5.59801
1879 10.8038 -5.5961
1880 10.8049 -5.59352
1881 10.8068 -5.59062
1882 10.8087 -5.58794
1883 10.8153 -5.56304
1884 10.8589 -5.51383
1885 10.9065 -5.46337
1886 10.9545 -5.41301
1887 11.0022 -5.36284
1888 11.0499 -5.31268
1889 11.0975 -5.26248
1890 11.1451 -5.21225
1891 11.1926 -5.16202
1892 11.24 -5.11179
1893 11.2752 -5.08357
1894 11.2806 -5.07753
1895 11.2855 -5.07157
1896 11.2893 -5.06532
1897 11.2919 -5.05867
1898 11.2929 -5.05214
1899 11.2921 -5.04809
1900 11.2919 -5.04763
1901 11.2926 -5.0476
1902 11.2923 -5.04651
1903 11.2907 -5.045
1904 11.2886 -5.04364
1905 11.2763 -5.02502
1906 11.2165 -5.00221
1907 11.1505 -4.98037
1908 11.0846 -4.958
1909 11.0192 -4.93509
1910 10.9673 -4.92483
1911 10.9536 -4.9205
1912 10.9469 -4.91792
1913 10.9436 -4.91592
1914 10.9404 -4.9135
1915 10.9372 -4.91097
1916 10.9348 -4.9087
1917 10.9326 -4.90635
1918 10.9305 -4.90381
1919 10.9126 -4.88032
1920 10.8744 -4.82622
1921 10.8357 -4.769
1922 10.7974 -4.71149
1923 10.7594 -4.6539
1924 10.7215 -4.59631
1925 10.6836 -4.5387
1926 10.6457 -4.48108
1927 10.6079 -4.42346
1928 10.5701 -4.36586
1929 10.548 -4.33084
1930 10.5438 -4.32444
1931 10.5405 -4.31881
1932 10.5376 -4.31222
1933 10.5357 -4.30473
1934 10.5354 -4.29659
1935 10.5374 -4.29095
1936 10.5382 -4.28906
1937 10.5386 -4.28784
1938 10.5392 -4.28643
1939 10.545 -4.26395
1940 10.5962 -4.22601
1941 10.6541 -4.18809
1942 10.7118 -4.1496
1943 10.7686 -4.11046
1944 10.8245 -4.07017
1945 10.88 -4.0288
1946 10.9346 -3.98657
1947 10.9886 -3.94363
1948 11.0419 -3.89996
1949 11.0949 -3.85559
1950 11.1472 -3.81082
1951 11.199 -3.76561
1952 11.2505 -3.71992
1953 11.3018 -3.67383
1954 11.3527 -3.62748
1955 11.4034 -3.58083
1956 11.454 -3.53382
1957 11.5044 -3.48665
1958 11.5544 -3.43935
1959 11.6044 -3.3919
1960 11.6542 -3.34433
1961 11.7039 -3.29666
1962 11.7534 -3.2489
1963 11.8029 -3.20102
1964 11.8523 -3.15307
1965 11.9017 -3.10507
1966 11.951 -3.05694
1967 12.0003 -3.0088
1968 12.0496 -2.96063
1969 12.0987 -2.91243
1970 12.1478 -2.86421
1971 12.1969 -2.81598
1972 12.246 -2.7677
1973 12.2951 -2.71937
1974 12.3441 -2.67103
1975 12.3931 -2.62268
1976 12.4421 -2.57426
1977 12.4911 -2.52585
1978 12.54 -2.47741
1979 12.589 -2.42896
1980 12.6379 -2.38054
1981 12.6869 -2.33209
1982 12.7358 -2.28362
1983 12.7847 -2.23515
1984 12.8337 -2.18665
1985 12.8826 -2.13819
1986 12.9314 -2.08972
1987 12.9803 -2.04124
1988 13.0292 -1.99275
1989 13.078 -1.94425
1990 13.1269 -1.89574
1991 13.1757 -1.84723
1992 13.2245 -1.79872
1993 13.2734 -1.7502
1994 13.3222 -1.70168
1995 13.371 -1.65315
1996 13.4199 -1.60464
1997 13.4687 -1.55611
1998 13.5175 -1.50757
1999 13.5664 -1.45904
2000 13.6152 -1.41053
2001 13.664 -1.36199
2002 13.7128 -1.31344
2003 13.7406 -1.28603
2004 13.7463 -1.28042
2005 13.7516 -1.27571
2006 13.757 -1.27178
2007 13.7634 -1.26825
2008 13.769 -1.26651
2009 13.7725 -1.26551
2010 13.7758 -1.26495
2011 13.7788 -1.26473
2012 13.8058 -1.25708
2013 13.8684 -1.2679
2014 13.9357 -1.28275
2015 14.0033 -1.29701
2016 14.071 -1.31051
2017 14.1388 -1.32306
2018 14.2067 -1.33468
2019 14.2747 -1.34547
2020 14.3428 -1.35555
2021 14.4111 -1.36496
2022 14.4795 -1.37387
2023 14.548 -1.38225
2024 14.6163 -1.39028
2025 14.6845 -1.39789
2026 14.753 -1.40528
2027 14.8215 -1.41245
2028 14.8901 -1.41939
2029 14.9586 -1.42616
2030 15.0272 -1.43276
2031 15.0957 -1.43921
2032 15.1643 -1.44558
2033 15.2328 -1.45185
2034 15.3014 -1.45804
2035 15.3699 -1.46417
2036 15.4385 -1.47024
2037 15.507 -1.47623
2038 15.5756 -1.48217
2039 15.6442 -1.48811
2040 15.7127 -1.49399
2041 15.7811 -1.49983
2042 15.8496 -1.50567
2043 15.918 -1.51151
2044 15.9865 -1.51734
2045 16.0551 -1.52314
2046 16.1236 -1.52891
2047 16.1641 -1.53325
2048 16.1745 -1.53419
2049 16.184 -1.53534
2050 16.1934 -1.5372
2051 16.2027 -1.54008
2052 16.2118 -1.54426
2053 16.2172 -1.54886
2054 16.22 -1.55107
2055 16.2224 -1.55406
2056 16.2239 -1.55755
2057 16.2241 -1.56085
2058 16.2236 -1.5629
2059 16.2237 -1.56426
2060 16.2223 -1.56636
2061 16.2198 -1.56832
2062 16.2168 -1.56971
2063 16.2137 -1.57055
2064 16.2104 -1.57087
2065 16.201 -1.57654
2066 16.139 -1.57197
2067 16.0697 -1.56407
2068 16.0005 -1.55702
2069 15.9313 -1.55095
2070 15.8623 -1.54631
2071 15.793 -1.54302
2072 15.7238 -1.54091
2073 15.6546 -1.53983
2074 15.5855 -1.53958
2075 15.5163 -1.54006
2076 15.4472 -1.54115
2077 15.3779 -1.5428
2078 15.3085 -1.54488
2079 15.2393 -1.54732
2080 15.1701 -1.55011
2081 15.1011 -1.55313
2082 15.0323 -1.55639
2083 14.9633 -1.55982
2084 14.8944 -1.5634
2085 14.8256 -1.56712
2086 14.7567 -1.57095
2087 14.688 -1.57491
2088 14.6428 -1.57657
2089 14.6093 -1.57958
2090 14.5662 -1.58175
2091 14.5569 -1.58251
2092 14.548 -1.58358
2093 14.5382 -1.58543
2094 14.529 -1.58815
2095 14.5205 -1.59192
2096 14.5148 -1.596
2097 14.512 -1.59854
2098 14.5104 -1.60066
2099 14.5096 -1.60226
2100 14.5088 -1.6037
2101 14.5091 -1.60613
2102 14.5099 -1.60763
2103 14.51 -1.60882
2104 14.512 -1.61055
2105 14.5145 -1.61179
2106 14.5173 -1.61247
2107 14.5201 -1.61265
2108 14.5228 -1.61243
2109 14.5338 -1.61571
2110 14.5938 -1.60233
2111 14.6614 -1.58504
2112 14.7292 -1.56883
2113 14.797 -1.55399
2114 14.8651 -1.54055
2115 14.9335 -1.52847
2116 15.0022 -1.5176
2117 15.0545 -1.50698
2118 15.0624 -1.50545
2119 15.0618 -1.50562
2120 15.0616 -1.50576
2121 15.0618 -1.50581
2122 15.0622 -1.50586
2123 15.0637 -1.50562
2124 15.0665 -1.50483
2125 15.0697 -1.50357
2126 15.0729 -1.50204
2127 15.0961 -1.49409
2128 15.1509 -1.46042
2129 15.2086 -1.42254
2130 15.2665 -1.38419
2131 15.3241 -1.34603
2132 15.3817 -1.30794
2133 15.4394 -1.26996
2134 15.497 -1.23204
2135 15.5548 -1.19417
2136 15.6125 -1.15637
2137 15.6703 -1.11862
2138 15.7052 -1.0925
2139 15.7352 -1.07607
2140 15.7685 -1.05124
2141 15.7972 -1.03508
2142 15.8287 -1.01097
2143 15.8333 -1.00778
2144 15.8369 -1.00503
2145 15.8397 -1.00224
2146 15.8415 -0.999603
2147 15.8424 -0.997386
2148 15.8431 -0.995402
2149 15.8427 -0.992996
2150 15.842 -0.991635
2151 15.842 -0.990377
2152 15.8399 -0.98862
2153 15.8377 -0.987639
2154 15.8362 -0.98742
2155 15.8356 -0.987171
2156 15.8341 -0.987725
2157 15.8332 -0.988255
2158 15.8325 -0.988629
2159 15.8238 -0.994049
2160 15.7871 -1.04236
2161 15.7469 -1.10026
2162 15.706 -1.15643
2163 15.6638 -1.21054
2164 15.6302 -1.25487
2165 15.6261 -1.25986
2166 15.6262 -1.25966
2167 15.6262 -1.25958
2168 15.6263 -1.25944
2169 15.6263 -1.25942
2170 15.6265 -1.25932
2171 15.6266 -1.25922
2172 15.627 -1.25894
2173 15.6274 -1.25867
2174 15.6267 -1.259
2175 15.6258 -1.25927
2176 15.6248 -1.25943
2177 15.6232 -1.25933
2178 15.621 -1.25866
2179 15.6184 -1.25702
2180 15.6159 -1.25446
2181 15.6138 -1.25095
2182 15.6128 -1.24694
2183 15.6129 -1.24358
2184 15.6136 -1.24125
2185 15.6144 -1.2399
2186 15.6141 -1.22838
2187 15.6526 -1.18417
2188 15.7027 -1.13601
2189 15.7532 -1.08765
2190 15.7977 -1.05127
2191 15.8045 -1.04553
2192 15.8043 -1.0456
2193 15.8043 -1.04546
2194 15.8042 -1.04544
2195 15.8041 -1.04544
2196 15.804 -1.04551
2197 15.8039 -1.04563
2198 15.8038 -1.04581
2199 15.8038 -1.04588
2200 15.8037 -1.04608
2201 15.8035 -1.04668
2202 15.8034 -1.04758
2203 15.8036 -1.04922
2204 15.8041 -1.04928
2205 15.8024 -1.0466
2206 15.8005 -1.04463
2207 15.7983 -1.04319
2208 15.7961 -1.04249
2209 15.7941 -1.04204
2210 15.7912 -1.04262
2211 15.7892 -1.04345
2212 15.788 -1.04426
2213 15.774 -1.04388
2214 15.7269 -1.08323
2215 15.6756 -1.13187
2216 15.6243 -1.17897
2217 15.5721 -1.22413
2218 15.5184 -1.26806
2219 15.4801 -1.30576
2220 15.4757 -1.30995
2221 15.4759 -1.30962
2222 15.4762 -1.30937
2223 15.4767 -1.30893
2224 15.477 -1.30872
2225 15.4773 -1.30849
2226 15.4777 -1.3083
2227 15.4785 -1.30791
2228 15.4795 -1.30757
2229 15.4799 -1.30748
2230 15.4783 -1.3077
2231 15.4748 -1.30757
2232 15.4713 -1.30705
2233 15.4452 -1.3056
2234 15.3841 -1.28735
2235 15.3186 -1.2648
2236 15.2532 -1.24261
2237 15.1877 -1.22096
2238 15.1221 -1.20002
2239 15.0561 -1.17983
2240 14.9899 -1.16019
2241 14.9235 -1.14121
2242 14.8568 -1.12269
2243 14.7902 -1.10468
2244 14.7236 -1.08712
2245 14.6568 -1.06986
2246 14.5899 -1.05289
2247 14.523 -1.03615
2248 14.4561 -1.01961
2249 14.3892 -1.00321
2250 14.349 -0.991921
2251 14.3141 -0.984811
2252 14.2756 -0.973863
2253 14.2664 -0.971596
2254 14.2583 -0.969831
2255 14.2504 -0.968788
2256 14.2428 -0.968571
2257 14.2356 -0.969235
2258 14.2293 -0.970813
2259 14.2246 -0.972961
2260 14.2215 -0.975041
2261 14.2195 -0.977012
2262 14.2182 -0.978905
2263 14.2176 -0.980339
2264 14.217 -0.981735
2265 14.2177 -0.983805
2266 14.2179 -0.985185
2267 14.2198 -0.987285
2268 14.2222 -0.989011
2269 14.2249 -0.990386
2270 14.2282 -0.991436
2271 14.2368 -0.999328
2272 14.2993 -1.00887
2273 14.3689 -1.01672
2274 14.4382 -1.02501
2275 14.5071 -1.03401
2276 14.576 -1.04395
2277 14.632 -1.04858
2278 14.6399 -1.04935
2279 14.6398 -1.04941
2280 14.655 -1.05591
2281 14.6975 -1.06119
2282 14.7155 -1.06771
2283 14.7545 -1.07338
2284 14.7737 -1.08023
2285 14.814 -1.0874
2286 14.8364 -1.09502
2287 14.8769 -1.10399
2288 14.8825 -1.10564
2289 14.8887 -1.10784
2290 14.8948 -1.11079
2291 14.8989 -1.11371
2292 14.9014 -1.1163
2293 14.9035 -1.11965
2294 14.9048 -1.12342
2295 14.9047 -1.12704
2296 14.9039 -1.12935
2297 14.9034 -1.13084
2298 14.9019 -1.13293
2299 14.8989 -1.13498
2300 14.8954 -1.13626
2301 14.8919 -1.13665
2302 14.8888 -1.1363
2303 14.8866 -1.13565
2304 14.876 -1.13749
2305 14.8208 -1.1126
2306 14.7586 -1.08099
2307 14.6955 -1.04984
2308 14.6326 -1.02032
2309 14.5835 -0.993532
2310 14.5775 -0.990471
2311 14.5772 -0.990407
2312 14.5775 -0.990602
2313 14.5777 -0.990746
2314 14.578 -0.990869
2315 14.5783 -0.991
2316 14.5785 -0.991093
2317 14.5784 -0.991149
2318 14.5774 -0.990795
2319 14.5759 -0.989911
2320 14.5738 -0.988146
2321 14.5716 -0.985062
2322 14.5702 -0.981293
2323 14.57 -0.977548
2324 14.5707 -0.974702
2325 14.5717 -0.973101
2326 14.5721 -0.972246
2327 14.5738 -0.970696
2328 14.5764 -0.96916
2329 14.5791 -0.967859
2330 14.5897 -0.95584
2331 14.6504 -0.934039
2332 14.7166 -0.91187
2333 14.7825 -0.889015
2334 14.8482 -0.865442
2335 14.9132 -0.841077
2336 14.9781 -0.815943
2337 15.0426 -0.790172
2338 15.1068 -0.763911
2339 15.1544 -0.748429
2340 15.1622 -0.744976
2341 15.1684 -0.741798
2342 15.1722 -0.73938
2343 15.174 -0.737749
2344 15.176 -0.735299
2345 15.178 -0.732296
2346 15.1796 -0.728811
2347 15.1808 -0.72552
2348 15.1924 -0.702144
2349 15.2051 -0.638469
2350 15.2161 -0.570187
2351 15.2271 -0.502055
2352 15.2385 -0.434231
2353 15.2505 -0.366578
2354 15.2632 -0.298847
2355 15.2763 -0.231257
2356 15.2901 -0.163709
2357 15.3043 -0.0960308
2358 15.3188 -0.0286308
2359 15.3337 0.0387849
2360 15.3488 0.106069
2361 15.3642 0.173303
2362 15.3796 0.240361
2363 15.3954 0.30745
2364 15.4112 0.374543
2365 15.4272 0.441521
2366 15.4353 0.482448
2367 15.4376 0.491679
2368 15.4395 0.500896
2369 15.4405 0.509622
2370 15.4404 0.518105
2371 15.4391 0.525722
2372 15.437 0.528798
2373 15.4378 0.529792
2374 15.4359 0.532007
2375 15.434 0.533432
2376 15.4326 0.53414
2377 15.4315 0.534693
2378 15.4301 0.534703
2379 15.4291 0.53423
2380 15.4284 0.534406
2381 15.4267 0.532644
2382 15.4252 0.530068
2383 15.424 0.527646
2384 15.415 0.519702
2385 15.3973 0.45813
2386 15.3801 0.390475
2387 15.3623 0.323056
2388 15.3439 0.256023
2389 15.3246 0.189571
2390 15.3044 0.123489
2391 15.2833 0.0572871
2392 15.2616 -0.00861387
2393 15.2393 -0.0741357
2394 15.2165 -0.13936
2395 15.1934 -0.204171
2396 15.1699 -0.268799
2397 15.146 -0.333664
2398 15.131 -0.379904
2399 15.1277 -0.388236
2400 15.1243 -0.395654
2401 15.1206 -0.401528
2402 15.1174 -0.404991
2403 15.1148 -0.407029
2404 15.1116 -0.408543
2405 15.1079 -0.409243
2406 15.1048 -0.408821
2407 15.1034 -0.408255
2408 15.1022 -0.408339
2409 15.0999 -0.406021
2410 15.0982 -0.403074
2411 15.0973 -0.399782
2412 15.0974 -0.396677
2413 15.0979 -0.394449
2414 15.0984 -0.39301
2415 15.0971 -0.381481
2416 15.1274 -0.326472
2417 15.1628 -0.266678
2418 15.197 -0.20613
2419 15.2296 -0.145101
2420 15.2604 -0.0835294
2421 15.29 -0.0207118
2422 15.315 0.0260435
2423 15.3177 0.0315377
2424 15.3174 0.030959
2425 15.3171 0.0304726
2426 15.317 0.0303597
2427 15.3169 0.0300591
2428 15.3168 0.0299559
2429 15.3168 0.0299808
2430 15.3167 0.029778
2431 15.3168 0.0293546
2432 15.317 0.0284915
2433 15.3173 0.0289421
2434 15.3155 0.0315636
2435 15.3134 0.0335122
2436 15.3114 0.0346812
2437 15.3097 0.0352385
2438 15.308 0.0355692
2439 15.3056 0.0350228
2440 15.3039 0.0339713
2441 15.3032 0.0334108
2442 15.3031 0.033399
2443 15.3035 0.0337827
2444 15.3038 0.0346464
2445 15.3035 0.0347532
2446 15.302 0.0334587
2447 15.2997 0.0306821
2448 15.2975 0.0274162
2449 15.2956 0.0239311
2450 15.2941 0.0202776
2451 15.2929 0.0165186
2452 15.2919 0.0127427
2453 15.2821 -0.00593086
2454 15.2721 -0.0703041
2455 15.2633 -0.139285
2456 15.2543 -0.20811
2457 15.2449 -0.276706
2458 15.235 -0.345305
2459 15.2247 -0.413673
2460 15.2139 -0.481723
2461 15.2028 -0.549748
2462 15.1913 -0.617902
2463 15.1868 -0.664345
2464 15.185 -0.673277
2465 15.1829 -0.682062
2466 15.1797 -0.690583
2467 15.1753 -0.698576
2468 15.1709 -0.703715
2469 15.1683 -0.70607
2470 15.1649 -0.708004
2471 15.161 -0.70905
2472 15.1574 -0.708862
2473 15.1554 -0.70814
2474 15.1539 -0.707883
2475 15.1517 -0.706034
2476 15.1498 -0.703182
2477 15.1485 -0.699933
2478 15.1479 -0.696609
2479 15.1478 -0.693453
2480 15.1419 -0.681331
2481 15.1524 -0.619322
2482 15.1673 -0.551082
2483 15.1812 -0.482796
2484 15.1939 -0.414448
2485 15.2048 -0.345997
2486 15.2143 -0.27727
2487 15.2222 -0.208769
2488 15.2289 -0.140036
2489 15.2367 -0.085804
2490 15.2381 -0.0669188
2491 15.2388 -0.0531184
2492 15.2387 -0.0441171
2493 15.2384 -0.0403839
2494 15.238 -0.0388117
2495 15.2374 -0.0369213
2496 15.2366 -0.034733
2497 15.2276 -0.0111655
2498 15.1989 0.0465422
2499 15.1669 0.107826
2500 15.1351 0.169158
2501 15.1035 0.230553
2502 15.0723 0.292023
2503 15.0414 0.353806
2504 15.0109 0.415789
2505 14.9808 0.477821
2506 14.9611 0.516028
2507 14.9576 0.523305
2508 14.9541 0.529812
2509 14.9508 0.534137
2510 14.9486 0.536421
2511 14.9461 0.538132
2512 14.944 0.538863
2513 14.9426 0.539333
2514 14.941 0.539314
2515 14.9399 0.538857
2516 14.9387 0.538961
2517 14.9369 0.5368
2518 14.9358 0.534246
2519 14.9353 0.531896
2520 14.9356 0.529242
2521 14.9361 0.527405
2522 14.9369 0.525748
2523 14.9373 0.516093
2524 14.9724 0.464849
2525 15.0136 0.40849
2526 15.0536 0.351234
2527 15.092 0.293299
2528 15.1287 0.234507
2529 15.1639 0.17466
2530 15.1975 0.114109
2531 15.2298 0.0528388
2532 15.2608 -0.0088938
2533 15.2907 -0.0712913
2534 15.3196 -0.134021
2535 15.3476 -0.197162
2536 15.3749 -0.260554
2537 15.4016 -0.324234
2538 15.4276 -0.387996
2539 15.4531 -0.451865
2540 15.4782 -0.516008
2541 15.5029 -0.580302
2542 15.5273 -0.644749
2543 15.5514 -0.709425
2544 15.5754 -0.774373
2545 15.5992 -0.839292
2546 15.6146 -0.88085
2547 15.6174 -0.888838
2548 15.62 -0.897324
2549 15.6219 -0.907254
2550 15.6224 -0.917609
2551 15.621 -0.928051
2552 15.6177 -0.933251
2553 15.6186 -0.934092
2554 15.6165 -0.936671
2555 15.6137 -0.938874
2556 15.6102 -0.940303
2557 15.6067 -0.940807
2558 15.6036 -0.939963
2559 15.6026 -0.939602
2560 15.6021 -0.939689
2561 15.6012 -0.938968
2562 15.5999 -0.937365
2563 15.5894 -0.930694
2564 15.5649 -0.872146
2565 15.5407 -0.806783
2566 15.5158 -0.741931
2567 15.4899 -0.677306
2568 15.4628 -0.613219
2569 15.4347 -0.549824
2570 15.4056 -0.486795
2571 15.3756 -0.424234
2572 15.3451 -0.362385
2573 15.3141 -0.301238
2574 15.2824 -0.240033
2575 15.2501 -0.17893
2576 15.2175 -0.118088
2577 15.1846 -0.0575757
2578 15.1513 0.00275771
2579 15.1177 0.0631731
2580 15.084 0.12338
2581 15.05 0.183548
2582 15.0157 0.243652
2583 14.9814 0.303538
2584 14.9471 0.363292
2585 14.9126 0.422935
2586 14.8781 0.482571
2587 14.857 0.520847
2588 14.8529 0.527724
2589 14.8488 0.533871
2590 14.8452 0.53789
2591 14.8431 0.539712
2592 14.841 0.540903
2593 14.8394 0.541456
2594 14.8379 0.54198
2595 14.8362 0.541554
2596 14.8347 0.541565
2597 14.8325 0.539818
2598 14.8306 0.537367
2599 14.8291 0.534694
2600 14.828 0.531482
2601 14.8164 0.520223
2602 14.8106 0.457786
2603 14.8081 0.38836
2604 14.8051 0.319017
2605 14.8012 0.249586
2606 14.7961 0.180437
2607 14.7898 0.111471
2608 14.7824 0.042705
2609 14.7741 -0.0258616
2610 14.765 -0.0943908
2611 14.7552 -0.162647
2612 14.7448 -0.231055
2613 14.7415 -0.280086
2614 14.741 -0.286418
2615 14.7408 -0.286126
2616 14.7406 -0.28629
2617 14.7405 -0.286618
2618 14.7403 -0.286421
2619 14.7399 -0.285929
2620 14.7393 -0.28521
2621 14.7387 -0.285868
2622 14.7408 -0.288066
2623 14.7432 -0.289539
2624 14.7449 -0.290099
2625 14.7461 -0.290601
2626 14.7482 -0.290098
2627 14.7493 -0.289615
2628 14.7503 -0.289185
2629 14.752 -0.287239
2630 14.7535 -0.284433
2631 14.7546 -0.281785
2632 14.7629 -0.271332
2633 14.7777 -0.210358
2634 14.7916 -0.141848
2635 14.806 -0.0736909
2636 14.8212 -0.0057382
2637 14.8373 0.0618876
2638 14.8543 0.12893
2639 14.8723 0.19585
2640 14.8909 0.262376
2641 14.9101 0.328725
2642 14.9219 0.377567
2643 14.9247 0.385899
2644 14.9277 0.393662
2645 14.9314 0.400402
2646 14.9352 0.404992
2647 14.9377 0.407164
2648 14.9407 0.40878
2649 14.9442 0.409723
2650 14.9476 0.409566
2651 14.9495 0.408917
2652 14.951 0.408614
2653 14.9533 0.40659
2654 14.9552 0.403678
2655 14.9563 0.400389
2656 14.9566 0.397121
2657 14.9562 0.394236
2658 14.9555 0.392124
2659 14.9575 0.380449
2660 14.9316 0.324586
2661 14.8995 0.262286
2662 14.8688 0.199764
2663 14.8395 0.136843
2664 14.8118 0.0731173
2665 14.7854 0.00857349
2666 14.7607 -0.0560561
2667 14.7374 -0.121044
2668 14.7151 -0.186568
2669 14.6939 -0.252359
2670 14.6734 -0.318513
2671 14.6572 -0.364185
2672 14.6551 -0.372139
2673 14.6534 -0.379617
2674 14.6525 -0.387162
2675 14.6526 -0.394285
2676 14.6539 -0.400767
2677 14.6556 -0.404004
2678 14.6554 -0.404822
2679 14.6575 -0.406939
2680 14.6598 -0.408379
2681 14.6617 -0.408942
2682 14.6631 -0.40945
2683 14.6653 -0.408847
2684 14.6663 -0.408367
2685 14.6673 -0.408105
2686 14.6689 -0.406319
2687 14.6705 -0.403845
2688 14.6821 -0.395648
2689 14.705 -0.337655
2690 14.7274 -0.271596
2691 14.7503 -0.205845
2692 14.7737 -0.140494
2693 14.798 -0.0757312
2694 14.8233 -0.0109587
2695 14.8493 0.0531298
2696 14.876 0.116991
2697 14.9033 0.18049
2698 14.9311 0.243805
2699 14.9594 0.306876
2700 14.9882 0.369897
2701 15.0045 0.412428
2702 15.0088 0.421236
2703 15.0129 0.428567
2704 15.0167 0.433732
2705 15.0191 0.435999
2706 15.0221 0.437801
2707 15.0255 0.438932
2708 15.0289 0.439109
2709 15.0312 0.438501
2710 15.0324 0.43815
2711 15.0341 0.437529
2712 15.0363 0.434823
2713 15.0378 0.431169
2714 15.0381 0.427771
2715 15.0376 0.425046
2716 15.037 0.423494
2717 15.0366 0.422605
2718 15.0353 0.411905
2719 14.9952 0.365873
2720 14.9466 0.315031
2721 14.8995 0.263652
2722 14.8542 0.211303
2723 14.8108 0.158008
2724 14.7692 0.103623
2725 14.7286 0.0477039
2726 14.6895 -0.00915924
2727 14.6516 -0.0668684
2728 14.6148 -0.125439
2729 14.5791 -0.18454
2730 14.5527 -0.225704
2731 14.5499 -0.230311
2732 14.5501 -0.230152
2733 14.5502 -0.229964
2734 14.5504 -0.229755
2735 14.5505 -0.229417
2736 14.5507 -0.228628
2737 14.5508 -0.227586
2738 14.5506 -0.226117
2739 14.5498 -0.226203
2740 14.5514 -0.228949
2741 14.5531 -0.231021
2742 14.5552 -0.232474
2743 14.5568 -0.233213
2744 14.558 -0.233345
2745 14.5582 -0.233427
2746 14.5579 -0.233666
2747 14.5571 -0.234377
2748 14.5566 -0.235557
2749 14.5677 -0.232499
2750 14.6014 -0.181881
2751 14.6364 -0.120862
2752 14.6717 -0.0615662
2753 14.7083 -0.00323671
2754 14.7465 0.0538127
2755 14.7865 0.110223
2756 14.8276 0.165234
2757 14.8701 0.219252
2758 14.9138 0.272845
2759 14.9583 0.325525
2760 15.0035 0.377244
2761 15.0495 0.428491
2762 15.0962 0.47926
2763 15.1273 0.515717
2764 15.1309 0.519808
2765 15.1312 0.519944
2766 15.1325 0.521051
2767 15.1343 0.5223
2768 15.1364 0.52334
2769 15.1388 0.524026
2770 15.1415 0.52416
2771 15.1438 0.523716
2772 15.1453 0.522975
2773 15.1469 0.522409
2774 15.149 0.519771
2775 15.1505 0.516573
2776 15.1508 0.512929
2777 15.1503 0.510173
2778 15.1496 0.508767
2779 15.1494 0.508213
2780 15.1482 0.4985
2781 15.1028 0.460448
2782 15.0436 0.419423
2783 14.9865 0.379669
2784 14.9317 0.338439
2785 14.8783 0.294979
2786 14.8261 0.249107
2787 14.7755 0.201394
2788 14.7267 0.152109
2789 14.6792 0.101404
2790 14.6335 0.0498179
2791 14.589 -0.00274868
2792 14.5562 -0.0394764
2793 14.5529 -0.0434401
2794 14.5531 -0.0432956
2795 14.5532 -0.0432681
2796 14.5533 -0.0431361
2797 14.5534 -0.0429347
2798 14.5536 -0.0426419
2799 14.554 -0.0420206
2800 14.5543 -0.0410397
2801 14.5545 -0.0396408
2802 14.5544 -0.0372792
2803 14.5533 -0.0367547
2804 14.5548 -0.0395903
2805 14.5564 -0.0417323
2806 14.5585 -0.0433812
2807 14.5607 -0.0446206
2808 14.5636 -0.0452751
2809 14.5666 -0.0451122
2810 14.5689 -0.0446217
2811 14.5711 -0.0440904
2812 14.5866 -0.0464644
2813 14.6426 -0.0193646
2814 14.7043 0.0131933
2815 14.7666 0.0444647
2816 14.8295 0.0745777
2817 14.8926 0.103072
2818 14.9561 0.130186
2819 15.0202 0.155966
2820 15.0848 0.18073
2821 15.1499 0.204373
2822 15.1956 0.224958
2823 15.2014 0.22749
2824 15.2011 0.22723
2825 15.2009 0.227025
2826 15.2006 0.226847
2827 15.2005 0.22669
2828 15.2003 0.226552
2829 15.2002 0.22643
2830 15.2 0.226322
2831 15.1999 0.226228
2832 15.1998 0.226145
2833 15.1997 0.226071
2834 15.1997 0.226006
2835 15.1996 0.22595
2836 15.1995 0.225899
2837 15.1995 0.225855
2838 15.1994 0.225816
2839 15.1994 0.225782
2840 15.1994 0.225752
2841 15.1993 0.225726
2842 15.1993 0.225703
2843 15.1993 0.225683
2844 15.1993 0.225665
2845 15.1992 0.22565
2846 15.1992 0.225636
2847 15.1992 0.225624
2848 15.1992 0.225614
2849 15.1992 0.225605
2850 15.1992 0.225597
2851 15.1992 0.22559
2852 15.1992 0.225585
2853 15.1992 0.22558
2854 15.1992 0.225575
2855 15.1992 0.225572
2856 15.1992 0.225569
2857 15.1992 0.225566
2858 15.1992 0.225564
2859 15.1992 0.225562
2860 15.1992 0.225561
2861 15.1992 0.225559
2862 15.1992 0.225559
2863 15.1992 0.225558
2864 15.1992 0.225558
2865 15.1992 0.225557
2866 15.1992 0.225557
2867 15.1992 0.225557
2868 15.1992 0.225558
2869 15.1992 0.225558
2870 15.1992 0.225558
2871 15.1992 0.225559
2872 15.1992 0.225559
2873 15.1992 0.22556
2874 15.1992 0.225561
2875 15.1992 0.225561
2876 15.1992 0.225562
2877 15.1992 0.225563
2878 15.1992 0.225564
2879 15.1992 0.225565
2880 15.1992 0.225566
2881 15.1992 0.225567
2882 15.1992 0.225568
2883 15.1992 0.225569
2884 15.1992 0.22557
2885 15.1992 0.225571
2886 15.1992 0.225572
2887 15.1992 0.225573
2888 15.1992 0.225575
2889 15.1992 0.225576
2890 15.1992 0.225577
2891 15.1992 0.225578
2892 15.1992 0.225579
2893 15.1993 0.22558
2894 15.1993 0.225581
2895 15.1993 0.225583
2896 15.1993 0.225584
2897 15.1993 0.225585
2898 15.1993 0.225586
2899 15.1993 0.225587
2900 15.1993 0.225589
2901 15.1993 0.22559
2902 15.1993 0.225591
2903 15.1993 0.225592
2904 15.1993 0.225593
2905 15.1993 0.225595
2906 15.1993 0.225596
2907 15.1993 0.225597
2908 15.1993 0.225598
2909 15.1993 0.225599
2910 15.1993 0.225601
2911 15.1993 0.225602
2912 15.1993 0.225603
2913 15.1993 0.225604
2914 15.1993 0.225606
2915 15.1993 0.225607
2916 15.1993 0.225608
2917 15.1993 0.225609
2918 15.1993 0.225611
2919 15.1994 0.225612
2920 15.1994 0.225613
2921 15.1994 0.225615
2922 15.1994 0.225616
2923 15.1994 0.225617
2924 15.1994 0.225618
2925 15.1994 0.225619
2926 15.1994 0.225621
2927 15.1994 0.225622
2928 15.1994 0.225623
2929 15.1994 0.225624
2930 15.1994 0.225626
2931 15.1994 0.225627
2932 15.1994 0.225628
2933 15.1994 0.225629
2934 15.1994 0.225631
2935 15.1994 0.225632
2936 15.1994 0.225633
2937 15.1994 0.225634
2938 15.1994 0.225636
2939 15.1994 0.225637
2940 15.1994 0.225638
2941 15.1994 0.225639
2942 15.1994 0.225641
2943 15.1994 0.225642
2944 15.1995 0.225643
2945 15.1995 0.225644
2946 15.1995 0.225646
2947 15.1995 0.225647
2948 15.1995 0.225648
2949 15.1995 0.225649
2950 15.1995 0.225651
2951 15.1995 0.225652
2952 15.1995 0.225653
2953 15.1995 0.225654
2954 15.1995 0.225656
2955 15.1995 0.225657
2956 15.1995 0.225658
2957 15.1995 0.225659
2958 15.1995 0.225661
2959 15.1995 0.225662
2960 15.1995 0.225663
2961 15.1995 0.225664
2962 15.1995 0.225666
2963 15.1995 0.225667
2964 15.1995 0.225668
2965 15.1995 0.225669
2966 15.1995 0.225671
2967 15.1995 0.225672
2968 15.1995 0.225673
2969 15.1995 0.225674
2970 15.1996 0.225676
2971 15.1996 0.225677
2972 15.1996 0.225678
2973 15.1996 0.225679
2974 15.1996 0.225681
2975 15.1996 0.225682
2976 15.1996 0.225683
2977 15.1996 0.225684
2978 15.1996 0.225686
2979 15.1996 0.225687
2980 15.1996 0.225688
2981 15.1996 0.225689
2982 15.1996 0.225691
2983 15.1996 0.225692
2984 15.1996 0.225693
2985 15.1996 0.225694
2986 15.1996 0.225696
2987 15.1996 0.225697
2988 15.1996 0.225698
2989 15.1996 0.225699
2990 15.1996 0.225701
2991 15.1996 0.225702
2992 15.1996 0.225703
2993 15.1996 0.225704
2994 15.1996 0.225705
2995 15.1997 0.225707
2996 15.1997 0.225708
2997 15.1997 0.225709
2998 15.1997 0.22571
2999 15.1997 0.225712
3000 15.1997 0.225713
3001 15.1997 0.225714
3002 15.1997 0.225716
3003 15.1997 0.225717
3004 15.1997 0.225718
3005 15.1997 0.225719
3006 15.1997 0.225721
3007 15.1997 0.225722
3008 15.1997 0.225723
3009 15.1997 0.225724
3010 15.1997 0.225726
3011 15.1997 0.225727
3012 15.1997 0.225728
3013 15.1997 0.225729
3014 15.1997 0.225731
3015 15.1997 0.225732
3016 15.1997 0.225733
3017 15.1997 0.225734
3018 15.1997 0.225736
3019 15.1997 0.225737
3020 15.1997 0.225738
3021 15.1998 0.225739
3022 15.1998 0.225741
3023 15.1998 0.225742
3024 15.1998 0.225743
3025 15.1998 0.225744
3026 15.1998 0.225746
3027 15.1998 0.225747
3028 15.1998 0.225748
3029 15.1998 0.225749
3030 15.1998 0.225751
3031 15.1998 0.225752
3032 15.1998 0.225753
3033 15.1998 0.225754
3034 15.1998 0.225756
3035 15.1998 0.225757
3036 15.1998 0.225758
3037 15.1998 0.22576
3038 15.1998 0.225761
3039 15.1998 0.225762
3040 15.1998 0.225763
3041 15.1998 0.225764
3042 15.1998 0.225766
3043 15.1998 0.225767
3044 15.1998 0.225768
3045 15.1998 0.225769
3046 15.1999 0.225771
3047 15.1999 0.225772
3048 15.1999 0.225773
3049 15.1999 0.225774
3050 15.1999 0.225776
3051 15.1999 0.225777
3052 15.1999 0.225778
3053 15.1999 0.225779
3054 15.1999 0.225781
3055 15.1999 0.225782
3056 15.1999 0.225783
3057 15.1999 0.225784
3058 15.1999 0.225786
3059 15.1999 0.225787
3060 15.1999 0.225788
3061 15.1999 0.225789
3062 15.1999 0.225791
3063 15.1999 0.225792
3064 15.1999 0.225793
3065 15.1999 0.225794
3066 15.1999 0.225796
3067 15.1999 0.225797
3068 15.1999 0.225798
3069 15.1999 0.2258
3070 15.1999 0.225801
3071 15.1999 0.225802
3072 15.2 0.225803
3073 15.2 0.225805
3074 15.2 0.225806
3075 15.2 0.225807
3076 15.2 0.225808
3077 15.2 0.22581
3078 15.2 0.225811
3079 15.2 0.225812
3080 15.2 0.225813
3081 15.2 0.225815
3082 15.2 0.225816
3083 15.2 0.225817
3084 15.2 0.225818
3085 15.2 0.22582
3086 15.2 0.225821
3087 15.2 0.225822
3088 15.2 0.225823
3089 15.2 0.225825
3090 15.2 0.225826
3091 15.2 0.225827
3092 15.2 0.225828
3093 15.2 0.22583
3094 15.2 0.225831
3095 15.2 0.225832
3096 15.2 0.225833
3097 15.2001 0.225835
3098 15.2001 0.225836
3099 15.2001 0.225837
3100 15.2001 0.225838
3101 15.2001 0.22584
3102 15.2001 0.225841
3103 15.2001 0.225842
3104 15.2001 0.225843
3105 15.2001 0.225845
3106 15.2001 0.225846
3107 15.2001 0.225847
3108 15.2001 0.225848
3109 15.2001 0.22585
3110 15.2001 0.225851
3111 15.2001 0.225852
3112 15.2001 0.225853
3113 15.2001 0.225855
3114 15.2001 0.225856
3115 15.2001 0.225857
3116 15.2001 0.225858
3117 15.2001 0.22586
3118 15.2001 0.225861
3119 15.2001 0.225862
3120 15.2001 0.225864
3121 15.2001 0.225865
3122 15.2001 0.225866
3123 15.2002 0.225867
3124 15.2002 0.225869
3125 15.2002 0.22587
3126 15.2002 0.225871
3127 15.2002 0.225872
3128 15.2002 0.225874
3129 15.2002 0.225875
3130 15.2002 0.225876
3131 15.2002 0.225877
3132 15.2002 0.225879
3133 15.2002 0.22588
3134 15.2002 0.225881
3135 15.2002 0.225882
3136 15.2002 0.225884
3137 15.2002 0.225885
3138 15.2002 0.225886
3139 15.2002 0.225887
3140 15.2002 0.225889
3141 15.2002 0.22589
3142 15.2002 0.225891
3143 15.2002 0.225892
3144 15.2002 0.225894
3145 15.2002 0.225895
3146 15.2002 0.225896
3147 15.2002 0.225897
3148 15.2003 0.225899
3149 15.2003 0.2259
3150 15.2003 0.225901
3151 15.2003 0.225902
3152 15.2003 0.225904
3153 15.2003 0.225905
3154 15.2003 0.225906
3155 15.2003 0.225907
3156 15.2003 0.225909
3157 15.2003 0.22591
3158 15.2003 0.225911
3159 15.2003 0.225912
3160 15.2003 0.225914
3161 15.2003 0.225915
3162 15.2003 0.225916
3163 15.2003 0.225918
3164 15.2003 0.225919
3165 15.2003 0.22592
3166 15.2003 0.225921
3167 15.2003 0.225923
3168 15.2003 0.225924
3169 15.2003 0.225925
3170 15.2003 0.225926
3171 15.2003 0.225928
3172 15.2003 0.225929
3173 15.2003 0.22593
3174 15.2004 0.225931
3175 15.2004 0.225933
3176 15.2004 0.225934
3177 15.2004 0.225935
3178 15.2004 0.225936
3179 15.2004 0.225938
3180 15.2004 0.225939
3181 15.2004 0.22594
3182 15.2004 0.225941
3183 15.2004 0.225943
3184 15.2004 0.225944
3185 15.2004 0.225945
3186 15.2004 0.225946
3187 15.2004 0.225948
3188 15.2004 0.225949
3189 15.2004 0.22595
3190 15.2004 0.225951
3191 15.2004 0.225953
3192 15.2004 0.225954
3193 15.2004 0.225955
3194 15.2004 0.225956
3195 15.2004 0.225958
3196 15.2004 0.225959
3197 15.2004 0.22596
3198 15.2004 0.225961
3199 15.2005 0.225963
3200 15.2005 0.225964
3201 15.2005 0.225965
3202 15.2005 0.225966
3203 15.2005 0.225968
3204 15.2005 0.225969
3205 15.2005 0.22597
3206 15.2005 0.225971
3207 15.2005 0.225973
3208 15.2005 0.225974
3209 15.2005 0.225975
3210 15.2005 0.225977
3211 15.2005 0.225978
3212 15.2005 0.225979
3213 15.2005 0.22598
3214 15.2005 0.225982
3215 15.2005 0.225983
3216 15.2005 0.225984
3217 15.2005 0.225985
3218 15.2005 0.225987
3219 15.2005 0.225988
3220 15.2005 0.225989
3221 15.2005 0.225991
3222 15.2005 0.225992
3223 15.2005 0.225993
3224 15.2005 0.225994
3225 15.2006 0.225996
3226 15.2006 0.225997
3227 15.2006 0.225998
3228 15.2006 0.225999
3229 15.2006 0.226001
3230 15.2006 0.226002
3231 15.2006 0.226003
3232 15.2006 0.226004
3233 15.2006 0.226006
3234 15.2006 0.226007
3235 15.2006 0.226008
3236 15.2006 0.226009
3237 15.2006 0.226011
3238 15.2006 0.226012
3239 15.2006 0.226013
3240 15.2006 0.226014
3241 15.2006 0.226016
3242 15.2006 0.226017
3243 15.2006 0.226018
3244 15.2006 0.226019
3245 15.2006 0.226021
3246 15.2006 0.226022
3247 15.2006 0.226023
3248 15.2006 0.226025
3249 15.2006 0.226026
3250 15.2007 0.226027
3251 15.2007 0.226028
3252 15.2007 0.22603
3253 15.2007 0.226031
3254 15.2007 0.226032
3255 15.2007 0.226033
3256 15.2007 0.226035
3257 15.2007 0.226036
3258 15.2007 0.226037
3259 15.2007 0.226039
3260 15.2007 0.22604
3261 15.2007 0.226041
3262 15.2007 0.226042
3263 15.2007 0.226044
3264 15.2007 0.226045
3265 15.2007 0.226046
3266 15.2007 0.226047
3267 15.2007 0.226048
3268 15.2007 0.22605
3269 15.2007 0.226051
3270 15.2007 0.226052
3271 15.2007 0.226053
3272 15.2007 0.226055
3273 15.2007 0.226056
3274 15.2007 0.226057
3275 15.2008 0.226059
3276 15.2008 0.22606
3277 15.2008 0.226061
3278 15.2008 0.226062
3279 15.2008 0.226064
3280 15.2008 0.226065
3281 15.2008 0.226066
3282 15.2008 0.226067
3283 15.2008 0.226069
3284 15.2008 0.22607
3285 15.2008 0.226071
3286 15.2008 0.226073
3287 15.2008 0.226074
3288 15.2008 0.226075
3289 15.2008 0.226076
3290 15.2008 0.226077
3291 15.2008 0.226079
3292 15.2008 0.22608
3293 15.2008 0.226081
3294 15.2008 0.226083
3295 15.2008 0.226084
3296 15.2008 0.226085
3297 15.2008 0.226086
3298 15.2008 0.226088
3299 15.2008 0.226089
3300 15.2008 0.22609
3301 15.2009 0.226091
3302 15.2009 0.226093
3303 15.2009 0.226094
3304 15.2009 0.226095
3305 15.2009 0.226096
3306 15.2009 0.226098
3307 15.2009 0.226099
3308 15.2009 0.2261
3309 15.2009 0.226101
3310 15.2009 0.226103
3311 15.2009 0.226104
3312 15.2009 0.226105
3313 15.2009 0.226106
3314 15.2009 0.226108
3315 15.2009 0.226109
3316 15.2009 0.22611
3317 15.2009 0.226111
3318 15.2009 0.226113
3319 15.2009 0.226114
3320 15.2009 0.226115
3321 15.2009 0.226117
3322 15.2009 0.226118
3323 15.2009 0.226119
3324 15.2009 0.22612
3325 15.2009 0.226122
3326 15.201 0.226123
3327 15.201 0.226124
3328 15.201 0.226125
3329 15.201 0.226127
3330 15.201 0.226128
3331 15.201 0.226129
3332 15.201 0.22613
3333 15.201 0.226132
3334 15.201 0.226133
3335 15.201 0.226134
3336 15.201 0.226135
3337 15.201 0.226137
3338 15.201 0.226138
3339 15.201 0.226139
3340 15.201 0.22614
3341 15.201 0.226142
3342 15.201 0.226143
3343 15.201 0.226144
3344 15.201 0.226146
3345 15.201 0.226147
3346 15.201 0.226148
3347 15.201 0.226149
3348 15.201 0.226151
3349 15.201 0.226152
3350 15.201 0.226153
3351 15.201 0.226154
3352 15.2011 0.226156
3353 15.2011 0.226157
3354 15.2011 0.226158
3355 15.2011 0.226159
3356 15.2011 0.226161
3357 15.2011 0.226162
3358 15.2011 0.226163
3359 15.2011 0.226165
3360 15.2011 0.226166
3361 15.2011 0.226167
3362 15.2011 0.226168
3363 15.2011 0.22617
3364 15.2011 0.226171
3365 15.2011 0.226172
3366 15.2011 0.226173
3367 15.2011 0.226175
3368 15.2011 0.226176
3369 15.2011 0.226177
3370 15.2011 0.226179
3371 15.2011 0.22618
3372 15.2011 0.226181
3373 15.2011 0.226182
3374 15.2011 0.226184
3375 15.2011 0.226185
3376 15.2011 0.226186
3377 15.2012 0.226187
3378 15.2012 0.226189
3379 15.2012 0.22619
3380 15.2012 0.226191
3381 15.2012 0.226192
3382 15.2012 0.226194
3383 15.2012 0.226195
3384 15.2012 0.226196
3385 15.2012 0.226198
3386 15.2012 0.226199
3387 15.2012 0.2262
3388 15.2012 0.226201
3389 15.2012 0.226203
3390 15.2012 0.226204
3391 15.2012 0.226205
3392 15.2012 0.226206
3393 15.2012 0.226208
3394 15.2012 0.226209
3395 15.2012 0.22621
3396 15.2012 0.226211
3397 15.2012 0.226213
3398 15.2012 0.226214
3399 15.2012 0.226215
3400 15.2012 0.226216
3401 15.2012 0.226218
3402 15.2012 0.226219
3403 15.2013 0.22622
3404 15.2013 0.226221
3405 15.2013 0.226223
3406 15.2013 0.226224
3407 15.2013 0.226225
3408 15.2013 0.226226
3409 15.2013 0.226228
3410 15.2013 0.226229
3411 15.2013 0.22623
3412 15.2013 0.226232
3413 15.2013 0.226233
3414 15.2013 0.226234
3415 15.2013 0.226235
3416 15.2013 0.226237
3417 15.2013 0.226238
3418 15.2013 0.226239
3419 15.2013 0.226241
3420 15.2013 0.226242
3421 15.2013 0.226243
3422 15.2013 0.226244
3423 15.2013 0.226246
3424 15.2013 0.226247
3425 15.2013 0.226248
3426 15.2013 0.226249
3427 15.2013 0.226251
3428 15.2014 0.226252
3429 15.2014 0.226253
3430 15.2014 0.226255
3431 15.2014 0.226256
3432 15.2014 0.226257
3433 15.2014 0.226258
3434 15.2014 0.22626
3435 15.2014 0.226261
3436 15.2014 0.226262
3437 15.2014 0.226264
3438 15.2014 0.226265
3439 15.2014 0.226266
3440 15.2014 0.226267
3441 15.2014 0.226269
3442 15.2014 0.22627
3443 15.2014 0.226271
3444 15.2014 0.226272
3445 15.2014 0.226274
3446 15.2014 0.226275
3447 15.2014 0.226276
3448 15.2014 0.226278
3449 15.2014 0.226279
3450 15.2014 0.22628
3451 15.2014 0.226281
3452 15.2014 0.226283
3453 15.2015 0.226284
3454 15.2015 0.226285
3455 15.2015 0.226286
3456 15.2015 0.226288
3457 15.2015 0.226289
3458 15.2015 0.22629
3459 15.2015 0.226291
3460 15.2015 0.226293
3461 15.2015 0.226294
3462 15.2015 0.226295
3463 15.2015 0.226296
3464 15.2015 0.226298
3465 15.2015 0.226299
3466 15.2015 0.2263
3467 15.2015 0.226301
3468 15.2015 0.226303
3469 15.2015 0.226304
3470 15.2015 0.226305
3471 15.2015 0.226307
3472 15.2015 0.226308
3473 15.2015 0.226309
3474 15.2015 0.22631
3475 15.2015 0.226312
3476 15.2015 0.226313
3477 15.2015 0.226314
3478 15.2015 0.226316
3479 15.2016 0.226317
3480 15.2016 0.226318
3481 15.2016 0.226319
3482 15.2016 0.226321
3483 15.2016 0.226322
3484 15.2016 0.226323
3485 15.2016 0.226325
3486 15.2016 0.226326
3487 15.2016 0.226327
3488 15.2016 0.226328
3489 15.2016 0.22633
3490 15.2016 0.226331
3491 15.2016 0.226332
3492 15.2016 0.226333
3493 15.2016 0.226335
3494 15.2016 0.226336
3495 15.2016 0.226337
3496 15.2016 0.226339
3497 15.2016 0.22634
3498 15.2016 0.226341
3499 15.2016 0.226342
3500 15.2016 0.226343
3501 15.2016 0.226345
3502 15.2016 0.226346
3503 15.2016 0.226347
3504 15.2017 0.226349
3505 15.2017 0.22635
3506 15.2017 0.226351
3507 15.2017 0.226352
3508 15.2017 0.226354
3509 15.2017 0.226355
3510 15.2017 0.226356
3511 15.2017 0.226357
3512 15.2017 0.226359
3513 15.2017 0.22636
3514 15.2017 0.226361
3515 15.2017 0.226363
3516 15.2017 0.226364
3517 15.2017 0.226365
3518 15.2017 0.226366
3519 15.2017 0.226368
3520 15.2017 0.226369
3521 15.2017 0.22637
3522 15.2017 0.226372
3523 15.2017 0.226373
3524 15.2017 0.226374
3525 15.2017 0.226375
3526 15.2017 0.226377
3527 15.2017 0.226378
3528 15.2017 0.226379
3529 15.2018 0.226381
3530 15.2018 0.226382
3531 15.2018 0.226383
3532 15.2018 0.226384
3533 15.2018 0.226386
3534 15.2018 0.226387
3535 15.2018 0.226388
3536 15.2018 0.226389
3537 15.2018 0.226391
3538 15.2018 0.226392
3539 15.2018 0.226393
3540 15.2018 0.226394
3541 15.2018 0.226396
3542 15.2018 0.226397
3543 15.2018 0.226398
3544 15.2018 0.226399
3545 15.2018 0.226401
3546 15.2018 0.226402
3547 15.2018 0.226403
3548 15.2018 0.226405
3549 15.2018 0.226406
3550 15.2018 0.226407
3551 15.2018 0.226408
3552 15.2018 0.22641
3553 15.2018 0.226411
3554 15.2018 0.226412
3555 15.2019 0.226413
3556 15.2019 0.226415
3557 15.2019 0.226416
3558 15.2019 0.226417
3559 15.2019 0.226418
3560 15.2019 0.22642
3561 15.2019 0.226421
3562 15.2019 0.226422
3563 15.2019 0.226424
3564 15.2019 0.226425
3565 15.2019 0.226426
3566 15.2019 0.226427
3567 15.2019 0.226429
3568 15.2019 0.22643
3569 15.2019 0.226431
3570 15.2019 0.226433
3571 15.2019 0.226434
3572 15.2019 0.226435
3573 15.2019 0.226436
3574 15.2019 0.226438
3575 15.2019 0.226439
3576 15.2019 0.22644
3577 15.2019 0.226442
3578 15.2019 0.226443
3579 15.2019 0.226444
3580 15.202 0.226445
3581 15.202 0.226447
3582 15.202 0.226448
3583 15.202 0.226449
3584 15.202 0.226451
3585 15.202 0.226452
3586 15.202 0.226453
3587 15.202 0.226454
3588 15.202 0.226456
3589 15.202 0.226457
3590 15.202 0.226458
3591 15.202 0.226459
3592 15.202 0.226461
3593 15.202 0.226462
3594 15.202 0.226463
3595 15.202 0.226464
3596 15.202 0.226466
3597 15.202 0.226467
3598 15.202 0.226468
3599 15.202 0.226469
3600 15.202 0.226471
3601 15.202 0.226472
3602 15.202 0.226473
3603 15.202 0.226475
3604 15.202 0.226476
3605 15.2021 0.226477
3606 15.2021 0.226478
3607 15.2021 0.22648
3608 15.2021 0.226481
3609 15.2021 0.226482
3610 15.2021 0.226483
3611 15.2021 0.226485
3612 15.2021 0.226486
3613 15.2021 0.226487
3614 15.2021 0.226489
3615 15.2021 0.22649
3616 15.2021 0.226491
3617 15.2021 0.226492
3618 15.2021 0.226494
3619 15.2021 0.226495
3620 15.2021 0.226496
3621 15.2021 0.226498
3622 15.2021 0.226499
3623 15.2021 0.2265
3624 15.2021 0.226502
3625 15.2021 0.226503
3626 15.2021 0.226504
3627 15.2021 0.226505
3628 15.2021 0.226507
3629 15.2021 0.226508
3630 15.2021 0.226509
3631 15.2022 0.226511
3632 15.2022 0.226512
3633 15.2022 0.226513
3634 15.2022 0.226514
3635 15.2022 0.226516
3636 15.2022 0.226517
3637 15.2022 0.226518
3638 15.2022 0.22652
3639 15.2022 0.226521
3640 15.2022 0.226522
3641 15.2022 0.226523
3642 15.2022 0.226525
3643 15.2022 0.226526
3644 15.2022 0.226527
3645 15.2022 0.226528
3646 15.2022 0.22653
3647 15.2022 0.226531
3648 15.2022 0.226532
3649 15.2022 0.226534
3650 15.2022 0.226535
3651 15.2022 0.226536
3652 15.2022 0.226538
3653 15.2022 0.226539
3654 15.2022 0.22654
3655 15.2022 0.226541
3656 15.2023 0.226543
3657 15.2023 0.226544
3658 15.2023 0.226545
3659 15.2023 0.226547
3660 15.2023 0.226548
3661 15.2023 0.226549
3662 15.2023 0.22655
3663 15.2023 0.226552
3664 15.2023 0.226553
3665 15.2023 0.226554
3666 15.2023 0.226556
3667 15.2023 0.226557
3668 15.2023 0.226558
3669 15.2023 0.22656
3670 15.2023 0.226561
3671 15.2023 0.226562
3672 15.2023 0.226563
3673 15.2023 0.226565
3674 15.2023 0.226566
3675 15.2023 0.226567
3676 15.2023 0.226569
3677 15.2023 0.22657
3678 15.2023 0.226571
3679 15.2023 0.226572
3680 15.2023 0.226574
3681 15.2024 0.226575
3682 15.2024 0.226576
3683 15.2024 0.226578
3684 15.2024 0.226579
3685 15.2024 0.22658
3686 15.2024 0.226581
3687 15.2024 0.226583
3688 15.2024 0.226584
3689 15.2024 0.226585
3690 15.2024 0.226587
3691 15.2024 0.226588
3692 15.2024 0.226589
3693 15.2024 0.226591
3694 15.2024 0.226592
3695 15.2024 0.226593
3696 15.2024 0.226594
3697 15.2024 0.226596
3698 15.2024 0.226597
3699 15.2024 0.226598
3700 15.2024 0.2266
3701 15.2024 0.226601
3702 15.2024 0.226602
3703 15.2024 0.226603
3704 15.2024 0.226605
3705 15.2024 0.226606
3706 15.2025 0.226607
3707 15.2025 0.226609
3708 15.2025 0.22661
3709 15.2025 0.226611
3710 15.2025 0.226612
3711 15.2025 0.226614
3712 15.2025 0.226615
3713 15.2025 0.226616
3714 15.2025 0.226618
3715 15.2025 0.226619
3716 15.2025 0.22662
3717 15.2025 0.226621
3718 15.2025 0.226623
3719 15.2025 0.226624
3720 15.2025 0.226625
3721 15.2025 0.226627
3722 15.2025 0.226628
3723 15.2025 0.226629
3724 15.2025 0.226631
3725 15.2025 0.226632
3726 15.2025 0.226633
3727 15.2025 0.226634
3728 15.2025 0.226636
3729 15.2025 0.226637
3730 15.2025 0.226638
3731 15.2026 0.22664
3732 15.2026 0.226641
3733 15.2026 0.226642
3734 15.2026 0.226643
3735 15.2026 0.226645
3736 15.2026 0.226646
3737 15.2026 0.226647
3738 15.2026 0.226649
3739 15.2026 0.22665
3740 15.2026 0.226651
3741 15.2026 0.226653
3742 15.2026 0.226654
3743 15.2026 0.226655
3744 15.2026 0.226656
3745 15.2026 0.226658
3746 15.2026 0.226659
3747 15.2026 0.22666
3748 15.2026 0.226662
3749 15.2026 0.226663
3750 15.2026 0.226664
3751 15.2026 0.226665
3752 15.2026 0.226667
3753 15.2026 0.226668
3754 15.2026 0.226669
3755 15.2026 0.226671
3756 15.2027 0.226672
3757 15.2027 0.226673
3758 15.2027 0.226675
3759 15.2027 0.226676
3760 15.2027 0.226677
3761 15.2027 0.226678
3762 15.2027 0.22668
3763 15.2027 0.226681
3764 15.2027 0.226682
3765 15.2027 0.226684
3766 15.2027 0.226685
3767 15.2027 0.226686
3768 15.2027 0.226687
3769 15.2027 0.226689
3770 15.2027 0.22669
3771 15.2027 0.226691
3772 15.2027 0.226693
3773 15.2027 0.226694
3774 15.2027 0.226695
3775 15.2027 0.226697
3776 15.2027 0.226698
3777 15.2027 0.226699
3778 15.2027 0.2267
3779 15.2027 0.226702
3780 15.2027 0.226703
3781 15.2028 0.226704
3782 15.2028 0.226706
3783 15.2028 0.226707
3784 15.2028 0.226708
3785 15.2028 0.226709
3786 15.2028 0.226711
3787 15.2028 0.226712
3788 15.2028 0.226713
3789 15.2028 0.226715
3790 15.2028 0.226716
3791 15.2028 0.226717
3792 15.2028 0.226719
3793 15.2028 0.22672
3794 15.2028 0.226721
3795 15.2028 0.226722
3796 15.2028 0.226724
3797 15.2028 0.226725
3798 15.2028 0.226726
3799 15.2028 0.226728
3800 15.2028 0.226729
3801 15.2028 0.22673
3802 15.2028 0.226731
3803 15.2028 0.226733
3804 15.2028 0.226734
3805 15.2028 0.226735
3806 15.2029 0.226737
3807 15.2029 0.226738
3808 15.2029 0.226739
3809 15.2029 0.226741
3810 15.2029 0.226742
3811 15.2029 0.226743
3812 15.2029 0.226744
3813 15.2029 0.226746
3814 15.2029 0.226747
3815 15.2029 0.226748
3816 15.2029 0.22675
3817 15.2029 0.226751
3818 15.2029 0.226752
3819 15.2029 0.226753
3820 15.2029 0.226755
3821 15.2029 0.226756
3822 15.2029 0.226757
3823 15.2029 0.226759
3824 15.2029 0.22676
3825 15.2029 0.226761
3826 15.2029 0.226763
3827 15.2029 0.226764
3828 15.2029 0.226765
3829 15.2029 0.226766
3830 15.2029 0.226768
3831 15.203 0.226769
3832 15.203 0.22677
3833 15.203 0.226772
3834 15.203 0.226773
3835 15.203 0.226774
3836 15.203 0.226775
3837 15.203 0.226777
3838 15.203 0.226778
3839 15.203 0.226779
3840 15.203 0.226781
3841 15.203 0.226782
3842 15.203 0.226783
3843 15.203 0.226785
3844 15.203 0.226786
3845 15.203 0.226787
3846 15.203 0.226788
3847 15.203 0.22679
3848 15.203 0.226791
3849 15.203 0.226792
3850 15.203 0.226794
3851 15.203 0.226795
3852 15.203 0.226796
3853 15.203 0.226798
3854 15.203 0.226799
3855 15.203 0.2268
3856 15.2031 0.226801
3857 15.2031 0.226803
3858 15.2031 0.226804
3859 15.2031 0.226805
3860 15.2031 0.226807
3861 15.2031 0.226808
3862 15.2031 0.226809
3863 15.2031 0.226811
3864 15.2031 0.226812
3865 15.2031 0.226813
3866 15.2031 0.226814
3867 15.2031 0.226816
3868 15.2031 0.226817
3869 15.2031 0.226818
3870 15.2031 0.22682
3871 15.2031 0.226821
3872 15.2031 0.226822
3873 15.2031 0.226823
3874 15.2031 0.226825
3875 15.2031 0.226826
3876 15.2031 0.226827
3877 15.2031 0.226829
3878 15.2031 0.22683
3879 15.2031 0.226831
3880 15.2031 0.226833
3881 15.2032 0.226834
3882 15.2032 0.226835
3883 15.2032 0.226836
3884 15.2032 0.226838
3885 15.2032 0.226839
3886 15.2032 0.22684
3887 15.2032 0.226841
3888 15.2032 0.226843
3889 15.2032 0.226844
3890 15.2032 0.226845
3891 15.2032 0.226847
3892 15.2032 0.226848
3893 15.2032 0.226849
3894 15.2032 0.22685
3895 15.2032 0.226852
3896 15.2032 0.226853
3897 15.2032 0.226854
3898 15.2032 0.226856
3899 15.2032 0.226857
3900 15.2032 0.226858
3901 15.2032 0.226859
3902 15.2032 0.226861
3903 15.2032 0.226862
3904 15.2032 0.226863
3905 15.2032 0.226865
3906 15.2033 0.226866
3907 15.2033 0.226867
3908 15.2033 0.226869
3909 15.2033 0.22687
3910 15.2033 0.226871
3911 15.2033 0.226872
3912 15.2033 0.226874
3913 15.2033 0.226875
3914 15.2033 0.226876
3915 15.2033 0.226878
3916 15.2033 0.226879
3917 15.2033 0.22688
3918 15.2033 0.226881
3919 15.2033 0.226883
3920 15.2033 0.226884
3921 15.2033 0.226885
3922 15.2033 0.226887
3923 15.2033 0.226888
3924 15.2033 0.226889
3925 15.2033 0.22689
3926 15.2033 0.226892
3927 15.2033 0.226893
3928 15.2033 0.226894
3929 15.2033 0.226896
3930 15.2033 0.226897
3931 15.2033 0.226898
3932 15.2034 0.226899
3933 15.2034 0.226901
3934 15.2034 0.226902
3935 15.2034 0.226903
3936 15.2034 0.226904
3937 15.2034 0.226906
3938 15.2034 0.226907
3939 15.2034 0.226908
3940 15.2034 0.22691
3941 15.2034 0.226911
3942 15.2034 0.226912
3943 15.2034 0.226913
3944 15.2034 0.226915
3945 15.2034 0.226916
3946 15.2034 0.226917
3947 15.2034 0.226919
3948 15.2034 0.22692
3949 15.2034 0.226921
3950 15.2034 0.226923
3951 15.2034 0.226924
3952 15.2034 0.226925
3953 15.2034 0.226926
3954 15.2034 0.226928
3955 15.2034 0.226929
3956 15.2034 0.22693
3957 15.2035 0.226932
3958 15.2035 0.226933
3959 15.2035 0.226934
3960 15.2035 0.226935
3961 15.2035 0.226937
3962 15.2035 0.226938
3963 15.2035 0.226939
3964 15.2035 0.226941
3965 15.2035 0.226942
3966 15.2035 0.226943
3967 15.2035 0.226944
3968 15.2035 0.226946
3969 15.2035 0.226947
3970 15.2035 0.226948
3971 15.2035 0.22695
3972 15.2035 0.226951
3973 15.2035 0.226952
3974 15.2035 0.226953
3975 15.2035 0.226955
3976 15.2035 0.226956
3977 15.2035 0.226957
3978 15.2035 0.226958
3979 15.2035 0.22696
3980 15.2035 0.226961
3981 15.2035 0.226962
3982 15.2036 0.226964
3983 15.2036 0.226965
3984 15.2036 0.226966
3985 15.2036 0.226968
3986 15.2036 0.226969
3987 15.2036 0.22697
3988 15.2036 0.226971
3989 15.2036 0.226973
3990 15.2036 0.226974
3991 15.2036 0.226975
3992 15.2036 0.226977
3993 15.2036 0.226978
3994 15.2036 0.226979
3995 15.2036 0.226981
3996 15.2036 0.226982
3997 15.2036 0.226983
3998 15.2036 0.226984
3999 15.2036 0.226986
4000 15.2036 0.226987
4001 15.2036 0.226988
4002 15.2036 0.22699
4003 15.2036 0.226991
4004 15.2036 0.226992
4005 15.2036 0.226993
4006 15.2036 0.226995
4007 15.2037 0.226996
4008 15.2037 0.226997
4009 15.2037 0.226998
4010 15.2037 0.227
4011 15.2037 0.227001
4012 15.2037 0.227002
4013 15.2037 0.227004
4014 15.2037 0.227005
4015 15.2037 0.227006
4016 15.2037 0.227007
4017 15.2037 0.227009
4018 15.2037 0.22701
4019 15.2037 0.227011
4020 15.2037 0.227013
4021 15.2037 0.227014
4022 15.2037 0.227015
4023 15.2037 0.227017
4024 15.2037 0.227018
4025 15.2037 0.227019
4026 15.2037 0.22702
4027 15.2037 0.227022
4028 15.2037 0.227023
4029 15.2037 0.227024
4030 15.2037 0.227026
4031 15.2037 0.227027
4032 15.2037 0.227028
4033 15.2038 0.227029
4034 15.2038 0.227031
4035 15.2038 0.227032
4036 15.2038 0.227033
4037 15.2038 0.227035
4038 15.2038 0.227036
4039 15.2038 0.227037
4040 15.2038 0.227038
4041 15.2038 0.22704
4042 15.2038 0.227041
4043 15.2038 0.227042
4044 15.2038 0.227044
4045 15.2038 0.227045
4046 15.2038 0.227046
4047 15.2038 0.227047
4048 15.2038 0.227049
4049 15.2038 0.22705
4050 15.2038 0.227051
4051 15.2038 0.227053
4052 15.2038 0.227054
4053 15.2038 0.227055
4054 15.2038 0.227056
4055 15.2038 0.227058
4056 15.2038 0.227059
4057 15.2038 0.22706
4058 15.2039 0.227062
4059 15.2039 0.227063
4060 15.2039 0.227064
4061 15.2039 0.227065
4062 15.2039 0.227067
