2563 0.128167
2564 0.16506
 10.0343
1204 9.98281
1247 9.69603
1288 8.9359
1344 8.40235
1389 7.37839
1439 6.69172
1492 6.29607
1583 6.22656
1635 4.63862
1663 4.43456
1669 4.37258
1671 4.32539
1673 4.30129
1675 4.27898
1677 4.2575
1679 4.23663
1681 4.21968
1683 4.20396
1685 4.18869
1687 4.17443
1689 4.16127
1691 4.15007
1693 4.13967
1695 4.13011
1697 4.12164
1699 4.11405
1701 4.1078
1703 4.10274
1705 4.09875
1707 4.09581
1709 4.09396
1746 4.01226
1840 3.8159
1845 3.73059
1847 3.60042
1849 3.52731
1851 3.45792
1853 3.39031
1855 3.32268
1865 3.15328
1870 3.06552
1872 2.94248
1874 2.87435
1876 2.80491
1878 2.74653
1880 2.68424
1882 2.6217
1884 2.55936
1886 2.50543
1894 2.40724
1896 2.40628
1903 2.29228
1908 2.23833
1910 2.15794
1912 2.11645
1914 2.08297
1916 2.05028
1918 2.01648
1920 1.98895
1922 1.96264
1924 1.93734
1926 1.91451
1928 1.89333
1930 1.87517
1932 1.85871
1934 1.84514
1936 1.83407
1938 1.8257
1940 1.81996
1942 1.81683
1944 1.81649
1980 1.61569
2095 1.58771
2097 1.52833
2099 1.49801
2101 1.47057
2103 1.44538
2105 1.4221
2113 1.38418
2134 1.36162
2208 1.23997
2213 1.21429
2215 1.1889
2217 1.1813
2219 1.17821
2308 0.777203
2313 0.688484
2315 0.560043
2317 0.491023
2319 0.424897
2321 0.362774
2323 0.316073
2331 0.253104
2332 0.251188
2333 0.250544
