1270 5.45432 -3.63236
1343 5.88289 -4.20769
1476 7.82935 -5.595
1512 9.13692 -5.7451
1551 9.81544 -5.26527
1592 10.0582 -4.70929
1636 10.2195 -4.02134
1685 9.73471 -3.07593
1695 9.746 -3.02393
1729 9.73583 -0.83343
1739 9.77634 -0.608605
1748 9.85985 -0.619215
1757 10.1197 -0.538445
1759 10.1198 -0.538229
1761 10.1797 -0.524726
1763 10.3084 -0.494574
1765 10.4505 -0.461762
1767 10.553 -0.436195
1769 10.6284 -0.419029
1771 10.7004 -0.402367
1773 10.7991 -0.376984
1775 10.8296 -0.368412
1782 11.0552 -0.296221
1785 11.0849 -0.288168
1787 11.2153 -0.263322
1789 11.3248 -0.244522
1791 11.3877 -0.231525
1793 11.5256 -0.201126
1795 11.6561 -0.171642
1866 11.8882 0.17006
1872 12.1008 0.245495
1874 12.2754 0.307245
1876 12.3609 0.339048
1878 12.4697 0.380089
1880 12.5614 0.416813
1882 12.6371 0.448211
1884 12.7426 0.492639
1886 12.8338 0.529724
1888 12.9163 0.563395
1890 13.0251 0.60662
1892 13.0729 0.625137
1894 13.2068 0.676404
1896 13.3223 0.720397
1908 14.318 1.09743
1910 14.4465 1.1467
1912 14.5662 1.19251
1995 14.4807 1.05721
1999 14.5633 0.921506
2001 14.6328 0.802242
2003 14.6772 0.722157
2005 14.7336 0.609699
2007 14.76 0.553749
2009 14.8138 0.441157
2011 14.8518 0.365003
2019 14.9005 0.253967
2038 14.9426 0.253215
2046 15.0104 0.242597
2047 15.0103 0.242565
2048 15.0103 0.242526
2049 15.0103 0.242469
2050 15.0102 0.242443
2051 15.0102 0.242421
2052 15.0102 0.242402
2053 15.0102 0.242384
2054 15.0102 0.242369
2055 15.0102 0.242356
2056 15.0102 0.242344
2057 15.0102 0.242334
2058 15.0102 0.242325
2059 15.0102 0.242317
2060 15.0102 0.24231
2061 15.0102 0.242304
2062 15.0102 0.242299
2063 15.0102 0.242294
2064 15.0102 0.24229
2065 15.0102 0.242284
2066 15.0102 0.242281
2067 15.0102 0.242277
2068 15.0102 0.242275
2069 15.0102 0.242272
2070 15.0102 0.242271
2071 15.0102 0.242269
2072 15.0102 0.242269
2073 15.0102 0.242268
2074 15.0102 0.242268
2075 15.0102 0.242267
2076 15.0102 0.242267
2077 15.0102 0.242267
2078 15.0102 0.242266
