1 -5.637e-06 0.000267777
2 -7.42021e-06 -0.00020306
3 -2.47708e-05 -0.000663062
4 -4.01516e-05 -0.000724775
5 2.35297e-05 -0.000309153
6 0.000356751 0.000838394
7 0.00111235 0.00232851
8 0.00297629 0.00502867
9 0.00606973 0.00759775
10 0.00970731 0.00934847
11 0.0134214 0.0101796
12 0.0170671 0.0102804
13 0.0203657 0.00973783
14 0.0230975 0.00894191
15 0.0239182 0.00813018
16 0.0625754 0.00834806
17 0.125817 -0.00934521
18 0.192759 -0.0285763
19 0.26062 -0.0461281
20 0.328628 -0.0617121
21 0.396932 -0.0751173
22 0.465379 -0.086612
23 0.533776 -0.0963339
24 0.55911 -0.105424
25 0.561738 -0.106528
26 0.561654 -0.106406
27 0.561544 -0.10629
28 0.560472 -0.106227
29 0.559748 -0.106075
30 0.561891 -0.1058
31 0.565585 -0.105455
32 0.56934 -0.104937
33 0.616389 -0.0954641
34 0.681373 -0.0805726
35 0.748331 -0.0644282
36 0.81518 -0.0478676
37 0.882093 -0.0312565
38 0.949111 -0.0147716
39 1.01611 0.00146635
40 1.08315 0.0174655
41 1.1502 0.0332031
42 1.21716 0.0486991
43 1.2843 0.0640292
44 1.35157 0.079185
45 1.41878 0.094181
46 1.48604 0.109034
47 1.55332 0.123802
48 1.62063 0.13846
49 1.64132 0.1428
50 1.69663 0.15505
51 1.76321 0.169838
52 1.83041 0.184258
53 1.89776 0.198252
54 1.96529 0.211802
55 2.03296 0.224888
56 2.10066 0.237564
57 2.16846 0.249884
58 2.23635 0.261882
59 2.30434 0.273589
60 2.37222 0.285028
61 2.4402 0.296283
62 2.50815 0.307375
63 2.57604 0.318329
64 2.59617 0.320949
65 2.65265 0.330784
66 2.72016 0.342258
67 2.78808 0.353698
68 2.85593 0.365058
69 2.92383 0.37633
70 2.9919 0.387502
71 3.05987 0.398558
72 3.12784 0.409509
73 3.19581 0.420367
74 3.26382 0.431154
75 3.33171 0.441854
76 3.39973 0.45252
77 3.46767 0.463123
78 3.48715 0.465808
79 3.54404 0.475237
80 3.61163 0.48647
81 3.67956 0.497689
82 3.74748 0.508877
83 3.81543 0.520018
84 3.88326 0.531034
85 3.95137 0.542029
86 4.01931 0.552905
87 4.08728 0.563716
88 4.15527 0.574465
89 4.22327 0.585169
90 4.29128 0.59583
91 4.3593 0.606451
92 4.37917 0.609348
93 4.43589 0.618597
94 4.50339 0.629785
95 4.57132 0.640988
96 4.63924 0.652149
97 4.70706 0.663239
98 4.77499 0.674258
99 4.84293 0.685192
100 4.91087 0.696067
101 4.97886 0.706887
102 5.04668 0.717593
103 5.11455 0.728265
104 5.18245 0.738889
105 5.20247 0.74186
106 5.25958 0.751038
107 5.3271 0.762009
108 5.39499 0.772976
109 5.46292 0.783904
110 5.53082 0.794768
111 5.5987 0.805572
112 5.66662 0.816328
113 5.7347 0.827061
114 5.80253 0.837693
115 5.87033 0.848271
116 5.93818 0.858812
117 5.95805 0.861771
118 6.01386 0.870789
119 6.08118 0.881933
120 6.14912 0.89312
121 6.21694 0.904239
122 6.28483 0.915315
123 6.35268 0.926291
124 6.42051 0.937189
125 6.48839 0.94807
126 6.55625 0.958887
127 6.62422 0.969689
128 6.64359 0.972682
129 6.69999 0.9819
130 6.76742 0.993305
131 6.83527 1.00471
132 6.9031 1.01606
133 6.97095 1.02736
134 7.03885 1.03856
135 7.10667 1.04965
136 7.17452 1.06064
137 7.24233 1.07154
138 7.26156 1.07456
139 7.31739 1.08385
140 7.38461 1.09536
141 7.45246 1.10687
142 7.52029 1.11831
143 7.58827 1.12968
144 7.6562 1.14095
145 7.72413 1.15207
146 7.74317 1.1551
147 7.79956 1.16445
148 7.86695 1.17587
149 7.93475 1.18727
150 8.00256 1.19861
151 8.07042 1.20986
152 8.13821 1.22099
153 8.20609 1.23208
154 8.2254 1.23512
155 8.28212 1.2446
156 8.34955 1.25618
157 8.41728 1.26772
158 8.48513 1.2792
159 8.55297 1.29056
160 8.6208 1.30179
161 8.6403 1.30493
162 8.69743 1.31452
163 8.76497 1.32612
164 8.83279 1.33766
165 8.90056 1.3491
166 8.96846 1.36045
167 8.98771 1.3636
168 9.0443 1.37318
169 9.11158 1.38485
170 9.17934 1.39645
171 9.24713 1.40797
172 9.26626 1.41118
173 9.32262 1.42087
174 9.39013 1.43282
175 9.45793 1.44468
176 9.5256 1.45638
177 9.5451 1.45974
178 9.60148 1.46952
179 9.66876 1.48146
180 9.68811 1.4849
181 9.74378 1.49476
182 9.81096 1.50692
183 9.83212 1.51076
184 9.88719 1.52056
185 9.95416 1.5326
186 9.97282 1.53593
187 10.029 1.54599
188 10.0962 1.55841
189 10.1157 1.56203
190 10.1723 1.57232
191 10.1905 1.57586
192 10.2446 1.58624
193 10.3114 1.59967
194 10.3304 1.60369
195 10.3869 1.61469
196 10.4044 1.61859
197 10.4592 1.62984
198 10.5256 1.64438
199 10.5444 1.6488
200 10.6006 1.66054
201 10.6178 1.66471
202 10.6718 1.6766
203 10.6912 1.68173
204 10.7472 1.6949
205 10.7659 1.70034
206 10.8161 1.71263
207 10.827 1.71631
208 10.8802 1.72961
209 10.8962 1.73469
210 10.897 1.73496
211 10.8964 1.73483
212 10.8982 1.7352
213 10.8973 1.73503
214 10.8971 1.73506
215 10.9386 1.742
216 11.004 1.7517
217 11.0726 1.76133
218 11.1407 1.77091
219 11.1596 1.77274
220 11.2161 1.78186
221 11.2338 1.78404
222 11.2886 1.79361
223 11.3045 1.79627
224 11.3581 1.80669
225 11.3751 1.81043
226 11.428 1.82168
227 11.4461 1.82626
228 11.5015 1.83879
229 11.5228 1.84458
230 11.5766 1.85734
231 11.5893 1.86133
232 11.6399 1.87358
233 11.6541 1.87794
234 11.7023 1.88978
235 11.7177 1.89435
236 11.7191 1.89476
237 11.717 1.8943
238 11.7179 1.8945
239 11.7189 1.89468
240 11.7171 1.89439
241 11.7561 1.90105
242 11.7669 1.90197
243 11.8121 1.9094
244 11.8768 1.91909
245 11.9001 1.9218
246 11.9556 1.93056
247 11.9718 1.93225
248 12.027 1.941
249 12.0428 1.94269
250 12.0962 1.95108
251 12.1178 1.95374
252 12.1714 1.96189
253 12.1832 1.96301
254 12.2329 1.97054
255 12.3011 1.98006
256 12.3697 1.9889
257 12.4369 1.997
258 12.507 2.00493
259 12.5746 2.01197
260 12.6435 2.01881
261 12.7116 2.02514
262 12.7808 2.03136
263 12.8484 2.03716
264 12.9169 2.04293
265 12.9862 2.04865
266 13.0554 2.05424
267 13.1239 2.05973
268 13.1925 2.06522
269 13.2611 2.07069
270 13.3297 2.07615
271 13.3983 2.08162
272 13.467 2.08709
273 13.5356 2.09256
274 13.6042 2.09804
275 13.6728 2.10354
276 13.7415 2.10902
277 13.8101 2.11451
278 13.8787 2.12
279 13.8988 2.12121
280 13.9563 2.12643
281 14.0245 2.1325
282 14.093 2.13858
283 14.1616 2.14466
284 14.2302 2.15072
285 14.2988 2.15677
286 14.3673 2.1628
287 14.4359 2.16882
288 14.5044 2.17479
289 14.573 2.18073
290 14.6415 2.18661
291 14.7101 2.19247
292 14.7786 2.19831
293 14.8472 2.20413
294 14.9158 2.20992
295 14.9844 2.2157
296 15.053 2.22145
297 15.1216 2.22719
298 15.1416 2.22872
299 15.1505 2.22956
300 15.1582 2.23048
301 15.1631 2.23129
302 15.1658 2.23186
303 15.1683 2.23244
304 15.1713 2.23329
305 15.2196 2.24891
306 15.2809 2.27595
307 15.3435 2.30476
308 15.406 2.33377
309 15.4684 2.36265
310 15.5309 2.3913
311 15.5935 2.41973
312 15.6564 2.44793
313 15.7191 2.47585
314 15.7821 2.50362
315 15.8452 2.53124
316 15.9083 2.55871
317 15.9715 2.58604
318 16.0349 2.61328
319 16.0982 2.6404
320 16.1615 2.66742
321 16.2248 2.69434
322 16.2882 2.72121
323 16.3516 2.74803
324 16.4151 2.7748
325 16.4785 2.80152
326 16.542 2.8282
327 16.6055 2.85482
328 16.669 2.8814
329 16.7325 2.90793
330 16.7961 2.93445
331 16.8596 2.96091
332 16.9232 2.98736
333 16.9409 2.99535
334 16.9942 3.01714
335 17.0571 3.04389
336 17.1205 3.0706
337 17.1841 3.09722
338 17.2476 3.12372
339 17.3113 3.15005
340 17.3751 3.17625
341 17.4388 3.20235
342 17.5026 3.22837
343 17.5664 3.25429
344 17.6302 3.28012
345 17.6941 3.30591
346 17.758 3.33164
347 17.8219 3.35731
348 17.8858 3.38292
349 17.9498 3.40846
350 18.0138 3.43397
351 18.0778 3.45944
352 18.1418 3.48481
353 18.2058 3.51014
354 18.2699 3.53543
355 18.3339 3.56068
356 18.3979 3.5859
357 18.462 3.61109
358 18.5261 3.63627
359 18.5902 3.66142
360 18.6543 3.68655
361 18.7183 3.71166
362 18.7824 3.73673
363 18.8466 3.76181
364 18.9107 3.78687
365 18.9748 3.81192
366 19.0389 3.83695
367 19.1031 3.86199
368 19.1672 3.887
369 19.2314 3.91199
370 19.2955 3.93698
371 19.3596 3.96197
372 19.4238 3.98694
373 19.488 4.01193
374 19.5521 4.0369
375 19.6163 4.06186
376 19.6804 4.08683
377 19.6981 4.09364
378 19.7499 4.11414
379 19.8129 4.13924
380 19.8778 4.16377
381 19.9432 4.18709
382 20.0088 4.20911
383 20.0746 4.2298
384 20.1404 4.24928
385 20.2066 4.2677
386 20.2734 4.2853
387 20.3403 4.30208
388 20.4074 4.31815
389 20.4746 4.33368
390 20.5419 4.34869
391 20.6093 4.36328
392 20.6766 4.37747
393 20.744 4.3914
394 20.8114 4.40507
395 20.8788 4.41854
396 20.9462 4.43181
397 21.0136 4.44497
398 21.0812 4.458
399 21.1487 4.47096
400 21.2163 4.48383
401 21.284 4.49665
402 21.3516 4.50941
403 21.4193 4.52214
404 21.4869 4.53483
405 21.5546 4.54752
406 21.6222 4.56016
407 21.6899 4.5728
408 21.7575 4.58542
409 21.8252 4.59801
410 21.8929 4.6106
411 21.9606 4.62317
412 22.0283 4.63575
413 22.096 4.64833
414 22.1637 4.66091
415 22.2313 4.67348
416 22.299 4.68606
417 22.3667 4.69863
418 22.4344 4.71119
419 22.5021 4.72376
420 22.5698 4.73632
421 22.6375 4.74888
422 22.7052 4.76145
423 22.7729 4.77402
424 22.8406 4.78658
425 22.9083 4.79912
426 22.976 4.81167
427 23.0436 4.82422
428 23.1113 4.83675
429 23.179 4.84931
430 23.2467 4.86186
431 23.3144 4.8744
432 23.3821 4.88695
433 23.4498 4.89948
434 23.4695 4.90294
435 23.526 4.91385
436 23.5932 4.92705
437 23.6607 4.94025
438 23.7283 4.95345
439 23.7958 4.9666
440 23.8635 4.97968
441 23.9312 4.99271
442 23.9988 5.00564
443 24.0664 5.01852
444 24.1341 5.03133
445 24.2017 5.04408
446 24.2694 5.05682
447 24.337 5.06952
448 24.4047 5.0822
449 24.4724 5.09484
450 24.54 5.10746
451 24.6078 5.12008
452 24.6755 5.13268
453 24.7431 5.14526
454 24.8108 5.15783
455 24.8785 5.17038
456 24.9462 5.18293
457 25.0139 5.19547
458 25.0816 5.20802
459 25.1492 5.22056
460 25.2169 5.2331
461 25.2846 5.24564
462 25.3523 5.25817
463 25.42 5.27071
464 25.4877 5.28324
465 25.5066 5.28666
466 25.563 5.29746
467 25.6301 5.31072
468 25.6977 5.32401
469 25.7651 5.33727
470 25.8326 5.35048
471 25.9001 5.36357
472 25.9676 5.37661
473 26.0353 5.38959
474 26.1029 5.4025
475 26.1705 5.41535
476 26.2381 5.42814
477 26.3058 5.44089
478 26.3734 5.45359
479 26.4411 5.46629
480 26.5089 5.47896
481 26.5284 5.48253
482 26.5847 5.49333
483 26.6518 5.50652
484 26.7193 5.51973
485 26.7869 5.53293
486 26.8545 5.54608
487 26.922 5.55915
488 26.9896 5.57214
489 27.0573 5.58508
490 27.0764 5.58867
491 27.1321 5.59951
492 27.1991 5.61285
493 27.2667 5.62621
494 27.3342 5.63952
495 27.3533 5.6433
496 27.4099 5.65464
497 27.477 5.66855
498 27.4965 5.67268
499 27.5493 5.68359
500 27.5618 5.68644
501 27.6131 5.6974
502 27.626 5.70073
503 27.6775 5.71259
504 27.691 5.71664
505 27.7412 5.72918
506 27.7572 5.73449
507 27.8059 5.74767
508 27.8212 5.75322
509 27.8753 5.76852
510 27.8955 5.7758
511 27.9476 5.79106
512 27.9613 5.79643
513 27.9622 5.79676
514 27.9632 5.79699
515 27.9635 5.79708
516 27.9628 5.79696
517 27.9621 5.79687
518 28.0042 5.80526
519 28.0132 5.80607
520 28.059 5.81501
521 28.1243 5.82679
522 28.1491 5.83049
523 28.2051 5.84098
524 28.2277 5.84433
525 28.2844 5.85487
526 28.3082 5.85848
527 28.3682 5.86956
528 28.395 5.87374
529 28.4523 5.88417
530 28.4764 5.88791
531 28.5352 5.89852
532 28.5528 5.90105
533 28.6091 5.91127
534 28.6267 5.91383
535 28.6767 5.92269
536 28.6941 5.92521
537 28.7508 5.93498
538 28.7692 5.93748
539 28.8237 5.94659
540 28.8462 5.94963
541 28.9003 5.95832
542 28.9156 5.96011
543 28.9682 5.96844
544 28.9861 5.97059
545 29.0364 5.97836
546 29.0511 5.98004
547 29.1017 5.98775
548 29.1167 5.98946
549 29.1668 5.99691
550 29.184 5.99886
551 29.236 6.00637
552 29.252 6.00807
553 29.303 6.01522
554 29.3204 6.01704
555 29.3709 6.02391
556 29.3871 6.02549
557 29.4383 6.03227
558 29.4548 6.03383
559 29.5059 6.04046
560 29.5224 6.04202
561 29.574 6.04855
562 29.5906 6.05007
563 29.6419 6.05641
564 29.6587 6.05788
565 29.7105 6.06404
566 29.7269 6.06535
567 29.7784 6.07125
568 29.7953 6.07258
569 29.8468 6.07829
570 29.8633 6.07952
571 29.9149 6.08507
572 29.9315 6.08627
573 29.9826 6.09161
574 29.9993 6.0928
575 29.9999 6.0928
576 29.9987 6.09263
577 30.0006 6.09291
578 30 6.0928
579 29.9999 6.09269
580 30.0003 6.09273
581 30.0477 6.10408
582 30.1136 6.12241
583 30.1813 6.1416
584 30.246 6.15976
585 30.26 6.1652
586 30.2642 6.1663
587 30.2682 6.16714
588 30.2722 6.16775
589 30.2756 6.16805
590 30.2787 6.16814
591 30.2796 6.16805
592 30.2794 6.16811
593 30.3264 6.16796
594 30.337 6.16419
595 30.3859 6.16322
596 30.4528 6.15808
597 30.4727 6.15384
598 30.5285 6.1519
599 30.5464 6.14824
600 30.5998 6.14602
601 30.6136 6.14277
602 30.6639 6.14052
603 30.6812 6.13742
604 30.7379 6.13436
605 30.7525 6.1313
606 30.8053 6.12848
607 30.8233 6.12567
608 30.8744 6.12275
609 30.8862 6.12062
610 30.9356 6.118
611 30.9497 6.11603
612 30.9982 6.1134
613 31.0132 6.11161
614 31.0664 6.10876
615 31.0831 6.10699
616 31.1351 6.10422
617 31.1547 6.10251
618 31.2083 6.09972
619 31.2255 6.0983
620 31.278 6.09568
621 31.2956 6.09438
622 31.3458 6.09191
623 31.3622 6.09079
624 31.4151 6.08828
625 31.4322 6.08722
626 31.4835 6.08489
627 31.5019 6.0839
628 31.5559 6.08156
629 31.5732 6.08072
630 31.6247 6.07859
631 31.6428 6.07784
632 31.6956 6.07581
633 31.7122 6.07522
634 31.7638 6.07335
635 31.781 6.0728
636 31.8328 6.07102
637 31.8492 6.07055
638 31.8995 6.06888
639 31.9156 6.06845
640 31.9666 6.06683
641 31.9822 6.06646
642 32.0329 6.06496
643 32.0486 6.06464
644 32.0998 6.06323
645 32.1169 6.06294
646 32.1688 6.06166
647 32.1852 6.06148
648 32.2371 6.06035
649 32.2544 6.06022
650 32.3061 6.05921
651 32.3221 6.05912
652 32.3722 6.05815
653 32.3892 6.05798
654 32.4411 6.05698
655 32.4585 6.0568
656 32.4672 6.05672
657 32.4755 6.05703
658 32.4825 6.05796
659 32.4865 6.05917
660 32.4901 6.06064
661 32.4928 6.06247
662 32.4953 6.06451
663 32.4972 6.06664
664 32.5299 6.09822
665 32.562 6.15418
666 32.593 6.2149
667 32.6241 6.27552
668 32.6587 6.33668
669 32.6937 6.39498
670 32.7329 6.45234
671 32.7734 6.50734
672 32.8167 6.56124
673 32.8605 6.61254
674 32.9064 6.66286
675 32.9542 6.71303
676 33.003 6.76266
677 33.0523 6.81146
678 33.1018 6.85964
679 33.1515 6.90737
680 33.2012 6.95487
681 33.2511 7.0023
682 33.301 7.04972
683 33.3142 7.06432
684 33.3177 7.06764
685 33.3202 7.06962
686 33.3228 7.0714
687 33.3258 7.07321
688 33.3291 7.07484
689 33.3325 7.07621
690 33.3358 7.07728
691 33.3845 7.0936
692 33.4508 7.10613
693 33.5189 7.11807
694 33.5867 7.12995
695 33.6542 7.14214
696 33.7217 7.15491
697 33.7895 7.1684
698 33.8569 7.18237
699 33.9241 7.19696
700 33.9915 7.21211
701 34.0587 7.2277
702 34.1256 7.24362
703 34.1925 7.25993
704 34.2595 7.27652
705 34.3262 7.29323
706 34.3929 7.31023
707 34.4596 7.32733
708 34.5263 7.34458
709 34.5929 7.36194
710 34.6594 7.37935
711 34.726 7.39686
712 34.7452 7.40083
713 34.7991 7.4162
714 34.8646 7.43377
715 34.9316 7.45076
716 34.9986 7.4668
717 35.0658 7.48194
718 35.1332 7.49615
719 35.2007 7.50954
720 35.2686 7.52223
721 35.3363 7.53423
722 35.4042 7.54567
723 35.4721 7.55662
724 35.5401 7.5672
725 35.6083 7.57744
726 35.6764 7.58738
727 35.7445 7.59711
728 35.8129 7.60668
729 35.8327 7.60797
730 35.8887 7.61717
731 35.9561 7.62688
732 36.0243 7.63617
733 36.0924 7.64508
734 36.1606 7.65357
735 36.2289 7.66168
736 36.2973 7.66947
737 36.3189 7.67063
738 36.3753 7.67797
739 36.4434 7.68541
740 36.5116 7.69172
741 36.5799 7.69692
742 36.6485 7.70102
743 36.7174 7.70401
744 36.7859 7.70598
745 36.8546 7.70714
746 36.9233 7.70756
747 36.9922 7.70739
748 37.061 7.70667
749 37.1298 7.70555
750 37.1987 7.70407
751 37.2674 7.7023
752 37.3362 7.70031
753 37.405 7.69812
754 37.4738 7.69577
755 37.5426 7.69332
756 37.6114 7.69077
757 37.6801 7.68815
758 37.7488 7.68547
759 37.7692 7.68336
760 37.8268 7.6821
761 37.8953 7.67897
762 37.9641 7.67593
763 38.0329 7.67302
764 38.1017 7.6703
765 38.1706 7.66776
766 38.1914 7.66628
767 38.2484 7.6649
768 38.3167 7.66232
769 38.3368 7.66089
770 38.3944 7.65922
771 38.4127 7.65774
772 38.469 7.65577
773 38.4866 7.6542
774 38.5424 7.65198
775 38.5591 7.65037
776 38.614 7.64782
777 38.632 7.64597
778 38.6846 7.64308
779 38.6975 7.64142
780 38.7472 7.63858
781 38.7598 7.63699
782 38.8098 7.634
783 38.8274 7.63219
784 38.8835 7.62871
785 38.8972 7.62715
786 38.9486 7.62403
787 38.9653 7.62247
788 39.015 7.61944
789 39.0279 7.61825
790 39.0785 7.61526
791 39.0937 7.61402
792 39.1436 7.61112
793 39.1604 7.60989
794 39.2128 7.6069
795 39.2291 7.60578
796 39.2802 7.60292
797 39.297 7.60184
798 39.3475 7.59898
799 39.3639 7.59792
800 39.4164 7.59495
801 39.4335 7.59385
802 39.4836 7.59102
803 39.4991 7.59005
804 39.5512 7.58717
805 39.5677 7.5862
806 39.6186 7.58343
807 39.6351 7.58251
808 39.6874 7.57977
809 39.7043 7.57892
810 39.7558 7.57634
811 39.7723 7.57561
812 39.8243 7.57315
813 39.8414 7.57247
814 39.8939 7.57007
815 39.9114 7.5694
816 39.9642 7.56706
817 39.9824 7.56641
818 40.0355 7.56418
819 40.0536 7.56358
820 40.1066 7.56147
821 40.1243 7.56094
822 40.1765 7.55895
823 40.1933 7.55851
824 40.2456 7.5566
825 40.2633 7.55617
826 40.3156 7.55438
827 40.3344 7.55395
828 40.3875 7.55225
829 40.4049 7.55191
830 40.4571 7.5503
831 40.4749 7.54999
832 40.5278 7.54846
833 40.5448 7.5482
834 40.5952 7.54684
835 40.6108 7.54663
836 40.6621 7.54526
837 40.6779 7.54501
838 40.7284 7.54367
839 40.7445 7.54344
840 40.7962 7.5422
841 40.8124 7.54202
842 40.8627 7.54092
843 40.8782 7.54076
844 40.9293 7.53964
845 40.9456 7.53942
846 40.997 7.5383
847 41.0135 7.53804
848 41.0648 7.53686
849 41.0816 7.53655
850 41.1338 7.53533
851 41.1507 7.53496
852 41.2022 7.5337
853 41.2189 7.53329
854 41.2713 7.53202
855 41.2887 7.53162
856 41.3405 7.53043
857 41.3579 7.53009
858 41.4114 7.52895
859 41.4296 7.52862
860 41.4824 7.52749
861 41.5 7.52715
862 41.5523 7.52599
863 41.5696 7.52561
864 41.6223 7.52449
865 41.6402 7.52414
866 41.6931 7.52308
867 41.7107 7.52278
868 41.7631 7.52177
869 41.7805 7.5215
870 41.8329 7.52058
871 41.8499 7.5204
872 41.9028 7.51958
873 41.9204 7.51945
874 41.9725 7.51875
875 41.9893 7.51867
876 42.0415 7.51801
877 42.0582 7.51793
878 42.1102 7.51731
879 42.127 7.51723
880 42.1795 7.51666
881 42.1969 7.5166
882 42.2493 7.51609
883 42.2671 7.51602
884 42.3193 7.51551
885 42.3361 7.51543
886 42.3879 7.51493
887 42.4049 7.51484
888 42.456 7.51437
889 42.4724 7.51431
890 42.5245 7.51388
891 42.5405 7.51383
892 42.591 7.51342
893 42.6084 7.51334
894 42.6606 7.51293
895 42.6762 7.51286
896 42.7274 7.5125
897 42.7459 7.51245
898 42.798 7.51213
899 42.8137 7.5121
900 42.8652 7.51183
901 42.8824 7.51181
902 42.9327 7.51157
903 42.9481 7.51157
904 43.0006 7.51138
905 43.0178 7.5114
906 43.0675 7.51124
907 43.0828 7.51123
908 43.1348 7.51102
909 43.1509 7.51096
910 43.2011 7.51069
911 43.2174 7.51059
912 43.2696 7.51033
913 43.2864 7.51023
914 43.3384 7.50999
915 43.3558 7.50991
916 43.4085 7.50968
917 43.4253 7.50962
918 43.4782 7.50945
919 43.4956 7.50943
920 43.5472 7.50934
921 43.5641 7.50937
922 43.6159 7.50933
923 43.6324 7.50937
924 43.6818 7.50933
925 43.6966 7.50934
926 43.7471 7.50922
927 43.7636 7.50916
928 43.8157 7.50897
929 43.8326 7.50886
930 43.8841 7.50864
931 43.9015 7.50851
932 43.9534 7.50831
933 43.971 7.50822
934 44.0239 7.50809
935 44.0408 7.50804
936 44.0934 7.50796
937 44.1115 7.50794
938 44.1649 7.50784
939 44.1829 7.50778
940 44.2362 7.50764
941 44.254 7.50755
942 44.3064 7.50737
943 44.3241 7.50725
944 44.3777 7.50706
945 44.3955 7.50695
946 44.4484 7.50675
947 44.4661 7.50664
948 44.5185 7.50648
949 44.5353 7.50641
950 44.5871 7.50631
951 44.6041 7.50629
952 44.6557 7.50624
953 44.6723 7.50625
954 44.7241 7.5062
955 44.7409 7.50616
956 44.7917 7.50603
957 44.8088 7.50593
958 44.8621 7.50571
959 44.8799 7.50553
960 44.932 7.50522
961 44.9492 7.50499
962 45.0017 7.50461
963 45.0187 7.50434
964 45.071 7.50391
965 45.0879 7.50363
966 45.1399 7.50322
967 45.1569 7.50297
968 45.2096 7.50257
969 45.2271 7.50234
970 45.2798 7.5019
971 45.2967 7.50165
972 45.3486 7.50117
973 45.3649 7.50091
974 45.4168 7.50043
975 45.435 7.50017
976 45.4879 7.49971
977 45.5042 7.49951
978 45.5559 7.4991
979 45.5726 7.49891
980 45.624 7.49854
981 45.6406 7.49841
982 45.6922 7.49811
983 45.7085 7.49803
984 45.7595 7.49776
985 45.7752 7.49768
986 45.8259 7.49738
987 45.8412 7.49727
988 45.8928 7.49693
989 45.9093 7.4968
990 45.9597 7.4965
991 45.9752 7.49641
992 46.0268 7.49614
993 46.0434 7.49607
994 46.095 7.49584
995 46.1117 7.49578
996 46.1631 7.49558
997 46.1795 7.49554
998 46.2317 7.49541
999 46.2492 7.49543
1000 46.3007 7.49539
1001 46.3171 7.49544
1002 46.3692 7.49542
1003 46.386 7.49547
1004 46.4366 7.49543
1005 46.4531 7.49546
1006 46.5053 7.49545
1007 46.521 7.4955
1008 46.5715 7.49555
1009 46.5895 7.49561
1010 46.5977 7.49556
1011 46.6074 7.49505
1012 46.6155 7.49377
1013 46.6196 7.49235
1014 46.6261 7.48956
1015 46.6327 7.4843
1016 46.6338 7.48097
1017 46.6378 7.47512
1018 46.637 7.46967
1019 46.6359 7.47445
1020 46.6394 7.47329
1021 46.6354 7.47121
1022 46.634 7.47038
1023 46.6307 7.46969
1024 46.6255 7.46981
1025 46.5969 7.47209
1026 46.5401 7.48664
1027 46.4791 7.50559
1028 46.4167 7.52485
1029 46.352 7.54224
1030 46.2852 7.55514
1031 46.2165 7.56168
1032 46.1779 7.56364
1033 46.1665 7.56284
1034 46.1652 7.56279
1035 46.1682 7.56391
1036 46.1719 7.5658
1037 46.172 7.56587
1038 46.1722 7.56605
1039 46.1723 7.56619
1040 46.1728 7.56653
1041 46.1734 7.5671
1042 46.1733 7.56722
1043 46.1734 7.56737
1044 46.1736 7.56852
1045 46.1731 7.56675
1046 46.1741 7.56383
1047 46.1754 7.56201
1048 46.177 7.56009
1049 46.1796 7.5584
1050 46.1827 7.55721
1051 46.1859 7.55654
1052 46.1892 7.55634
1053 46.2251 7.5515
1054 46.2906 7.55745
1055 46.3597 7.56504
1056 46.4287 7.57137
1057 46.4979 7.57562
1058 46.5673 7.57733
1059 46.6365 7.57633
1060 46.7055 7.57281
1061 46.7355 7.57369
1062 46.7403 7.57358
1063 46.7407 7.57354
1064 46.74 7.57361
1065 46.7397 7.57361
1066 46.7395 7.57362
1067 46.7815 7.56257
1068 46.8463 7.54735
1069 46.9137 7.53228
1070 46.9812 7.51783
1071 47.0487 7.50397
1072 47.1163 7.49075
1073 47.1839 7.47808
1074 47.2517 7.46584
1075 47.3197 7.45399
1076 47.3875 7.44254
1077 47.4552 7.43139
1078 47.5231 7.42044
1079 47.5911 7.40967
1080 47.6591 7.39907
1081 47.7272 7.3886
1082 47.7953 7.37825
1083 47.8634 7.36799
1084 47.9314 7.35782
1085 47.9995 7.34771
1086 48.0676 7.33768
1087 48.1356 7.32766
1088 48.2037 7.31769
1089 48.2716 7.30779
1090 48.2929 7.30536
1091 48.3005 7.30428
1092 48.3051 7.30373
1093 48.3087 7.30341
1094 48.3118 7.30325
1095 48.3622 7.30208
1096 48.4296 7.30596
1097 48.4981 7.31133
1098 48.567 7.31725
1099 48.6358 7.32344
1100 48.7044 7.32964
1101 48.7731 7.33577
1102 48.8416 7.34183
1103 48.9102 7.34779
1104 48.9787 7.35364
1105 49.0473 7.35939
1106 49.1159 7.36507
1107 49.1846 7.37067
1108 49.2533 7.37622
1109 49.322 7.38169
1110 49.3906 7.38714
1111 49.4134 7.39008
1112 49.4713 7.39368
1113 49.5399 7.39924
1114 49.5603 7.40173
1115 49.6168 7.40501
1116 49.685 7.4099
1117 49.7538 7.41399
1118 49.8226 7.41721
1119 49.8912 7.41955
1120 49.9598 7.42105
1121 50.0288 7.42182
1122 50.0498 7.42152
1123 50.0605 7.42145
1124 50.0712 7.42112
1125 50.0841 7.42021
1126 50.0981 7.41833
1127 50.1091 7.41578
1128 50.1129 7.41413
1129 50.1148 7.41347
1130 50.1173 7.41247
1131 50.1203 7.41078
1132 50.1225 7.40919
1133 50.1229 7.40881
1134 50.123 7.40904
1135 50.1227 7.40953
1136 50.1227 7.41002
1137 50.1229 7.41024
1138 50.1232 7.41031
1139 50.1236 7.41013
1140 50.1242 7.40762
1141 50.1229 7.40442
1142 50.121 7.40189
1143 50.119 7.40001
1144 50.1167 7.39816
1145 50.0909 7.37492
1146 50.0302 7.34729
1147 49.9649 7.32049
1148 49.9017 7.29249
1149 49.8403 7.26316
1150 49.808 7.25376
1151 49.804 7.25273
1152 49.8045 7.25296
1153 49.8048 7.25296
1154 49.8049 7.25283
1155 49.8051 7.25292
1156 49.8051 7.25284
1157 49.8052 7.25292
1158 49.8054 7.253
1159 49.778 7.21859
1160 49.7339 7.16847
1161 49.688 7.11681
1162 49.642 7.06521
1163 49.6254 7.04948
1164 49.5925 7.01015
1165 49.5754 6.99326
1166 49.5393 6.95068
1167 49.5232 6.93494
1168 49.4878 6.89356
1169 49.4732 6.87948
1170 49.4389 6.83954
1171 49.425 6.82583
1172 49.4238 6.82459
1173 49.4239 6.82462
1174 49.424 6.82471
1175 49.4242 6.82475
1176 49.4243 6.82478
1177 49.4244 6.82476
1178 49.4245 6.82474
1179 49.4246 6.8248
1180 49.4249 6.82501
1181 49.425 6.82527
1182 49.4253 6.82608
1183 49.4256 6.82772
1184 49.4249 6.82553
1185 49.426 6.82269
1186 49.4274 6.82091
1187 49.429 6.81911
1188 49.4311 6.81796
1189 49.4337 6.81695
1190 49.4369 6.81669
1191 49.44 6.81704
1192 49.4426 6.81771
1193 49.4435 6.81831
1194 49.4419 6.81808
1195 49.4396 6.81738
1196 49.4375 6.81706
1197 49.4358 6.81696
1198 49.4346 6.81708
1199 49.4337 6.81737
1200 49.4334 6.81749
1201 49.4353 6.81571
1202 49.4373 6.81273
1203 49.4387 6.80922
1204 49.4391 6.8052
1205 49.4384 6.80201
1206 49.4372 6.80005
1207 49.4362 6.79907
1208 49.4357 6.79869
1209 49.4342 6.79735
1210 49.4047 6.77555
1211 49.3441 6.75035
1212 49.2788 6.72582
1213 49.2154 6.69993
1214 49.1535 6.67228
1215 49.0929 6.64266
1216 49.0645 6.63336
1217 49.061 6.63228
1218 49.061 6.63223
1219 49.0614 6.63249
1220 49.0619 6.63279
1221 49.0622 6.63307
1222 49.0624 6.63321
1223 49.0625 6.63332
1224 49.0626 6.63338
1225 49.0627 6.63349
1226 49.0615 6.63188
1227 49.0599 6.62921
1228 49.0586 6.62616
1229 49.0577 6.6229
1230 49.0573 6.61959
1231 49.0572 6.61631
1232 49.0573 6.61311
1233 49.056 6.56557
1234 49.0653 6.49888
1235 49.0754 6.4305
1236 49.0845 6.36197
1237 49.0921 6.29347
1238 49.0979 6.22468
1239 49.1021 6.15571
1240 49.1047 6.08682
1241 49.1084 6.06388
1242 49.1088 6.06173
1243 49.1088 6.06185
1244 49.1087 6.06193
1245 49.1052 6.01583
1246 49.1022 5.94918
1247 49.0993 5.88028
1248 49.0962 5.81135
1249 49.0964 5.78951
1250 49.0923 5.73314
1251 49.0921 5.71324
1252 49.0879 5.65818
1253 49.0873 5.63848
1254 49.0831 5.5856
1255 49.0828 5.57233
1256 49.0786 5.52191
1257 49.0778 5.50705
1258 49.0735 5.45799
1259 49.0722 5.44048
1260 49.0671 5.3846
1261 49.0653 5.36244
1262 49.0643 5.3505
1263 49.0639 5.33939
1264 49.0645 5.32944
1265 49.0667 5.31816
1266 49.0698 5.31172
1267 49.0704 5.31236
1268 49.0717 5.30933
1269 49.0736 5.30915
1270 49.0737 5.30882
1271 49.0757 5.30818
1272 49.0809 5.3089
1273 49.0843 5.31145
1274 49.1146 5.31961
1275 49.1614 5.35278
1276 49.2112 5.39147
1277 49.2632 5.43126
1278 49.3189 5.46898
1279 49.3468 5.49309
1280 49.3555 5.49848
1281 49.3543 5.49915
1282 49.3526 5.49837
1283 49.3547 5.49814
1284 49.3561 5.49811
1285 49.354 5.49847
1286 49.3517 5.49892
1287 49.3868 5.49106
1288 49.4046 5.48697
1289 49.4497 5.47633
1290 49.5122 5.46179
1291 49.5393 5.45634
1292 49.5441 5.4556
1293 49.5429 5.45577
1294 49.5395 5.45598
1295 49.5381 5.45582
1296 49.5405 5.45567
1297 49.5428 5.45582
1298 49.5839 5.45606
1299 49.6478 5.45946
1300 49.6755 5.46322
1301 49.7337 5.46461
1302 49.7622 5.46788
1303 49.8194 5.46916
1304 49.8464 5.47179
1305 49.8612 5.47228
1306 49.8746 5.47204
1307 49.888 5.47078
1308 49.9006 5.46808
1309 49.9083 5.46473
1310 49.9125 5.46177
1311 49.9157 5.45856
1312 49.9196 5.45257
1313 49.9198 5.44719
1314 49.9191 5.44512
1315 49.9193 5.44669
1316 49.9195 5.44438
1317 49.9151 5.44273
1318 49.9129 5.44235
1319 49.9094 5.44258
1320 49.9037 5.44455
1321 49.8794 5.45716
1322 49.8371 5.48809
1323 49.7925 5.52655
1324 49.7466 5.56877
1325 49.699 5.61089
1326 49.6456 5.65271
1327 49.5899 5.68908
1328 49.5601 5.70471
1329 49.5515 5.70791
1330 49.5499 5.7083
1331 49.55 5.70833
1332 49.5514 5.70844
1333 49.5527 5.70878
1334 49.5538 5.70908
1335 49.5543 5.70932
1336 49.5547 5.70949
1337 49.555 5.70968
1338 49.5549 5.70971
1339 49.5532 5.70861
1340 49.5512 5.70633
1341 49.5497 5.70349
1342 49.5488 5.70035
1343 49.5485 5.69709
1344 49.5489 5.69429
1345 49.5493 5.69159
1346 49.5534 5.65177
1347 49.574 5.58872
1348 49.5961 5.52299
1349 49.6162 5.45675
1350 49.6342 5.38965
1351 49.6457 5.3637
1352 49.6469 5.36017
1353 49.647 5.35968
1354 49.6469 5.35989
1355 49.6469 5.36009
1356 49.6468 5.36025
1357 49.6468 5.36036
1358 49.6425 5.31548
1359 49.6375 5.24894
1360 49.6315 5.18021
1361 49.6246 5.11155
1362 49.6169 5.04299
1363 49.6084 4.97453
1364 49.5992 4.90604
1365 49.5895 4.83765
1366 49.5793 4.76952
1367 49.5687 4.70121
1368 49.5651 4.67974
1369 49.5561 4.62609
1370 49.5522 4.60653
1371 49.5431 4.55696
1372 49.5393 4.54103
1373 49.5298 4.49279
1374 49.525 4.4736
1375 49.5134 4.41928
1376 49.509 4.40434
1377 49.4982 4.35476
1378 49.4933 4.3373
1379 49.492 4.33208
1380 49.4918 4.33096
1381 49.4913 4.32773
1382 49.4909 4.32228
1383 49.4909 4.3195
1384 49.4909 4.31983
1385 49.4908 4.31789
1386 49.4909 4.31559
1387 49.4912 4.31335
1388 49.4914 4.31244
1389 49.4926 4.3077
1390 49.4961 4.30176
1391 49.4987 4.30017
1392 49.4989 4.3002
1393 49.5031 4.29707
1394 49.5089 4.29729
1395 49.5123 4.29811
1396 49.5138 4.29877
1397 49.5139 4.29892
1398 49.5487 4.30413
1399 49.5723 4.32605
1400 49.5776 4.33029
1401 49.5792 4.33139
1402 49.5804 4.3317
1403 49.581 4.33192
1404 49.5813 4.3319
1405 49.5812 4.33189
1406 49.5811 4.33182
1407 49.5811 4.3318
1408 49.5812 4.33174
1409 49.5812 4.33173
1410 49.5811 4.33173
1411 49.5815 4.33162
1412 49.5826 4.33129
1413 49.5843 4.33049
1414 49.5866 4.32902
1415 49.5891 4.3266
1416 49.5911 4.32342
1417 49.5923 4.31966
1418 49.5923 4.31599
1419 49.5914 4.31324
1420 49.5904 4.31229
1421 49.5894 4.31054
1422 49.5867 4.30858
1423 49.5835 4.30705
1424 49.5799 4.30585
1425 49.5471 4.29121
1426 49.4817 4.28013
1427 49.4127 4.26995
1428 49.3441 4.25876
1429 49.2759 4.2461
1430 49.2425 4.24453
1431 49.2369 4.24378
1432 49.236 4.24367
1433 49.2365 4.24378
1434 49.237 4.24393
1435 49.2373 4.24395
1436 49.2373 4.24389
1437 49.2373 4.24389
1438 49.2 4.22296
1439 49.1405 4.19316
1440 49.0784 4.16252
1441 49.0164 4.13191
1442 48.9935 4.12254
1443 48.9474 4.09786
1444 48.9276 4.08952
1445 48.8836 4.06541
1446 48.8614 4.05485
1447 48.8175 4.0304
1448 48.8028 4.02326
1449 48.7635 4.00085
1450 48.7476 3.99259
1451 48.7013 3.96606
1452 48.6856 3.95785
1453 48.6426 3.93325
1454 48.625 3.92392
1455 48.6236 3.92321
1456 48.6265 3.9247
1457 48.6274 3.92501
1458 48.6249 3.92376
1459 48.6245 3.92371
1460 48.6246 3.92366
1461 48.6243 3.92351
1462 48.6235 3.92302
1463 48.6216 3.92159
1464 48.6181 3.91782
1465 48.6178 3.91612
1466 48.6165 3.91352
1467 48.6159 3.90817
1468 48.6171 3.90592
1469 48.6172 3.9023
1470 48.6187 3.89999
1471 48.6193 3.89816
1472 48.6202 3.89615
1473 48.6215 3.89403
1474 48.6226 3.89339
1475 48.6239 3.89192
1476 48.6255 3.89168
1477 48.6279 3.89068
1478 48.6301 3.89125
1479 48.6312 3.89128
1480 48.6317 3.89158
1481 48.6317 3.89151
1482 48.6666 3.89592
1483 48.6936 3.91128
1484 48.6998 3.91396
1485 48.7019 3.91489
1486 48.7023 3.91502
1487 48.7027 3.91502
1488 48.7028 3.91503
1489 48.7026 3.91501
1490 48.7022 3.91501
1491 48.7021 3.91499
1492 48.7434 3.91063
1493 48.8095 3.90635
1494 48.8788 3.90247
1495 48.9478 3.89905
1496 48.9734 3.89953
1497 49.0261 3.89557
1498 49.0494 3.8958
1499 49.1011 3.8918
1500 49.1231 3.89168
1501 49.1736 3.88766
1502 49.1924 3.88741
1503 49.1984 3.88693
1504 49.2039 3.88624
1505 49.2098 3.88503
1506 49.2159 3.8831
1507 49.222 3.88022
1508 49.2276 3.87634
1509 49.2305 3.87293
1510 49.2326 3.86967
1511 49.2338 3.86595
1512 49.2338 3.86248
1513 49.2329 3.85993
1514 49.2322 3.85916
1515 49.2313 3.85737
1516 49.2283 3.85534
1517 49.2248 3.85405
1518 49.2212 3.85368
1519 49.2181 3.85401
1520 49.2154 3.85467
1521 49.184 3.86221
1522 49.124 3.88827
1523 49.0603 3.91752
1524 48.9966 3.94518
1525 48.9321 3.97104
1526 48.8662 3.99477
1527 48.7997 4.01593
1528 48.7694 4.02691
1529 48.7643 4.02839
1530 48.7635 4.02859
1531 48.7635 4.02855
1532 48.7635 4.02853
1533 48.7636 4.02851
1534 48.7638 4.0285
1535 48.764 4.02849
1536 48.7636 4.02848
1537 48.7639 4.0285
1538 48.7639 4.02853
1539 48.7628 4.02836
1540 48.762 4.02813
1541 48.7617 4.02803
1542 48.7592 4.02673
1543 48.7566 4.02442
1544 48.7542 4.0218
1545 48.7521 4.01884
1546 48.7502 4.01558
1547 48.7484 4.01201
1548 48.7235 3.97204
1549 48.6989 3.9089
1550 48.6743 3.84414
1551 48.6494 3.77969
1552 48.6239 3.716
1553 48.5974 3.65253
1554 48.5698 3.58905
1555 48.5416 3.52597
1556 48.5127 3.46349
1557 48.4831 3.40119
1558 48.453 3.33917
1559 48.4225 3.27741
1560 48.3916 3.21565
1561 48.3604 3.1541
1562 48.329 3.09275
1563 48.2974 3.03154
1564 48.2656 2.97044
1565 48.2336 2.90944
1566 48.2015 2.84839
1567 48.1693 2.78755
1568 48.1612 2.76905
1569 48.1573 2.76177
1570 48.1543 2.75481
1571 48.1523 2.74779
1572 48.1515 2.74057
1573 48.1522 2.73443
1574 48.1532 2.73303
1575 48.1531 2.73225
1576 48.154 2.73033
1577 48.1558 2.7291
1578 48.1578 2.72795
1579 48.1606 2.72755
1580 48.163 2.72786
1581 48.1656 2.72841
1582 48.1685 2.72964
1583 48.2015 2.73979
1584 48.2577 2.77388
1585 48.317 2.81037
1586 48.3771 2.84495
1587 48.4379 2.87728
1588 48.4998 2.90705
1589 48.5631 2.93449
1590 48.6279 2.95973
1591 48.6935 2.98287
1592 48.7597 3.00398
1593 48.826 3.02322
1594 48.8518 3.03319
1595 48.8543 3.03416
1596 48.8542 3.03405
1597 48.8543 3.03399
1598 48.8542 3.03391
1599 48.8967 3.03953
1600 48.9623 3.05034
1601 49.0306 3.06118
1602 49.0987 3.07135
1603 49.1671 3.08089
1604 49.2352 3.08975
1605 49.3036 3.09808
1606 49.3721 3.1059
1607 49.4406 3.11327
1608 49.5093 3.12027
1609 49.5778 3.12694
1610 49.6463 3.13337
1611 49.7151 3.13963
1612 49.7838 3.14568
1613 49.8525 3.15158
1614 49.9211 3.15734
1615 49.9897 3.16298
1616 50.0114 3.16465
1617 50.0191 3.16527
1618 50.0242 3.16557
1619 50.0278 3.16566
1620 50.0311 3.16563
1621 50.0804 3.16374
1622 50.1473 3.15673
1623 50.2157 3.14826
1624 50.2839 3.13922
1625 50.3522 3.12992
1626 50.4204 3.12056
1627 50.4886 3.11122
1628 50.5098 3.10637
1629 50.5195 3.10491
1630 50.5289 3.10291
1631 50.5383 3.09984
1632 50.5473 3.09544
1633 50.5522 3.09134
1634 50.5549 3.08836
1635 50.5571 3.08521
1636 50.5584 3.08152
1637 50.5584 3.0783
1638 50.5577 3.07609
1639 50.5572 3.07511
1640 50.5563 3.07336
1641 50.5536 3.07152
1642 50.5505 3.07022
1643 50.5474 3.06949
1644 50.5442 3.06906
1645 50.511 3.06279
1646 50.445 3.06294
1647 50.3755 3.06329
1648 50.3058 3.06202
1649 50.2367 3.05873
1650 50.1684 3.053
1651 50.1006 3.04488
1652 50.0326 3.03454
1653 49.9649 3.02237
1654 49.8971 3.00859
1655 49.8299 2.99367
1656 49.7627 2.97767
1657 49.6958 2.96098
1658 49.6291 2.94361
1659 49.5625 2.92573
1660 49.537 2.92017
1661 49.5283 2.91754
1662 49.5205 2.91443
1663 49.5135 2.9104
1664 49.5102 2.9075
1665 49.5083 2.9053
1666 49.5072 2.90319
1667 49.5069 2.90175
1668 49.5067 2.89966
1669 49.5073 2.89807
1670 49.5082 2.89609
1671 49.5102 2.89423
1672 49.5126 2.89284
1673 49.5153 2.89201
1674 49.5182 2.89177
1675 49.5211 2.89202
1676 49.5239 2.89257
1677 49.5588 2.89714
1678 49.6214 2.91687
1679 49.6872 2.93765
1680 49.7535 2.95671
1681 49.821 2.97365
1682 49.8892 2.98817
1683 49.9579 3.00011
1684 50.0263 3.00962
1685 50.0552 3.01544
1686 50.0593 3.01606
1687 50.0596 3.01606
1688 50.0593 3.01601
1689 50.0592 3.01597
1690 50.059 3.01595
1691 50.0584 3.01597
1692 50.0583 3.01595
1693 50.0597 3.01577
1694 50.0632 3.01517
1695 50.0669 3.01426
1696 50.0706 3.01317
1697 50.116 2.99867
1698 50.1782 2.97333
1699 50.2418 2.94645
1700 50.3052 2.91945
1701 50.3688 2.89249
1702 50.3884 2.88195
1703 50.4387 2.8628
1704 50.4952 2.83698
1705 50.4982 2.83578
1706 50.5499 2.81615
1707 50.5668 2.80767
1708 50.6173 2.78807
1709 50.6328 2.77992
1710 50.6823 2.75969
1711 50.6972 2.75126
1712 50.7459 2.73011
1713 50.7597 2.72156
1714 50.8064 2.69996
1715 50.8194 2.69114
1716 50.8202 2.69059
1717 50.8198 2.6908
1718 50.8196 2.69094
1719 50.8191 2.69115
1720 50.8193 2.6911
1721 50.8194 2.69103
1722 50.8194 2.69101
1723 50.8658 2.6746
1724 50.8767 2.67145
1725 50.923 2.65482
1726 50.9341 2.6512
1727 50.9359 2.65056
1728 50.9386 2.64967
1729 50.9419 2.64883
1730 50.9451 2.64826
1731 50.9482 2.64793
1732 50.9516 2.64778
1733 50.952 2.64802
1734 50.9518 2.6479
1735 50.9518 2.64781
1736 50.9516 2.64773
1737 50.951 2.6476
1738 50.9501 2.64733
1739 50.9498 2.64703
1740 50.9497 2.64684
1741 50.9519 2.64785
1742 50.9539 2.6502
1743 50.955 2.65269
1744 50.9552 2.65455
1745 50.9553 2.65682
1746 50.9543 2.65892
1747 50.9531 2.66061
1748 50.9513 2.66228
1749 50.9488 2.66373
1750 50.9459 2.66471
1751 50.9429 2.66529
1752 50.9397 2.66562
1753 50.907 2.67059
1754 50.8418 2.671
1755 50.772 2.67137
1756 50.7029 2.67319
1757 50.6341 2.67717
1758 50.5653 2.68348
1759 50.5321 2.68487
1760 50.5265 2.68538
1761 50.5262 2.68537
1762 50.527 2.68524
1763 50.5274 2.68517
1764 50.5274 2.68518
1765 50.5275 2.68517
1766 50.5272 2.68529
1767 50.5275 2.68523
1768 50.5283 2.68516
1769 50.5295 2.68521
1770 50.531 2.6855
1771 50.5328 2.68617
1772 50.532 2.68621
1773 50.5299 2.6845
1774 50.5279 2.68184
1775 50.5265 2.67871
1776 50.5257 2.6754
1777 50.5254 2.67203
1778 50.5254 2.66857
1779 50.5215 2.62876
1780 50.5305 2.5628
1781 50.5406 2.4942
1782 50.5488 2.42533
1783 50.5548 2.35609
1784 50.5581 2.28688
1785 50.5637 2.25863
1786 50.5644 2.25528
1787 50.5643 2.2555
1788 50.5643 2.25589
1789 50.5644 2.25648
1790 50.5643 2.25673
1791 50.5643 2.25683
1792 50.5532 2.21365
1793 50.5388 2.14861
1794 50.5244 2.08126
1795 50.5102 2.01382
1796 50.5071 1.99137
1797 50.4949 1.93904
1798 50.4917 1.91806
1799 50.4792 1.86639
1800 50.4759 1.84779
1801 50.4631 1.79797
1802 50.459 1.77907
1803 50.4461 1.72994
1804 50.4423 1.71384
1805 50.4307 1.67048
1806 50.4273 1.65655
1807 50.4263 1.65265
1808 50.4258 1.6505
1809 50.425 1.6458
1810 50.4248 1.64205
1811 50.4246 1.63762
1812 50.4249 1.63724
1813 50.4247 1.63694
1814 50.4247 1.63644
1815 50.4246 1.63694
1816 50.4252 1.63242
1817 50.4263 1.63129
1818 50.4283 1.62664
1819 50.4317 1.62413
1820 50.4332 1.6236
1821 50.433 1.62381
1822 50.435 1.62262
1823 50.4361 1.62354
1824 50.4391 1.62311
1825 50.4412 1.62477
1826 50.4775 1.62862
1827 50.5018 1.64817
1828 50.5073 1.65151
1829 50.5093 1.65262
1830 50.5101 1.65288
1831 50.5106 1.6529
1832 50.511 1.65292
1833 50.5112 1.6529
1834 50.5113 1.65286
1835 50.5113 1.65283
1836 50.5113 1.65281
1837 50.5115 1.65275
1838 50.5124 1.65257
1839 50.5137 1.65224
1840 50.5156 1.65154
1841 50.5179 1.65028
1842 50.5205 1.64816
1843 50.5228 1.64533
1844 50.5246 1.6416
1845 50.5254 1.63722
1846 50.5247 1.63379
1847 50.5236 1.63182
1848 50.5224 1.62999
1849 50.5202 1.62796
1850 50.5172 1.62621
1851 50.5136 1.62483
1852 50.5099 1.62407
1853 50.4763 1.61252
1854 50.4105 1.60657
1855 50.3408 1.60154
1856 50.2714 1.59543
1857 50.2362 1.59709
1858 50.2278 1.59643
1859 50.224 1.59602
1860 50.2233 1.59603
1861 50.2238 1.59612
1862 50.2245 1.59629
1863 50.2245 1.59619
1864 50.2244 1.59616
1865 50.2245 1.59617
1866 50.2249 1.59635
1867 50.2257 1.59676
1868 50.2247 1.59597
1869 50.2227 1.59377
1870 50.2215 1.59125
1871 50.2208 1.58852
1872 50.2209 1.58559
1873 50.2217 1.58334
1874 50.2225 1.58171
1875 50.2233 1.58053
1876 50.2407 1.54599
1877 50.2845 1.49726
1878 50.3318 1.44642
1879 50.3773 1.39422
1880 50.4205 1.3405
1881 50.4613 1.28504
1882 50.4995 1.22777
1883 50.5353 1.16892
1884 50.5518 1.14824
1885 50.5535 1.14587
1886 50.5537 1.1452
1887 50.5538 1.14475
1888 50.5539 1.14423
1889 50.5541 1.1437
1890 50.5541 1.14364
1891 50.554 1.14382
1892 50.5542 1.14266
1893 50.5545 1.13973
1894 50.5545 1.13623
1895 50.5542 1.13246
1896 50.5537 1.12899
1897 50.5467 1.08081
1898 50.5291 1.01592
1899 50.5102 0.949585
1900 50.4999 0.929902
1901 50.4887 0.876161
1902 50.4691 0.810535
1903 50.4592 0.791676
1904 50.4461 0.738241
1905 50.4247 0.673074
1906 50.4021 0.607592
1907 50.3789 0.542631
1908 50.3685 0.524737
1909 50.352 0.472083
1910 50.342 0.456223
1911 50.3244 0.404911
1912 50.3144 0.38985
1913 50.2953 0.338815
1914 50.2846 0.32315
1915 50.2644 0.272897
1916 50.2521 0.254139
1917 50.2303 0.203961
1918 50.2195 0.18888
1919 50.1999 0.14493
1920 50.1908 0.132804
1921 50.1902 0.132046
1922 50.1909 0.133294
1923 50.1905 0.131888
1924 50.1906 0.132225
1925 50.1908 0.132374
1926 50.1906 0.132007
1927 50.1908 0.132369
1928 50.1909 0.132233
1929 50.1907 0.131942
1930 50.1912 0.132767
1931 50.1913 0.132955
1932 50.1913 0.132771
1933 50.1914 0.13303
1934 50.1915 0.133099
1935 50.1915 0.133099
1936 50.1915 0.133099
1937 50.1915 0.133088
1938 50.1915 0.133086
1939 50.1915 0.133082
1940 50.1916 0.133071
1941 50.1916 0.13306
1942 50.1916 0.133058
1943 50.1916 0.133059
1944 50.1916 0.133057
1945 50.1916 0.133047
1946 50.1916 0.133045
1947 50.1916 0.133049
1948 50.1916 0.133047
1949 50.1916 0.133038
1950 50.1916 0.133036
1951 50.1916 0.133037
1952 50.1916 0.133037
1953 50.1916 0.133026
1954 50.1916 0.133025
1955 50.1916 0.13303
1956 50.1916 0.133028
1957 50.1916 0.133019
1958 50.1916 0.133017
1959 50.1916 0.133019
1960 50.1916 0.133019
1961 50.1916 0.133009
1962 50.1916 0.133008
1963 50.1916 0.133012
1964 50.1916 0.133011
1965 50.1916 0.133002
1966 50.1916 0.133
1967 50.1916 0.133002
1968 50.1916 0.133002
1969 50.1916 0.132992
1970 50.1916 0.132991
1971 50.1916 0.132996
1972 50.1916 0.132994
1973 50.1916 0.132986
1974 50.1916 0.132984
1975 50.1916 0.132986
1976 50.1916 0.132986
1977 50.1916 0.132976
1978 50.1916 0.132975
1979 50.1916 0.13298
1980 50.1916 0.132979
1981 50.1916 0.13297
1982 50.1916 0.132969
1983 50.1916 0.132971
1984 50.1916 0.13297
1985 50.1916 0.132961
1986 50.1916 0.13296
1987 50.1916 0.132965
1988 50.1916 0.132963
1989 50.1916 0.132955
1990 50.1916 0.132953
1991 50.1916 0.132955
1992 50.1916 0.132955
1993 50.1916 0.132945
1994 50.1916 0.132944
1995 50.1916 0.132949
1996 50.1916 0.132948
1997 50.1916 0.132939
1998 50.1916 0.132938
1999 50.1916 0.13294
2000 50.1916 0.13294
2001 50.1916 0.13293
2002 50.1916 0.132929
2003 50.1916 0.132934
2004 50.1916 0.132933
2005 50.1916 0.132924
2006 50.1916 0.132923
2007 50.1916 0.132925
2008 50.1916 0.132925
2009 50.1915 0.132915
2010 50.1915 0.132914
2011 50.1916 0.132919
2012 50.1915 0.132917
2013 50.1915 0.132909
2014 50.1915 0.132908
2015 50.1915 0.13291
2016 50.1915 0.132909
2017 50.1915 0.1329
2018 50.1915 0.132899
2019 50.1915 0.132904
2020 50.1915 0.132902
2021 50.1915 0.132894
2022 50.1915 0.132892
2023 50.1915 0.132895
2024 50.1915 0.132894
2025 50.1915 0.132884
2026 50.1915 0.132884
2027 50.1915 0.132889
2028 50.1915 0.132887
2029 50.1915 0.132879
2030 50.1915 0.132877
2031 50.1915 0.132879
2032 50.1915 0.132879
2033 50.1915 0.132869
2034 50.1915 0.132868
2035 50.1915 0.132874
2036 50.1915 0.132872
2037 50.1915 0.132863
2038 50.1915 0.132862
2039 50.1915 0.132864
2040 50.1915 0.132864
2041 50.1915 0.132854
2042 50.1915 0.132853
2043 50.1915 0.132859
2044 50.1915 0.132857
2045 50.1915 0.132848
2046 50.1915 0.132847
2047 50.1915 0.132849
2048 50.1915 0.132849
2049 50.1915 0.132839
2050 50.1915 0.132838
2051 50.1915 0.132843
2052 50.1915 0.132842
2053 50.1915 0.132833
2054 50.1915 0.132832
2055 50.1915 0.132834
2056 50.1915 0.132834
2057 50.1915 0.132824
2058 50.1915 0.132823
2059 50.1915 0.132828
2060 50.1915 0.132827
2061 50.1915 0.132818
2062 50.1915 0.132817
2063 50.1915 0.132819
2064 50.1915 0.132819
2065 50.1915 0.132809
2066 50.1915 0.132808
2067 50.1915 0.132813
2068 50.1915 0.132812
2069 50.1915 0.132803
2070 50.1915 0.132802
2071 50.1915 0.132804
2072 50.1915 0.132804
2073 50.1915 0.132794
2074 50.1915 0.132793
2075 50.1915 0.132798
2076 50.1915 0.132796
2077 50.1915 0.132788
2078 50.1915 0.132787
2079 50.1915 0.132789
2080 50.1915 0.132788
2081 50.1915 0.132779
2082 50.1915 0.132778
2083 50.1915 0.132783
2084 50.1915 0.132781
2085 50.1915 0.132773
2086 50.1915 0.132771
2087 50.1915 0.132774
2088 50.1915 0.132773
2089 50.1915 0.132764
2090 50.1915 0.132763
2091 50.1915 0.132768
2092 50.1915 0.132766
2093 50.1915 0.132758
2094 50.1915 0.132756
2095 50.1915 0.132758
2096 50.1915 0.132758
2097 50.1915 0.132748
2098 50.1915 0.132748
2099 50.1915 0.132753
2100 50.1915 0.132751
2101 50.1915 0.132742
2102 50.1915 0.132741
2103 50.1915 0.132743
2104 50.1915 0.132743
2105 50.1915 0.132733
2106 50.1915 0.132732
2107 50.1915 0.132738
2108 50.1915 0.132736
2109 50.1915 0.132727
2110 50.1915 0.132726
2111 50.1915 0.132728
2112 50.1915 0.132728
2113 50.1914 0.132718
2114 50.1914 0.132717
2115 50.1914 0.132722
2116 50.1914 0.132721
2117 50.1914 0.132712
2118 50.1914 0.132711
2119 50.1914 0.132713
2120 50.1914 0.132713
2121 50.1914 0.132703
2122 50.1914 0.132702
2123 50.1914 0.132707
2124 50.1914 0.132706
2125 50.1914 0.132697
2126 50.1914 0.132696
2127 50.1914 0.132698
2128 50.1914 0.132698
2129 50.1914 0.132697
2130 50.1914 0.132697
2131 50.1914 0.132696
2132 50.1914 0.132703
2133 50.1914 0.132697
2134 50.1914 0.132687
2135 50.1914 0.132678
2136 50.1914 0.132678
2137 50.1914 0.132679
2138 50.1914 0.132681
2139 50.1914 0.132686
2140 50.1914 0.132687
2141 50.1914 0.13269
2142 50.1914 0.132683
2143 50.1914 0.132683
2144 50.1914 0.132667
2145 50.1914 0.132668
2146 50.1914 0.132655
2147 50.1914 0.132644
2148 50.1914 0.13264
2149 50.1914 0.132637
2150 50.1914 0.132633
2151 50.1914 0.132637
2152 50.1914 0.132637
2153 50.1914 0.132633
2154 50.1914 0.132625
2155 50.1914 0.132608
2156 50.1914 0.132606
2157 50.1914 0.132604
2158 50.1914 0.132603
2159 50.1914 0.132598
2160 50.1914 0.132593
2161 50.1914 0.132578
2162 50.1914 0.132567
2163 50.1914 0.132558
2164 50.1914 0.132556
2165 50.1914 0.132541
2166 50.1913 0.132526
2167 50.1914 0.132527
2168 50.1914 0.13253
2169 50.1914 0.132532
2170 50.1914 0.132534
2171 50.1914 0.132538
2172 50.1914 0.132544
2173 50.1914 0.132546
2174 50.1914 0.132549
2175 50.1914 0.132553
2176 50.1914 0.13255
2177 50.1914 0.132545
2178 50.1914 0.13254
2179 50.1913 0.132524
2180 50.1913 0.132514
2181 50.1913 0.132504
2182 50.1913 0.132502
2183 50.1913 0.132487
2184 50.1913 0.132468
2185 50.1913 0.132471
2186 50.1913 0.132473
2187 50.1913 0.132476
2188 50.1913 0.132481
2189 50.1913 0.132486
2190 50.1913 0.132492
2191 50.1913 0.132497
2192 50.1913 0.132499
2193 50.1913 0.132504
2194 50.1913 0.132502
2195 50.1913 0.132496
2196 50.1913 0.132499
2197 50.1913 0.132498
2198 50.1913 0.13249
2199 50.1913 0.132485
2200 50.1913 0.132477
2201 50.1913 0.13246
2202 50.1913 0.132456
2203 50.1913 0.132448
2204 50.1913 0.132448
2205 50.1913 0.132444
2206 50.1913 0.132445
2207 50.1913 0.13245
2208 50.1913 0.132447
2209 50.1913 0.132442
2210 50.1913 0.132443
2211 50.1913 0.132438
2212 50.1913 0.132438
2213 50.1913 0.132434
2214 50.1913 0.132419
2215 50.1913 0.13242
2216 50.1913 0.132413
2217 50.1913 0.132403
2218 50.1913 0.1324
2219 50.1913 0.132384
2220 50.1913 0.132377
2221 50.1913 0.132378
2222 50.1913 0.13238
2223 50.1913 0.132379
2224 50.1913 0.132373
2225 50.1913 0.132376
2226 50.1913 0.132379
2227 50.1913 0.132373
2228 50.1913 0.132374
2229 50.1913 0.132374
2230 50.1913 0.132363
2231 50.1913 0.132357
2232 50.1913 0.132357
2233 50.1913 0.132356
2234 50.1913 0.132348
2235 50.1913 0.132346
2236 50.1913 0.132344
2237 50.1912 0.132329
2238 50.1912 0.132311
2239 50.1912 0.132296
2240 50.1912 0.132294
2241 50.1912 0.132295
2242 50.1912 0.132296
2243 50.1912 0.1323
2244 50.1912 0.132305
2245 50.1912 0.132311
2246 50.1912 0.132312
2247 50.1912 0.132314
2248 50.1912 0.132316
2249 50.1912 0.132311
2250 50.1912 0.132313
2251 50.1912 0.132317
2252 50.1912 0.13231
2253 50.1912 0.132306
2254 50.1912 0.132305
2255 50.1912 0.13229
2256 50.1912 0.132273
2257 50.1912 0.132254
2258 50.1912 0.132253
2259 50.1912 0.132253
2260 50.1912 0.132252
2261 50.1912 0.132258
2262 50.1912 0.132263
2263 50.1912 0.132269
2264 50.1912 0.132275
2265 50.1912 0.132277
2266 50.1912 0.132282
2267 50.1912 0.132286
2268 50.1912 0.132288
2269 50.1912 0.132292
2270 50.1912 0.13229
2271 50.1912 0.132288
2272 50.1912 0.132284
2273 50.1912 0.132276
2274 50.1912 0.132259
2275 50.1912 0.132255
2276 50.1912 0.132246
2277 50.1912 0.132244
2278 50.1912 0.132237
2279 50.1912 0.132231
2280 50.1912 0.132233
2281 50.1912 0.13223
2282 50.1912 0.132229
2283 50.1912 0.13223
2284 50.1912 0.132232
2285 50.1912 0.132232
2286 50.1912 0.132227
2287 50.1912 0.132214
2288 50.1912 0.132213
2289 50.1912 0.132212
2290 50.1912 0.132197
2291 50.1912 0.132198
2292 50.1912 0.132198
2293 50.1912 0.1322
2294 50.1912 0.132192
2295 50.1912 0.132194
2296 50.1912 0.132193
2297 50.1912 0.132187
2298 50.1912 0.132192
2299 50.1912 0.132199
2300 50.1912 0.132204
2301 50.1912 0.132201
2302 50.1912 0.1322
2303 50.1912 0.132198
2304 50.1912 0.1322
2305 50.1912 0.132192
2306 50.1912 0.132189
2307 50.1912 0.132187
2308 50.1912 0.13219
2309 50.1912 0.132182
2310 50.1912 0.132184
2311 50.1912 0.132187
2312 50.1912 0.132183
2313 50.1912 0.132187
2314 50.1912 0.132173
2315 50.1912 0.132165
2316 50.1912 0.132157
2317 50.1912 0.132156
2318 50.1912 0.132161
2319 50.1912 0.132144
2320 50.1912 0.132137
2321 50.1911 0.13212
2322 50.1911 0.13212
2323 50.1911 0.132122
2324 50.1911 0.132121
2325 50.1911 0.132123
2326 50.1911 0.132123
2327 50.1911 0.132115
2328 50.1911 0.132106
2329 50.1911 0.132105
2330 50.1911 0.132102
2331 50.1911 0.132102
2332 50.1911 0.132093
2333 50.1911 0.13209
2334 50.1911 0.132092
2335 50.1911 0.132072
2336 50.1911 0.13207
2337 50.1911 0.132067
2338 50.1911 0.132071
2339 50.1911 0.132067
2340 50.1911 0.132056
2341 50.1911 0.132053
2342 50.1911 0.132058
2343 50.1911 0.132062
2344 50.1911 0.132069
2345 50.1911 0.132074
2346 50.1911 0.132078
2347 50.1911 0.132091
2348 50.1911 0.132087
2349 50.1911 0.132083
2350 50.1911 0.132077
2351 50.1911 0.132077
2352 50.1911 0.132082
2353 50.1911 0.132084
2354 50.1911 0.132081
2355 50.1911 0.132085
2356 50.1911 0.132078
2357 50.1911 0.132081
2358 50.1911 0.132065
2359 50.1911 0.132054
2360 50.1911 0.132057
2361 50.1911 0.132061
2362 50.1911 0.132061
2363 50.1911 0.132061
2364 50.1911 0.132063
2365 50.1911 0.132067
2366 50.1911 0.132066
2367 50.1911 0.132067
2368 50.1911 0.132068
2369 50.1911 0.132067
2370 50.1911 0.132064
2371 50.1911 0.132058
2372 50.1911 0.132037
2373 50.1911 0.132016
2374 50.1911 0.131999
2375 50.1911 0.132007
2376 50.1911 0.132014
2377 50.1911 0.132014
2378 50.1911 0.132016
2379 50.1911 0.132008
2380 50.1911 0.13201
2381 50.1911 0.132009
2382 50.1911 0.132013
2383 50.1911 0.132019
2384 50.1911 0.132017
2385 50.1911 0.132012
2386 50.1911 0.132006
2387 50.1911 0.132007
2388 50.1911 0.132001
2389 50.1911 0.132005
2390 50.1911 0.132009
2391 50.1911 0.132013
2392 50.1911 0.132017
2393 50.1911 0.132015
2394 50.1911 0.132009
2395 50.1911 0.132012
2396 50.1911 0.132014
2397 50.1911 0.132019
2398 50.1911 0.132019
2399 50.1911 0.132015
2400 50.1911 0.132014
2401 50.1911 0.132007
2402 50.1911 0.131997
2403 50.1911 0.131995
2404 50.1911 0.131993
2405 50.1911 0.131997
2406 50.1911 0.132001
2407 50.1911 0.132001
2408 50.1911 0.132
2409 50.1911 0.131991
2410 50.1911 0.131992
2411 50.1911 0.131995
2412 50.1911 0.132
2413 50.1911 0.132
2414 50.1911 0.131997
2415 50.1911 0.131992
2416 50.1911 0.131983
2417 50.1911 0.13197
2418 50.1911 0.131968
2419 50.1911 0.131963
2420 50.1911 0.131942
2421 50.191 0.131926
2422 50.191 0.131926
2423 50.191 0.131926
2424 50.191 0.131927
2425 50.191 0.131932
2426 50.1911 0.131937
2427 50.1911 0.131943
2428 50.1911 0.131949
2429 50.1911 0.131945
2430 50.191 0.131931
2431 50.191 0.131929
2432 50.191 0.131927
2433 50.191 0.131926
2434 50.191 0.131924
2435 50.191 0.131925
2436 50.191 0.131931
2437 50.1911 0.131939
2438 50.1911 0.131937
2439 50.1911 0.131941
2440 50.191 0.131927
2441 50.191 0.131926
2442 50.191 0.13193
2443 50.191 0.131927
2444 50.191 0.131919
2445 50.191 0.131897
2446 50.191 0.131891
2447 50.191 0.131888
2448 50.191 0.13187
2449 50.191 0.131864
2450 50.191 0.131865
2451 50.191 0.131865
2452 50.191 0.13186
2453 50.191 0.131845
2454 50.191 0.131846
2455 50.191 0.13185
2456 50.191 0.131843
2457 50.191 0.131835
2458 50.191 0.131826
2459 50.191 0.131826
2460 50.191 0.13182
2461 50.191 0.131813
2462 50.191 0.131816
2463 50.191 0.131809
2464 50.191 0.131791
2465 50.191 0.131781
2466 50.191 0.131763
2467 50.191 0.131761
2468 50.191 0.13176
2469 50.191 0.131755
2470 50.191 0.131758
2471 50.191 0.131757
2472 50.191 0.131755
2473 50.191 0.131749
2474 50.191 0.131752
2475 50.191 0.131751
2476 50.191 0.131751
2477 50.191 0.131749
2478 50.191 0.131755
2479 50.191 0.13176
2480 50.191 0.131766
2481 50.191 0.131768
2482 50.191 0.131754
2483 50.191 0.131747
2484 50.191 0.131748
2485 50.191 0.131747
2486 50.191 0.131742
2487 50.1909 0.131722
2488 50.1909 0.131716
2489 50.1909 0.131706
2490 50.1909 0.131709
2491 50.1909 0.131706
2492 50.1909 0.13171
2493 50.1909 0.131712
2494 50.1909 0.131716
2495 50.1909 0.131721
2496 50.1909 0.131719
2497 50.1909 0.131719
2498 50.1909 0.131717
2499 50.1909 0.131722
2500 50.1909 0.131721
2501 50.1909 0.131703
2502 50.1909 0.131705
2503 50.1909 0.131704
2504 50.1909 0.131699
2505 50.1909 0.13169
2506 50.1909 0.131692
2507 50.1909 0.131697
2508 50.1909 0.131696
2509 50.1909 0.131697
2510 50.1909 0.1317
2511 50.1909 0.131682
2512 50.1909 0.13168
2513 50.1909 0.131679
2514 50.1909 0.131673
2515 50.1909 0.131674
2516 50.1909 0.131679
2517 50.1909 0.131684
2518 50.1909 0.131685
2519 50.1909 0.131683
2520 50.1909 0.131683
2521 50.1909 0.131668
2522 50.1909 0.131649
2523 50.1909 0.131639
2524 50.1909 0.131642
2525 50.1909 0.131628
2526 50.1909 0.131631
2527 50.1909 0.131625
2528 50.1909 0.131635
2529 50.1909 0.131641
2530 50.1909 0.131642
2531 50.1909 0.13164
2532 50.1909 0.131637
2533 50.1909 0.131635
2534 50.1909 0.13162
2535 50.1909 0.131601
2536 50.1909 0.131603
2537 50.1909 0.131589
2538 50.1909 0.131573
2539 50.1909 0.131574
2540 50.1909 0.13156
2541 50.1909 0.13156
2542 50.1909 0.131558
2543 50.1909 0.131543
2544 50.1909 0.131534
2545 50.1908 0.131515
2546 50.1908 0.131508
2547 50.1908 0.131512
2548 50.1908 0.131509
2549 50.1908 0.131507
2550 50.1908 0.131509
2551 50.1908 0.131513
2552 50.1908 0.131496
2553 50.1908 0.131487
2554 50.1908 0.131485
2555 50.1908 0.13149
2556 50.1908 0.131493
2557 50.1908 0.131494
2558 50.1908 0.131492
2559 50.1908 0.13149
2560 50.1908 0.131482
2561 50.1908 0.131474
2562 50.1908 0.13147
2563 50.1908 0.131465
2564 50.1908 0.131459
2565 50.1908 0.131443
2566 50.1908 0.131434
2567 50.1908 0.131437
2568 50.1908 0.131433
2569 50.1908 0.131417
2570 50.1908 0.13142
2571 50.1908 0.131422
2572 50.1908 0.131425
2573 50.1908 0.13143
2574 50.1908 0.131431
2575 50.1908 0.131429
2576 50.1908 0.131427
2577 50.1908 0.131424
2578 50.1908 0.131423
2579 50.1908 0.131424
2580 50.1908 0.13143
2581 50.1908 0.131432
2582 50.1908 0.131434
2583 50.1908 0.131434
2584 50.1908 0.131417
2585 50.1908 0.131401
2586 50.1908 0.13139
2587 50.1908 0.131393
2588 50.1908 0.131397
2589 50.1908 0.131401
2590 50.1908 0.131406
2591 50.1908 0.131414
2592 50.1908 0.131413
2593 50.1908 0.1314
2594 50.1908 0.131402
2595 50.1908 0.131393
2596 50.1908 0.13139
2597 50.1908 0.131391
2598 50.1908 0.131387
2599 50.1908 0.131386
2600 50.1908 0.131383
2601 50.1908 0.131381
2602 50.1908 0.131382
2603 50.1908 0.131387
2604 50.1908 0.131389
2605 50.1908 0.131386
2606 50.1908 0.131384
2607 50.1908 0.131381
2608 50.1908 0.131385
2609 50.1908 0.131389
2610 50.1908 0.131375
2611 50.1908 0.131375
2612 50.1908 0.131373
2613 50.1908 0.13137
2614 50.1908 0.131374
2615 50.1908 0.131378
2616 50.1908 0.131383
2617 50.1908 0.131389
2618 50.1908 0.131392
2619 50.1908 0.131391
2620 50.1908 0.131392
2621 50.1908 0.131396
2622 50.1908 0.131402
2623 50.1908 0.131402
2624 50.1908 0.131397
2625 50.1908 0.131391
2626 50.1908 0.131394
2627 50.1908 0.131392
2628 50.1908 0.131396
2629 50.1908 0.131403
2630 50.1908 0.131408
2631 50.1908 0.131414
2632 50.1908 0.131419
2633 50.1908 0.131419
2634 50.1908 0.13142
2635 50.1908 0.13142
2636 50.1908 0.131413
2637 50.1908 0.131407
2638 50.1908 0.131398
2639 50.1908 0.131398
2640 50.1908 0.131403
2641 50.1908 0.131402
2642 50.1908 0.131397
2643 50.1908 0.131399
2644 50.1908 0.131399
2645 50.1908 0.131398
2646 50.1908 0.131396
2647 50.1908 0.131391
2648 50.1908 0.131375
2649 50.1908 0.131376
2650 50.1908 0.131374
2651 50.1908 0.131371
2652 50.1908 0.131366
2653 50.1908 0.13136
2654 50.1908 0.131352
2655 50.1908 0.131344
2656 50.1908 0.131342
2657 50.1907 0.131329
2658 50.1908 0.131331
2659 50.1908 0.131335
2660 50.1907 0.131328
2661 50.1907 0.131323
2662 50.1907 0.131318
2663 50.1907 0.131302
2664 50.1907 0.131284
2665 50.1907 0.131274
2666 50.1907 0.131265
2667 50.1907 0.131268
2668 50.1907 0.131254
2669 50.1907 0.131247
2670 50.1907 0.131245
2671 50.1907 0.131236
2672 50.1907 0.131226
2673 50.1907 0.13121
2674 50.1907 0.131191
2675 50.1907 0.131183
2676 50.1907 0.131184
2677 50.1907 0.131184
2678 50.1907 0.13118
2679 50.1907 0.131173
2680 50.1907 0.13117
2681 50.1907 0.131171
2682 50.1907 0.131168
2683 50.1907 0.131165
2684 50.1907 0.131172
2685 50.1907 0.131179
2686 50.1907 0.131182
2687 50.1907 0.131184
2688 50.1907 0.131182
2689 50.1907 0.131185
2690 50.1907 0.131188
2691 50.1907 0.131193
2692 50.1907 0.131196
2693 50.1907 0.131202
2694 50.1907 0.131205
2695 50.1907 0.131204
2696 50.1907 0.131203
2697 50.1907 0.1312
2698 50.1907 0.131197
2699 50.1907 0.131189
2700 50.1907 0.131179
2701 50.1907 0.131168
2702 50.1907 0.131171
2703 50.1907 0.131163
2704 50.1907 0.131155
2705 50.1907 0.13116
2706 50.1907 0.131167
2707 50.1907 0.13117
2708 50.1907 0.131172
2709 50.1907 0.13117
2710 50.1907 0.131152
2711 50.1907 0.131153
2712 50.1907 0.131159
2713 50.1907 0.131155
2714 50.1907 0.131156
2715 50.1907 0.131157
2716 50.1907 0.131155
2717 50.1907 0.131159
2718 50.1907 0.131162
2719 50.1907 0.131159
2720 50.1907 0.131159
2721 50.1907 0.131144
2722 50.1906 0.131125
2723 50.1906 0.131114
2724 50.1906 0.131114
2725 50.1906 0.131097
2726 50.1906 0.131085
2727 50.1906 0.131084
2728 50.1906 0.131082
2729 50.1906 0.131086
2730 50.1906 0.131088
2731 50.1906 0.131085
2732 50.1906 0.131084
2733 50.1906 0.131088
2734 50.1906 0.131094
2735 50.1906 0.131084
2736 50.1906 0.131076
2737 50.1906 0.13107
2738 50.1906 0.131055
2739 50.1906 0.131056
2740 50.1906 0.131054
2741 50.1906 0.131046
2742 50.1906 0.131037
2743 50.1906 0.131034
2744 50.1906 0.131038
2745 50.1906 0.131023
2746 50.1906 0.131019
2747 50.1906 0.131002
2748 50.1906 0.131001
2749 50.1906 0.131005
2750 50.1906 0.131007
2751 50.1906 0.131009
2752 50.1906 0.131002
2753 50.1906 0.131004
2754 50.1906 0.131011
2755 50.1906 0.131016
2756 50.1906 0.131018
2757 50.1906 0.131001
2758 50.1906 0.131
2759 50.1906 0.130998
2760 50.1906 0.131002
2761 50.1906 0.130998
2762 50.1906 0.130992
2763 50.1906 0.130984
2764 50.1906 0.130976
2765 50.1906 0.130979
2766 50.1906 0.130972
2767 50.1906 0.130969
2768 50.1906 0.130967
2769 50.1906 0.130952
2770 50.1906 0.130936
2771 50.1906 0.130938
2772 50.1906 0.130939
2773 50.1906 0.130939
2774 50.1906 0.13095
2775 50.1906 0.130956
2776 50.1906 0.130959
2777 50.1906 0.13095
2778 50.1906 0.130949
2779 50.1906 0.13094
2780 50.1906 0.130924
2781 50.1905 0.130921
2782 50.1905 0.130915
2783 50.1905 0.130902
2784 50.1905 0.130892
2785 50.1905 0.130873
2786 50.1905 0.130871
2787 50.1905 0.13087
2788 50.1905 0.130861
2789 50.1905 0.130866
2790 50.1905 0.130873
2791 50.1905 0.130868
2792 50.1905 0.130877
2793 50.1905 0.130884
2794 50.1905 0.130881
2795 50.1905 0.130881
2796 50.1905 0.130879
2797 50.1905 0.130864
2798 50.1905 0.130854
2799 50.1905 0.130835
2800 50.1905 0.130832
2801 50.1905 0.130831
2802 50.1905 0.130823
2803 50.1905 0.130828
2804 50.1905 0.130835
2805 50.1905 0.130829
2806 50.1905 0.130839
2807 50.1905 0.130845
2808 50.1905 0.130843
2809 50.1905 0.130843
2810 50.1905 0.130841
2811 50.1905 0.130826
2812 50.1905 0.130816
2813 50.1905 0.130797
2814 50.1905 0.130794
2815 50.1905 0.130793
2816 50.1905 0.130785
2817 50.1905 0.130789
2818 50.1905 0.130796
2819 50.1905 0.130791
2820 50.1905 0.130801
2821 50.1905 0.130807
2822 50.1905 0.130805
2823 50.1905 0.130804
2824 50.1905 0.130803
2825 50.1905 0.130788
2826 50.1905 0.130778
2827 50.1905 0.130758
2828 50.1905 0.130756
2829 50.1905 0.130755
2830 50.1905 0.130747
2831 50.1905 0.130751
2832 50.1905 0.130758
2833 50.1905 0.130753
2834 50.1905 0.130763
2835 50.1905 0.130769
2836 50.1905 0.130767
2837 50.1905 0.130766
2838 50.1905 0.130765
2839 50.1905 0.130749
2840 50.1905 0.13074
2841 50.1905 0.13072
2842 50.1905 0.130718
2843 50.1904 0.130717
2844 50.1904 0.130709
2845 50.1904 0.130713
2846 50.1905 0.13072
2847 50.1904 0.130715
2848 50.1905 0.130725
2849 50.1905 0.130731
2850 50.1905 0.130729
2851 50.1905 0.130728
2852 50.1905 0.130726
2853 50.1904 0.130711
2854 50.1904 0.130701
2855 50.1904 0.130682
2856 50.1904 0.13068
2857 50.1904 0.130679
2858 50.1904 0.13067
2859 50.1904 0.130675
2860 50.1904 0.130682
2861 50.1904 0.130676
2862 50.1904 0.130686
2863 50.1904 0.130693
2864 50.1904 0.13069
2865 50.1904 0.13069
2866 50.1904 0.130688
2867 50.1904 0.130673
2868 50.1904 0.130663
2869 50.1904 0.130644
2870 50.1904 0.130641
2871 50.1904 0.13064
2872 50.1904 0.130632
2873 50.1904 0.130637
2874 50.1904 0.130644
2875 50.1904 0.130638
2876 50.1904 0.130648
2877 50.1904 0.130654
2878 50.1904 0.130652
2879 50.1904 0.130652
2880 50.1904 0.13065
2881 50.1904 0.130635
2882 50.1904 0.130625
2883 50.1904 0.130605
2884 50.1904 0.130603
2885 50.1904 0.130602
2886 50.1904 0.130594
2887 50.1904 0.130598
2888 50.1904 0.130605
2889 50.1904 0.1306
2890 50.1904 0.13061
2891 50.1904 0.130616
2892 50.1904 0.130614
2893 50.1904 0.130613
2894 50.1904 0.130612
2895 50.1904 0.130597
2896 50.1904 0.130587
2897 50.1904 0.130567
2898 50.1904 0.130565
2899 50.1904 0.130564
2900 50.1904 0.130556
2901 50.1904 0.13056
2902 50.1904 0.130567
2903 50.1904 0.130562
2904 50.1904 0.130572
2905 50.1904 0.130578
2906 50.1904 0.130576
2907 50.1904 0.130575
2908 50.1904 0.130574
2909 50.1904 0.130558
2910 50.1904 0.130549
2911 50.1904 0.130529
2912 50.1904 0.130527
2913 50.1904 0.130526
2914 50.1904 0.130518
2915 50.1904 0.130522
2916 50.1904 0.130529
2917 50.1904 0.130524
2918 50.1904 0.130534
2919 50.1904 0.13054
2920 50.1904 0.130538
2921 50.1904 0.130537
2922 50.1904 0.130535
2923 50.1904 0.13052
2924 50.1903 0.13051
2925 50.1903 0.130491
2926 50.1903 0.130489
2927 50.1903 0.130488
2928 50.1903 0.130479
2929 50.1903 0.130484
2930 50.1903 0.130491
2931 50.1903 0.130485
2932 50.1903 0.130495
2933 50.1903 0.130502
2934 50.1903 0.130499
2935 50.1903 0.130499
2936 50.1903 0.130497
2937 50.1903 0.130482
2938 50.1903 0.130472
2939 50.1903 0.130453
2940 50.1903 0.13045
2941 50.1903 0.130449
2942 50.1903 0.130441
2943 50.1903 0.130445
2944 50.1903 0.130453
2945 50.1903 0.130447
2946 50.1903 0.130457
2947 50.1903 0.130463
2948 50.1903 0.130461
2949 50.1903 0.130461
2950 50.1903 0.130459
2951 50.1903 0.130444
2952 50.1903 0.130434
2953 50.1903 0.130414
2954 50.1903 0.130412
2955 50.1903 0.130411
2956 50.1903 0.130403
2957 50.1903 0.130407
2958 50.1903 0.130414
2959 50.1903 0.130409
2960 50.1903 0.130419
2961 50.1903 0.130425
2962 50.1903 0.130423
2963 50.1903 0.130422
2964 50.1903 0.130421
2965 50.1903 0.130406
2966 50.1903 0.130396
2967 50.1903 0.130376
2968 50.1903 0.130374
2969 50.1903 0.130373
2970 50.1903 0.130365
2971 50.1903 0.130369
2972 50.1903 0.130376
2973 50.1903 0.130371
2974 50.1903 0.130381
2975 50.1903 0.130387
2976 50.1903 0.130385
2977 50.1903 0.130384
2978 50.1903 0.130383
2979 50.1903 0.130367
2980 50.1903 0.130358
2981 50.1903 0.130338
2982 50.1903 0.130336
2983 50.1903 0.130335
2984 50.1903 0.130326
2985 50.1903 0.130331
2986 50.1903 0.130338
2987 50.1903 0.130333
2988 50.1903 0.130342
2989 50.1903 0.130349
2990 50.1903 0.130346
2991 50.1903 0.130346
2992 50.1903 0.130344
2993 50.1903 0.130329
2994 50.1903 0.130319
2995 50.1902 0.1303
2996 50.1902 0.130297
2997 50.1902 0.130296
2998 50.1902 0.130288
2999 50.1902 0.130293
3000 50.1902 0.1303
3001 50.1902 0.130294
3002 50.1902 0.130304
3003 50.1903 0.13031
3004 50.1903 0.130308
3005 50.1903 0.130308
3006 50.1903 0.130306
3007 50.1902 0.130291
3008 50.1902 0.130281
3009 50.1902 0.130261
3010 50.1902 0.130259
3011 50.1902 0.130258
3012 50.1902 0.130263
3013 50.1902 0.130266
3014 50.1902 0.130273
3015 50.1902 0.130267
3016 50.1902 0.130278
3017 50.1902 0.130284
3018 50.1902 0.130281
3019 50.1902 0.130281
3020 50.1902 0.130279
3021 50.1902 0.130264
3022 50.1902 0.130254
3023 50.1902 0.130235
3024 50.1902 0.130232
3025 50.1902 0.130231
3026 50.1902 0.130223
3027 50.1902 0.130228
3028 50.1902 0.130235
3029 50.1902 0.130229
3030 50.1902 0.130239
3031 50.1902 0.130245
3032 50.1902 0.130249
3033 50.1902 0.130249
3034 50.1902 0.130247
3035 50.1902 0.130232
3036 50.1902 0.130222
3037 50.1902 0.130203
3038 50.1902 0.130201
3039 50.1902 0.1302
3040 50.1902 0.130191
3041 50.1902 0.130196
3042 50.1902 0.130203
3043 50.1902 0.130197
3044 50.1902 0.130208
3045 50.1902 0.130214
3046 50.1902 0.130211
3047 50.1902 0.130211
3048 50.1902 0.130209
3049 50.1902 0.130194
3050 50.1902 0.130184
3051 50.1902 0.130165
3052 50.1902 0.130162
3053 50.1902 0.130161
3054 50.1902 0.130153
3055 50.1902 0.130157
3056 50.1902 0.130165
3057 50.1902 0.130159
3058 50.1902 0.130169
3059 50.1902 0.130175
3060 50.1902 0.130173
3061 50.1902 0.130173
3062 50.1902 0.130171
3063 50.1902 0.130156
3064 50.1902 0.130146
3065 50.1902 0.130126
3066 50.1902 0.130124
3067 50.1902 0.130123
3068 50.1902 0.130115
3069 50.1902 0.130119
3070 50.1902 0.130126
3071 50.1902 0.130121
3072 50.1902 0.130131
3073 50.1902 0.130137
3074 50.1902 0.130135
3075 50.1902 0.130134
3076 50.1902 0.130133
3077 50.1902 0.130117
3078 50.1902 0.130108
3079 50.1901 0.130088
3080 50.1901 0.130086
3081 50.1901 0.130085
3082 50.1901 0.130077
3083 50.1901 0.130081
3084 50.1901 0.130088
3085 50.1901 0.130083
3086 50.1901 0.130093
3087 50.1902 0.130099
3088 50.1901 0.130097
3089 50.1901 0.130096
3090 50.1901 0.130095
3091 50.1901 0.130079
3092 50.1901 0.130069
3093 50.1901 0.13005
3094 50.1901 0.130048
3095 50.1901 0.130047
3096 50.1901 0.130038
3097 50.1901 0.130043
3098 50.1901 0.13005
3099 50.1901 0.130044
3100 50.1901 0.130054
3101 50.1901 0.130061
3102 50.1901 0.130058
3103 50.1901 0.130058
3104 50.1901 0.130056
3105 50.1901 0.130041
3106 50.1901 0.130031
3107 50.1901 0.130012
3108 50.1901 0.130009
3109 50.1901 0.130008
3110 50.1901 0.13
3111 50.1901 0.130004
3112 50.1901 0.130012
3113 50.1901 0.130006
3114 50.1901 0.130016
3115 50.1901 0.130022
3116 50.1901 0.13002
3117 50.1901 0.13002
3118 50.1901 0.130018
3119 50.1901 0.130003
3120 50.1901 0.129993
3121 50.1901 0.129973
3122 50.1901 0.129971
3123 50.1901 0.12997
3124 50.1901 0.129962
3125 50.1901 0.129966
3126 50.1901 0.129973
3127 50.1901 0.129968
3128 50.1901 0.129978
3129 50.1901 0.129984
3130 50.1901 0.129982
3131 50.1901 0.129981
3132 50.1901 0.12998
3133 50.1901 0.129965
3134 50.1901 0.129955
3135 50.1901 0.129935
3136 50.1901 0.129933
3137 50.1901 0.129932
3138 50.1901 0.129924
3139 50.1901 0.129928
3140 50.1901 0.129935
3141 50.1901 0.12993
3142 50.1901 0.12994
3143 50.1901 0.129946
3144 50.1901 0.129944
3145 50.1901 0.129943
3146 50.1901 0.129942
3147 50.1901 0.129926
3148 50.1901 0.129916
3149 50.1901 0.129897
3150 50.1901 0.129895
3151 50.1901 0.129894
3152 50.19 0.129885
3153 50.1901 0.12989
3154 50.1901 0.129897
3155 50.1901 0.129891
3156 50.1901 0.129901
3157 50.1901 0.129909
3158 50.1901 0.129907
3159 50.1901 0.129907
3160 50.1901 0.129905
3161 50.1901 0.12989
3162 50.19 0.12988
3163 50.19 0.12986
3164 50.19 0.129858
3165 50.19 0.129857
3166 50.19 0.129849
3167 50.19 0.129853
3168 50.19 0.129861
3169 50.19 0.129855
3170 50.19 0.129839
3171 50.19 0.12983
3172 50.19 0.129831
3173 50.19 0.129836
3174 50.19 0.12983
3175 50.19 0.129825
3176 50.19 0.12983
3177 50.19 0.129832
3178 50.19 0.129831
3179 50.19 0.129832
3180 50.19 0.129825
3181 50.19 0.129808
3182 50.19 0.129797
3183 50.19 0.129787
3184 50.19 0.12978
3185 50.19 0.129781
3186 50.19 0.129773
3187 50.19 0.129761
3188 50.19 0.129762
3189 50.19 0.129764
