12 0.0170671 0.0102804
24 0.55911 -0.105424
46 1.48604 0.109034
61 2.4402 0.296283
75 3.33171 0.441854
89 4.22327 0.585169
102 5.04668 0.717593
114 5.80253 0.837693
125 6.48839 0.94807
135 7.10667 1.04965
143 7.58827 1.12968
151 8.07042 1.20986
158 8.48513 1.2792
164 8.83279 1.33766
169 9.11158 1.38485
174 9.39013 1.43282
177 9.5451 1.45974
180 9.68811 1.4849
183 9.83212 1.51076
186 9.97282 1.53593
188 10.0962 1.55841
191 10.1905 1.57586
193 10.3114 1.59967
196 10.4044 1.61859
198 10.5256 1.64438
200 10.6006 1.66054
202 10.6718 1.6766
204 10.7472 1.6949
211 10.8964 1.73483
216 11.004 1.7517
218 11.1407 1.77091
220 11.2161 1.78186
222 11.2886 1.79361
224 11.3581 1.80669
226 11.428 1.82168
228 11.5015 1.83879
230 11.5766 1.85734
237 11.717 1.8943
239 11.7189 1.89468
242 11.7669 1.90197
244 11.8768 1.91909
246 11.9556 1.93056
248 12.027 1.941
250 12.0962 1.95108
276 13.7415 2.10902
295 14.9844 2.2157
330 16.7961 2.93445
374 19.5521 4.0369
431 23.3144 4.8744
462 25.3523 5.25817
478 26.3734 5.45359
487 26.922 5.55915
492 27.1991 5.61285
495 27.3533 5.6433
497 27.477 5.66855
499 27.5493 5.68359
501 27.6131 5.6974
503 27.6775 5.71259
505 27.7412 5.72918
507 27.8059 5.74767
514 27.9632 5.79699
519 28.0132 5.80607
521 28.1243 5.82679
523 28.2051 5.84098
525 28.2844 5.85487
527 28.3682 5.86956
529 28.4523 5.88417
531 28.5352 5.89852
533 28.6091 5.91127
535 28.6767 5.92269
537 28.7508 5.93498
539 28.8237 5.94659
541 28.9003 5.95832
543 28.9682 5.96844
545 29.0364 5.97836
547 29.1017 5.98775
549 29.1668 5.99691
551 29.236 6.00637
553 29.303 6.01522
555 29.3709 6.02391
557 29.4383 6.03227
559 29.5059 6.04046
561 29.574 6.04855
563 29.6419 6.05641
565 29.7105 6.06404
567 29.7784 6.07125
569 29.8468 6.07829
577 30.0006 6.09291
582 30.1136 6.12241
589 30.2756 6.16805
591 30.2796 6.16805
594 30.337 6.16419
596 30.4528 6.15808
598 30.5285 6.1519
600 30.5998 6.14602
602 30.6639 6.14052
604 30.7379 6.13436
606 30.8053 6.12848
608 30.8744 6.12275
610 30.9356 6.118
612 30.9982 6.1134
614 31.0664 6.10876
616 31.1351 6.10422
618 31.2083 6.09972
620 31.278 6.09568
622 31.3458 6.09191
624 31.4151 6.08828
626 31.4835 6.08489
628 31.5559 6.08156
630 31.6247 6.07859
632 31.6956 6.07581
634 31.7638 6.07335
636 31.8328 6.07102
638 31.8995 6.06888
640 31.9666 6.06683
642 32.0329 6.06496
644 32.0998 6.06323
646 32.1688 6.06166
648 32.2371 6.06035
650 32.3061 6.05921
652 32.3722 6.05815
680 33.2012 6.95487
709 34.5929 7.36194
726 35.6764 7.58738
734 36.1606 7.65357
756 37.6114 7.69077
763 38.0329 7.67302
766 38.1914 7.66628
768 38.3167 7.66232
770 38.3944 7.65922
772 38.469 7.65577
774 38.5424 7.65198
776 38.614 7.64782
778 38.6846 7.64308
780 38.7472 7.63858
782 38.8098 7.634
784 38.8835 7.62871
786 38.9486 7.62403
788 39.015 7.61944
790 39.0785 7.61526
792 39.1436 7.61112
794 39.2128 7.6069
796 39.2802 7.60292
798 39.3475 7.59898
800 39.4164 7.59495
802 39.4836 7.59102
804 39.5512 7.58717
806 39.6186 7.58343
808 39.6874 7.57977
810 39.7558 7.57634
812 39.8243 7.57315
814 39.8939 7.57007
816 39.9642 7.56706
818 40.0355 7.56418
820 40.1066 7.56147
822 40.1765 7.55895
824 40.2456 7.5566
826 40.3156 7.55438
828 40.3875 7.55225
830 40.4571 7.5503
832 40.5278 7.54846
834 40.5952 7.54684
836 40.6621 7.54526
838 40.7284 7.54367
840 40.7962 7.5422
842 40.8627 7.54092
844 40.9293 7.53964
846 40.997 7.5383
848 41.0648 7.53686
850 41.1338 7.53533
852 41.2022 7.5337
854 41.2713 7.53202
856 41.3405 7.53043
858 41.4114 7.52895
860 41.4824 7.52749
862 41.5523 7.52599
864 41.6223 7.52449
866 41.6931 7.52308
868 41.7631 7.52177
870 41.8329 7.52058
872 41.9028 7.51958
874 41.9725 7.51875
876 42.0415 7.51801
878 42.1102 7.51731
880 42.1795 7.51666
882 42.2493 7.51609
884 42.3193 7.51551
886 42.3879 7.51493
888 42.456 7.51437
890 42.5245 7.51388
892 42.591 7.51342
894 42.6606 7.51293
896 42.7274 7.5125
898 42.798 7.51213
900 42.8652 7.51183
902 42.9327 7.51157
904 43.0006 7.51138
906 43.0675 7.51124
908 43.1348 7.51102
910 43.2011 7.51069
912 43.2696 7.51033
914 43.3384 7.50999
916 43.4085 7.50968
918 43.4782 7.50945
920 43.5472 7.50934
922 43.6159 7.50933
924 43.6818 7.50933
926 43.7471 7.50922
928 43.8157 7.50897
930 43.8841 7.50864
932 43.9534 7.50831
934 44.0239 7.50809
936 44.0934 7.50796
938 44.1649 7.50784
940 44.2362 7.50764
942 44.3064 7.50737
944 44.3777 7.50706
946 44.4484 7.50675
948 44.5185 7.50648
950 44.5871 7.50631
952 44.6557 7.50624
954 44.7241 7.5062
956 44.7917 7.50603
958 44.8621 7.50571
960 44.932 7.50522
962 45.0017 7.50461
964 45.071 7.50391
966 45.1399 7.50322
968 45.2096 7.50257
970 45.2798 7.5019
972 45.3486 7.50117
974 45.4168 7.50043
976 45.4879 7.49971
978 45.5559 7.4991
980 45.624 7.49854
982 45.6922 7.49811
984 45.7595 7.49776
986 45.8259 7.49738
988 45.8928 7.49693
990 45.9597 7.4965
992 46.0268 7.49614
994 46.095 7.49584
996 46.1631 7.49558
998 46.2317 7.49541
1000 46.3007 7.49539
1002 46.3692 7.49542
1004 46.4366 7.49543
1006 46.5053 7.49545
1036 46.1719 7.5658
1063 46.7407 7.57354
1087 48.1356 7.32766
1108 49.2533 7.37622
1111 49.4134 7.39008
1119 49.8912 7.41955
1131 50.1203 7.41078
1155 49.8051 7.25292
1160 49.7339 7.16847
1162 49.642 7.06521
1164 49.5925 7.01015
1166 49.5393 6.95068
1175 49.4242 6.82475
1190 49.4369 6.81669
1221 49.0622 6.63307
1241 49.1084 6.06388
1246 49.1022 5.94918
1248 49.0962 5.81135
1250 49.0923 5.73314
1252 49.0879 5.65818
1254 49.0831 5.5856
1256 49.0786 5.52191
1258 49.0735 5.45799
1283 49.3547 5.49814
1294 49.5395 5.45598
1297 49.5428 5.45582
1299 49.6478 5.45946
1301 49.7337 5.46461
1332 49.5514 5.70844
1354 49.6469 5.35989
1365 49.5895 4.83765
1367 49.5687 4.70121
1369 49.5561 4.62609
1371 49.5431 4.55696
1373 49.5298 4.49279
1375 49.5134 4.41928
1382 49.4909 4.32228
1394 49.5089 4.29729
1406 49.5811 4.33182
1434 49.237 4.24393
1439 49.1405 4.19316
1441 49.0164 4.13191
1443 48.9474 4.09786
1445 48.8836 4.06541
1447 48.8175 4.0304
1449 48.7635 4.00085
1456 48.6265 3.9247
1467 48.6159 3.90817
1478 48.6301 3.89125
1488 48.7028 3.91503
1493 48.8095 3.90635
1495 48.9478 3.89905
1497 49.0261 3.89557
1499 49.1011 3.8918
1531 48.7635 4.02855
1565 48.2336 2.90944
1595 48.8543 3.03416
1613 49.8525 3.15158
1625 50.3522 3.12992
1657 49.6958 2.96098
1687 50.0596 3.01606
1699 50.2418 2.94645
1702 50.3884 2.88195
1704 50.4952 2.83698
1706 50.5499 2.81615
1708 50.6173 2.78807
1710 50.6823 2.75969
1719 50.8191 2.69115
1721 50.8194 2.69103
1723 50.8658 2.6746
1732 50.9516 2.64778
1762 50.527 2.68524
1788 50.5643 2.25589
1793 50.5388 2.14861
1795 50.5102 2.01382
1797 50.4949 1.93904
1799 50.4792 1.86639
1801 50.4631 1.79797
1803 50.4461 1.72994
1810 50.4248 1.64205
1822 50.435 1.62262
1833 50.5112 1.6529
1862 50.2245 1.59629
1887 50.5538 1.14475
1897 50.5467 1.08081
1900 50.4999 0.929902
1905 50.4247 0.673074
1907 50.3789 0.542631
1909 50.352 0.472083
1911 50.3244 0.404911
1913 50.2953 0.338815
1915 50.2644 0.272897
1917 50.2303 0.203961
1918 50.2195 0.18888
1919 50.1999 0.14493
1920 50.1908 0.132804
1921 50.1902 0.132046
1922 50.1909 0.133294
1923 50.1905 0.131888
1924 50.1906 0.132225
1925 50.1908 0.132374
1926 50.1906 0.132007
1927 50.1908 0.132369
1928 50.1909 0.132233
1929 50.1907 0.131942
1930 50.1912 0.132767
1931 50.1913 0.132955
1932 50.1913 0.132771
1933 50.1914 0.13303
1934 50.1915 0.133099
1935 50.1915 0.133099
1936 50.1915 0.133099
1937 50.1915 0.133088
1938 50.1915 0.133086
1939 50.1915 0.133082
1940 50.1916 0.133071
1941 50.1916 0.13306
1942 50.1916 0.133058
1943 50.1916 0.133059
1944 50.1916 0.133057
1945 50.1916 0.133047
1946 50.1916 0.133045
1947 50.1916 0.133049
1948 50.1916 0.133047
1949 50.1916 0.133038
1950 50.1916 0.133036
1951 50.1916 0.133037
1952 50.1916 0.133037
1953 50.1916 0.133026
1954 50.1916 0.133025
1955 50.1916 0.13303
1956 50.1916 0.133028
1957 50.1916 0.133019
1958 50.1916 0.133017
1959 50.1916 0.133019
1960 50.1916 0.133019
1961 50.1916 0.133009
1962 50.1916 0.133008
1963 50.1916 0.133012
1964 50.1916 0.133011
1965 50.1916 0.133002
1966 50.1916 0.133
1967 50.1916 0.133002
1968 50.1916 0.133002
1969 50.1916 0.132992
1970 50.1916 0.132991
1971 50.1916 0.132996
1972 50.1916 0.132994
1973 50.1916 0.132986
1974 50.1916 0.132984
1975 50.1916 0.132986
1976 50.1916 0.132986
1977 50.1916 0.132976
1978 50.1916 0.132975
1979 50.1916 0.13298
1980 50.1916 0.132979
1981 50.1916 0.13297
1982 50.1916 0.132969
1983 50.1916 0.132971
1984 50.1916 0.13297
1985 50.1916 0.132961
1986 50.1916 0.13296
1987 50.1916 0.132965
1988 50.1916 0.132963
1989 50.1916 0.132955
1990 50.1916 0.132953
1991 50.1916 0.132955
1992 50.1916 0.132955
1993 50.1916 0.132945
1994 50.1916 0.132944
1995 50.1916 0.132949
1996 50.1916 0.132948
1997 50.1916 0.132939
1998 50.1916 0.132938
1999 50.1916 0.13294
2000 50.1916 0.13294
2001 50.1916 0.13293
2002 50.1916 0.132929
2003 50.1916 0.132934
2004 50.1916 0.132933
2005 50.1916 0.132924
2006 50.1916 0.132923
2007 50.1916 0.132925
2008 50.1916 0.132925
2009 50.1915 0.132915
2010 50.1915 0.132914
2011 50.1916 0.132919
2012 50.1915 0.132917
2013 50.1915 0.132909
2014 50.1915 0.132908
2015 50.1915 0.13291
2016 50.1915 0.132909
2017 50.1915 0.1329
2018 50.1915 0.132899
2019 50.1915 0.132904
2020 50.1915 0.132902
2021 50.1915 0.132894
2022 50.1915 0.132892
2023 50.1915 0.132895
2024 50.1915 0.132894
2025 50.1915 0.132884
2026 50.1915 0.132884
2027 50.1915 0.132889
2028 50.1915 0.132887
2029 50.1915 0.132879
2030 50.1915 0.132877
2031 50.1915 0.132879
2032 50.1915 0.132879
2033 50.1915 0.132869
2034 50.1915 0.132868
2035 50.1915 0.132874
2036 50.1915 0.132872
2037 50.1915 0.132863
2038 50.1915 0.132862
2039 50.1915 0.132864
2040 50.1915 0.132864
2041 50.1915 0.132854
2042 50.1915 0.132853
2043 50.1915 0.132859
2044 50.1915 0.132857
2045 50.1915 0.132848
2046 50.1915 0.132847
2047 50.1915 0.132849
2048 50.1915 0.132849
2049 50.1915 0.132839
2050 50.1915 0.132838
2051 50.1915 0.132843
2052 50.1915 0.132842
2053 50.1915 0.132833
2054 50.1915 0.132832
2055 50.1915 0.132834
2056 50.1915 0.132834
2057 50.1915 0.132824
2058 50.1915 0.132823
2059 50.1915 0.132828
2060 50.1915 0.132827
2061 50.1915 0.132818
2062 50.1915 0.132817
2063 50.1915 0.132819
2064 50.1915 0.132819
2065 50.1915 0.132809
2066 50.1915 0.132808
2067 50.1915 0.132813
2068 50.1915 0.132812
2069 50.1915 0.132803
2070 50.1915 0.132802
2071 50.1915 0.132804
2072 50.1915 0.132804
2073 50.1915 0.132794
2074 50.1915 0.132793
2075 50.1915 0.132798
2076 50.1915 0.132796
2077 50.1915 0.132788
2078 50.1915 0.132787
2079 50.1915 0.132789
2080 50.1915 0.132788
2081 50.1915 0.132779
2082 50.1915 0.132778
2083 50.1915 0.132783
2084 50.1915 0.132781
2085 50.1915 0.132773
2086 50.1915 0.132771
2087 50.1915 0.132774
2088 50.1915 0.132773
2089 50.1915 0.132764
2090 50.1915 0.132763
2091 50.1915 0.132768
2092 50.1915 0.132766
2093 50.1915 0.132758
2094 50.1915 0.132756
2095 50.1915 0.132758
2096 50.1915 0.132758
2097 50.1915 0.132748
2098 50.1915 0.132748
2099 50.1915 0.132753
2100 50.1915 0.132751
2101 50.1915 0.132742
2102 50.1915 0.132741
2103 50.1915 0.132743
2104 50.1915 0.132743
2105 50.1915 0.132733
2106 50.1915 0.132732
2107 50.1915 0.132738
2108 50.1915 0.132736
2109 50.1915 0.132727
2110 50.1915 0.132726
2111 50.1915 0.132728
2112 50.1915 0.132728
2113 50.1914 0.132718
2114 50.1914 0.132717
2115 50.1914 0.132722
2116 50.1914 0.132721
2117 50.1914 0.132712
2118 50.1914 0.132711
2119 50.1914 0.132713
2120 50.1914 0.132713
2121 50.1914 0.132703
2122 50.1914 0.132702
2123 50.1914 0.132707
2124 50.1914 0.132706
2125 50.1914 0.132697
2126 50.1914 0.132696
2127 50.1914 0.132698
2128 50.1914 0.132698
2129 50.1914 0.132697
2130 50.1914 0.132697
2131 50.1914 0.132696
2132 50.1914 0.132703
2133 50.1914 0.132697
2134 50.1914 0.132687
2135 50.1914 0.132678
2136 50.1914 0.132678
2137 50.1914 0.132679
2138 50.1914 0.132681
2139 50.1914 0.132686
2140 50.1914 0.132687
2141 50.1914 0.13269
2142 50.1914 0.132683
2143 50.1914 0.132683
2144 50.1914 0.132667
2145 50.1914 0.132668
2146 50.1914 0.132655
2147 50.1914 0.132644
2148 50.1914 0.13264
2149 50.1914 0.132637
2150 50.1914 0.132633
2151 50.1914 0.132637
2152 50.1914 0.132637
2153 50.1914 0.132633
2154 50.1914 0.132625
2155 50.1914 0.132608
2156 50.1914 0.132606
2157 50.1914 0.132604
2158 50.1914 0.132603
2159 50.1914 0.132598
2160 50.1914 0.132593
2161 50.1914 0.132578
2162 50.1914 0.132567
2163 50.1914 0.132558
2164 50.1914 0.132556
2165 50.1914 0.132541
2166 50.1913 0.132526
2167 50.1914 0.132527
2168 50.1914 0.13253
2169 50.1914 0.132532
2170 50.1914 0.132534
2171 50.1914 0.132538
2172 50.1914 0.132544
2173 50.1914 0.132546
2174 50.1914 0.132549
2175 50.1914 0.132553
2176 50.1914 0.13255
2177 50.1914 0.132545
2178 50.1914 0.13254
2179 50.1913 0.132524
2180 50.1913 0.132514
2181 50.1913 0.132504
2182 50.1913 0.132502
2183 50.1913 0.132487
2184 50.1913 0.132468
2185 50.1913 0.132471
2186 50.1913 0.132473
2187 50.1913 0.132476
2188 50.1913 0.132481
2189 50.1913 0.132486
2190 50.1913 0.132492
2191 50.1913 0.132497
2192 50.1913 0.132499
2193 50.1913 0.132504
2194 50.1913 0.132502
2195 50.1913 0.132496
2196 50.1913 0.132499
2197 50.1913 0.132498
2198 50.1913 0.13249
2199 50.1913 0.132485
2200 50.1913 0.132477
2201 50.1913 0.13246
2202 50.1913 0.132456
2203 50.1913 0.132448
2204 50.1913 0.132448
2205 50.1913 0.132444
2206 50.1913 0.132445
2207 50.1913 0.13245
2208 50.1913 0.132447
2209 50.1913 0.132442
2210 50.1913 0.132443
2211 50.1913 0.132438
2212 50.1913 0.132438
2213 50.1913 0.132434
2214 50.1913 0.132419
2215 50.1913 0.13242
2216 50.1913 0.132413
2217 50.1913 0.132403
2218 50.1913 0.1324
2219 50.1913 0.132384
2220 50.1913 0.132377
2221 50.1913 0.132378
2222 50.1913 0.13238
2223 50.1913 0.132379
2224 50.1913 0.132373
2225 50.1913 0.132376
2226 50.1913 0.132379
2227 50.1913 0.132373
2228 50.1913 0.132374
2229 50.1913 0.132374
2230 50.1913 0.132363
2231 50.1913 0.132357
2232 50.1913 0.132357
2233 50.1913 0.132356
2234 50.1913 0.132348
2235 50.1913 0.132346
2236 50.1913 0.132344
2237 50.1912 0.132329
2238 50.1912 0.132311
2239 50.1912 0.132296
2240 50.1912 0.132294
2241 50.1912 0.132295
2242 50.1912 0.132296
2243 50.1912 0.1323
2244 50.1912 0.132305
2245 50.1912 0.132311
2246 50.1912 0.132312
2247 50.1912 0.132314
2248 50.1912 0.132316
2249 50.1912 0.132311
2250 50.1912 0.132313
2251 50.1912 0.132317
2252 50.1912 0.13231
2253 50.1912 0.132306
2254 50.1912 0.132305
2255 50.1912 0.13229
2256 50.1912 0.132273
2257 50.1912 0.132254
2258 50.1912 0.132253
2259 50.1912 0.132253
2260 50.1912 0.132252
2261 50.1912 0.132258
2262 50.1912 0.132263
2263 50.1912 0.132269
2264 50.1912 0.132275
2265 50.1912 0.132277
2266 50.1912 0.132282
2267 50.1912 0.132286
2268 50.1912 0.132288
2269 50.1912 0.132292
2270 50.1912 0.13229
2271 50.1912 0.132288
2272 50.1912 0.132284
2273 50.1912 0.132276
2274 50.1912 0.132259
2275 50.1912 0.132255
2276 50.1912 0.132246
2277 50.1912 0.132244
2278 50.1912 0.132237
2279 50.1912 0.132231
2280 50.1912 0.132233
2281 50.1912 0.13223
2282 50.1912 0.132229
2283 50.1912 0.13223
2284 50.1912 0.132232
2285 50.1912 0.132232
2286 50.1912 0.132227
2287 50.1912 0.132214
2288 50.1912 0.132213
2289 50.1912 0.132212
2290 50.1912 0.132197
2291 50.1912 0.132198
2292 50.1912 0.132198
2293 50.1912 0.1322
2294 50.1912 0.132192
2295 50.1912 0.132194
2296 50.1912 0.132193
2297 50.1912 0.132187
2298 50.1912 0.132192
2299 50.1912 0.132199
2300 50.1912 0.132204
2301 50.1912 0.132201
2302 50.1912 0.1322
2303 50.1912 0.132198
2304 50.1912 0.1322
2305 50.1912 0.132192
2306 50.1912 0.132189
2307 50.1912 0.132187
2308 50.1912 0.13219
2309 50.1912 0.132182
2310 50.1912 0.132184
2311 50.1912 0.132187
2312 50.1912 0.132183
2313 50.1912 0.132187
2314 50.1912 0.132173
2315 50.1912 0.132165
2316 50.1912 0.132157
2317 50.1912 0.132156
2318 50.1912 0.132161
2319 50.1912 0.132144
2320 50.1912 0.132137
2321 50.1911 0.13212
2322 50.1911 0.13212
2323 50.1911 0.132122
2324 50.1911 0.132121
2325 50.1911 0.132123
2326 50.1911 0.132123
2327 50.1911 0.132115
2328 50.1911 0.132106
2329 50.1911 0.132105
2330 50.1911 0.132102
2331 50.1911 0.132102
2332 50.1911 0.132093
2333 50.1911 0.13209
2334 50.1911 0.132092
2335 50.1911 0.132072
2336 50.1911 0.13207
2337 50.1911 0.132067
2338 50.1911 0.132071
2339 50.1911 0.132067
2340 50.1911 0.132056
2341 50.1911 0.132053
2342 50.1911 0.132058
2343 50.1911 0.132062
2344 50.1911 0.132069
2345 50.1911 0.132074
2346 50.1911 0.132078
2347 50.1911 0.132091
2348 50.1911 0.132087
2349 50.1911 0.132083
2350 50.1911 0.132077
2351 50.1911 0.132077
2352 50.1911 0.132082
2353 50.1911 0.132084
2354 50.1911 0.132081
2355 50.1911 0.132085
2356 50.1911 0.132078
2357 50.1911 0.132081
2358 50.1911 0.132065
2359 50.1911 0.132054
2360 50.1911 0.132057
2361 50.1911 0.132061
2362 50.1911 0.132061
2363 50.1911 0.132061
2364 50.1911 0.132063
2365 50.1911 0.132067
2366 50.1911 0.132066
2367 50.1911 0.132067
2368 50.1911 0.132068
2369 50.1911 0.132067
2370 50.1911 0.132064
2371 50.1911 0.132058
2372 50.1911 0.132037
2373 50.1911 0.132016
2374 50.1911 0.131999
2375 50.1911 0.132007
2376 50.1911 0.132014
2377 50.1911 0.132014
2378 50.1911 0.132016
2379 50.1911 0.132008
2380 50.1911 0.13201
2381 50.1911 0.132009
2382 50.1911 0.132013
2383 50.1911 0.132019
2384 50.1911 0.132017
2385 50.1911 0.132012
2386 50.1911 0.132006
2387 50.1911 0.132007
2388 50.1911 0.132001
2389 50.1911 0.132005
2390 50.1911 0.132009
2391 50.1911 0.132013
2392 50.1911 0.132017
2393 50.1911 0.132015
2394 50.1911 0.132009
2395 50.1911 0.132012
2396 50.1911 0.132014
2397 50.1911 0.132019
2398 50.1911 0.132019
2399 50.1911 0.132015
2400 50.1911 0.132014
2401 50.1911 0.132007
2402 50.1911 0.131997
2403 50.1911 0.131995
2404 50.1911 0.131993
2405 50.1911 0.131997
2406 50.1911 0.132001
2407 50.1911 0.132001
2408 50.1911 0.132
2409 50.1911 0.131991
2410 50.1911 0.131992
2411 50.1911 0.131995
2412 50.1911 0.132
2413 50.1911 0.132
2414 50.1911 0.131997
2415 50.1911 0.131992
2416 50.1911 0.131983
2417 50.1911 0.13197
2418 50.1911 0.131968
2419 50.1911 0.131963
2420 50.1911 0.131942
2421 50.191 0.131926
2422 50.191 0.131926
2423 50.191 0.131926
2424 50.191 0.131927
2425 50.191 0.131932
2426 50.1911 0.131937
2427 50.1911 0.131943
2428 50.1911 0.131949
2429 50.1911 0.131945
2430 50.191 0.131931
2431 50.191 0.131929
2432 50.191 0.131927
2433 50.191 0.131926
2434 50.191 0.131924
2435 50.191 0.131925
2436 50.191 0.131931
2437 50.1911 0.131939
2438 50.1911 0.131937
2439 50.1911 0.131941
2440 50.191 0.131927
2441 50.191 0.131926
2442 50.191 0.13193
2443 50.191 0.131927
2444 50.191 0.131919
2445 50.191 0.131897
2446 50.191 0.131891
2447 50.191 0.131888
2448 50.191 0.13187
2449 50.191 0.131864
2450 50.191 0.131865
2451 50.191 0.131865
2452 50.191 0.13186
2453 50.191 0.131845
2454 50.191 0.131846
2455 50.191 0.13185
2456 50.191 0.131843
2457 50.191 0.131835
2458 50.191 0.131826
2459 50.191 0.131826
2460 50.191 0.13182
2461 50.191 0.131813
2462 50.191 0.131816
2463 50.191 0.131809
2464 50.191 0.131791
2465 50.191 0.131781
2466 50.191 0.131763
2467 50.191 0.131761
2468 50.191 0.13176
2469 50.191 0.131755
2470 50.191 0.131758
2471 50.191 0.131757
2472 50.191 0.131755
2473 50.191 0.131749
2474 50.191 0.131752
2475 50.191 0.131751
2476 50.191 0.131751
2477 50.191 0.131749
2478 50.191 0.131755
2479 50.191 0.13176
2480 50.191 0.131766
2481 50.191 0.131768
2482 50.191 0.131754
2483 50.191 0.131747
2484 50.191 0.131748
2485 50.191 0.131747
2486 50.191 0.131742
2487 50.1909 0.131722
2488 50.1909 0.131716
2489 50.1909 0.131706
2490 50.1909 0.131709
2491 50.1909 0.131706
2492 50.1909 0.13171
2493 50.1909 0.131712
2494 50.1909 0.131716
2495 50.1909 0.131721
2496 50.1909 0.131719
2497 50.1909 0.131719
2498 50.1909 0.131717
2499 50.1909 0.131722
2500 50.1909 0.131721
2501 50.1909 0.131703
2502 50.1909 0.131705
2503 50.1909 0.131704
2504 50.1909 0.131699
2505 50.1909 0.13169
2506 50.1909 0.131692
2507 50.1909 0.131697
2508 50.1909 0.131696
2509 50.1909 0.131697
2510 50.1909 0.1317
2511 50.1909 0.131682
2512 50.1909 0.13168
2513 50.1909 0.131679
2514 50.1909 0.131673
2515 50.1909 0.131674
2516 50.1909 0.131679
2517 50.1909 0.131684
2518 50.1909 0.131685
2519 50.1909 0.131683
2520 50.1909 0.131683
2521 50.1909 0.131668
2522 50.1909 0.131649
2523 50.1909 0.131639
2524 50.1909 0.131642
2525 50.1909 0.131628
2526 50.1909 0.131631
2527 50.1909 0.131625
2528 50.1909 0.131635
2529 50.1909 0.131641
2530 50.1909 0.131642
2531 50.1909 0.13164
2532 50.1909 0.131637
2533 50.1909 0.131635
2534 50.1909 0.13162
2535 50.1909 0.131601
2536 50.1909 0.131603
2537 50.1909 0.131589
2538 50.1909 0.131573
2539 50.1909 0.131574
2540 50.1909 0.13156
2541 50.1909 0.13156
2542 50.1909 0.131558
2543 50.1909 0.131543
2544 50.1909 0.131534
2545 50.1908 0.131515
2546 50.1908 0.131508
2547 50.1908 0.131512
2548 50.1908 0.131509
2549 50.1908 0.131507
2550 50.1908 0.131509
2551 50.1908 0.131513
2552 50.1908 0.131496
2553 50.1908 0.131487
2554 50.1908 0.131485
2555 50.1908 0.13149
2556 50.1908 0.131493
2557 50.1908 0.131494
2558 50.1908 0.131492
2559 50.1908 0.13149
2560 50.1908 0.131482
2561 50.1908 0.131474
2562 50.1908 0.13147
2563 50.1908 0.131465
2564 50.1908 0.131459
2565 50.1908 0.131443
2566 50.1908 0.131434
2567 50.1908 0.131437
2568 50.1908 0.131433
2569 50.1908 0.131417
2570 50.1908 0.13142
2571 50.1908 0.131422
2572 50.1908 0.131425
2573 50.1908 0.13143
2574 50.1908 0.131431
2575 50.1908 0.131429
2576 50.1908 0.131427
2577 50.1908 0.131424
2578 50.1908 0.131423
2579 50.1908 0.131424
2580 50.1908 0.13143
2581 50.1908 0.131432
2582 50.1908 0.131434
2583 50.1908 0.131434
2584 50.1908 0.131417
2585 50.1908 0.131401
2586 50.1908 0.13139
2587 50.1908 0.131393
2588 50.1908 0.131397
2589 50.1908 0.131401
2590 50.1908 0.131406
2591 50.1908 0.131414
2592 50.1908 0.131413
2593 50.1908 0.1314
2594 50.1908 0.131402
2595 50.1908 0.131393
2596 50.1908 0.13139
2597 50.1908 0.131391
2598 50.1908 0.131387
2599 50.1908 0.131386
2600 50.1908 0.131383
2601 50.1908 0.131381
2602 50.1908 0.131382
2603 50.1908 0.131387
2604 50.1908 0.131389
2605 50.1908 0.131386
2606 50.1908 0.131384
2607 50.1908 0.131381
2608 50.1908 0.131385
2609 50.1908 0.131389
2610 50.1908 0.131375
2611 50.1908 0.131375
2612 50.1908 0.131373
2613 50.1908 0.13137
2614 50.1908 0.131374
2615 50.1908 0.131378
2616 50.1908 0.131383
2617 50.1908 0.131389
2618 50.1908 0.131392
2619 50.1908 0.131391
2620 50.1908 0.131392
2621 50.1908 0.131396
2622 50.1908 0.131402
2623 50.1908 0.131402
2624 50.1908 0.131397
2625 50.1908 0.131391
2626 50.1908 0.131394
2627 50.1908 0.131392
2628 50.1908 0.131396
2629 50.1908 0.131403
2630 50.1908 0.131408
2631 50.1908 0.131414
2632 50.1908 0.131419
2633 50.1908 0.131419
2634 50.1908 0.13142
2635 50.1908 0.13142
2636 50.1908 0.131413
2637 50.1908 0.131407
2638 50.1908 0.131398
2639 50.1908 0.131398
2640 50.1908 0.131403
2641 50.1908 0.131402
2642 50.1908 0.131397
2643 50.1908 0.131399
2644 50.1908 0.131399
2645 50.1908 0.131398
2646 50.1908 0.131396
2647 50.1908 0.131391
2648 50.1908 0.131375
2649 50.1908 0.131376
2650 50.1908 0.131374
2651 50.1908 0.131371
2652 50.1908 0.131366
2653 50.1908 0.13136
2654 50.1908 0.131352
2655 50.1908 0.131344
2656 50.1908 0.131342
2657 50.1907 0.131329
2658 50.1908 0.131331
2659 50.1908 0.131335
2660 50.1907 0.131328
2661 50.1907 0.131323
2662 50.1907 0.131318
2663 50.1907 0.131302
2664 50.1907 0.131284
2665 50.1907 0.131274
2666 50.1907 0.131265
2667 50.1907 0.131268
2668 50.1907 0.131254
2669 50.1907 0.131247
2670 50.1907 0.131245
2671 50.1907 0.131236
2672 50.1907 0.131226
2673 50.1907 0.13121
2674 50.1907 0.131191
2675 50.1907 0.131183
2676 50.1907 0.131184
2677 50.1907 0.131184
2678 50.1907 0.13118
2679 50.1907 0.131173
2680 50.1907 0.13117
2681 50.1907 0.131171
2682 50.1907 0.131168
2683 50.1907 0.131165
2684 50.1907 0.131172
2685 50.1907 0.131179
2686 50.1907 0.131182
2687 50.1907 0.131184
2688 50.1907 0.131182
2689 50.1907 0.131185
2690 50.1907 0.131188
2691 50.1907 0.131193
2692 50.1907 0.131196
2693 50.1907 0.131202
2694 50.1907 0.131205
2695 50.1907 0.131204
2696 50.1907 0.131203
2697 50.1907 0.1312
2698 50.1907 0.131197
2699 50.1907 0.131189
2700 50.1907 0.131179
2701 50.1907 0.131168
2702 50.1907 0.131171
2703 50.1907 0.131163
2704 50.1907 0.131155
2705 50.1907 0.13116
2706 50.1907 0.131167
2707 50.1907 0.13117
2708 50.1907 0.131172
2709 50.1907 0.13117
2710 50.1907 0.131152
2711 50.1907 0.131153
2712 50.1907 0.131159
2713 50.1907 0.131155
2714 50.1907 0.131156
2715 50.1907 0.131157
2716 50.1907 0.131155
2717 50.1907 0.131159
2718 50.1907 0.131162
2719 50.1907 0.131159
2720 50.1907 0.131159
2721 50.1907 0.131144
2722 50.1906 0.131125
2723 50.1906 0.131114
2724 50.1906 0.131114
2725 50.1906 0.131097
2726 50.1906 0.131085
2727 50.1906 0.131084
2728 50.1906 0.131082
2729 50.1906 0.131086
2730 50.1906 0.131088
2731 50.1906 0.131085
2732 50.1906 0.131084
2733 50.1906 0.131088
2734 50.1906 0.131094
2735 50.1906 0.131084
2736 50.1906 0.131076
2737 50.1906 0.13107
2738 50.1906 0.131055
2739 50.1906 0.131056
2740 50.1906 0.131054
2741 50.1906 0.131046
2742 50.1906 0.131037
2743 50.1906 0.131034
2744 50.1906 0.131038
2745 50.1906 0.131023
2746 50.1906 0.131019
2747 50.1906 0.131002
2748 50.1906 0.131001
2749 50.1906 0.131005
2750 50.1906 0.131007
2751 50.1906 0.131009
2752 50.1906 0.131002
2753 50.1906 0.131004
2754 50.1906 0.131011
2755 50.1906 0.131016
2756 50.1906 0.131018
2757 50.1906 0.131001
2758 50.1906 0.131
2759 50.1906 0.130998
2760 50.1906 0.131002
2761 50.1906 0.130998
2762 50.1906 0.130992
2763 50.1906 0.130984
2764 50.1906 0.130976
2765 50.1906 0.130979
2766 50.1906 0.130972
2767 50.1906 0.130969
2768 50.1906 0.130967
2769 50.1906 0.130952
2770 50.1906 0.130936
2771 50.1906 0.130938
2772 50.1906 0.130939
2773 50.1906 0.130939
2774 50.1906 0.13095
2775 50.1906 0.130956
2776 50.1906 0.130959
2777 50.1906 0.13095
2778 50.1906 0.130949
2779 50.1906 0.13094
2780 50.1906 0.130924
2781 50.1905 0.130921
2782 50.1905 0.130915
2783 50.1905 0.130902
2784 50.1905 0.130892
2785 50.1905 0.130873
2786 50.1905 0.130871
2787 50.1905 0.13087
2788 50.1905 0.130861
2789 50.1905 0.130866
2790 50.1905 0.130873
2791 50.1905 0.130868
2792 50.1905 0.130877
2793 50.1905 0.130884
2794 50.1905 0.130881
2795 50.1905 0.130881
2796 50.1905 0.130879
2797 50.1905 0.130864
2798 50.1905 0.130854
2799 50.1905 0.130835
2800 50.1905 0.130832
2801 50.1905 0.130831
2802 50.1905 0.130823
2803 50.1905 0.130828
2804 50.1905 0.130835
2805 50.1905 0.130829
2806 50.1905 0.130839
2807 50.1905 0.130845
2808 50.1905 0.130843
2809 50.1905 0.130843
2810 50.1905 0.130841
2811 50.1905 0.130826
2812 50.1905 0.130816
2813 50.1905 0.130797
2814 50.1905 0.130794
2815 50.1905 0.130793
2816 50.1905 0.130785
2817 50.1905 0.130789
2818 50.1905 0.130796
2819 50.1905 0.130791
2820 50.1905 0.130801
2821 50.1905 0.130807
2822 50.1905 0.130805
2823 50.1905 0.130804
2824 50.1905 0.130803
2825 50.1905 0.130788
2826 50.1905 0.130778
2827 50.1905 0.130758
2828 50.1905 0.130756
2829 50.1905 0.130755
2830 50.1905 0.130747
2831 50.1905 0.130751
2832 50.1905 0.130758
2833 50.1905 0.130753
2834 50.1905 0.130763
2835 50.1905 0.130769
2836 50.1905 0.130767
2837 50.1905 0.130766
2838 50.1905 0.130765
2839 50.1905 0.130749
2840 50.1905 0.13074
2841 50.1905 0.13072
2842 50.1905 0.130718
2843 50.1904 0.130717
2844 50.1904 0.130709
2845 50.1904 0.130713
2846 50.1905 0.13072
2847 50.1904 0.130715
2848 50.1905 0.130725
2849 50.1905 0.130731
2850 50.1905 0.130729
2851 50.1905 0.130728
2852 50.1905 0.130726
2853 50.1904 0.130711
2854 50.1904 0.130701
2855 50.1904 0.130682
2856 50.1904 0.13068
2857 50.1904 0.130679
2858 50.1904 0.13067
2859 50.1904 0.130675
2860 50.1904 0.130682
2861 50.1904 0.130676
2862 50.1904 0.130686
2863 50.1904 0.130693
2864 50.1904 0.13069
2865 50.1904 0.13069
2866 50.1904 0.130688
2867 50.1904 0.130673
2868 50.1904 0.130663
2869 50.1904 0.130644
2870 50.1904 0.130641
2871 50.1904 0.13064
2872 50.1904 0.130632
2873 50.1904 0.130637
2874 50.1904 0.130644
2875 50.1904 0.130638
2876 50.1904 0.130648
2877 50.1904 0.130654
2878 50.1904 0.130652
2879 50.1904 0.130652
2880 50.1904 0.13065
2881 50.1904 0.130635
2882 50.1904 0.130625
2883 50.1904 0.130605
2884 50.1904 0.130603
2885 50.1904 0.130602
2886 50.1904 0.130594
2887 50.1904 0.130598
2888 50.1904 0.130605
2889 50.1904 0.1306
2890 50.1904 0.13061
2891 50.1904 0.130616
2892 50.1904 0.130614
2893 50.1904 0.130613
2894 50.1904 0.130612
2895 50.1904 0.130597
2896 50.1904 0.130587
2897 50.1904 0.130567
2898 50.1904 0.130565
2899 50.1904 0.130564
2900 50.1904 0.130556
2901 50.1904 0.13056
2902 50.1904 0.130567
2903 50.1904 0.130562
2904 50.1904 0.130572
2905 50.1904 0.130578
2906 50.1904 0.130576
2907 50.1904 0.130575
2908 50.1904 0.130574
2909 50.1904 0.130558
2910 50.1904 0.130549
2911 50.1904 0.130529
2912 50.1904 0.130527
2913 50.1904 0.130526
2914 50.1904 0.130518
2915 50.1904 0.130522
2916 50.1904 0.130529
2917 50.1904 0.130524
2918 50.1904 0.130534
2919 50.1904 0.13054
2920 50.1904 0.130538
2921 50.1904 0.130537
2922 50.1904 0.130535
2923 50.1904 0.13052
2924 50.1903 0.13051
2925 50.1903 0.130491
2926 50.1903 0.130489
2927 50.1903 0.130488
2928 50.1903 0.130479
2929 50.1903 0.130484
2930 50.1903 0.130491
2931 50.1903 0.130485
2932 50.1903 0.130495
2933 50.1903 0.130502
2934 50.1903 0.130499
2935 50.1903 0.130499
2936 50.1903 0.130497
2937 50.1903 0.130482
2938 50.1903 0.130472
2939 50.1903 0.130453
2940 50.1903 0.13045
2941 50.1903 0.130449
2942 50.1903 0.130441
2943 50.1903 0.130445
2944 50.1903 0.130453
2945 50.1903 0.130447
2946 50.1903 0.130457
2947 50.1903 0.130463
2948 50.1903 0.130461
2949 50.1903 0.130461
2950 50.1903 0.130459
2951 50.1903 0.130444
2952 50.1903 0.130434
2953 50.1903 0.130414
2954 50.1903 0.130412
2955 50.1903 0.130411
2956 50.1903 0.130403
2957 50.1903 0.130407
2958 50.1903 0.130414
2959 50.1903 0.130409
2960 50.1903 0.130419
2961 50.1903 0.130425
2962 50.1903 0.130423
2963 50.1903 0.130422
2964 50.1903 0.130421
2965 50.1903 0.130406
2966 50.1903 0.130396
2967 50.1903 0.130376
2968 50.1903 0.130374
2969 50.1903 0.130373
2970 50.1903 0.130365
2971 50.1903 0.130369
2972 50.1903 0.130376
2973 50.1903 0.130371
2974 50.1903 0.130381
2975 50.1903 0.130387
2976 50.1903 0.130385
2977 50.1903 0.130384
2978 50.1903 0.130383
2979 50.1903 0.130367
2980 50.1903 0.130358
2981 50.1903 0.130338
2982 50.1903 0.130336
2983 50.1903 0.130335
2984 50.1903 0.130326
2985 50.1903 0.130331
2986 50.1903 0.130338
2987 50.1903 0.130333
2988 50.1903 0.130342
2989 50.1903 0.130349
2990 50.1903 0.130346
2991 50.1903 0.130346
2992 50.1903 0.130344
2993 50.1903 0.130329
2994 50.1903 0.130319
2995 50.1902 0.1303
2996 50.1902 0.130297
2997 50.1902 0.130296
2998 50.1902 0.130288
2999 50.1902 0.130293
3000 50.1902 0.1303
3001 50.1902 0.130294
3002 50.1902 0.130304
3003 50.1903 0.13031
3004 50.1903 0.130308
3005 50.1903 0.130308
3006 50.1903 0.130306
3007 50.1902 0.130291
3008 50.1902 0.130281
3009 50.1902 0.130261
3010 50.1902 0.130259
3011 50.1902 0.130258
3012 50.1902 0.130263
3013 50.1902 0.130266
3014 50.1902 0.130273
3015 50.1902 0.130267
3016 50.1902 0.130278
3017 50.1902 0.130284
3018 50.1902 0.130281
3019 50.1902 0.130281
3020 50.1902 0.130279
3021 50.1902 0.130264
3022 50.1902 0.130254
3023 50.1902 0.130235
3024 50.1902 0.130232
3025 50.1902 0.130231
3026 50.1902 0.130223
3027 50.1902 0.130228
3028 50.1902 0.130235
3029 50.1902 0.130229
3030 50.1902 0.130239
3031 50.1902 0.130245
3032 50.1902 0.130249
3033 50.1902 0.130249
3034 50.1902 0.130247
3035 50.1902 0.130232
3036 50.1902 0.130222
3037 50.1902 0.130203
3038 50.1902 0.130201
3039 50.1902 0.1302
3040 50.1902 0.130191
3041 50.1902 0.130196
3042 50.1902 0.130203
3043 50.1902 0.130197
3044 50.1902 0.130208
3045 50.1902 0.130214
3046 50.1902 0.130211
3047 50.1902 0.130211
3048 50.1902 0.130209
3049 50.1902 0.130194
3050 50.1902 0.130184
3051 50.1902 0.130165
3052 50.1902 0.130162
3053 50.1902 0.130161
3054 50.1902 0.130153
3055 50.1902 0.130157
3056 50.1902 0.130165
3057 50.1902 0.130159
3058 50.1902 0.130169
3059 50.1902 0.130175
3060 50.1902 0.130173
3061 50.1902 0.130173
3062 50.1902 0.130171
3063 50.1902 0.130156
3064 50.1902 0.130146
3065 50.1902 0.130126
3066 50.1902 0.130124
3067 50.1902 0.130123
3068 50.1902 0.130115
3069 50.1902 0.130119
3070 50.1902 0.130126
3071 50.1902 0.130121
3072 50.1902 0.130131
3073 50.1902 0.130137
3074 50.1902 0.130135
3075 50.1902 0.130134
3076 50.1902 0.130133
3077 50.1902 0.130117
3078 50.1902 0.130108
3079 50.1901 0.130088
3080 50.1901 0.130086
3081 50.1901 0.130085
3082 50.1901 0.130077
3083 50.1901 0.130081
3084 50.1901 0.130088
3085 50.1901 0.130083
3086 50.1901 0.130093
3087 50.1902 0.130099
3088 50.1901 0.130097
3089 50.1901 0.130096
3090 50.1901 0.130095
3091 50.1901 0.130079
3092 50.1901 0.130069
3093 50.1901 0.13005
3094 50.1901 0.130048
3095 50.1901 0.130047
3096 50.1901 0.130038
3097 50.1901 0.130043
3098 50.1901 0.13005
3099 50.1901 0.130044
3100 50.1901 0.130054
3101 50.1901 0.130061
3102 50.1901 0.130058
3103 50.1901 0.130058
3104 50.1901 0.130056
3105 50.1901 0.130041
3106 50.1901 0.130031
3107 50.1901 0.130012
3108 50.1901 0.130009
3109 50.1901 0.130008
3110 50.1901 0.13
3111 50.1901 0.130004
3112 50.1901 0.130012
3113 50.1901 0.130006
3114 50.1901 0.130016
3115 50.1901 0.130022
3116 50.1901 0.13002
3117 50.1901 0.13002
3118 50.1901 0.130018
3119 50.1901 0.130003
3120 50.1901 0.129993
3121 50.1901 0.129973
3122 50.1901 0.129971
3123 50.1901 0.12997
3124 50.1901 0.129962
3125 50.1901 0.129966
3126 50.1901 0.129973
3127 50.1901 0.129968
3128 50.1901 0.129978
3129 50.1901 0.129984
3130 50.1901 0.129982
3131 50.1901 0.129981
3132 50.1901 0.12998
3133 50.1901 0.129965
3134 50.1901 0.129955
3135 50.1901 0.129935
3136 50.1901 0.129933
3137 50.1901 0.129932
3138 50.1901 0.129924
3139 50.1901 0.129928
3140 50.1901 0.129935
3141 50.1901 0.12993
3142 50.1901 0.12994
3143 50.1901 0.129946
3144 50.1901 0.129944
3145 50.1901 0.129943
3146 50.1901 0.129942
3147 50.1901 0.129926
3148 50.1901 0.129916
3149 50.1901 0.129897
3150 50.1901 0.129895
3151 50.1901 0.129894
3152 50.19 0.129885
3153 50.1901 0.12989
3154 50.1901 0.129897
3155 50.1901 0.129891
3156 50.1901 0.129901
3157 50.1901 0.129909
3158 50.1901 0.129907
3159 50.1901 0.129907
3160 50.1901 0.129905
3161 50.1901 0.12989
3162 50.19 0.12988
3163 50.19 0.12986
3164 50.19 0.129858
3165 50.19 0.129857
3166 50.19 0.129849
3167 50.19 0.129853
3168 50.19 0.129861
3169 50.19 0.129855
3170 50.19 0.129839
3171 50.19 0.12983
3172 50.19 0.129831
3173 50.19 0.129836
3174 50.19 0.12983
3175 50.19 0.129825
3176 50.19 0.12983
3177 50.19 0.129832
3178 50.19 0.129831
3179 50.19 0.129832
3180 50.19 0.129825
3181 50.19 0.129808
3182 50.19 0.129797
3183 50.19 0.129787
3184 50.19 0.12978
3185 50.19 0.129781
3186 50.19 0.129773
3187 50.19 0.129761
3188 50.19 0.129762
3189 50.19 0.129764
