35 0.264898 0.101196
136 1.06892 -0.215868
200 1.77727 -1.60961
256 1.7935 -2.27863
307 1.79472 -3.13819
352 1.79534 -4.24619
429 1.80612 -4.4944
490 0.670713 -3.91155
572 0.160504 -4.77939
648 -0.526224 -4.25109
692 -1.79711 -4.78871
751 -1.8431 -6.01548
803 -0.962108 -7.13273
846 -0.0167035 -7.4436
900 0.669427 -7.40476
960 1.12431 -7.39395
1008 2.04956 -7.46933
1057 3.10124 -7.22839
1145 4.87365 -5.80285
1195 5.24628 -6.66664
1245 6.00615 -6.96428
1300 6.73033 -6.9677
1355 7.50155 -7.00107
1403 8.38639 -6.54787
1470 9.56584 -2.95858
1500 10.6083 -1.84994
1508 10.9575 -1.50658
1511 11.0845 -1.38245
1513 11.1586 -1.30785
1515 11.2115 -1.25558
1517 11.2666 -1.201
1519 11.3226 -1.14584
1521 11.3705 -1.09868
1523 11.4207 -1.04987
1525 11.4734 -0.999001
1527 11.5268 -0.948005
1529 11.5819 -0.895759
1531 11.6326 -0.847818
1533 11.6835 -0.799965
1535 11.7327 -0.753825
1537 11.7813 -0.708548
1539 11.8304 -0.66299
1541 11.8789 -0.61835
1543 11.929 -0.57243
1545 11.9569 -0.547684
1548 11.9934 -0.514357
1550 12.0575 -0.455474
1552 12.1607 -0.360502
1554 12.2264 -0.298252
1564 12.3123 -0.204663
1575 12.2623 -0.0647158
1605 12.0831 -0.408179
1643 13.1205 0.719112
1649 13.328 0.902331
1651 13.4316 0.993243
1653 13.4891 1.04355
1655 13.5456 1.09303
1657 13.6007 1.14187
1659 13.6528 1.18914
1661 13.7059 1.23868
1663 13.7599 1.29051
1665 13.8053 1.3351
1700 13.5527 0.838217
1706 13.4434 0.731497
1741 13.9813 0.990153
1785 13.4917 -0.651138
1825 13.9543 0.20361
1876 16.1166 -0.571973
1953 12.9843 0.732285
2040 16.1856 -2.21876
2130 12.9203 0.693173
2220 15.8504 -2.53332
2297 13.6232 0.363546
2345 15.2436 -0.171375
2346 15.3104 -0.188349
2384 14.2676 -0.0526614
2455 17.3791 -0.528409
2530 14.2353 0.573174
2564 14.808 0.124216
2565 14.8558 0.0754921
2566 14.9036 0.025766
2567 14.9375 -0.00869076
2568 14.9417 -0.0130534
2569 14.9414 -0.0127933
2570 14.9412 -0.012568
2571 14.941 -0.0123722
2572 14.9408 -0.0121928
2573 14.9406 -0.0120298
2574 14.9404 -0.0118941
2575 14.9403 -0.0117615
2576 14.9401 -0.0116454
2577 14.94 -0.0115506
2578 14.9399 -0.0114711
2579 14.9398 -0.0113896
2580 14.9398 -0.0113222
2581 14.9397 -0.0112708
2582 14.9397 -0.0112268
2583 14.9396 -0.0111925
2584 14.9396 -0.011151
2585 14.9395 -0.0111179
2586 14.9395 -0.0110939
2587 14.9395 -0.0110692
2588 14.9395 -0.0110509
2589 14.9394 -0.0110241
2590 14.9394 -0.0109976
2591 14.9394 -0.010979
2592 14.9394 -0.0109613
2593 14.9393 -0.0109535
2594 14.9393 -0.0109529
2595 14.9393 -0.0109507
2596 14.9393 -0.0109485
2597 14.9393 -0.0109495
2598 14.9393 -0.010947
2599 14.9393 -0.0109402
2600 14.9393 -0.0109408
2601 14.9393 -0.0109471
2602 14.9393 -0.0109452
2603 14.9393 -0.0109367
2604 14.9393 -0.0109328
2605 14.9393 -0.0109314
2606 14.9393 -0.0109241
2607 14.9393 -0.0109224
2608 14.9393 -0.0109219
2609 14.9393 -0.0109163
2610 14.9393 -0.0109158
2611 14.9393 -0.0109161
2612 14.9393 -0.0109105
2613 14.9393 -0.0109104
2614 14.9393 -0.0109113
2615 14.9393 -0.0109057
2616 14.9393 -0.0109058
2617 14.9393 -0.0109078
2618 14.9393 -0.0109036
2619 14.9393 -0.0109042
2620 14.9393 -0.0109063
2621 14.9393 -0.0109011
2622 14.9393 -0.0109011
2623 14.9393 -0.0109035
2624 14.9393 -0.0108997
2625 14.9393 -0.0109008
2626 14.9393 -0.0109026
2627 14.9393 -0.0108981
2628 14.9393 -0.0108992
2629 14.9393 -0.0109013
2630 14.9393 -0.0108976
2631 14.9393 -0.0108988
2632 14.9393 -0.0109011
2633 14.9393 -0.010897
2634 14.9393 -0.0108975
2635 14.9393 -0.0108996
2636 14.9393 -0.0108952
2637 14.9393 -0.010896
2638 14.9393 -0.0108983
2639 14.9393 -0.0108938
2640 14.9393 -0.0108944
2641 14.9393 -0.0108972
2642 14.9393 -0.0108932
2643 14.9393 -0.0108938
2644 14.9393 -0.0108967
2645 14.9393 -0.0108941
2646 14.9393 -0.0108959
2647 14.9393 -0.0108981
2648 14.9393 -0.0108935
2649 14.9393 -0.0108942
2650 14.9393 -0.0108967
2651 14.9393 -0.0108932
2652 14.9393 -0.0108947
2653 14.9393 -0.0108968
2654 14.9393 -0.010893
2655 14.9393 -0.0108946
2656 14.9393 -0.0108975
2657 14.9393 -0.0108954
2658 14.9393 -0.0108977
2659 14.9393 -0.0109006
2660 14.9393 -0.0108977
2661 14.9393 -0.0108993
2662 14.9393 -0.0109017
2663 14.9393 -0.010898
2664 14.9393 -0.0108995
2665 14.9393 -0.0109018
2666 14.9393 -0.0108975
2667 14.9393 -0.0108983
2668 14.9393 -0.0109006
2669 14.9393 -0.0108967
2670 14.9393 -0.0108981
2671 14.9393 -0.0109005
2672 14.9393 -0.0108961
2673 14.9393 -0.0108969
2674 14.9393 -0.0108991
2675 14.9393 -0.0108953
2676 14.9393 -0.0108969
2677 14.9393 -0.0108996
2678 14.9393 -0.010896
2679 14.9393 -0.010897
2680 14.9393 -0.010899
2681 14.9393 -0.0108949
2682 14.9393 -0.0108961
2683 14.9393 -0.0108986
2684 14.9393 -0.0108955
2685 14.9393 -0.0108975
2686 14.9393 -0.0108998
2687 14.9393 -0.0108972
2688 14.9393 -0.0108998
2689 14.9393 -0.0109027
2690 14.9393 -0.0108986
2691 14.9393 -0.0108993
2692 14.9393 -0.0109018
2693 14.9393 -0.0108981
2694 14.9393 -0.0108995
2695 14.9393 -0.0109019
2696 14.9393 -0.0108974
2697 14.9393 -0.0108979
2698 14.9393 -0.0109001
2699 14.9393 -0.0108957
2700 14.9393 -0.0108965
2701 14.9393 -0.0108987
2702 14.9393 -0.0108943
2703 14.9393 -0.010895
2704 14.9393 -0.0108972
2705 14.9393 -0.0108927
2706 14.9393 -0.0108933
2707 14.9393 -0.0108957
2708 14.9393 -0.0108922
2709 14.9393 -0.0108937
2710 14.9393 -0.0108967
2711 14.9393 -0.0108929
2712 14.9393 -0.0108935
2713 14.9393 -0.0108963
2714 14.9393 -0.0108938
2715 14.9393 -0.0108959
2716 14.9393 -0.0108988
2717 14.9393 -0.0108949
2718 14.9393 -0.0108956
2719 14.9393 -0.0108984
2720 14.9393 -0.0108942
2721 14.9393 -0.0108949
2722 14.9393 -0.0108974
2723 14.9393 -0.010893
2724 14.9393 -0.0108936
2725 14.9393 -0.0108958
2726 14.9393 -0.0108915
2727 14.9393 -0.0108925
2728 14.9393 -0.0108949
2729 14.9393 -0.0108908
2730 14.9393 -0.0108915
2731 14.9393 -0.0108939
2732 14.9393 -0.0108909
2733 14.9393 -0.0108929
2734 14.9393 -0.0108953
2735 14.9393 -0.0108913
2736 14.9393 -0.0108923
2737 14.9393 -0.0108946
2738 14.9393 -0.0108903
2739 14.9393 -0.0108909
2740 14.9393 -0.0108933
2741 14.9393 -0.0108897
2742 14.9393 -0.0108913
2743 14.9393 -0.0108939
2744 14.9393 -0.0108896
2745 14.9393 -0.0108904
2746 14.9393 -0.0108934
2747 14.9393 -0.0108902
2748 14.9393 -0.0108915
2749 14.9393 -0.0108939
2750 14.9393 -0.0108899
2751 14.9393 -0.0108912
2752 14.9393 -0.0108936
2753 14.9393 -0.0108903
2754 14.9393 -0.010892
2755 14.9393 -0.0108943
2756 14.9393 -0.0108903
2757 14.9393 -0.0108912
2758 14.9393 -0.0108935
2759 14.9393 -0.0108893
2760 14.9393 -0.0108902
2761 14.9393 -0.0108928
2762 14.9393 -0.0108882
2763 14.9393 -0.0108888
2764 14.9393 -0.0108918
2765 14.9393 -0.0108881
2766 14.9393 -0.010889
2767 14.9393 -0.0108915
2768 14.9393 -0.0108872
2769 14.9393 -0.0108878
2770 14.9393 -0.0108901
2771 14.9393 -0.010886
2772 14.9393 -0.0108874
2773 14.9393 -0.0108897
2774 14.9393 -0.0108852
2775 14.9393 -0.0108859
2776 14.9393 -0.0108884
2777 14.9393 -0.0108846
2778 14.9393 -0.0108859
2779 14.9393 -0.0108884
2780 14.9393 -0.0108841
2781 14.9393 -0.0108849
2782 14.9393 -0.0108875
2783 14.9393 -0.0108837
2784 14.9393 -0.0108848
2785 14.9393 -0.0108877
2786 14.9393 -0.0108842
2787 14.9393 -0.0108854
2788 14.9393 -0.0108879
2789 14.9393 -0.0108836
2790 14.9393 -0.0108842
2791 14.9393 -0.0108865
2792 14.9393 -0.0108827
2793 14.9393 -0.010884
2794 14.9393 -0.0108869
2795 14.9393 -0.0108839
2796 14.9393 -0.0108856
2797 14.9393 -0.0108879
2798 14.9393 -0.0108841
2799 14.9393 -0.0108857
2800 14.9393 -0.010888
2801 14.9393 -0.0108836
2802 14.9393 -0.0108842
2803 14.9393 -0.0108871
2804 14.9393 -0.010884
2805 14.9393 -0.0108855
2806 14.9393 -0.0108879
2807 14.9393 -0.0108848
2808 14.9393 -0.0108869
2809 14.9393 -0.0108898
2810 14.9393 -0.0108866
2811 14.9393 -0.010888
2812 14.9393 -0.0108903
2813 14.9393 -0.0108867
2814 14.9393 -0.0108881
2815 14.9393 -0.0108911
2816 14.9393 -0.0108873
2817 14.9393 -0.0108881
2818 14.9393 -0.0108909
2819 14.9393 -0.0108869
2820 14.9393 -0.0108878
2821 14.9393 -0.01089
2822 14.9393 -0.010886
2823 14.9393 -0.0108872
2824 14.9393 -0.0108893
2825 14.9393 -0.0108852
2826 14.9393 -0.0108865
2827 14.9393 -0.010889
2828 14.9393 -0.0108854
2829 14.9393 -0.0108868
2830 14.9393 -0.0108892
2831 14.9393 -0.0108852
2832 14.9393 -0.0108863
2833 14.9393 -0.0108888
2834 14.9393 -0.0108844
2835 14.9393 -0.0108852
2836 14.9393 -0.0108878
2837 14.9393 -0.0108838
2838 14.9393 -0.0108848
2839 14.9393 -0.0108877
2840 14.9393 -0.0108842
2841 14.9393 -0.0108855
2842 14.9393 -0.010888
2843 14.9393 -0.0108837
2844 14.9393 -0.0108845
2845 14.9393 -0.0108868
2846 14.9393 -0.0108821
2847 14.9393 -0.010883
2848 14.9393 -0.0108852
2849 14.9393 -0.0108815
2850 14.9393 -0.010883
2851 14.9393 -0.0108856
2852 14.9393 -0.010882
2853 14.9393 -0.0108834
2854 14.9393 -0.0108862
2855 14.9393 -0.0108826
2856 14.9393 -0.0108835
2857 14.9393 -0.0108863
2858 14.9393 -0.0108825
2859 14.9393 -0.0108832
2860 14.9393 -0.0108857
2861 14.9393 -0.0108813
2862 14.9393 -0.0108821
2863 14.9393 -0.0108851
2864 14.9393 -0.0108813
2865 14.9393 -0.0108819
2866 14.9393 -0.0108843
2867 14.9393 -0.0108799
2868 14.9393 -0.0108806
2869 14.9393 -0.0108834
2870 14.9393 -0.0108801
2871 14.9393 -0.0108816
2872 14.9393 -0.0108847
2873 14.9393 -0.0108818
2874 14.9393 -0.0108833
2875 14.9393 -0.0108854
2876 14.9393 -0.0108812
2877 14.9393 -0.0108823
2878 14.9393 -0.0108847
2879 14.9393 -0.0108802
2880 14.9393 -0.0108808
2881 14.9393 -0.0108832
2882 14.9393 -0.0108786
2883 14.9393 -0.0108791
2884 14.9393 -0.0108816
2885 14.9393 -0.0108786
2886 14.9393 -0.0108807
2887 14.9393 -0.0108839
2888 14.9393 -0.0108802
2889 14.9393 -0.0108811
2890 14.9393 -0.0108836
2891 14.9393 -0.0108793
2892 14.9393 -0.0108799
2893 14.9393 -0.0108822
2894 14.9393 -0.0108781
2895 14.9393 -0.0108795
2896 14.9393 -0.0108818
2897 14.9393 -0.0108773
2898 14.9393 -0.0108781
2899 14.9393 -0.0108805
2900 14.9393 -0.0108768
2901 14.9393 -0.010878
2902 14.9393 -0.0108805
2903 14.9393 -0.0108762
2904 14.9393 -0.0108771
2905 14.9393 -0.0108796
2906 14.9393 -0.0108757
2907 14.9393 -0.0108769
2908 14.9393 -0.0108798
2909 14.9393 -0.0108764
2910 14.9393 -0.0108775
2911 14.9393 -0.01088
2912 14.9393 -0.0108757
2913 14.9393 -0.0108764
2914 14.9393 -0.0108787
2915 14.9393 -0.0108748
2916 14.9393 -0.0108761
2917 14.9393 -0.0108791
2918 14.9393 -0.0108761
2919 14.9393 -0.0108778
2920 14.9393 -0.0108801
2921 14.9393 -0.0108762
2922 14.9393 -0.0108778
2923 14.9393 -0.0108803
2924 14.9393 -0.0108759
2925 14.9393 -0.0108765
2926 14.9393 -0.0108793
2927 14.9393 -0.0108763
2928 14.9393 -0.0108777
2929 14.9393 -0.0108802
2930 14.9393 -0.0108771
2931 14.9393 -0.0108792
2932 14.9393 -0.0108821
2933 14.9393 -0.0108789
2934 14.9393 -0.0108803
2935 14.9393 -0.0108827
2936 14.9393 -0.010879
2937 14.9393 -0.0108805
2938 14.9393 -0.0108835
2939 14.9393 -0.0108796
2940 14.9393 -0.0108805
2941 14.9393 -0.0108833
2942 14.9393 -0.0108793
2943 14.9393 -0.0108801
2944 14.9393 -0.0108824
2945 14.9393 -0.0108784
2946 14.9393 -0.0108796
2947 14.9393 -0.0108817
2948 14.9393 -0.0108776
2949 14.9393 -0.0108789
2950 14.9393 -0.0108814
2951 14.9393 -0.0108778
2952 14.9393 -0.0108792
2953 14.9393 -0.0108815
2954 14.9393 -0.0108776
2955 14.9393 -0.0108787
2956 14.9393 -0.0108812
2957 14.9393 -0.0108768
2958 14.9393 -0.0108776
2959 14.9393 -0.0108802
2960 14.9393 -0.0108761
2961 14.9393 -0.0108772
2962 14.9393 -0.01088
2963 14.9393 -0.0108765
2964 14.9393 -0.0108778
2965 14.9393 -0.0108804
2966 14.9393 -0.0108761
2967 14.9393 -0.0108769
2968 14.9393 -0.0108791
2969 14.9393 -0.0108745
2970 14.9393 -0.0108753
2971 14.9393 -0.0108776
2972 14.9393 -0.0108739
2973 14.9393 -0.0108755
2974 14.9393 -0.010878
2975 14.9393 -0.0108744
2976 14.9393 -0.0108758
2977 14.9393 -0.0108786
2978 14.9393 -0.010875
2979 14.9393 -0.0108759
2980 14.9393 -0.0108787
2981 14.9393 -0.0108749
2982 14.9393 -0.0108756
2983 14.9393 -0.010878
2984 14.9393 -0.0108737
2985 14.9393 -0.0108744
2986 14.9393 -0.0108774
2987 14.9393 -0.0108736
2988 14.9393 -0.0108743
2989 14.9393 -0.0108767
2990 14.9393 -0.0108723
2991 14.9393 -0.0108729
2992 14.9393 -0.0108756
2993 14.9393 -0.0108723
2994 14.9393 -0.0108739
2995 14.9393 -0.010877
2996 14.9393 -0.010874
2997 14.9393 -0.0108756
2998 14.9393 -0.0108777
2999 14.9393 -0.0108735
3000 14.9393 -0.0108745
3001 14.9393 -0.0108769
3002 14.9393 -0.0108725
3003 14.9393 -0.010873
3004 14.9393 -0.0108755
3005 14.9392 -0.010871
3006 14.9393 -0.0108714
3007 14.9393 -0.0108739
3008 14.9392 -0.0108709
3009 14.9393 -0.010873
3010 14.9393 -0.0108762
3011 14.9393 -0.0108725
3012 14.9393 -0.0108734
3013 14.9393 -0.0108759
3014 14.9393 -0.0108716
3015 14.9393 -0.0108722
3016 14.9393 -0.0108744
3017 14.9392 -0.0108704
3018 14.9393 -0.0108718
3019 14.9393 -0.0108741
3020 14.9392 -0.0108696
3021 14.9392 -0.0108703
3022 14.9393 -0.0108728
3023 14.9392 -0.010869
3024 14.9392 -0.0108703
3025 14.9393 -0.0108728
3026 14.9392 -0.0108684
3027 14.9392 -0.0108693
3028 14.9393 -0.0108718
3029 14.9392 -0.0108679
3030 14.9392 -0.010869
3031 14.9393 -0.010872
3032 14.9392 -0.0108686
3033 14.9392 -0.0108697
3034 14.9393 -0.0108722
3035 14.9392 -0.0108679
3036 14.9392 -0.0108686
3037 14.9392 -0.0108708
3038 14.9392 -0.010867
3039 14.9392 -0.0108683
3040 14.9392 -0.0108705
3041 14.9392 -0.010866
3042 14.9392 -0.0108667
3043 14.9392 -0.0108691
3044 14.9392 -0.0108646
3045 14.9392 -0.0108653
3046 14.9392 -0.0108679
3047 14.9392 -0.0108636
3048 14.9392 -0.0108644
3049 14.9392 -0.0108667
3050 14.9392 -0.010863
3051 14.9392 -0.0108644
3052 14.9392 -0.0108668
3053 14.9392 -0.0108628
3054 14.9392 -0.0108637
3055 14.9392 -0.0108664
3056 14.9392 -0.0108628
3057 14.9392 -0.0108642
3058 14.9392 -0.0108674
3059 14.9392 -0.0108644
3060 14.9392 -0.010866
3061 14.9392 -0.0108684
3062 14.9392 -0.0108639
3063 14.9392 -0.0108647
3064 14.9392 -0.0108675
3065 14.9392 -0.0108634
