1470 6.18735
1500 4.76547
1508 4.31415
1511 4.15243
1513 4.05793
1515 3.99111
1517 3.92181
1519 3.85179
1521 3.79214
1523 3.73005
1525 3.66533
1527 3.60027
1529 3.53355
1531 3.4725
1533 3.41159
1535 3.35312
1537 3.29577
1539 3.23818
1541 3.18173
1543 3.12387
1545 3.09203
1548 3.05025
1550 2.97759
1552 2.86211
1554 2.78955
1564 2.6955
1643 2.01238
1649 1.89994
1651 1.85642
1653 1.83623
1655 1.81935
1657 1.80608
1659 1.79697
1661 1.7914
1663 1.78978
1700 1.67253
2565 0.162731
2566 0.0997988
2567 0.0630694
2568 0.0597
0.193557
1878 0.193502
1879 0.193452
1880 0.19341
1881 0.193372
1882 0.193339
1883 0.193311
1884 0.193286
1885 0.193264
1886 0.193245
1887 0.193229
1888 0.193215
1889 0.193203
1890 0.193193
1891 0.193185
1892 0.193177
1893 0.193171
1894 0.193166
1895 0.193162
1896 0.193159
1897 0.193157
1898 0.193155
1899 0.193153
1900 0.193153
1901 0.193152
1902 0.193153
