1 -4.72267e-07 -0.00034068
2 -4.71505e-07 -0.000342639
3 -1.60131e-06 -0.000211824
4 -3.26342e-05 0.000453407
5 -0.000116028 0.00106898
6 -0.000342411 0.00205111
7 -0.000717783 0.00296978
8 -0.00140299 0.00413021
9 0.000378758 0.0012591
10 0.00327863 -0.000823788
11 0.00646999 -0.00207665
12 0.00978573 -0.00266177
13 0.0132422 -0.00268904
14 0.0163422 -0.00218875
15 0.0195282 -0.00154152
16 0.0196482 -0.00084204
17 0.075938 0.00105356
18 0.143419 0.0153839
19 0.21125 0.0301047
20 0.279121 0.0431151
21 0.347439 0.0544531
22 0.416067 0.0642374
23 0.485092 0.072595
24 0.553206 0.0797703
25 0.622039 0.0857729
26 0.630362 0.091747
27 0.629787 0.0924805
28 0.629665 0.0923405
29 0.632686 0.0921269
30 0.636131 0.0919744
31 0.700981 0.0855353
32 0.770162 0.0791327
33 0.839303 0.0719858
34 0.907505 0.0642794
35 0.976263 0.0560769
36 1.04424 0.0477282
37 1.11274 0.039149
38 1.18114 0.0304943
39 1.24947 0.0217617
40 1.31779 0.0129891
41 1.38609 0.00421142
42 1.4544 -0.00459061
43 1.5227 -0.0133922
44 1.59099 -0.0222195
45 1.6593 -0.0310441
46 1.66248 -0.0308998
47 1.73395 -0.041189
48 1.80238 -0.0508145
49 1.87083 -0.0601343
50 1.93961 -0.0692562
51 2.00776 -0.0780266
52 2.07604 -0.0865243
53 2.14396 -0.0946934
54 2.21236 -0.102725
55 2.28102 -0.110586
56 2.3492 -0.118229
57 2.41777 -0.125785
58 2.48628 -0.133227
59 2.55462 -0.14053
60 2.62308 -0.147799
61 2.62652 -0.147684
62 2.63679 -0.148748
63 2.64471 -0.149306
64 2.64922 -0.149396
65 2.65253 -0.149323
66 2.65558 -0.149125
67 2.65907 -0.148744
68 2.72356 -0.13916
69 2.79213 -0.12323
70 2.85945 -0.106604
71 2.92624 -0.0900679
72 2.99314 -0.0737835
73 3.06002 -0.057821
74 3.12713 -0.0421598
75 3.19424 -0.026824
76 3.26141 -0.0117919
77 3.32886 0.00297906
78 3.39613 0.0174979
79 3.46362 0.0318463
80 3.53107 0.0460121
81 3.59838 0.0599941
82 3.60095 0.0621428
83 3.67261 0.0756074
84 3.73992 0.0896996
85 3.80742 0.103123
86 3.87492 0.115937
87 3.9427 0.128119
88 4.01038 0.139753
89 4.07834 0.1509
90 4.1465 0.161595
91 4.21447 0.171829
92 4.28253 0.181732
93 4.3509 0.191382
94 4.41898 0.200807
95 4.48735 0.210101
96 4.55556 0.219181
97 4.56001 0.219719
98 4.63306 0.229703
99 4.70158 0.239276
100 4.76966 0.248667
101 4.83787 0.257961
102 4.90609 0.267091
103 4.9742 0.276076
104 5.04228 0.284938
105 5.11059 0.293726
106 5.17863 0.302338
107 5.24686 0.310902
108 5.31502 0.319394
109 5.38335 0.327877
110 5.38603 0.328087
111 5.45849 0.337414
112 5.52691 0.346317
113 5.59509 0.355131
114 5.66339 0.3639
115 5.73146 0.372556
116 5.79967 0.381133
117 5.86789 0.389653
118 5.93607 0.398093
119 6.00418 0.406463
120 6.0724 0.414801
121 6.14065 0.423127
122 6.14359 0.423384
123 6.15037 0.424168
124 6.15492 0.424564
125 6.15842 0.424741
126 6.16188 0.424784
127 6.23037 0.422854
128 6.29993 0.416434
129 6.36843 0.40905
130 6.43646 0.401261
131 6.50482 0.393293
132 6.57318 0.385315
133 6.64153 0.377355
134 6.70989 0.369419
135 6.77828 0.361539
136 6.84663 0.353733
137 6.91499 0.345947
138 6.98335 0.338189
139 7.05179 0.330491
140 7.12019 0.322813
141 7.18859 0.315183
142 7.25698 0.307561
143 7.3254 0.299987
144 7.39382 0.292404
145 7.46223 0.284822
146 7.53065 0.277275
147 7.59907 0.269738
148 7.66749 0.262205
149 7.73591 0.254672
150 7.80435 0.247141
151 7.87276 0.239598
152 7.87545 0.238618
153 7.88399 0.237551
154 7.89061 0.236498
155 7.89459 0.235665
156 7.89685 0.235093
157 7.89953 0.234359
158 7.90235 0.233432
159 7.96589 0.20917
160 8.0286 0.178621
161 8.09002 0.147779
162 8.15148 0.116815
163 8.213 0.0859626
164 8.27469 0.0551992
165 8.33641 0.0246325
166 8.39812 -0.00572791
167 8.45993 -0.0359826
168 8.52185 -0.0661383
169 8.58357 -0.0960829
170 8.64568 -0.126052
171 8.70773 -0.155839
172 8.76983 -0.185563
173 8.83194 -0.215223
174 8.89395 -0.244738
175 8.95625 -0.274281
176 9.01847 -0.303703
177 9.08072 -0.333059
178 9.14301 -0.362407
179 9.20533 -0.391693
180 9.26761 -0.420904
181 9.3299 -0.450061
182 9.39225 -0.479228
183 9.45459 -0.50835
184 9.51696 -0.537435
185 9.57934 -0.566515
186 9.64178 -0.595575
187 9.70421 -0.624606
188 9.76659 -0.653612
189 9.82902 -0.682606
190 9.8915 -0.711617
191 9.95391 -0.740573
192 9.95504 -0.741588
193 9.96243 -0.744852
194 9.97078 -0.747834
195 9.98 -0.750191
196 9.98892 -0.751375
197 9.99438 -0.751192
198 9.99607 -0.750794
199 9.99802 -0.750611
200 10.0006 -0.75011
201 10.0615 -0.731257
202 10.1234 -0.699828
203 10.1843 -0.667592
204 10.2456 -0.635775
205 10.3072 -0.604704
206 10.3694 -0.574473
207 10.4317 -0.545217
208 10.4948 -0.516703
209 10.5579 -0.489069
210 10.6211 -0.462206
211 10.6847 -0.435948
212 10.7485 -0.410211
213 10.8122 -0.385035
214 10.8766 -0.360096
215 10.9411 -0.335549
216 11.0055 -0.311344
217 11.07 -0.28737
218 11.1348 -0.263498
219 11.1996 -0.239816
220 11.2644 -0.216336
221 11.329 -0.193027
222 11.3938 -0.169812
223 11.4586 -0.146737
224 11.5234 -0.123668
225 11.5052 -0.128316
226 11.5036 -0.129438
227 11.506 -0.128687
228 11.509 -0.127194
229 11.5118 -0.12539
230 11.5151 -0.12299
231 11.519 -0.11975
232 11.5222 -0.117027
233 11.525 -0.115048
234 11.5279 -0.113358
235 11.5315 -0.111674
236 11.5354 -0.110158
237 11.5386 -0.109222
238 11.5424 -0.108401
239 11.5458 -0.107997
240 11.5492 -0.107889
241 11.5526 -0.108112
242 11.5555 -0.108593
243 11.5578 -0.109165
244 11.5605 -0.109899
245 11.6239 -0.126397
246 11.6884 -0.152816
247 11.752 -0.17971
248 11.8155 -0.206082
249 11.8794 -0.23183
250 11.9437 -0.256911
251 12.0082 -0.281372
252 12.0723 -0.305028
253 12.1374 -0.32829
254 12.2023 -0.35104
255 12.2043 -0.355711
256 12.2119 -0.358122
257 12.2168 -0.359477
258 12.2205 -0.360202
259 12.2242 -0.360647
260 12.2277 -0.360836
261 12.2309 -0.360837
262 12.298 -0.358884
263 12.3671 -0.352841
264 12.4358 -0.34646
265 12.5041 -0.340273
266 12.5726 -0.334465
267 12.6411 -0.32918
268 12.7098 -0.324408
269 12.7785 -0.320102
270 12.8473 -0.316233
271 12.9163 -0.312738
272 12.985 -0.309577
273 13.0535 -0.306701
274 13.1223 -0.304044
275 13.1912 -0.301576
276 13.2599 -0.299275
277 13.3287 -0.297113
278 13.3974 -0.295058
279 13.4661 -0.293121
280 13.5351 -0.291244
281 13.6039 -0.289467
282 13.6727 -0.287733
283 13.7415 -0.286037
284 13.8104 -0.284392
285 13.8792 -0.282768
286 13.9481 -0.28117
287 14.0169 -0.27959
288 14.0858 -0.278045
289 14.1546 -0.276513
290 14.2234 -0.274988
291 14.2922 -0.273445
292 14.3611 -0.271917
293 14.4299 -0.270402
294 14.4987 -0.268896
295 14.5675 -0.26737
296 14.6363 -0.265849
297 14.7052 -0.264335
298 14.774 -0.26283
299 14.8428 -0.26131
300 14.9117 -0.259809
301 14.9805 -0.258324
302 15.0493 -0.256816
303 15.0529 -0.256672
304 15.0634 -0.256517
305 15.0748 -0.256671
306 15.0867 -0.257393
307 15.0964 -0.258693
308 15.0996 -0.25959
309 15.1014 -0.260089
310 15.1033 -0.26065
311 15.1067 -0.261905
312 15.1677 -0.289719
313 15.2267 -0.325961
314 15.2849 -0.36282
315 15.3431 -0.399657
316 15.4014 -0.436243
317 15.4601 -0.472549
318 15.519 -0.508455
319 15.5782 -0.544053
320 15.6374 -0.57924
321 15.6968 -0.614149
322 15.7562 -0.648864
323 15.8158 -0.683438
324 15.8752 -0.717813
325 15.9349 -0.75209
326 15.9947 -0.786257
327 16.0545 -0.820299
328 16.1143 -0.854195
329 16.1742 -0.88806
330 16.2343 -0.921849
331 16.2943 -0.955528
332 16.3543 -0.989163
333 16.4144 -1.02272
334 16.4746 -1.05622
335 16.5347 -1.0897
336 16.5949 -1.12314
337 16.655 -1.15649
338 16.7153 -1.18986
339 16.7756 -1.22315
340 16.8358 -1.25642
341 16.8961 -1.28965
342 16.9564 -1.32288
343 17.0167 -1.35608
344 17.077 -1.38929
345 17.1374 -1.42248
346 17.1977 -1.45565
347 17.258 -1.48881
348 17.3183 -1.52197
349 17.3786 -1.5551
350 17.439 -1.58825
351 17.4993 -1.62139
352 17.5596 -1.65452
353 17.62 -1.68761
354 17.6803 -1.72072
355 17.7407 -1.75384
356 17.801 -1.78694
357 17.8614 -1.82006
358 17.9217 -1.85315
359 17.9821 -1.88625
360 18.0425 -1.91935
361 18.1028 -1.95242
362 18.1632 -1.98552
363 18.2236 -2.01859
364 18.284 -2.05165
365 18.3443 -2.08469
366 18.4047 -2.11774
367 18.4651 -2.15078
368 18.5255 -2.18384
369 18.5859 -2.21687
370 18.6463 -2.24993
371 18.7066 -2.28296
372 18.767 -2.31598
373 18.8274 -2.349
374 18.8878 -2.38206
375 18.9482 -2.41508
376 19.0086 -2.44811
377 19.069 -2.48113
378 19.1294 -2.51416
379 19.1898 -2.5472
380 19.2502 -2.58021
381 19.3106 -2.61321
382 19.371 -2.64623
383 19.4314 -2.67924
384 19.4918 -2.71225
385 19.5522 -2.74525
386 19.6126 -2.77825
387 19.673 -2.81126
388 19.7334 -2.84428
389 19.7938 -2.87728
390 19.8542 -2.91028
391 19.9147 -2.94327
392 19.9751 -2.97628
393 20.0355 -3.00928
394 20.0959 -3.04227
395 20.1564 -3.07525
396 20.2168 -3.10823
397 20.2772 -3.14123
398 20.3376 -3.1742
399 20.398 -3.20718
400 20.4585 -3.24015
401 20.5189 -3.27313
402 20.5793 -3.30611
403 20.6398 -3.33908
404 20.7002 -3.37206
405 20.7606 -3.40502
406 20.8211 -3.43798
407 20.8815 -3.47095
408 20.942 -3.5039
409 21.0024 -3.53684
410 21.0038 -3.53757
411 21.0684 -3.57299
412 21.129 -3.60609
413 21.1896 -3.6385
414 21.2504 -3.67043
415 21.3117 -3.70187
416 21.3731 -3.73283
417 21.4346 -3.76324
418 21.4967 -3.79342
419 21.5586 -3.82318
420 21.6208 -3.85273
421 21.6831 -3.88214
422 21.7454 -3.91132
423 21.8076 -3.94031
424 21.8701 -3.96921
425 21.9326 -3.99797
426 21.9952 -4.02664
427 22.0578 -4.05518
428 22.1205 -4.08365
429 22.1831 -4.11201
430 22.2458 -4.14036
431 22.3088 -4.16867
432 22.3715 -4.1969
433 22.4344 -4.2251
434 22.4972 -4.25326
435 22.56 -4.28137
436 22.6228 -4.30946
437 22.6857 -4.33754
438 22.7486 -4.36559
439 22.8115 -4.39362
440 22.8743 -4.42163
441 22.9372 -4.44963
442 23.0001 -4.4776
443 23.063 -4.50556
444 23.1259 -4.53353
445 23.1889 -4.56151
446 23.2518 -4.58947
447 23.3147 -4.61739
448 23.3776 -4.64533
449 23.4405 -4.67327
450 23.5034 -4.70118
451 23.5663 -4.7291
452 23.6293 -4.75703
453 23.6922 -4.78494
454 23.7551 -4.81285
455 23.818 -4.84073
456 23.8809 -4.86861
457 23.9439 -4.8965
458 24.0068 -4.92438
459 24.0698 -4.95226
460 24.1327 -4.98014
461 24.1957 -5.00801
462 24.2586 -5.03587
463 24.3215 -5.06375
464 24.3845 -5.0916
465 24.4475 -5.11945
466 24.5104 -5.14731
467 24.5734 -5.17512
468 24.6363 -5.20296
469 24.6993 -5.2308
470 24.7623 -5.25864
471 24.8252 -5.28648
472 24.8882 -5.3143
473 24.9511 -5.34214
474 24.9529 -5.34285
475 25.0206 -5.3732
476 25.0835 -5.40165
477 25.1463 -5.42997
478 25.209 -5.45823
479 25.2718 -5.48648
480 25.3347 -5.5147
481 25.3975 -5.54287
482 25.4603 -5.571
483 25.5232 -5.5991
484 25.5861 -5.62716
485 25.6489 -5.65518
486 25.7118 -5.6832
487 25.7747 -5.7112
488 25.8376 -5.73921
489 25.9005 -5.76719
490 25.9634 -5.79517
491 26.0263 -5.82315
492 26.0892 -5.85111
493 26.1521 -5.87906
494 26.215 -5.90699
495 26.2779 -5.93489
496 26.3408 -5.96281
497 26.4038 -5.99073
498 26.4667 -6.01863
499 26.5296 -6.04651
500 26.5925 -6.07442
501 26.6555 -6.1023
502 26.7184 -6.13019
503 26.7814 -6.15806
504 26.8443 -6.18593
505 26.9072 -6.2138
506 26.9702 -6.24167
507 26.9721 -6.2425
508 27.0398 -6.27288
509 27.1027 -6.30146
510 27.1654 -6.32988
511 27.228 -6.35818
512 27.2909 -6.38655
513 27.3536 -6.41481
514 27.4164 -6.443
515 27.4794 -6.47125
516 27.5422 -6.49936
517 27.605 -6.52747
518 27.6678 -6.55547
519 27.7306 -6.58347
520 27.7933 -6.61149
521 27.8561 -6.63948
522 27.919 -6.6675
523 27.9206 -6.66815
524 27.9285 -6.67149
525 27.9375 -6.6746
526 27.9468 -6.67677
527 27.955 -6.67766
528 27.9584 -6.67733
529 27.9603 -6.67713
530 27.9618 -6.67702
531 27.9638 -6.67675
532 28.0243 -6.6585
533 28.0867 -6.62768
534 28.1475 -6.59622
535 28.2089 -6.56525
536 28.2711 -6.53493
537 28.3337 -6.50556
538 28.3965 -6.47712
539 28.459 -6.44976
540 28.5224 -6.42303
541 28.5861 -6.39697
542 28.6505 -6.37138
543 28.7145 -6.34651
544 28.7788 -6.32207
545 28.8437 -6.29789
546 28.9085 -6.27411
547 28.9733 -6.25053
548 29.0382 -6.22712
549 29.103 -6.20389
550 29.1678 -6.18083
551 29.2325 -6.158
552 29.2974 -6.13524
553 29.3623 -6.11264
554 29.4275 -6.09009
555 29.4925 -6.0677
556 29.4939 -6.06578
557 29.5631 -6.04326
558 29.6285 -6.02058
559 29.6936 -5.99804
560 29.7587 -5.9756
561 29.8238 -5.95323
562 29.8889 -5.93092
563 29.9541 -5.90866
564 30.0193 -5.88649
565 30.0845 -5.86436
566 30.1497 -5.84224
567 30.1521 -5.84076
568 30.1612 -5.83791
569 30.1709 -5.83568
570 30.1814 -5.83445
571 30.1923 -5.83461
572 30.2033 -5.83646
573 30.2096 -5.83912
574 30.2081 -5.83922
575 30.2107 -5.84008
576 30.2131 -5.84188
577 30.2153 -5.84413
578 30.2173 -5.84647
579 30.2588 -5.89511
580 30.2926 -5.95527
581 30.3256 -6.01577
582 30.3592 -6.07617
583 30.3933 -6.13618
584 30.4281 -6.19595
585 30.4632 -6.25512
586 30.4989 -6.31399
587 30.5349 -6.37233
588 30.5716 -6.43061
589 30.6086 -6.48864
590 30.6459 -6.54639
591 30.6834 -6.60391
592 30.7213 -6.6613
593 30.7596 -6.71888
594 30.798 -6.77617
595 30.8365 -6.83329
596 30.8752 -6.89028
597 30.914 -6.94726
598 30.9527 -7.00405
599 30.9916 -7.06072
600 31.0307 -7.11749
601 31.0697 -7.17414
602 31.1089 -7.23083
603 31.1481 -7.28744
604 31.1476 -7.2899
605 31.1495 -7.29256
606 31.1519 -7.29542
607 31.1543 -7.298
608 31.1568 -7.3004
609 31.1592 -7.30254
610 31.1619 -7.3047
611 31.2172 -7.34752
612 31.2746 -7.38606
613 31.332 -7.42385
614 31.3897 -7.46157
615 31.4474 -7.49915
616 31.5051 -7.53676
617 31.5627 -7.57442
618 31.6203 -7.61209
619 31.6778 -7.64982
620 31.7354 -7.68761
621 31.7929 -7.72541
622 31.8504 -7.76324
623 31.9079 -7.80109
624 31.9654 -7.83896
625 32.0229 -7.87686
626 32.0803 -7.91477
627 32.1378 -7.9527
628 32.1952 -7.99065
629 32.2526 -8.0286
630 32.3101 -8.06656
631 32.3675 -8.10454
632 32.4249 -8.14253
633 32.4823 -8.1805
634 32.5397 -8.21849
635 32.5971 -8.25648
636 32.6545 -8.29448
637 32.7119 -8.33249
638 32.7693 -8.37049
639 32.8267 -8.40849
640 32.8841 -8.4465
641 32.9415 -8.48452
642 32.9989 -8.52254
643 33.0562 -8.56056
644 33.1136 -8.59857
645 33.171 -8.63659
646 33.2284 -8.67462
647 33.2858 -8.71271
648 33.3433 -8.75078
649 33.4007 -8.78879
650 33.458 -8.82661
651 33.5154 -8.86452
652 33.5729 -8.90246
653 33.6305 -8.94041
654 33.6878 -8.97808
655 33.7453 -9.01583
656 33.8028 -9.05363
657 33.8604 -9.09149
658 33.918 -9.1293
659 33.9758 -9.16718
660 34.0339 -9.20511
661 34.0914 -9.24256
662 34.1491 -9.28009
663 34.2069 -9.31766
664 34.2652 -9.35512
665 34.3236 -9.39181
666 34.3829 -9.42822
667 34.4422 -9.46388
668 34.5019 -9.49898
669 34.5621 -9.53367
670 34.6212 -9.56717
671 34.6812 -9.60118
672 34.7409 -9.63555
673 34.7974 -9.66865
674 34.7954 -9.66704
675 34.7871 -9.6619
676 34.7688 -9.65154
677 34.751 -9.64363
678 34.7358 -9.63913
679 34.7249 -9.63784
680 34.7166 -9.63828
681 34.7155 -9.63987
682 34.724 -9.63924
683 34.7304 -9.63613
684 34.7333 -9.63375
685 34.7358 -9.63195
686 34.7888 -9.59825
687 34.8377 -9.54969
688 34.8862 -9.50031
689 34.9348 -9.45153
690 34.9841 -9.40339
691 35.0341 -9.35591
692 35.0849 -9.30906
693 35.1359 -9.26307
694 35.1879 -9.21754
695 35.2402 -9.1725
696 35.2926 -9.1281
697 35.3455 -9.08414
698 35.3988 -9.04043
699 35.4524 -8.99711
700 35.5063 -8.954
701 35.5603 -8.91121
702 35.6145 -8.86864
703 35.6687 -8.82634
704 35.7232 -8.78416
705 35.7778 -8.74205
706 35.8325 -8.70012
707 35.8328 -8.69683
708 35.8905 -8.65563
709 35.9457 -8.61379
710 36.0005 -8.57215
711 36.0554 -8.53056
712 36.1103 -8.48909
713 36.1654 -8.44761
714 36.166 -8.44528
715 36.2256 -8.40215
716 36.2808 -8.36058
717 36.2819 -8.35823
718 36.3402 -8.3159
719 36.3389 -8.31556
720 36.396 -8.2738
721 36.4515 -8.23205
722 36.4528 -8.22987
723 36.5126 -8.18576
724 36.5149 -8.18292
725 36.5717 -8.14031
726 36.5749 -8.13684
727 36.6306 -8.09454
728 36.6302 -8.09387
729 36.6795 -8.05616
730 36.6794 -8.05538
731 36.737 -8.01111
732 36.7375 -8.00982
733 36.7924 -7.96747
734 36.7988 -7.96183
735 36.8525 -7.92029
736 36.8508 -7.92097
737 36.9039 -7.88009
738 36.9047 -7.87901
739 36.9549 -7.84061
740 37.0106 -7.79771
741 37.0157 -7.79356
742 37.0705 -7.75231
743 37.0695 -7.75296
744 37.1192 -7.71604
745 37.1194 -7.71592
746 37.1733 -7.6764
747 37.2306 -7.6347
748 37.237 -7.63024
749 37.2936 -7.58925
750 37.2994 -7.58534
751 37.3578 -7.54318
752 37.3657 -7.53773
753 37.4279 -7.49338
754 37.438 -7.48656
755 37.4966 -7.44509
756 37.505 -7.4394
757 37.5662 -7.39622
758 37.5711 -7.39298
759 37.6327 -7.34941
760 37.6367 -7.34678
761 37.6387 -7.34533
762 37.6414 -7.34325
763 37.6442 -7.3409
764 37.6465 -7.33876
765 37.6465 -7.33877
766 37.6466 -7.33875
767 37.6467 -7.33876
768 37.6467 -7.3388
769 37.6478 -7.33788
770 37.6484 -7.33733
771 37.6498 -7.33648
772 37.6513 -7.33589
773 37.6525 -7.33567
774 37.654 -7.3357
775 37.6567 -7.33643
776 37.6585 -7.33772
777 37.6598 -7.33906
778 37.6619 -7.34132
779 37.6636 -7.34403
780 37.6995 -7.3906
781 37.7285 -7.45318
782 37.7572 -7.51576
783 37.7876 -7.57816
784 37.8194 -7.63991
785 37.8525 -7.70066
786 37.8869 -7.76049
787 37.9225 -7.81951
788 37.9596 -7.87848
789 37.9972 -7.93656
790 38.0356 -7.99402
791 38.0743 -8.05058
792 38.1139 -8.107
793 38.1539 -8.16293
794 38.1945 -8.21873
795 38.2353 -8.27408
796 38.2763 -8.32891
797 38.3177 -8.38375
798 38.3597 -8.43874
799 38.4018 -8.49344
800 38.444 -8.54796
801 38.4861 -8.60203
802 38.5286 -8.65629
803 38.5712 -8.71045
804 38.6139 -8.76446
805 38.6568 -8.81857
806 38.6996 -8.87248
807 38.7425 -8.9263
808 38.7855 -8.98011
809 38.8286 -9.03382
810 38.8717 -9.08757
811 38.9148 -9.14122
812 38.958 -9.19485
813 39.0011 -9.24845
814 39.0444 -9.30204
815 39.0876 -9.35563
816 39.0964 -9.36737
817 39.0983 -9.36964
818 39.1007 -9.37203
819 39.1034 -9.37444
820 39.1065 -9.37684
821 39.1094 -9.37876
822 39.1125 -9.38053
823 39.1155 -9.38193
824 39.119 -9.38328
825 39.1226 -9.38425
826 39.126 -9.38482
827 39.1295 -9.38509
828 39.1326 -9.38498
829 39.1354 -9.38465
830 39.1379 -9.38415
831 39.1402 -9.38351
832 39.1426 -9.38269
833 39.1458 -9.38138
834 39.2046 -9.35803
835 39.2638 -9.32224
836 39.3224 -9.28558
837 39.3811 -9.24908
838 39.4399 -9.21293
839 39.499 -9.17717
840 39.5584 -9.14176
841 39.6179 -9.10673
842 39.6775 -9.07211
843 39.7373 -9.03772
844 39.7977 -9.00342
845 39.7998 -8.99682
846 39.8072 -8.99304
847 39.816 -8.98961
848 39.8256 -8.98712
849 39.8359 -8.98586
850 39.8468 -8.98619
851 39.8478 -8.98702
852 39.8477 -8.98694
853 39.85 -8.98755
854 39.8525 -8.98875
855 39.9102 -9.01939
856 39.9658 -9.06063
857 40.021 -9.10201
858 40.0763 -9.14276
859 40.1324 -9.18275
860 40.1889 -9.22184
861 40.2463 -9.26026
862 40.3041 -9.29791
863 40.3622 -9.33471
864 40.4204 -9.37069
865 40.4792 -9.40619
866 40.5386 -9.44132
867 40.5982 -9.47601
868 40.6579 -9.51026
869 40.7178 -9.54418
870 40.7777 -9.57779
871 40.8377 -9.61114
872 40.898 -9.64439
873 40.9583 -9.67747
874 41.0188 -9.71042
875 41.0792 -9.74322
876 41.0926 -9.75159
877 41.0991 -9.75501
878 41.1045 -9.75731
879 41.1085 -9.75862
880 41.1128 -9.7597
881 41.1164 -9.76023
882 41.1199 -9.76049
883 41.123 -9.76051
884 41.1895 -9.75929
885 41.2584 -9.75012
886 41.3266 -9.74031
887 41.395 -9.73087
888 41.463 -9.72214
889 41.5311 -9.71431
890 41.5998 -9.70723
891 41.6684 -9.7009
892 41.7369 -9.69526
893 41.8058 -9.6902
894 41.8102 -9.68725
895 41.8833 -9.68497
896 41.9524 -9.6806
897 42.0209 -9.6764
898 42.0898 -9.67242
899 42.1586 -9.66862
900 42.2272 -9.665
901 42.2959 -9.66156
902 42.3646 -9.65823
903 42.4332 -9.65502
904 42.5021 -9.65188
905 42.5709 -9.64882
906 42.6397 -9.64582
907 42.7083 -9.64289
908 42.7771 -9.63999
909 42.8459 -9.63713
910 42.9147 -9.63427
911 42.9835 -9.63145
912 43.0522 -9.62866
913 43.121 -9.62589
914 43.1898 -9.62313
915 43.2586 -9.62039
916 43.3274 -9.61764
917 43.3962 -9.61488
918 43.465 -9.61215
919 43.5338 -9.60943
920 43.6026 -9.60669
921 43.6713 -9.60399
922 43.7401 -9.60127
923 43.8089 -9.59855
924 43.8777 -9.59584
925 43.9465 -9.59312
926 44.0152 -9.5904
927 44.084 -9.58767
928 44.1528 -9.58497
929 44.2217 -9.58226
930 44.2904 -9.57955
931 44.3592 -9.57684
932 44.428 -9.57413
933 44.4968 -9.57142
934 44.5656 -9.56873
935 44.6343 -9.56603
936 44.7031 -9.56335
937 44.7719 -9.56066
938 44.8407 -9.55797
939 44.9095 -9.5553
940 44.9782 -9.55263
941 45.047 -9.54997
942 45.1158 -9.54729
943 45.1198 -9.547
944 45.1265 -9.54664
945 45.1335 -9.54607
946 45.1413 -9.54507
947 45.149 -9.54358
948 45.1504 -9.54301
949 45.1521 -9.54257
950 45.1548 -9.54158
951 45.1577 -9.54018
952 45.161 -9.53827
953 45.1635 -9.53648
954 45.1659 -9.53467
955 45.2205 -9.4924
956 45.2694 -9.443
957 45.3171 -9.39333
958 45.3648 -9.34363
959 45.4125 -9.29413
960 45.4603 -9.24483
961 45.5084 -9.1955
962 45.5564 -9.14644
963 45.6047 -9.09743
964 45.6532 -9.04851
965 45.6523 -9.0435
966 45.7061 -8.99484
967 45.7543 -8.94562
968 45.8018 -8.89541
969 45.8485 -8.84456
970 45.8944 -8.79314
971 45.9394 -8.74135
972 45.984 -8.6888
973 46.0278 -8.63586
974 46.0712 -8.58248
975 46.1142 -8.52873
976 46.1568 -8.47456
977 46.1991 -8.42013
978 46.241 -8.36553
979 46.2828 -8.31076
980 46.3245 -8.25569
981 46.3657 -8.20078
982 46.3631 -8.19986
983 46.4076 -8.14408
984 46.4068 -8.14154
985 46.4498 -8.08722
986 46.4917 -8.0311
987 46.4964 -8.02171
988 46.5415 -7.96292
989 46.5444 -7.9561
990 46.5858 -7.90153
991 46.583 -7.9027
992 46.6282 -7.84272
993 46.6278 -7.84076
994 46.6676 -7.78722
995 46.7085 -7.73018
996 46.7122 -7.72282
997 46.754 -7.66607
998 46.7536 -7.66477
999 46.7937 -7.60983
1000 46.795 -7.60629
1001 46.8345 -7.55181
1002 46.833 -7.55248
1003 46.8687 -7.50298
1004 46.8655 -7.50604
1005 46.9028 -7.45412
1006 46.9428 -7.39645
1007 46.9474 -7.38825
1008 46.9557 -7.37545
1009 46.9602 -7.36729
1010 46.9602 -7.3663
1011 46.9611 -7.36399
1012 46.9626 -7.35745
1013 46.9629 -7.35133
1014 46.9624 -7.34946
1015 46.9624 -7.35452
1016 46.9633 -7.35463
1017 46.9636 -7.35454
1018 46.9638 -7.35389
1019 46.9638 -7.35471
1020 46.9641 -7.35369
1021 46.9649 -7.35129
1022 46.9636 -7.35378
1023 46.963 -7.35394
1024 46.968 -7.34983
1025 46.9706 -7.34973
1026 46.9715 -7.34996
1027 46.9769 -7.35009
1028 46.9812 -7.35198
1029 46.9825 -7.35322
1030 46.9851 -7.35425
1031 46.9872 -7.35539
1032 46.9906 -7.35664
1033 46.9928 -7.35757
1034 46.9961 -7.35814
1035 46.9991 -7.35845
1036 47.0035 -7.35834
1037 47.0072 -7.3581
1038 47.0071 -7.35827
1039 47.007 -7.35826
1040 47.007 -7.35823
1041 47.0067 -7.3583
1042 47.0063 -7.3584
1043 47.0069 -7.35819
1044 47.011 -7.35653
1045 47.0139 -7.35489
1046 47.0164 -7.35328
1047 47.0187 -7.35164
1048 47.0734 -7.31369
1049 47.127 -7.26919
1050 47.1794 -7.22474
1051 47.232 -7.18012
1052 47.2847 -7.13569
1053 47.3376 -7.09147
1054 47.3905 -7.0476
1055 47.4436 -7.00394
1056 47.4971 -6.96038
1057 47.5506 -6.917
1058 47.6042 -6.87377
1059 47.6582 -6.83051
1060 47.6583 -6.82804
1061 47.6626 -6.82475
1062 47.6657 -6.82275
1063 47.6695 -6.82076
1064 47.673 -6.81928
1065 47.6764 -6.81821
1066 47.6804 -6.81725
1067 47.6832 -6.81684
1068 47.7491 -6.80589
1069 47.8186 -6.8016
1070 47.8874 -6.79801
1071 47.9561 -6.79425
1072 48.0249 -6.78995
1073 48.0935 -6.78497
1074 48.1622 -6.77929
1075 48.2306 -6.77301
1076 48.2994 -6.76609
1077 48.3679 -6.75872
1078 48.4368 -6.75086
1079 48.4418 -6.75247
1080 48.4518 -6.75099
1081 48.4613 -6.74886
1082 48.47 -6.74588
1083 48.4783 -6.74169
1084 48.4837 -6.73757
1085 48.4855 -6.73517
1086 48.4875 -6.73239
1087 48.489 -6.7292
1088 48.4899 -6.72591
1089 48.4903 -6.72283
1090 48.4904 -6.71983
1091 48.4951 -6.65937
1092 48.486 -6.59105
1093 48.4764 -6.5226
1094 48.4682 -6.45418
1095 48.4619 -6.38658
1096 48.4579 -6.31728
1097 48.4554 -6.24816
1098 48.4546 -6.17934
1099 48.449 -6.1702
1100 48.448 -6.17106
1101 48.4482 -6.17154
1102 48.4484 -6.17165
1103 48.4486 -6.17103
1104 48.449 -6.16888
1105 48.45 -6.16476
1106 48.4509 -6.16127
1107 48.4524 -6.15693
1108 48.4537 -6.15364
1109 48.4808 -6.09088
1110 48.5109 -6.02799
1111 48.5408 -5.96586
1112 48.5706 -5.90381
1113 48.5729 -5.90174
1114 48.6035 -5.83603
1115 48.6068 -5.83174
1116 48.639 -5.76455
1117 48.641 -5.76316
1118 48.6731 -5.69742
1119 48.6744 -5.69742
1120 48.7067 -5.63309
1121 48.7073 -5.63434
1122 48.7403 -5.5707
1123 48.7412 -5.57162
1124 48.7742 -5.50961
1125 48.8077 -5.44894
1126 48.809 -5.44867
1127 48.8087 -5.44935
1128 48.8086 -5.44942
1129 48.8086 -5.44944
1130 48.8086 -5.44945
1131 48.8368 -5.38903
1132 48.8662 -5.32549
1133 48.8945 -5.26304
1134 48.9227 -5.20016
1135 48.9226 -5.19943
1136 48.9255 -5.19254
1137 48.9265 -5.18951
1138 48.9276 -5.18536
1139 48.9283 -5.18154
1140 48.9286 -5.17798
1141 48.9287 -5.1747
1142 48.9285 -5.17532
1143 48.9287 -5.17532
1144 48.9288 -5.17614
1145 48.9289 -5.17636
1146 48.929 -5.17629
1147 48.9292 -5.17545
1148 48.9297 -5.17399
1149 48.931 -5.17175
1150 48.9335 -5.16905
1151 48.9366 -5.16689
1152 48.9402 -5.16548
1153 48.9438 -5.16488
1154 48.9472 -5.16492
1155 48.95 -5.16536
1156 48.9495 -5.16581
1157 48.9494 -5.16556
1158 49.0072 -5.16846
1159 49.014 -5.17953
1160 49.0163 -5.18086
1161 49.0164 -5.18112
1162 49.0167 -5.18106
1163 49.0168 -5.18101
1164 49.0168 -5.18095
1165 49.0167 -5.18092
1166 49.0167 -5.18087
1167 49.0167 -5.18082
1168 49.0175 -5.18071
1169 49.0187 -5.18054
1170 49.0199 -5.18033
1171 49.0207 -5.18011
1172 49.0212 -5.17994
1173 49.0238 -5.17868
1174 49.0264 -5.17694
1175 49.028 -5.17549
1176 49.03 -5.17353
1177 49.0324 -5.17099
1178 49.0788 -5.12292
1179 49.121 -5.06734
1180 49.162 -5.01174
1181 49.203 -4.95626
1182 49.2442 -4.901
1183 49.2859 -4.84579
1184 49.3277 -4.791
1185 49.3698 -4.73651
1186 49.4122 -4.68208
1187 49.4111 -4.67773
1188 49.458 -4.62377
1189 49.5009 -4.56958
1190 49.5007 -4.56488
1191 49.4993 -4.56597
1192 49.4995 -4.56603
1193 49.4994 -4.56631
1194 49.4995 -4.56628
1195 49.4996 -4.56636
1196 49.538 -4.51234
1197 49.576 -4.45376
1198 49.6131 -4.39577
1199 49.6503 -4.33775
1200 49.6489 -4.33531
1201 49.691 -4.27431
1202 49.7285 -4.21641
1203 49.7277 -4.2141
1204 49.7697 -4.15346
1205 49.8083 -4.09569
1206 49.847 -4.03845
1207 49.8856 -3.982
1208 49.8856 -3.98012
1209 49.9287 -3.91995
1210 49.9282 -3.91927
1211 49.9716 -3.85932
1212 49.9723 -3.85738
1213 50.0144 -3.79964
1214 50.0144 -3.79885
1215 50.0547 -3.7439
1216 50.0549 -3.74318
1217 50.0586 -3.7379
1218 50.0615 -3.73325
1219 50.0634 -3.72957
1220 50.0652 -3.7246
1221 50.0652 -3.72344
1222 50.066 -3.71884
1223 50.0658 -3.71608
1224 50.0657 -3.7169
1225 50.066 -3.71746
1226 50.0663 -3.71871
1227 50.0666 -3.72022
1228 50.0667 -3.72133
1229 50.0667 -3.72195
1230 50.0667 -3.72217
1231 50.0668 -3.72177
1232 50.0691 -3.71867
1233 50.0719 -3.71653
1234 50.0754 -3.71483
1235 50.0791 -3.71396
1236 50.0825 -3.71384
1237 50.0855 -3.7142
1238 50.0885 -3.7147
1239 50.0884 -3.71518
1240 50.1472 -3.7184
1241 50.1537 -3.72928
1242 50.1563 -3.73061
1243 50.1561 -3.73092
1244 50.1563 -3.73081
1245 50.1566 -3.73076
1246 50.1566 -3.73072
1247 50.1568 -3.73065
1248 50.1568 -3.73063
1249 50.1561 -3.73064
1250 50.1551 -3.73068
1251 50.1533 -3.73088
1252 50.15 -3.73147
1253 50.1465 -3.73238
1254 50.1438 -3.73344
1255 50.1413 -3.73488
1256 50.1463 -3.7318
1257 50.1483 -3.72941
1258 50.1503 -3.72661
1259 50.1519 -3.72385
1260 50.1534 -3.72045
1261 50.1546 -3.71713
1262 50.181 -3.65774
1263 50.1986 -3.59055
1264 50.2154 -3.52348
1265 50.2326 -3.45645
1266 50.2506 -3.38968
1267 50.2694 -3.32328
1268 50.2655 -3.31526
1269 50.2644 -3.31603
1270 50.2645 -3.31614
1271 50.2647 -3.31589
1272 50.2667 -3.3119
1273 50.2687 -3.30808
1274 50.2708 -3.30451
1275 50.2728 -3.30146
1276 50.2746 -3.29898
1277 50.3179 -3.24231
1278 50.3616 -3.1885
1279 50.4055 -3.13492
1280 50.4492 -3.0817
1281 50.4928 -3.0284
1282 50.5364 -2.97497
1283 50.5798 -2.92161
1284 50.6231 -2.86803
1285 50.6663 -2.81436
1286 50.7094 -2.76069
1287 50.7111 -2.75919
1288 50.7572 -2.70129
1289 50.8008 -2.64745
1290 50.8022 -2.64646
1291 50.8492 -2.58911
1292 50.8514 -2.58743
1293 50.8943 -2.53599
1294 50.8958 -2.5351
1295 50.9446 -2.47745
1296 50.9454 -2.47748
1297 50.9939 -2.42076
1298 50.9961 -2.41914
1299 51.0411 -2.36696
1300 51.0401 -2.36903
1301 51.0872 -2.31471
1302 51.0897 -2.31262
1303 51.1389 -2.25628
1304 51.1868 -2.20248
1305 51.1927 -2.19678
1306 51.2021 -2.18601
1307 51.2087 -2.1775
1308 51.2136 -2.16971
1309 51.2165 -2.16326
1310 51.2174 -2.15909
1311 51.2172 -2.15876
1312 51.2176 -2.15707
1313 51.2177 -2.15126
1314 51.217 -2.15037
1315 51.2172 -2.15295
1316 51.2179 -2.15492
1317 51.2184 -2.1556
1318 51.2186 -2.1558
1319 51.2188 -2.1546
1320 51.2205 -2.14873
1321 51.2216 -2.14602
1322 51.2228 -2.14373
1323 51.2257 -2.13894
1324 51.2614 -2.08337
1325 51.3043 -2.02702
1326 51.346 -1.9728
1327 51.386 -1.91794
1328 51.4259 -1.85975
1329 51.4352 -1.84867
1330 51.4334 -1.85268
1331 51.4341 -1.85124
1332 51.4339 -1.85181
1333 51.4337 -1.8522
1334 51.434 -1.85158
1335 51.4341 -1.8514
1336 51.4353 -1.84906
1337 51.4385 -1.84379
1338 51.4407 -1.84117
1339 51.4436 -1.83818
1340 51.4461 -1.83596
1341 51.4936 -1.79348
1342 51.5512 -1.7529
1343 51.6082 -1.71422
1344 51.6654 -1.67492
1345 51.7218 -1.63552
1346 51.7778 -1.59543
1347 51.8331 -1.55502
1348 51.8371 -1.55678
1349 51.8366 -1.55767
1350 51.8364 -1.55774
1351 51.8363 -1.55776
1352 51.8374 -1.55638
1353 51.8385 -1.55412
1354 51.8393 -1.551
1355 51.8393 -1.54774
1356 51.8387 -1.54431
1357 51.8378 -1.5421
1358 51.8205 -1.48475
1359 51.7861 -1.42526
1360 51.7501 -1.36611
1361 51.7154 -1.30675
1362 51.6822 -1.24549
1363 51.6509 -1.1836
1364 51.6417 -1.18169
1365 51.6407 -1.18131
1366 51.6408 -1.18111
1367 51.6408 -1.18077
1368 51.6409 -1.18073
1369 51.6409 -1.18036
1370 51.641 -1.18043
1371 51.6307 -1.11641
1372 51.6169 -1.04802
1373 51.603 -0.9805
1374 51.589 -0.913026
1375 51.5863 -0.910436
1376 51.5731 -0.839354
1377 51.5705 -0.836646
1378 51.5573 -0.771204
1379 51.5557 -0.772878
1380 51.5421 -0.709521
1381 51.5394 -0.70518
1382 51.5234 -0.63361
1383 51.5066 -0.565669
1384 51.5041 -0.561751
1385 51.4897 -0.496528
1386 51.4873 -0.491079
1387 51.4717 -0.418982
1388 51.4712 -0.421235
1389 51.4566 -0.352288
1390 51.4549 -0.348119
1391 51.4532 -0.339459
1392 51.4531 -0.338721
1393 51.4528 -0.336108
1394 51.4525 -0.328342
1395 51.4527 -0.330315
1396 51.4525 -0.33183
1397 51.4525 -0.329027
1398 51.4568 -0.259013
1399 51.464 -0.187396
1400 51.4704 -0.120647
1401 51.4759 -0.0507134
1402 51.4782 -0.0440806
1403 51.4784 -0.0481562
1404 51.4781 -0.0498767
1405 51.4779 -0.0509285
1406 51.4774 -0.052237
1407 51.478 -0.0494606
1408 51.4803 -0.0456144
1409 51.4828 -0.0433307
1410 51.4874 -0.040457
1411 51.4887 -0.0409183
1412 51.4888 -0.0408581
1413 51.4933 -0.0405088
1414 51.4962 -0.0417224
1415 51.4968 -0.0422815
1416 51.4985 -0.0426329
1417 51.4989 -0.0430233
1418 51.4994 -0.043198
1419 51.5009 -0.0444541
1420 51.5013 -0.0453371
1421 51.5031 -0.0495701
1422 51.5032 -0.0548821
1423 51.5023 -0.0591117
1424 51.501 -0.0634559
1425 51.4863 -0.109537
1426 51.4582 -0.169654
1427 51.429 -0.232562
1428 51.4021 -0.29643
1429 51.3783 -0.361805
1430 51.3578 -0.428524
1431 51.3409 -0.495655
1432 51.3271 -0.563573
1433 51.3163 -0.631934
1434 51.308 -0.700785
1435 51.3018 -0.770017
1436 51.3 -0.780428
1437 51.2999 -0.780503
1438 51.2999 -0.780128
1439 51.2999 -0.779827
1440 51.2999 -0.779643
1441 51.2999 -0.778819
1442 51.2998 -0.778835
1443 51.2998 -0.778658
1444 51.2996 -0.778404
1445 51.2993 -0.777839
1446 51.3 -0.779353
1447 51.3022 -0.781726
1448 51.3046 -0.783135
1449 51.3063 -0.783583
1450 51.3076 -0.783685
1451 51.3099 -0.783405
1452 51.3109 -0.782696
1453 51.3132 -0.78109
1454 51.315 -0.778529
1455 51.3163 -0.775435
1456 51.3169 -0.772191
1457 51.317 -0.769075
1458 51.3167 -0.76583
1459 51.3127 -0.714617
1460 51.299 -0.647417
1461 51.2855 -0.579191
1462 51.2737 -0.510929
1463 51.2641 -0.441926
1464 51.2568 -0.373427
1465 51.2519 -0.304151
1466 51.2486 -0.290602
1467 51.2482 -0.290004
1468 51.2483 -0.290286
1469 51.2483 -0.290612
1470 51.2483 -0.290694
1471 51.2483 -0.290867
1472 51.2551 -0.232709
1473 51.2622 -0.16381
1474 51.269 -0.0950508
1475 51.2758 -0.0263128
1476 51.2758 -0.0175507
1477 51.2839 0.0517778
1478 51.284 0.058323
1479 51.2848 0.0655183
1480 51.2853 0.0725808
1481 51.286 0.08024
1482 51.2872 0.0874341
1483 51.2891 0.0950609
1484 51.2915 0.104587
1485 51.2933 0.111774
1486 51.2955 0.119433
1487 51.2984 0.126169
1488 51.3024 0.132396
1489 51.3049 0.134537
1490 51.3081 0.13697
1491 51.312 0.138624
1492 51.3158 0.139106
1493 51.3197 0.138651
1494 51.3211 0.137614
1495 51.3218 0.137109
1496 51.3242 0.135048
1497 51.3269 0.130661
1498 51.329 0.124901
1499 51.3313 0.11698
1500 51.3332 0.108626
1501 51.3347 0.102332
1502 51.337 0.0964212
1503 51.3399 0.0911808
1504 51.3403 0.0900234
1505 51.3427 0.0880822
1506 51.3458 0.0859844
1507 51.3492 0.0841994
1508 51.3527 0.0827607
1509 51.3564 0.0816071
1510 51.4173 0.0651242
1511 51.485 0.0503805
1512 51.5525 0.0355577
1513 51.6199 0.0203224
1514 51.6867 0.00450558
1515 51.7534 -0.0122491
1516 51.8197 -0.0298288
1517 51.886 -0.048242
1518 51.9524 -0.0674892
1519 52.0187 -0.0874022
1520 52.0244 -0.089322
1521 52.0333 -0.0924392
1522 52.0412 -0.0962363
1523 52.0483 -0.101207
1524 52.0504 -0.103872
1525 52.0525 -0.107031
1526 52.0539 -0.110812
1527 52.0541 -0.114921
1528 52.0533 -0.117314
1529 52.0526 -0.118639
1530 52.0522 -0.119147
1531 52.0517 -0.119818
1532 52.0512 -0.120316
1533 52.0495 -0.121651
1534 52.0484 -0.122152
1535 52.047 -0.12334
1536 52.0445 -0.125179
1537 52.0415 -0.126893
1538 52.0383 -0.12828
1539 52.0345 -0.129529
1540 52.0311 -0.130154
1541 52.0275 -0.130554
1542 52.0242 -0.130543
1543 52.0208 -0.130241
1544 52.0181 -0.129669
1545 52.0155 -0.128944
1546 52.0135 -0.128154
1547 52.0115 -0.12721
1548 52.0093 -0.126003
1549 52.0066 -0.124276
1550 52.0041 -0.122298
1551 52.0018 -0.120118
1552 51.9995 -0.117682
1553 51.9972 -0.114964
1554 51.9956 -0.112498
1555 51.9935 -0.109157
1556 51.992 -0.105842
1557 51.9909 -0.102862
1558 51.9899 -0.0994056
1559 51.9893 -0.0957809
1560 51.989 -0.0919884
1561 51.9891 -0.088749
1562 51.9895 -0.0858166
1563 51.9901 -0.0831945
1564 51.9908 -0.0804406
1565 52.0024 -0.0213698
1566 52.0245 0.0442779
1567 52.0471 0.109822
1568 52.0691 0.175458
1569 52.0903 0.241269
1570 52.1109 0.307695
1571 52.1306 0.373871
1572 52.1495 0.440341
1573 52.1679 0.50698
1574 52.1857 0.573796
1575 52.203 0.640735
1576 52.2075 0.646158
1577 52.2093 0.654198
1578 52.2104 0.662303
1579 52.2105 0.670217
1580 52.2095 0.677564
1581 52.2075 0.683622
1582 52.2077 0.682282
1583 52.2059 0.685123
1584 52.2037 0.686791
1585 52.2018 0.687606
1586 52.1991 0.688233
1587 52.1964 0.688076
1588 52.1941 0.68744
1589 52.193 0.686863
1590 52.1446 0.668112
1591 52.0887 0.629848
1592 52.0322 0.589171
1593 51.9754 0.550079
1594 51.9174 0.512698
1595 51.8578 0.47694
1596 51.7974 0.443136
1597 51.736 0.411164
1598 51.6741 0.381021
1599 51.6591 0.369615
1600 51.6525 0.366209
1601 51.6484 0.364781
1602 51.6448 0.363911
1603 51.6406 0.363271
1604 51.6365 0.362908
1605 51.6337 0.362807
1606 51.57 0.36308
1607 51.5007 0.36551
1608 51.4317 0.367966
1609 51.3629 0.370181
1610 51.2939 0.371899
1611 51.2253 0.373034
1612 51.1565 0.373647
1613 51.1498 0.373789
1614 51.1406 0.373742
1615 51.1309 0.37343
1616 51.124 0.37288
1617 51.1213 0.372459
1618 51.1186 0.371973
1619 51.116 0.371355
1620 51.114 0.370763
1621 51.0511 0.351629
1622 50.9863 0.326346
1623 50.9222 0.300702
1624 50.8582 0.275171
1625 50.7936 0.249669
1626 50.7293 0.224467
1627 50.7145 0.216452
1628 50.7049 0.212709
1629 50.6975 0.210577
1630 50.6913 0.209336
1631 50.6872 0.208932
1632 50.684 0.208917
1633 50.6814 0.209113
1634 50.6787 0.209463
1635 50.6151 0.219455
1636 50.5478 0.237087
1637 50.4813 0.255215
1638 50.4147 0.272995
1639 50.3481 0.290119
1640 50.2814 0.306362
1641 50.2143 0.321893
1642 50.1471 0.336732
1643 50.08 0.350855
1644 50.0128 0.364419
1645 50.0097 0.367229
1646 49.9984 0.369101
1647 49.9874 0.370216
1648 49.976 0.370343
1649 49.9651 0.369263
1650 49.9554 0.366974
1651 49.9474 0.363692
1652 49.9456 0.361961
1653 49.9436 0.360456
1654 49.9412 0.358244
1655 49.9391 0.355474
1656 49.9373 0.352533
1657 49.936 0.349647
1658 49.9068 0.294249
1659 49.8876 0.227711
1660 49.8695 0.160873
1661 49.8513 0.0942239
1662 49.8331 0.0276234
1663 49.8147 -0.0386588
1664 49.7953 -0.104667
1665 49.7751 -0.170147
1666 49.7538 -0.235728
1667 49.7576 -0.243295
1668 49.7587 -0.242392
1669 49.7585 -0.242211
1670 49.7584 -0.242052
1671 49.7583 -0.241884
1672 49.7581 -0.241779
1673 49.7581 -0.241665
1674 49.758 -0.241547
1675 49.7579 -0.241461
1676 49.7578 -0.241392
1677 49.7578 -0.241318
1678 49.7577 -0.241269
1679 49.7577 -0.24122
1680 49.7577 -0.241181
1681 49.7576 -0.241138
1682 49.7576 -0.24111
1683 49.7576 -0.241061
1684 49.7575 -0.24105
1685 49.7575 -0.241017
1686 49.7575 -0.241002
1687 49.7575 -0.24099
1688 49.7575 -0.240964
1689 49.7575 -0.240956
1690 49.7574 -0.240947
1691 49.7574 -0.240942
1692 49.7574 -0.240938
1693 49.7574 -0.24094
1694 49.7574 -0.240933
1695 49.7574 -0.240938
1696 49.7574 -0.240935
1697 49.7574 -0.240932
1698 49.7574 -0.24093
1699 49.7574 -0.240924
1700 49.7574 -0.24093
1701 49.7574 -0.240929
1702 49.7574 -0.240917
1703 49.7574 -0.240922
1704 49.7574 -0.240922
1705 49.7574 -0.240926
1706 49.7573 -0.240938
1707 49.7573 -0.240945
1708 49.7573 -0.240954
1709 49.7573 -0.240965
1710 49.7573 -0.240976
1711 49.7573 -0.240955
1712 49.7573 -0.240969
1713 49.7573 -0.240973
1714 49.7573 -0.240972
1715 49.7573 -0.240969
1716 49.7573 -0.240972
1717 49.7573 -0.240964
1718 49.7573 -0.240967
1719 49.7573 -0.240976
1720 49.7573 -0.240985
1721 49.7573 -0.240986
1722 49.7573 -0.240998
1723 49.7573 -0.241003
1724 49.7573 -0.241012
1725 49.7573 -0.241007
1726 49.7573 -0.241008
1727 49.7573 -0.240999
1728 49.7573 -0.24099
1729 49.7573 -0.240991
1730 49.7573 -0.240993
1731 49.7573 -0.241005
1732 49.7573 -0.241006
1733 49.7573 -0.241018
1734 49.7573 -0.241025
1735 49.7573 -0.24102
1736 49.7573 -0.241031
1737 49.7573 -0.241024
1738 49.7573 -0.241022
1739 49.7573 -0.241022
1740 49.7573 -0.241012
1741 49.7573 -0.241019
1742 49.7573 -0.241027
1743 49.7573 -0.241015
1744 49.7573 -0.241029
1745 49.7573 -0.241016
1746 49.7573 -0.241023
1747 49.7573 -0.241021
1748 49.7573 -0.241038
1749 49.7573 -0.24104
1750 49.7573 -0.241061
1751 49.7573 -0.241068
1752 49.7573 -0.241069
1753 49.7573 -0.241077
1754 49.7573 -0.241076
1755 49.7573 -0.241068
1756 49.7573 -0.241067
1757 49.7573 -0.241062
1758 49.7573 -0.241064
1759 49.7573 -0.241069
1760 49.7573 -0.241072
1761 49.7573 -0.241081
1762 49.7573 -0.24109
1763 49.7573 -0.241099
1764 49.7573 -0.241093
1765 49.7573 -0.241093
1766 49.7573 -0.241088
1767 49.7573 -0.241078
1768 49.7573 -0.241078
1769 49.7573 -0.24108
1770 49.7573 -0.241088
1771 49.7573 -0.241099
1772 49.7573 -0.241099
1773 49.7573 -0.241103
1774 49.7573 -0.241104
1775 49.7573 -0.24113
1776 49.7573 -0.241126
1777 49.7573 -0.241152
1778 49.7573 -0.241147
1779 49.7573 -0.241148
1780 49.7572 -0.24116
1781 49.7572 -0.24116
1782 49.7572 -0.241179
1783 49.7572 -0.241178
1784 49.7572 -0.241184
1785 49.7572 -0.241171
1786 49.7572 -0.241191
1787 49.7572 -0.241191
1788 49.7572 -0.241185
1789 49.7572 -0.241186
1790 49.7572 -0.241195
1791 49.7572 -0.241182
1792 49.7572 -0.24118
1793 49.7572 -0.241182
1794 49.7572 -0.241181
1795 49.7572 -0.241192
1796 49.7572 -0.241199
1797 49.7572 -0.241205
1798 49.7572 -0.241204
1799 49.7572 -0.241215
1800 49.7572 -0.241213
1801 49.7572 -0.24121
1802 49.7572 -0.241212
1803 49.7572 -0.241216
1804 49.7572 -0.241228
1805 49.7572 -0.241236
1806 49.7572 -0.241244
1807 49.7572 -0.241255
1808 49.7572 -0.241255
1809 49.7572 -0.241264
1810 49.7572 -0.241272
1811 49.7572 -0.241284
1812 49.7572 -0.241286
1813 49.7572 -0.241304
1814 49.7572 -0.241305
1815 49.7572 -0.241324
1816 49.7572 -0.241318
1817 49.7572 -0.241334
1818 49.7572 -0.241341
1819 49.7572 -0.241342
1820 49.7572 -0.241356
1821 49.7572 -0.241354
1822 49.7572 -0.24136
1823 49.7572 -0.241361
1824 49.7572 -0.241376
1825 49.7572 -0.241375
1826 49.7572 -0.241396
1827 49.7572 -0.2414
1828 49.7572 -0.241407
1829 49.7572 -0.241414
1830 49.7572 -0.241415
1831 49.7572 -0.24142
1832 49.7571 -0.241439
1833 49.7571 -0.241435
1834 49.7571 -0.241433
1835 49.7571 -0.241458
1836 49.7571 -0.24145
1837 49.7571 -0.24146
1838 49.7571 -0.241464
1839 49.7571 -0.241467
1840 49.7571 -0.241475
1841 49.7571 -0.241473
1842 49.7571 -0.241483
1843 49.7571 -0.241484
1844 49.7571 -0.241476
1845 49.7571 -0.241478
1846 49.7571 -0.241487
1847 49.7571 -0.241489
1848 49.7571 -0.24149
1849 49.7571 -0.241516
1850 49.7571 -0.241512
1851 49.7571 -0.241514
1852 49.7571 -0.241522
1853 49.7571 -0.241521
1854 49.7571 -0.241512
1855 49.7571 -0.241512
1856 49.7571 -0.241518
1857 49.7571 -0.241521
1858 49.7571 -0.241529
1859 49.7571 -0.241523
1860 49.7571 -0.241519
1861 49.7571 -0.24152
1862 49.7571 -0.241522
1863 49.7571 -0.241517
1864 49.7571 -0.241521
1865 49.7571 -0.241522
1866 49.7571 -0.241523
1867 49.7571 -0.241528
1868 49.7571 -0.241528
1869 49.7571 -0.241549
1870 49.7571 -0.241553
1871 49.7571 -0.241535
1872 49.7571 -0.241535
1873 49.7571 -0.241558
1874 49.7571 -0.241542
1875 49.7571 -0.241538
1876 49.7571 -0.241549
1877 49.7571 -0.241553
1878 49.7571 -0.241552
1879 49.7571 -0.241549
1880 49.7571 -0.241552
1881 49.7571 -0.241548
1882 49.7571 -0.241536
1883 49.7571 -0.241542
1884 49.7571 -0.241538
1885 49.7571 -0.241529
1886 49.7571 -0.241537
1887 49.7571 -0.241547
1888 49.7571 -0.241551
1889 49.7571 -0.241542
1890 49.7571 -0.241539
1891 49.7571 -0.241547
1892 49.7571 -0.241547
1893 49.7571 -0.24155
1894 49.7571 -0.241547
1895 49.7571 -0.241546
1896 49.7571 -0.241548
1897 49.7571 -0.241553
1898 49.7571 -0.241551
1899 49.7571 -0.241552
1900 49.7571 -0.241574
1901 49.7571 -0.241559
1902 49.7571 -0.241555
1903 49.7571 -0.241557
1904 49.7571 -0.241564
1905 49.7571 -0.24158
1906 49.7571 -0.241577
1907 49.7571 -0.241575
1908 49.7571 -0.241572
1909 49.7571 -0.241579
1910 49.7571 -0.241589
1911 49.7571 -0.241591
1912 49.7571 -0.241611
1913 49.7571 -0.241603
1914 49.7571 -0.241601
1915 49.7571 -0.241603
1916 49.7571 -0.241609
1917 49.7571 -0.24161
1918 49.7571 -0.241614
1919 49.7571 -0.241624
1920 49.7571 -0.241623
1921 49.7571 -0.24163
1922 49.7571 -0.241637
1923 49.7571 -0.241637
1924 49.7571 -0.241644
1925 49.7571 -0.241642
1926 49.7571 -0.241643
1927 49.7571 -0.241652
1928 49.7571 -0.24165
1929 49.7571 -0.241655
1930 49.7571 -0.241663
1931 49.7571 -0.241664
1932 49.7571 -0.24168
1933 49.7571 -0.241666
1934 49.7571 -0.241659
1935 49.7571 -0.241662
1936 49.7571 -0.241665
1937 49.7571 -0.24167
1938 49.7571 -0.241696
1939 49.7571 -0.241691
1940 49.7571 -0.241688
1941 49.7571 -0.241691
1942 49.7571 -0.241702
1943 49.7571 -0.241704
1944 49.757 -0.241716
1945 49.757 -0.24171
1946 49.7571 -0.241706
1947 49.7571 -0.241706
1948 49.7571 -0.241703
1949 49.757 -0.241709
1950 49.7571 -0.241702
1951 49.757 -0.241713
1952 49.757 -0.241712
1953 49.757 -0.241717
1954 49.757 -0.241715
1955 49.757 -0.241728
1956 49.757 -0.241722
1957 49.757 -0.241745
1958 49.757 -0.241742
1959 49.757 -0.241753
1960 49.757 -0.241757
1961 49.757 -0.241765
1962 49.757 -0.241765
1963 49.757 -0.241765
1964 49.757 -0.241766
1965 49.757 -0.241758
1966 49.757 -0.241773
1967 49.757 -0.241766
1968 49.757 -0.241758
1969 49.757 -0.241755
1970 49.757 -0.241763
1971 49.757 -0.241763
1972 49.757 -0.241769
1973 49.757 -0.241769
1974 49.757 -0.241776
1975 49.757 -0.241774
1976 49.757 -0.241786
1977 49.757 -0.241791
1978 49.757 -0.241767
1979 49.757 -0.24176
1980 49.757 -0.241763
1981 49.757 -0.241755
1982 49.757 -0.24175
1983 49.757 -0.241753
1984 49.757 -0.241749
1985 49.757 -0.241752
1986 49.757 -0.24176
1987 49.757 -0.24176
1988 49.757 -0.241761
1989 49.757 -0.241757
1990 49.757 -0.241765
1991 49.757 -0.24176
1992 49.757 -0.241771
1993 49.757 -0.241779
1994 49.757 -0.241764
1995 49.757 -0.241774
1996 49.757 -0.241774
1997 49.757 -0.241779
1998 49.757 -0.241783
1999 49.757 -0.241763
2000 49.757 -0.241764
2001 49.757 -0.241774
2002 49.757 -0.241775
2003 49.757 -0.241767
2004 49.757 -0.241771
2005 49.757 -0.241763
2006 49.757 -0.241767
2007 49.757 -0.241766
2008 49.757 -0.241775
2009 49.757 -0.241773
2010 49.757 -0.241785
2011 49.757 -0.241785
2012 49.757 -0.241779
2013 49.757 -0.241781
2014 49.757 -0.241802
2015 49.757 -0.241793
2016 49.757 -0.241797
2017 49.757 -0.241807
2018 49.757 -0.241811
2019 49.757 -0.241812
2020 49.757 -0.241819
2021 49.757 -0.241813
2022 49.757 -0.241808
2023 49.757 -0.241809
2024 49.757 -0.241813
2025 49.757 -0.241821
2026 49.757 -0.241823
2027 49.757 -0.241832
2028 49.757 -0.241826
2029 49.757 -0.241815
2030 49.757 -0.241823
2031 49.757 -0.241803
2032 49.757 -0.241804
2033 49.757 -0.241812
2034 49.757 -0.24181
2035 49.757 -0.241807
2036 49.757 -0.241809
2037 49.757 -0.241817
2038 49.757 -0.241817
2039 49.757 -0.241818
2040 49.757 -0.241823
2041 49.757 -0.241823
2042 49.757 -0.241815
2043 49.757 -0.241826
2044 49.757 -0.241838
2045 49.757 -0.241835
2046 49.757 -0.241841
2047 49.757 -0.241848
2048 49.757 -0.241853
2049 49.757 -0.241854
2050 49.757 -0.241866
2051 49.757 -0.241871
2052 49.757 -0.241873
2053 49.757 -0.241895
2054 49.757 -0.241902
2055 49.757 -0.241909
2056 49.757 -0.241916
2057 49.757 -0.241917
2058 49.757 -0.241922
2059 49.757 -0.24192
2060 49.757 -0.241908
2061 49.757 -0.241916
2062 49.757 -0.241915
2063 49.757 -0.241926
2064 49.757 -0.241928
2065 49.757 -0.24194
2066 49.757 -0.241943
2067 49.757 -0.241935
2068 49.757 -0.241955
2069 49.757 -0.241954
2070 49.757 -0.241955
2071 49.757 -0.241964
2072 49.757 -0.241984
2073 49.7569 -0.242006
2074 49.7569 -0.241997
2075 49.7569 -0.242008
2076 49.7569 -0.242012
2077 49.7569 -0.242015
2078 49.7569 -0.242025
2079 49.7569 -0.242017
2080 49.7569 -0.242014
2081 49.7569 -0.242016
2082 49.7569 -0.242007
2083 49.7569 -0.242016
2084 49.7569 -0.242025
2085 49.7569 -0.242024
2086 49.7569 -0.242019
2087 49.7569 -0.242016
2088 49.7569 -0.24202
2089 49.7569 -0.242001
2090 49.7569 -0.242002
2091 49.7569 -0.242012
2092 49.7569 -0.242012
2093 49.7569 -0.242005
2094 49.7569 -0.242003
2095 49.7569 -0.24201
2096 49.7569 -0.24201
2097 49.7569 -0.242011
2098 49.7569 -0.242011
2099 49.7569 -0.241999
2100 49.7569 -0.242006
2101 49.7569 -0.241999
2102 49.7569 -0.242002
2103 49.7569 -0.242
2104 49.7569 -0.241994
2105 49.7569 -0.241995
2106 49.7569 -0.241987
2107 49.7569 -0.241998
2108 49.7569 -0.24201
2109 49.7569 -0.242008
2110 49.7569 -0.242013
2111 49.7569 -0.24202
2112 49.7569 -0.242025
2113 49.7569 -0.242026
2114 49.7569 -0.242025
2115 49.7569 -0.242038
2116 49.7569 -0.242036
2117 49.7569 -0.24204
2118 49.7569 -0.242043
2119 49.7569 -0.242044
2120 49.7569 -0.242053
2121 49.7569 -0.242065
2122 49.7569 -0.242067
2123 49.7569 -0.242074
2124 49.7569 -0.242081
2125 49.7569 -0.242089
2126 49.7569 -0.242075
2127 49.7569 -0.242085
2128 49.7569 -0.242089
2129 49.7569 -0.242098
2130 49.7569 -0.242096
2131 49.7569 -0.242097
2132 49.7569 -0.242105
2133 49.7569 -0.242099
2134 49.7569 -0.242105
2135 49.7569 -0.242104
2136 49.7569 -0.242111
2137 49.7569 -0.242108
2138 49.7569 -0.242113
2139 49.7569 -0.242104
2140 49.7569 -0.242104
2141 49.7569 -0.242105
2142 49.7569 -0.242107
2143 49.7569 -0.242105
2144 49.7569 -0.242097
2145 49.7569 -0.242111
2146 49.7569 -0.242114
2147 49.7569 -0.242128
2148 49.7569 -0.242129
2149 49.7569 -0.242141
2150 49.7569 -0.242137
2151 49.7569 -0.24215
2152 49.7569 -0.24214
2153 49.7569 -0.242152
2154 49.7569 -0.242156
2155 49.7569 -0.242159
2156 49.7569 -0.242167
2157 49.7569 -0.242161
2158 49.7569 -0.242186
2159 49.7569 -0.242189
2160 49.7569 -0.242206
2161 49.7569 -0.242214
2162 49.7569 -0.242215
2163 49.7569 -0.242207
2164 49.7569 -0.242205
2165 49.7569 -0.242212
2166 49.7569 -0.242212
2167 49.7569 -0.242213
2168 49.7569 -0.242213
2169 49.7569 -0.242201
2170 49.7569 -0.242208
2171 49.7569 -0.242233
2172 49.7569 -0.242229
2173 49.7569 -0.242217
2174 49.7569 -0.242227
2175 49.7569 -0.242225
2176 49.7569 -0.242236
2177 49.7569 -0.242242
2178 49.7569 -0.242228
2179 49.7569 -0.242243
2180 49.7569 -0.242242
2181 49.7569 -0.242251
2182 49.7569 -0.24226
2183 49.7568 -0.242262
2184 49.7569 -0.242253
2185 49.7569 -0.242248
2186 49.7569 -0.242251
2187 49.7569 -0.242256
2188 49.7569 -0.242258
2189 49.7569 -0.242261
2190 49.7568 -0.242273
2191 49.7569 -0.242259
2192 49.7568 -0.242266
2193 49.7568 -0.242267
2194 49.7568 -0.242282
2195 49.7568 -0.242281
2196 49.7568 -0.242289
2197 49.7568 -0.242289
2198 49.7568 -0.24229
2199 49.7568 -0.242282
2200 49.7568 -0.24229
2201 49.7568 -0.242292
2202 49.7568 -0.242296
2203 49.7568 -0.242294
2204 49.7568 -0.242294
2205 49.7568 -0.242285
2206 49.7568 -0.24229
2207 49.7568 -0.242298
2208 49.7568 -0.242292
2209 49.7568 -0.242317
2210 49.7568 -0.242309
2211 49.7568 -0.24231
2212 49.7568 -0.242331
2213 49.7568 -0.242342
2214 49.7568 -0.242332
2215 49.7568 -0.242331
2216 49.7568 -0.242332
2217 49.7568 -0.242338
2218 49.7568 -0.242324
2219 49.7568 -0.242334
2220 49.7568 -0.242338
2221 49.7568 -0.242336
2222 49.7568 -0.242338
2223 49.7568 -0.242344
2224 49.7568 -0.242356
2225 49.7568 -0.242353
2226 49.7568 -0.242369
2227 49.7568 -0.242368
2228 49.7568 -0.242376
2229 49.7568 -0.242376
2230 49.7568 -0.242376
2231 49.7568 -0.242376
2232 49.7568 -0.242376
2233 49.7568 -0.242357
2234 49.7568 -0.242358
2235 49.7568 -0.242368
2236 49.7568 -0.242367
2237 49.7568 -0.242358
2238 49.7568 -0.242367
2239 49.7568 -0.242376
2240 49.7568 -0.242378
2241 49.7568 -0.242387
2242 49.7568 -0.242391
2243 49.7568 -0.242394
2244 49.7568 -0.242389
2245 49.7568 -0.242409
2246 49.7568 -0.242408
2247 49.7568 -0.24241
2248 49.7568 -0.242409
2249 49.7568 -0.242415
2250 49.7568 -0.242414
2251 49.7568 -0.242425
2252 49.7568 -0.242431
2253 49.7568 -0.24244
2254 49.7568 -0.242447
2255 49.7568 -0.242454
2256 49.7568 -0.242471
2257 49.7568 -0.242477
2258 49.7568 -0.242482
2259 49.7568 -0.242483
2260 49.7568 -0.242484
2261 49.7568 -0.242489
2262 49.7568 -0.242489
2263 49.7568 -0.242481
2264 49.7568 -0.24247
2265 49.7568 -0.242479
2266 49.7568 -0.242477
2267 49.7568 -0.242474
2268 49.7568 -0.24247
2269 49.7568 -0.242473
2270 49.7568 -0.242482
2271 49.7568 -0.242476
2272 49.7568 -0.242471
2273 49.7568 -0.242473
2274 49.7568 -0.242479
2275 49.7568 -0.242474
2276 49.7568 -0.242499
2277 49.7568 -0.24249
2278 49.7568 -0.242492
2279 49.7568 -0.242513
2280 49.7568 -0.242523
2281 49.7568 -0.242513
2282 49.7568 -0.242513
2283 49.7568 -0.242514
2284 49.7568 -0.24252
2285 49.7568 -0.242506
2286 49.7568 -0.242516
2287 49.7568 -0.24252
2288 49.7568 -0.242518
2289 49.7568 -0.242519
2290 49.7568 -0.242526
2291 49.7568 -0.242537
2292 49.7568 -0.242535
2293 49.7567 -0.24255
2294 49.7567 -0.24255
2295 49.7567 -0.242558
2296 49.7567 -0.242558
2297 49.7567 -0.242558
2298 49.7567 -0.242558
2299 49.7567 -0.242558
2300 49.7568 -0.242539
2301 49.7568 -0.24254
2302 49.7567 -0.24255
2303 49.7567 -0.242549
2304 49.7568 -0.24254
2305 49.7567 -0.242549
2306 49.7567 -0.242558
2307 49.7567 -0.24256
2308 49.7567 -0.242569
2309 49.7567 -0.242573
2310 49.7567 -0.242576
2311 49.7567 -0.242571
2312 49.7567 -0.242591
2313 49.7567 -0.24259
2314 49.7567 -0.242592
2315 49.7567 -0.242591
2316 49.7567 -0.242597
2317 49.7567 -0.242596
2318 49.7567 -0.242607
2319 49.7567 -0.242613
2320 49.7567 -0.242622
2321 49.7567 -0.242629
2322 49.7567 -0.242636
2323 49.7567 -0.242653
2324 49.7567 -0.242659
2325 49.7567 -0.242664
2326 49.7567 -0.242665
2327 49.7567 -0.242666
2328 49.7567 -0.242671
2329 49.7567 -0.242671
2330 49.7567 -0.242663
2331 49.7567 -0.242652
2332 49.7567 -0.242661
2333 49.7567 -0.242659
2334 49.7567 -0.242656
2335 49.7567 -0.242652
2336 49.7567 -0.242655
2337 49.7567 -0.242664
2338 49.7567 -0.242658
2339 49.7567 -0.242653
2340 49.7567 -0.242655
2341 49.7567 -0.242661
2342 49.7567 -0.242656
2343 49.7567 -0.242681
2344 49.7567 -0.242672
2345 49.7567 -0.242674
2346 49.7567 -0.242695
2347 49.7567 -0.242705
2348 49.7567 -0.242695
2349 49.7567 -0.242695
2350 49.7567 -0.242696
2351 49.7567 -0.242702
2352 49.7567 -0.242688
2353 49.7567 -0.242698
2354 49.7567 -0.242702
2355 49.7567 -0.2427
2356 49.7567 -0.242701
2357 49.7567 -0.242708
2358 49.7567 -0.242719
2359 49.7567 -0.242717
2360 49.7567 -0.242732
2361 49.7567 -0.242731
2362 49.7567 -0.24273
2363 49.7567 -0.242726
2364 49.7567 -0.242725
2365 49.7567 -0.24273
2366 49.7567 -0.242735
2367 49.7567 -0.242736
2368 49.7567 -0.242741
2369 49.7567 -0.242741
2370 49.7567 -0.242758
2371 49.7567 -0.242762
2372 49.7567 -0.242772
2373 49.7567 -0.242748
2374 49.7567 -0.242749
2375 49.7567 -0.242761
2376 49.7567 -0.242773
2377 49.7567 -0.242772
2378 49.7567 -0.242772
2379 49.7567 -0.242763
2380 49.7567 -0.242767
2381 49.7567 -0.242761
2382 49.7567 -0.242761
2383 49.7567 -0.242773
2384 49.7567 -0.242766
2385 49.7567 -0.242763
2386 49.7567 -0.242774
2387 49.7567 -0.242778
2388 49.7567 -0.242781
2389 49.7567 -0.242776
2390 49.7567 -0.242796
2391 49.7567 -0.242795
2392 49.7567 -0.242798
2393 49.7567 -0.242797
2394 49.7567 -0.242806
2395 49.7567 -0.242805
2396 49.7567 -0.242817
2397 49.7566 -0.242823
2398 49.7566 -0.242829
2399 49.7566 -0.242838
2400 49.7566 -0.242844
2401 49.7566 -0.242845
2402 49.7566 -0.242853
2403 49.7566 -0.242858
2404 49.7566 -0.24286
2405 49.7566 -0.242847
2406 49.7566 -0.242854
2407 49.7566 -0.242855
2408 49.7566 -0.242847
2409 49.7566 -0.242845
2410 49.7566 -0.242853
2411 49.7566 -0.242852
2412 49.7566 -0.242847
2413 49.7566 -0.242843
2414 49.7566 -0.242847
2415 49.7566 -0.242856
2416 49.7566 -0.242849
2417 49.7566 -0.242845
2418 49.7566 -0.242848
2419 49.7566 -0.242854
2420 49.7566 -0.242874
2421 49.7566 -0.242897
2422 49.7566 -0.242888
2423 49.7566 -0.24289
2424 49.7566 -0.242902
2425 49.7566 -0.242905
2426 49.7566 -0.242896
2427 49.7566 -0.242896
2428 49.7566 -0.242901
2429 49.7566 -0.242899
2430 49.7566 -0.242887
2431 49.7566 -0.242897
2432 49.7566 -0.242902
2433 49.7566 -0.242905
2434 49.7566 -0.242926
2435 49.7566 -0.24293
2436 49.7566 -0.242943
2437 49.7566 -0.24294
2438 49.7566 -0.242945
2439 49.7566 -0.242946
2440 49.7566 -0.242955
2441 49.7566 -0.242954
2442 49.7566 -0.242956
2443 49.7566 -0.242956
2444 49.7566 -0.242962
2445 49.7566 -0.242942
2446 49.7566 -0.242944
2447 49.7566 -0.242955
2448 49.7566 -0.242954
2449 49.7566 -0.242957
2450 49.7566 -0.242966
2451 49.7566 -0.242975
2452 49.7566 -0.242977
2453 49.7566 -0.242987
2454 49.7566 -0.242991
2455 49.7566 -0.242995
2456 49.7566 -0.24299
2457 49.7566 -0.24301
2458 49.7566 -0.243009
2459 49.7566 -0.243012
2460 49.7566 -0.243011
2461 49.7566 -0.24302
2462 49.7566 -0.243018
2463 49.7566 -0.243031
2464 49.7566 -0.243037
2465 49.7566 -0.243043
2466 49.7566 -0.243052
2467 49.7566 -0.243058
2468 49.7566 -0.243059
2469 49.7566 -0.243067
2470 49.7566 -0.243072
2471 49.7566 -0.243073
2472 49.7566 -0.243061
2473 49.7566 -0.243068
2474 49.7566 -0.243069
2475 49.7566 -0.243061
2476 49.7566 -0.243059
2477 49.7566 -0.243067
2478 49.7566 -0.243066
2479 49.7566 -0.243061
2480 49.7566 -0.243057
2481 49.7566 -0.243061
2482 49.7566 -0.24307
2483 49.7566 -0.243063
2484 49.7566 -0.243059
2485 49.7566 -0.243062
2486 49.7566 -0.243068
2487 49.7566 -0.243088
2488 49.7565 -0.243111
2489 49.7566 -0.243102
2490 49.7565 -0.243104
2491 49.7565 -0.243116
2492 49.7565 -0.243119
2493 49.7565 -0.24311
2494 49.7565 -0.24311
2495 49.7565 -0.243115
2496 49.7566 -0.243095
2497 49.7566 -0.243076
2498 49.7566 -0.24308
2499 49.7566 -0.243076
2500 49.7566 -0.243079
2501 49.7566 -0.243064
2502 49.7566 -0.243061
2503 49.7566 -0.243052
2504 49.7566 -0.243062
2505 49.7566 -0.243062
2506 49.7566 -0.243076
2507 49.7566 -0.24308
2508 49.7566 -0.243089
2509 49.7566 -0.243101
2510 49.7565 -0.243107
2511 49.7565 -0.243116
2512 49.7565 -0.243113
2513 49.7565 -0.243105
2514 49.7565 -0.243106
2515 49.7566 -0.243102
2516 49.7565 -0.243109
2517 49.7565 -0.243123
2518 49.7565 -0.243118
2519 49.7565 -0.243121
2520 49.7565 -0.243128
2521 49.7565 -0.243135
2522 49.7565 -0.243136
2523 49.7565 -0.243145
2524 49.7565 -0.243142
2525 49.7565 -0.243142
2526 49.7565 -0.24315
2527 49.7565 -0.243156
2528 49.7565 -0.243156
2529 49.7565 -0.243144
2530 49.7565 -0.243139
2531 49.7565 -0.243155
2532 49.7565 -0.243155
2533 49.7565 -0.243154
2534 49.7565 -0.243167
2535 49.7565 -0.243173
2536 49.7565 -0.243173
