13 0.0132422 -0.00268904
24 0.553206 0.0797703
43 1.5227 -0.0133922
58 2.48628 -0.133227
79 3.46362 0.0318463
94 4.41898 0.200807
107 5.24686 0.310902
119 6.00418 0.406463
149 7.73591 0.254672
189 9.82902 -0.682606
252 12.0723 -0.305028
300 14.9117 -0.259809
407 20.8815 -3.47095
471 24.8252 -5.28648
504 26.8443 -6.18593
520 27.7933 -6.61149
553 29.3623 -6.11264
564 30.0193 -5.88649
601 31.0697 -7.17414
671 34.6812 -9.60118
704 35.7232 -8.78416
711 36.0554 -8.53056
714 36.166 -8.44528
716 36.2808 -8.36058
719 36.3389 -8.31556
721 36.4515 -8.23205
723 36.5126 -8.18576
725 36.5717 -8.14031
727 36.6306 -8.09454
729 36.6795 -8.05616
731 36.737 -8.01111
733 36.7924 -7.96747
735 36.8525 -7.92029
738 36.9047 -7.87901
740 37.0106 -7.79771
742 37.0705 -7.75231
745 37.1194 -7.71592
747 37.2306 -7.6347
749 37.2936 -7.58925
751 37.3578 -7.54318
753 37.4279 -7.49338
755 37.4966 -7.44509
757 37.5662 -7.39622
765 37.6465 -7.33877
842 39.6775 -9.07211
891 41.6684 -9.7009
940 44.9782 -9.55263
962 45.5564 -9.14644
979 46.2828 -8.31076
981 46.3657 -8.20078
984 46.4068 -8.14154
986 46.4917 -8.0311
988 46.5415 -7.96292
990 46.5858 -7.90153
993 46.6278 -7.84076
995 46.7085 -7.73018
997 46.754 -7.66607
999 46.7937 -7.60983
1001 46.8345 -7.55181
1004 46.8655 -7.50604
1013 46.9629 -7.35133
1036 47.0035 -7.35834
1057 47.5506 -6.917
1076 48.2994 -6.76609
1099 48.449 -6.1702
1110 48.5109 -6.02799
1112 48.5706 -5.90381
1114 48.6035 -5.83603
1116 48.639 -5.76455
1118 48.6731 -5.69742
1120 48.7067 -5.63309
1127 48.8087 -5.44935
1132 48.8662 -5.32549
1140 48.9286 -5.17798
1154 48.9472 -5.16492
1163 49.0168 -5.18101
1184 49.3277 -4.791
1192 49.4995 -4.56603
1197 49.576 -4.45376
1200 49.6489 -4.33531
1205 49.8083 -4.09569
1207 49.8856 -3.982
1209 49.9287 -3.91995
1211 49.9716 -3.85932
1213 50.0144 -3.79964
1222 50.066 -3.71884
1236 50.0825 -3.71384
1245 50.1566 -3.73076
1267 50.2694 -3.32328
1284 50.6231 -2.86803
1287 50.7111 -2.75919
1289 50.8008 -2.64745
1291 50.8492 -2.58911
1293 50.8943 -2.53599
1295 50.9446 -2.47745
1297 50.9939 -2.42076
1299 51.0411 -2.36696
1302 51.0897 -2.31262
1312 51.2176 -2.15707
1331 51.4341 -1.85124
1346 51.7778 -1.59543
1367 51.6408 -1.18077
1372 51.6169 -1.04802
1374 51.589 -0.913026
1376 51.5731 -0.839354
1378 51.5573 -0.771204
1381 51.5394 -0.70518
1383 51.5066 -0.565669
1385 51.4897 -0.496528
1387 51.4717 -0.418982
1394 51.4525 -0.328342
1400 51.4704 -0.120647
1412 51.4888 -0.0408581
1437 51.2999 -0.780503
1468 51.2483 -0.290286
1473 51.2622 -0.16381
1475 51.2758 -0.0263128
1517 51.886 -0.048242
1573 52.1679 0.50698
1610 51.2939 0.371899
1642 50.1471 0.336732
1666 49.7538 -0.235728
1667 49.7576 -0.243295
1668 49.7587 -0.242392
1669 49.7585 -0.242211
1670 49.7584 -0.242052
1671 49.7583 -0.241884
1672 49.7581 -0.241779
1673 49.7581 -0.241665
1674 49.758 -0.241547
1675 49.7579 -0.241461
1676 49.7578 -0.241392
1677 49.7578 -0.241318
1678 49.7577 -0.241269
1679 49.7577 -0.24122
1680 49.7577 -0.241181
1681 49.7576 -0.241138
1682 49.7576 -0.24111
1683 49.7576 -0.241061
1684 49.7575 -0.24105
1685 49.7575 -0.241017
1686 49.7575 -0.241002
1687 49.7575 -0.24099
1688 49.7575 -0.240964
1689 49.7575 -0.240956
1690 49.7574 -0.240947
1691 49.7574 -0.240942
1692 49.7574 -0.240938
1693 49.7574 -0.24094
1694 49.7574 -0.240933
1695 49.7574 -0.240938
1696 49.7574 -0.240935
1697 49.7574 -0.240932
1698 49.7574 -0.24093
1699 49.7574 -0.240924
1700 49.7574 -0.24093
1701 49.7574 -0.240929
1702 49.7574 -0.240917
1703 49.7574 -0.240922
1704 49.7574 -0.240922
1705 49.7574 -0.240926
1706 49.7573 -0.240938
1707 49.7573 -0.240945
1708 49.7573 -0.240954
1709 49.7573 -0.240965
1710 49.7573 -0.240976
1711 49.7573 -0.240955
1712 49.7573 -0.240969
1713 49.7573 -0.240973
1714 49.7573 -0.240972
1715 49.7573 -0.240969
1716 49.7573 -0.240972
1717 49.7573 -0.240964
1718 49.7573 -0.240967
1719 49.7573 -0.240976
1720 49.7573 -0.240985
1721 49.7573 -0.240986
1722 49.7573 -0.240998
1723 49.7573 -0.241003
1724 49.7573 -0.241012
1725 49.7573 -0.241007
1726 49.7573 -0.241008
1727 49.7573 -0.240999
1728 49.7573 -0.24099
1729 49.7573 -0.240991
1730 49.7573 -0.240993
1731 49.7573 -0.241005
1732 49.7573 -0.241006
1733 49.7573 -0.241018
1734 49.7573 -0.241025
1735 49.7573 -0.24102
1736 49.7573 -0.241031
1737 49.7573 -0.241024
1738 49.7573 -0.241022
1739 49.7573 -0.241022
1740 49.7573 -0.241012
1741 49.7573 -0.241019
1742 49.7573 -0.241027
1743 49.7573 -0.241015
1744 49.7573 -0.241029
1745 49.7573 -0.241016
1746 49.7573 -0.241023
1747 49.7573 -0.241021
1748 49.7573 -0.241038
1749 49.7573 -0.24104
1750 49.7573 -0.241061
1751 49.7573 -0.241068
1752 49.7573 -0.241069
1753 49.7573 -0.241077
1754 49.7573 -0.241076
1755 49.7573 -0.241068
1756 49.7573 -0.241067
1757 49.7573 -0.241062
1758 49.7573 -0.241064
1759 49.7573 -0.241069
1760 49.7573 -0.241072
1761 49.7573 -0.241081
1762 49.7573 -0.24109
1763 49.7573 -0.241099
1764 49.7573 -0.241093
1765 49.7573 -0.241093
1766 49.7573 -0.241088
1767 49.7573 -0.241078
1768 49.7573 -0.241078
1769 49.7573 -0.24108
1770 49.7573 -0.241088
1771 49.7573 -0.241099
1772 49.7573 -0.241099
1773 49.7573 -0.241103
1774 49.7573 -0.241104
1775 49.7573 -0.24113
1776 49.7573 -0.241126
1777 49.7573 -0.241152
1778 49.7573 -0.241147
1779 49.7573 -0.241148
1780 49.7572 -0.24116
1781 49.7572 -0.24116
1782 49.7572 -0.241179
1783 49.7572 -0.241178
1784 49.7572 -0.241184
1785 49.7572 -0.241171
1786 49.7572 -0.241191
1787 49.7572 -0.241191
1788 49.7572 -0.241185
1789 49.7572 -0.241186
1790 49.7572 -0.241195
1791 49.7572 -0.241182
1792 49.7572 -0.24118
1793 49.7572 -0.241182
1794 49.7572 -0.241181
1795 49.7572 -0.241192
1796 49.7572 -0.241199
1797 49.7572 -0.241205
1798 49.7572 -0.241204
1799 49.7572 -0.241215
1800 49.7572 -0.241213
1801 49.7572 -0.24121
1802 49.7572 -0.241212
1803 49.7572 -0.241216
1804 49.7572 -0.241228
1805 49.7572 -0.241236
1806 49.7572 -0.241244
1807 49.7572 -0.241255
1808 49.7572 -0.241255
1809 49.7572 -0.241264
1810 49.7572 -0.241272
1811 49.7572 -0.241284
1812 49.7572 -0.241286
1813 49.7572 -0.241304
1814 49.7572 -0.241305
1815 49.7572 -0.241324
1816 49.7572 -0.241318
1817 49.7572 -0.241334
1818 49.7572 -0.241341
1819 49.7572 -0.241342
1820 49.7572 -0.241356
1821 49.7572 -0.241354
1822 49.7572 -0.24136
1823 49.7572 -0.241361
1824 49.7572 -0.241376
1825 49.7572 -0.241375
1826 49.7572 -0.241396
1827 49.7572 -0.2414
1828 49.7572 -0.241407
1829 49.7572 -0.241414
1830 49.7572 -0.241415
1831 49.7572 -0.24142
1832 49.7571 -0.241439
1833 49.7571 -0.241435
1834 49.7571 -0.241433
1835 49.7571 -0.241458
1836 49.7571 -0.24145
1837 49.7571 -0.24146
1838 49.7571 -0.241464
1839 49.7571 -0.241467
1840 49.7571 -0.241475
1841 49.7571 -0.241473
1842 49.7571 -0.241483
1843 49.7571 -0.241484
1844 49.7571 -0.241476
1845 49.7571 -0.241478
1846 49.7571 -0.241487
1847 49.7571 -0.241489
1848 49.7571 -0.24149
1849 49.7571 -0.241516
1850 49.7571 -0.241512
1851 49.7571 -0.241514
1852 49.7571 -0.241522
1853 49.7571 -0.241521
1854 49.7571 -0.241512
1855 49.7571 -0.241512
1856 49.7571 -0.241518
1857 49.7571 -0.241521
1858 49.7571 -0.241529
1859 49.7571 -0.241523
1860 49.7571 -0.241519
1861 49.7571 -0.24152
1862 49.7571 -0.241522
1863 49.7571 -0.241517
1864 49.7571 -0.241521
1865 49.7571 -0.241522
1866 49.7571 -0.241523
1867 49.7571 -0.241528
1868 49.7571 -0.241528
1869 49.7571 -0.241549
1870 49.7571 -0.241553
1871 49.7571 -0.241535
1872 49.7571 -0.241535
1873 49.7571 -0.241558
1874 49.7571 -0.241542
1875 49.7571 -0.241538
1876 49.7571 -0.241549
1877 49.7571 -0.241553
1878 49.7571 -0.241552
1879 49.7571 -0.241549
1880 49.7571 -0.241552
1881 49.7571 -0.241548
1882 49.7571 -0.241536
1883 49.7571 -0.241542
1884 49.7571 -0.241538
1885 49.7571 -0.241529
1886 49.7571 -0.241537
1887 49.7571 -0.241547
1888 49.7571 -0.241551
1889 49.7571 -0.241542
1890 49.7571 -0.241539
1891 49.7571 -0.241547
1892 49.7571 -0.241547
1893 49.7571 -0.24155
1894 49.7571 -0.241547
1895 49.7571 -0.241546
1896 49.7571 -0.241548
1897 49.7571 -0.241553
1898 49.7571 -0.241551
1899 49.7571 -0.241552
1900 49.7571 -0.241574
1901 49.7571 -0.241559
1902 49.7571 -0.241555
1903 49.7571 -0.241557
1904 49.7571 -0.241564
1905 49.7571 -0.24158
1906 49.7571 -0.241577
1907 49.7571 -0.241575
1908 49.7571 -0.241572
1909 49.7571 -0.241579
1910 49.7571 -0.241589
1911 49.7571 -0.241591
1912 49.7571 -0.241611
1913 49.7571 -0.241603
1914 49.7571 -0.241601
1915 49.7571 -0.241603
1916 49.7571 -0.241609
1917 49.7571 -0.24161
1918 49.7571 -0.241614
1919 49.7571 -0.241624
1920 49.7571 -0.241623
1921 49.7571 -0.24163
1922 49.7571 -0.241637
1923 49.7571 -0.241637
1924 49.7571 -0.241644
1925 49.7571 -0.241642
1926 49.7571 -0.241643
1927 49.7571 -0.241652
1928 49.7571 -0.24165
1929 49.7571 -0.241655
1930 49.7571 -0.241663
1931 49.7571 -0.241664
1932 49.7571 -0.24168
1933 49.7571 -0.241666
1934 49.7571 -0.241659
1935 49.7571 -0.241662
1936 49.7571 -0.241665
1937 49.7571 -0.24167
1938 49.7571 -0.241696
1939 49.7571 -0.241691
1940 49.7571 -0.241688
1941 49.7571 -0.241691
1942 49.7571 -0.241702
1943 49.7571 -0.241704
1944 49.757 -0.241716
1945 49.757 -0.24171
1946 49.7571 -0.241706
1947 49.7571 -0.241706
1948 49.7571 -0.241703
1949 49.757 -0.241709
1950 49.7571 -0.241702
1951 49.757 -0.241713
1952 49.757 -0.241712
1953 49.757 -0.241717
1954 49.757 -0.241715
1955 49.757 -0.241728
1956 49.757 -0.241722
1957 49.757 -0.241745
1958 49.757 -0.241742
1959 49.757 -0.241753
1960 49.757 -0.241757
1961 49.757 -0.241765
1962 49.757 -0.241765
1963 49.757 -0.241765
1964 49.757 -0.241766
1965 49.757 -0.241758
1966 49.757 -0.241773
1967 49.757 -0.241766
1968 49.757 -0.241758
1969 49.757 -0.241755
1970 49.757 -0.241763
1971 49.757 -0.241763
1972 49.757 -0.241769
1973 49.757 -0.241769
1974 49.757 -0.241776
1975 49.757 -0.241774
1976 49.757 -0.241786
1977 49.757 -0.241791
1978 49.757 -0.241767
1979 49.757 -0.24176
1980 49.757 -0.241763
1981 49.757 -0.241755
1982 49.757 -0.24175
1983 49.757 -0.241753
1984 49.757 -0.241749
1985 49.757 -0.241752
1986 49.757 -0.24176
1987 49.757 -0.24176
1988 49.757 -0.241761
1989 49.757 -0.241757
1990 49.757 -0.241765
1991 49.757 -0.24176
1992 49.757 -0.241771
1993 49.757 -0.241779
1994 49.757 -0.241764
1995 49.757 -0.241774
1996 49.757 -0.241774
1997 49.757 -0.241779
1998 49.757 -0.241783
1999 49.757 -0.241763
2000 49.757 -0.241764
2001 49.757 -0.241774
2002 49.757 -0.241775
2003 49.757 -0.241767
2004 49.757 -0.241771
2005 49.757 -0.241763
2006 49.757 -0.241767
2007 49.757 -0.241766
2008 49.757 -0.241775
2009 49.757 -0.241773
2010 49.757 -0.241785
2011 49.757 -0.241785
2012 49.757 -0.241779
2013 49.757 -0.241781
2014 49.757 -0.241802
2015 49.757 -0.241793
2016 49.757 -0.241797
2017 49.757 -0.241807
2018 49.757 -0.241811
2019 49.757 -0.241812
2020 49.757 -0.241819
2021 49.757 -0.241813
2022 49.757 -0.241808
2023 49.757 -0.241809
2024 49.757 -0.241813
2025 49.757 -0.241821
2026 49.757 -0.241823
2027 49.757 -0.241832
2028 49.757 -0.241826
2029 49.757 -0.241815
2030 49.757 -0.241823
2031 49.757 -0.241803
2032 49.757 -0.241804
2033 49.757 -0.241812
2034 49.757 -0.24181
2035 49.757 -0.241807
2036 49.757 -0.241809
2037 49.757 -0.241817
2038 49.757 -0.241817
2039 49.757 -0.241818
2040 49.757 -0.241823
2041 49.757 -0.241823
2042 49.757 -0.241815
2043 49.757 -0.241826
2044 49.757 -0.241838
2045 49.757 -0.241835
2046 49.757 -0.241841
2047 49.757 -0.241848
2048 49.757 -0.241853
2049 49.757 -0.241854
2050 49.757 -0.241866
2051 49.757 -0.241871
2052 49.757 -0.241873
2053 49.757 -0.241895
2054 49.757 -0.241902
2055 49.757 -0.241909
2056 49.757 -0.241916
2057 49.757 -0.241917
2058 49.757 -0.241922
2059 49.757 -0.24192
2060 49.757 -0.241908
2061 49.757 -0.241916
2062 49.757 -0.241915
2063 49.757 -0.241926
2064 49.757 -0.241928
2065 49.757 -0.24194
2066 49.757 -0.241943
2067 49.757 -0.241935
2068 49.757 -0.241955
2069 49.757 -0.241954
2070 49.757 -0.241955
2071 49.757 -0.241964
2072 49.757 -0.241984
2073 49.7569 -0.242006
2074 49.7569 -0.241997
2075 49.7569 -0.242008
2076 49.7569 -0.242012
2077 49.7569 -0.242015
2078 49.7569 -0.242025
2079 49.7569 -0.242017
2080 49.7569 -0.242014
2081 49.7569 -0.242016
2082 49.7569 -0.242007
2083 49.7569 -0.242016
2084 49.7569 -0.242025
2085 49.7569 -0.242024
2086 49.7569 -0.242019
2087 49.7569 -0.242016
2088 49.7569 -0.24202
2089 49.7569 -0.242001
2090 49.7569 -0.242002
2091 49.7569 -0.242012
2092 49.7569 -0.242012
2093 49.7569 -0.242005
2094 49.7569 -0.242003
2095 49.7569 -0.24201
2096 49.7569 -0.24201
2097 49.7569 -0.242011
2098 49.7569 -0.242011
2099 49.7569 -0.241999
2100 49.7569 -0.242006
2101 49.7569 -0.241999
2102 49.7569 -0.242002
2103 49.7569 -0.242
2104 49.7569 -0.241994
2105 49.7569 -0.241995
2106 49.7569 -0.241987
2107 49.7569 -0.241998
2108 49.7569 -0.24201
2109 49.7569 -0.242008
2110 49.7569 -0.242013
2111 49.7569 -0.24202
2112 49.7569 -0.242025
2113 49.7569 -0.242026
2114 49.7569 -0.242025
2115 49.7569 -0.242038
2116 49.7569 -0.242036
2117 49.7569 -0.24204
2118 49.7569 -0.242043
2119 49.7569 -0.242044
2120 49.7569 -0.242053
2121 49.7569 -0.242065
2122 49.7569 -0.242067
2123 49.7569 -0.242074
2124 49.7569 -0.242081
2125 49.7569 -0.242089
2126 49.7569 -0.242075
2127 49.7569 -0.242085
2128 49.7569 -0.242089
2129 49.7569 -0.242098
2130 49.7569 -0.242096
2131 49.7569 -0.242097
2132 49.7569 -0.242105
2133 49.7569 -0.242099
2134 49.7569 -0.242105
2135 49.7569 -0.242104
2136 49.7569 -0.242111
2137 49.7569 -0.242108
2138 49.7569 -0.242113
2139 49.7569 -0.242104
2140 49.7569 -0.242104
2141 49.7569 -0.242105
2142 49.7569 -0.242107
2143 49.7569 -0.242105
2144 49.7569 -0.242097
2145 49.7569 -0.242111
2146 49.7569 -0.242114
2147 49.7569 -0.242128
2148 49.7569 -0.242129
2149 49.7569 -0.242141
2150 49.7569 -0.242137
2151 49.7569 -0.24215
2152 49.7569 -0.24214
2153 49.7569 -0.242152
2154 49.7569 -0.242156
2155 49.7569 -0.242159
2156 49.7569 -0.242167
2157 49.7569 -0.242161
2158 49.7569 -0.242186
2159 49.7569 -0.242189
2160 49.7569 -0.242206
2161 49.7569 -0.242214
2162 49.7569 -0.242215
2163 49.7569 -0.242207
2164 49.7569 -0.242205
2165 49.7569 -0.242212
2166 49.7569 -0.242212
2167 49.7569 -0.242213
2168 49.7569 -0.242213
2169 49.7569 -0.242201
2170 49.7569 -0.242208
2171 49.7569 -0.242233
2172 49.7569 -0.242229
2173 49.7569 -0.242217
2174 49.7569 -0.242227
2175 49.7569 -0.242225
2176 49.7569 -0.242236
2177 49.7569 -0.242242
2178 49.7569 -0.242228
2179 49.7569 -0.242243
2180 49.7569 -0.242242
2181 49.7569 -0.242251
2182 49.7569 -0.24226
2183 49.7568 -0.242262
2184 49.7569 -0.242253
2185 49.7569 -0.242248
2186 49.7569 -0.242251
2187 49.7569 -0.242256
2188 49.7569 -0.242258
2189 49.7569 -0.242261
2190 49.7568 -0.242273
2191 49.7569 -0.242259
2192 49.7568 -0.242266
2193 49.7568 -0.242267
2194 49.7568 -0.242282
2195 49.7568 -0.242281
2196 49.7568 -0.242289
2197 49.7568 -0.242289
2198 49.7568 -0.24229
2199 49.7568 -0.242282
2200 49.7568 -0.24229
2201 49.7568 -0.242292
2202 49.7568 -0.242296
2203 49.7568 -0.242294
2204 49.7568 -0.242294
2205 49.7568 -0.242285
2206 49.7568 -0.24229
2207 49.7568 -0.242298
2208 49.7568 -0.242292
2209 49.7568 -0.242317
2210 49.7568 -0.242309
2211 49.7568 -0.24231
2212 49.7568 -0.242331
2213 49.7568 -0.242342
2214 49.7568 -0.242332
2215 49.7568 -0.242331
2216 49.7568 -0.242332
2217 49.7568 -0.242338
2218 49.7568 -0.242324
2219 49.7568 -0.242334
2220 49.7568 -0.242338
2221 49.7568 -0.242336
2222 49.7568 -0.242338
2223 49.7568 -0.242344
2224 49.7568 -0.242356
2225 49.7568 -0.242353
2226 49.7568 -0.242369
2227 49.7568 -0.242368
2228 49.7568 -0.242376
2229 49.7568 -0.242376
2230 49.7568 -0.242376
2231 49.7568 -0.242376
2232 49.7568 -0.242376
2233 49.7568 -0.242357
2234 49.7568 -0.242358
2235 49.7568 -0.242368
2236 49.7568 -0.242367
2237 49.7568 -0.242358
2238 49.7568 -0.242367
2239 49.7568 -0.242376
2240 49.7568 -0.242378
2241 49.7568 -0.242387
2242 49.7568 -0.242391
2243 49.7568 -0.242394
2244 49.7568 -0.242389
2245 49.7568 -0.242409
2246 49.7568 -0.242408
2247 49.7568 -0.24241
2248 49.7568 -0.242409
2249 49.7568 -0.242415
2250 49.7568 -0.242414
2251 49.7568 -0.242425
2252 49.7568 -0.242431
2253 49.7568 -0.24244
2254 49.7568 -0.242447
2255 49.7568 -0.242454
2256 49.7568 -0.242471
2257 49.7568 -0.242477
2258 49.7568 -0.242482
2259 49.7568 -0.242483
2260 49.7568 -0.242484
2261 49.7568 -0.242489
2262 49.7568 -0.242489
2263 49.7568 -0.242481
2264 49.7568 -0.24247
2265 49.7568 -0.242479
2266 49.7568 -0.242477
2267 49.7568 -0.242474
2268 49.7568 -0.24247
2269 49.7568 -0.242473
2270 49.7568 -0.242482
2271 49.7568 -0.242476
2272 49.7568 -0.242471
2273 49.7568 -0.242473
2274 49.7568 -0.242479
2275 49.7568 -0.242474
2276 49.7568 -0.242499
2277 49.7568 -0.24249
2278 49.7568 -0.242492
2279 49.7568 -0.242513
2280 49.7568 -0.242523
2281 49.7568 -0.242513
2282 49.7568 -0.242513
2283 49.7568 -0.242514
2284 49.7568 -0.24252
2285 49.7568 -0.242506
2286 49.7568 -0.242516
2287 49.7568 -0.24252
2288 49.7568 -0.242518
2289 49.7568 -0.242519
2290 49.7568 -0.242526
2291 49.7568 -0.242537
2292 49.7568 -0.242535
2293 49.7567 -0.24255
2294 49.7567 -0.24255
2295 49.7567 -0.242558
2296 49.7567 -0.242558
2297 49.7567 -0.242558
2298 49.7567 -0.242558
2299 49.7567 -0.242558
2300 49.7568 -0.242539
2301 49.7568 -0.24254
2302 49.7567 -0.24255
2303 49.7567 -0.242549
2304 49.7568 -0.24254
2305 49.7567 -0.242549
2306 49.7567 -0.242558
2307 49.7567 -0.24256
2308 49.7567 -0.242569
2309 49.7567 -0.242573
2310 49.7567 -0.242576
2311 49.7567 -0.242571
2312 49.7567 -0.242591
2313 49.7567 -0.24259
2314 49.7567 -0.242592
2315 49.7567 -0.242591
2316 49.7567 -0.242597
2317 49.7567 -0.242596
2318 49.7567 -0.242607
2319 49.7567 -0.242613
2320 49.7567 -0.242622
2321 49.7567 -0.242629
2322 49.7567 -0.242636
2323 49.7567 -0.242653
2324 49.7567 -0.242659
2325 49.7567 -0.242664
2326 49.7567 -0.242665
2327 49.7567 -0.242666
2328 49.7567 -0.242671
2329 49.7567 -0.242671
2330 49.7567 -0.242663
2331 49.7567 -0.242652
2332 49.7567 -0.242661
2333 49.7567 -0.242659
2334 49.7567 -0.242656
2335 49.7567 -0.242652
2336 49.7567 -0.242655
2337 49.7567 -0.242664
2338 49.7567 -0.242658
2339 49.7567 -0.242653
2340 49.7567 -0.242655
2341 49.7567 -0.242661
2342 49.7567 -0.242656
2343 49.7567 -0.242681
2344 49.7567 -0.242672
2345 49.7567 -0.242674
2346 49.7567 -0.242695
2347 49.7567 -0.242705
2348 49.7567 -0.242695
2349 49.7567 -0.242695
2350 49.7567 -0.242696
2351 49.7567 -0.242702
2352 49.7567 -0.242688
2353 49.7567 -0.242698
2354 49.7567 -0.242702
2355 49.7567 -0.2427
2356 49.7567 -0.242701
2357 49.7567 -0.242708
2358 49.7567 -0.242719
2359 49.7567 -0.242717
2360 49.7567 -0.242732
2361 49.7567 -0.242731
2362 49.7567 -0.24273
2363 49.7567 -0.242726
2364 49.7567 -0.242725
2365 49.7567 -0.24273
2366 49.7567 -0.242735
2367 49.7567 -0.242736
2368 49.7567 -0.242741
2369 49.7567 -0.242741
2370 49.7567 -0.242758
2371 49.7567 -0.242762
2372 49.7567 -0.242772
2373 49.7567 -0.242748
2374 49.7567 -0.242749
2375 49.7567 -0.242761
2376 49.7567 -0.242773
2377 49.7567 -0.242772
2378 49.7567 -0.242772
2379 49.7567 -0.242763
2380 49.7567 -0.242767
2381 49.7567 -0.242761
2382 49.7567 -0.242761
2383 49.7567 -0.242773
2384 49.7567 -0.242766
2385 49.7567 -0.242763
2386 49.7567 -0.242774
2387 49.7567 -0.242778
2388 49.7567 -0.242781
2389 49.7567 -0.242776
2390 49.7567 -0.242796
2391 49.7567 -0.242795
2392 49.7567 -0.242798
2393 49.7567 -0.242797
2394 49.7567 -0.242806
2395 49.7567 -0.242805
2396 49.7567 -0.242817
2397 49.7566 -0.242823
2398 49.7566 -0.242829
2399 49.7566 -0.242838
2400 49.7566 -0.242844
2401 49.7566 -0.242845
2402 49.7566 -0.242853
2403 49.7566 -0.242858
2404 49.7566 -0.24286
2405 49.7566 -0.242847
2406 49.7566 -0.242854
2407 49.7566 -0.242855
2408 49.7566 -0.242847
2409 49.7566 -0.242845
2410 49.7566 -0.242853
2411 49.7566 -0.242852
2412 49.7566 -0.242847
2413 49.7566 -0.242843
2414 49.7566 -0.242847
2415 49.7566 -0.242856
2416 49.7566 -0.242849
2417 49.7566 -0.242845
2418 49.7566 -0.242848
2419 49.7566 -0.242854
2420 49.7566 -0.242874
2421 49.7566 -0.242897
2422 49.7566 -0.242888
2423 49.7566 -0.24289
2424 49.7566 -0.242902
2425 49.7566 -0.242905
2426 49.7566 -0.242896
2427 49.7566 -0.242896
2428 49.7566 -0.242901
2429 49.7566 -0.242899
2430 49.7566 -0.242887
2431 49.7566 -0.242897
2432 49.7566 -0.242902
2433 49.7566 -0.242905
2434 49.7566 -0.242926
2435 49.7566 -0.24293
2436 49.7566 -0.242943
2437 49.7566 -0.24294
2438 49.7566 -0.242945
2439 49.7566 -0.242946
2440 49.7566 -0.242955
2441 49.7566 -0.242954
2442 49.7566 -0.242956
2443 49.7566 -0.242956
2444 49.7566 -0.242962
2445 49.7566 -0.242942
2446 49.7566 -0.242944
2447 49.7566 -0.242955
2448 49.7566 -0.242954
2449 49.7566 -0.242957
2450 49.7566 -0.242966
2451 49.7566 -0.242975
2452 49.7566 -0.242977
2453 49.7566 -0.242987
2454 49.7566 -0.242991
2455 49.7566 -0.242995
2456 49.7566 -0.24299
2457 49.7566 -0.24301
2458 49.7566 -0.243009
2459 49.7566 -0.243012
2460 49.7566 -0.243011
2461 49.7566 -0.24302
2462 49.7566 -0.243018
2463 49.7566 -0.243031
2464 49.7566 -0.243037
2465 49.7566 -0.243043
2466 49.7566 -0.243052
2467 49.7566 -0.243058
2468 49.7566 -0.243059
2469 49.7566 -0.243067
2470 49.7566 -0.243072
2471 49.7566 -0.243073
2472 49.7566 -0.243061
2473 49.7566 -0.243068
2474 49.7566 -0.243069
2475 49.7566 -0.243061
2476 49.7566 -0.243059
2477 49.7566 -0.243067
2478 49.7566 -0.243066
2479 49.7566 -0.243061
2480 49.7566 -0.243057
2481 49.7566 -0.243061
2482 49.7566 -0.24307
2483 49.7566 -0.243063
2484 49.7566 -0.243059
2485 49.7566 -0.243062
2486 49.7566 -0.243068
2487 49.7566 -0.243088
2488 49.7565 -0.243111
2489 49.7566 -0.243102
2490 49.7565 -0.243104
2491 49.7565 -0.243116
2492 49.7565 -0.243119
2493 49.7565 -0.24311
2494 49.7565 -0.24311
2495 49.7565 -0.243115
2496 49.7566 -0.243095
2497 49.7566 -0.243076
2498 49.7566 -0.24308
2499 49.7566 -0.243076
2500 49.7566 -0.243079
2501 49.7566 -0.243064
2502 49.7566 -0.243061
2503 49.7566 -0.243052
2504 49.7566 -0.243062
2505 49.7566 -0.243062
2506 49.7566 -0.243076
2507 49.7566 -0.24308
2508 49.7566 -0.243089
2509 49.7566 -0.243101
2510 49.7565 -0.243107
2511 49.7565 -0.243116
2512 49.7565 -0.243113
2513 49.7565 -0.243105
2514 49.7565 -0.243106
2515 49.7566 -0.243102
2516 49.7565 -0.243109
2517 49.7565 -0.243123
2518 49.7565 -0.243118
2519 49.7565 -0.243121
2520 49.7565 -0.243128
2521 49.7565 -0.243135
2522 49.7565 -0.243136
2523 49.7565 -0.243145
2524 49.7565 -0.243142
2525 49.7565 -0.243142
2526 49.7565 -0.24315
2527 49.7565 -0.243156
2528 49.7565 -0.243156
2529 49.7565 -0.243144
2530 49.7565 -0.243139
2531 49.7565 -0.243155
2532 49.7565 -0.243155
2533 49.7565 -0.243154
2534 49.7565 -0.243167
2535 49.7565 -0.243173
2536 49.7565 -0.243173
