10 0.0179929 0.00606242
18 0.397828 -0.00303502
36 0.993858 -0.213766
56 1.82358 -0.151792
85 3.72532 0.207052
122 6.19779 0.373987
170 9.03619 -0.295794
213 11.8566 -0.96794
246 14.009 -1.47314
270 15.5578 -1.8378
287 16.6364 -2.09333
299 17.3789 -2.27322
308 17.9206 -2.40643
315 18.3303 -2.50728
320 18.6052 -2.5751
324 18.8138 -2.62669
327 18.9558 -2.66181
329 19.0475 -2.68541
331 19.1225 -2.70519
333 19.1945 -2.7257
335 19.2629 -2.74685
343 19.3969 -2.79424
347 19.5007 -2.82214
349 19.5933 -2.84558
351 19.6663 -2.86502
353 19.7364 -2.88525
355 19.8019 -2.90564
357 19.8666 -2.92671
362 20.0041 -2.97292
366 20.0972 -2.99845
368 20.189 -3.02167
370 20.2636 -3.04032
372 20.3343 -3.05724
374 20.4026 -3.07319
376 20.4678 -3.08793
378 20.5359 -3.10295
380 20.6038 -3.11768
382 20.673 -3.13238
384 20.7421 -3.14685
386 20.8043 -3.15959
388 20.8741 -3.17367
390 20.9378 -3.18616
392 21.0026 -3.19858
394 21.0674 -3.2109
396 21.1333 -3.22335
398 21.2006 -3.23605
400 21.2667 -3.24837
402 21.3343 -3.26086
404 21.4025 -3.2733
406 21.4722 -3.28582
408 21.5387 -3.29762
410 21.6068 -3.30961
412 21.6771 -3.32197
414 21.7493 -3.33463
416 21.8204 -3.34709
418 21.8891 -3.35918
420 21.9573 -3.37116
422 22.0243 -3.38281
424 22.0929 -3.39458
426 22.1606 -3.4061
428 22.2309 -3.41801
430 22.2992 -3.42957
432 22.3667 -3.44103
434 22.4342 -3.4525
436 22.5016 -3.46392
456 23.0589 -3.9325
469 23.2518 -4.04324
479 23.4058 -4.04913
497 23.996 -4.18507
559 26.5137 -6.8528
677 33.8854 -8.61589
740 38.0927 -9.36529
755 39.0495 -9.52929
760 39.3282 -9.57795
762 39.423 -9.59495
764 39.4966 -9.60868
766 39.5672 -9.62315
768 39.6359 -9.63888
770 39.7056 -9.65677
777 39.8363 -9.6947
781 39.9379 -9.71039
783 40.0349 -9.72244
785 40.108 -9.73316
787 40.1782 -9.74401
789 40.2384 -9.75348
791 40.3106 -9.7652
793 40.3838 -9.77725
795 40.4575 -9.78947
797 40.5303 -9.80155
799 40.5983 -9.81269
801 40.6674 -9.8239
808 40.8074 -9.84606
812 40.8581 -9.84643
814 40.9137 -9.84674
816 40.9793 -9.84686
818 41.0433 -9.84703
820 41.1 -9.84706
822 41.1721 -9.84705
824 41.2445 -9.84688
826 41.3167 -9.84639
828 41.3865 -9.84604
830 41.4525 -9.84567
832 41.5184 -9.84543
834 41.5833 -9.84535
836 41.6511 -9.84533
838 41.7189 -9.84537
840 41.7866 -9.84541
842 41.8558 -9.84547
844 41.9259 -9.84556
846 41.9963 -9.84576
848 42.0664 -9.84611
850 42.1355 -9.84654
852 42.2048 -9.84704
854 42.2714 -9.84759
857 42.3904 -9.84869
863 42.7362 -9.84036
902 42.6141 -10.3288
968 45.1978 -8.44681
1024 46.5118 -8.30013
1051 47.1639 -7.06899
1067 47.581 -6.80818
1092 48.3828 -6.99777
1118 48.5572 -6.32653
1128 48.6354 -6.03969
1135 48.7088 -5.87974
1160 49.1897 -4.9744
1169 49.2787 -4.88546
1171 49.2791 -4.88418
1173 49.2959 -4.82467
1175 49.3142 -4.76193
1177 49.3359 -4.69005
1179 49.355 -4.62554
1215 49.119 -3.82352
1235 49.5246 -3.70297
1253 50.5916 -3.73852
1275 50.7424 -3.37212
1285 50.7126 -2.85598
1294 50.6881 -2.72585
1313 50.971 -2.5087
1325 51.2116 -2.19066
1330 51.3789 -1.96203
1332 51.4364 -1.88462
1336 51.5543 -1.72557
1338 51.6157 -1.64735
1340 51.6623 -1.58929
1342 51.7016 -1.54174
1344 51.7483 -1.48609
1346 51.7952 -1.43094
1376 51.5054 -1.66734
1399 51.5752 -1.21711
1420 51.4571 -0.102768
1422 51.4437 -0.00599561
1424 51.4327 0.0687631
1426 51.421 0.138909
1428 51.4079 0.209152
1453 51.4402 -0.109353
1501 51.8015 0.863388
1545 51.5207 1.49779
1604 50.0383 -1.10643
1647 49.6184 -0.0682723
1713 50.2773 -0.522642
1769 49.1089 0.309024
1799 49.5317 0.0541075
1803 49.7312 -0.0247792
1809 50.06 -0.15069
1810 50.093 -0.15972
1811 50.097 -0.160702
1812 50.0967 -0.16072
1813 50.0965 -0.160737
1814 50.0963 -0.160751
1815 50.0961 -0.160765
1816 50.0959 -0.160775
1817 50.0958 -0.160785
1818 50.0956 -0.160795
1819 50.0955 -0.160802
1820 50.0954 -0.160808
1821 50.0953 -0.160815
1822 50.0953 -0.16082
1823 50.0952 -0.160825
1824 50.0951 -0.160829
1825 50.0951 -0.160832
1826 50.095 -0.160837
1827 50.095 -0.16084
1828 50.095 -0.160844
1829 50.0949 -0.160847
1830 50.0949 -0.16085
1831 50.0949 -0.160852
1832 50.0949 -0.160855
1833 50.0949 -0.160857
1858 50.3067 -0.749113
1930 50.5221 0.270904
1952 51.1815 0.602305
2004 49.289 -0.576714
2036 49.9485 -0.179453
2037 49.9789 -0.161156
2038 49.9815 -0.159562
2039 49.9811 -0.159728
2040 49.9807 -0.159879
2041 49.9805 -0.159992
2042 49.9802 -0.160093
2043 49.98 -0.160198
2044 49.9798 -0.160291
2045 49.9796 -0.16037
2046 49.9795 -0.16044
2047 49.9793 -0.1605
2048 49.9792 -0.160551
2049 49.9791 -0.160595
2050 49.979 -0.160633
2051 49.9789 -0.160679
2052 49.9789 -0.160714
2053 49.9788 -0.16074
2054 49.9787 -0.160762
2055 49.9787 -0.160783
2056 49.9786 -0.160803
2057 49.9786 -0.16082
2058 49.9786 -0.160827
2059 49.9786 -0.160833
2060 49.9785 -0.16084
2061 49.9785 -0.160848
2062 49.9785 -0.160854
2063 49.9785 -0.160857
2064 49.9785 -0.160864
2065 49.9785 -0.16087
2066 49.9785 -0.160875
2067 49.9785 -0.160876
2068 49.9784 -0.160878
2069 49.9784 -0.160879
2070 49.9784 -0.16088
2071 49.9784 -0.160882
2072 49.9784 -0.160878
2073 49.9784 -0.160876
2074 49.9784 -0.16088
2075 49.9784 -0.160879
2076 49.9784 -0.16088
2077 49.9784 -0.160894
2078 49.9784 -0.160898
2079 49.9784 -0.160901
2080 49.9784 -0.160911
2081 49.9784 -0.160912
2082 49.9784 -0.160909
2083 49.9784 -0.160902
2084 49.9784 -0.160908
2085 49.9784 -0.160906
2086 49.9784 -0.160902
2087 49.9784 -0.1609
2088 49.9784 -0.1609
2089 49.9784 -0.160906
2090 49.9784 -0.160908
2091 49.9784 -0.160909
2092 49.9784 -0.160912
2093 49.9784 -0.160914
2094 49.9784 -0.160915
2095 49.9784 -0.160912
2096 49.9784 -0.160912
2097 49.9784 -0.160911
2098 49.9784 -0.16091
2099 49.9784 -0.160907
2100 49.9784 -0.160904
2101 49.9784 -0.1609
2102 49.9784 -0.160898
2103 49.9784 -0.160889
2104 49.9784 -0.160881
2105 49.9784 -0.160889
2106 49.9784 -0.160889
2107 49.9784 -0.160887
2108 49.9784 -0.160885
2109 49.9784 -0.160878
2110 49.9784 -0.160875
2111 49.9784 -0.160871
2112 49.9784 -0.16087
2113 49.9784 -0.160862
2114 49.9785 -0.160856
2115 49.9785 -0.160846
2116 49.9785 -0.160846
2117 49.9785 -0.160851
2118 49.9785 -0.160849
2119 49.9785 -0.160847
2120 49.9785 -0.160842
2121 49.9785 -0.160835
2122 49.9785 -0.160831
2123 49.9785 -0.160831
2124 49.9785 -0.160831
2125 49.9785 -0.160832
2126 49.9785 -0.160829
2127 49.9785 -0.160828
2128 49.9785 -0.160828
2129 49.9785 -0.160828
2130 49.9785 -0.16083
2131 49.9785 -0.160829
2132 49.9785 -0.160828
2133 49.9785 -0.160827
2134 49.9785 -0.160824
2135 49.9785 -0.16083
2136 49.9785 -0.160829
2137 49.9785 -0.160822
2138 49.9785 -0.160822
2139 49.9785 -0.160823
2140 49.9785 -0.160823
2141 49.9785 -0.160824
2142 49.9785 -0.16082
2143 49.9785 -0.160816
2144 49.9785 -0.160814
2145 49.9785 -0.160808
2146 49.9785 -0.160803
2147 49.9785 -0.1608
2148 49.9785 -0.160798
2149 49.9785 -0.160796
2150 49.9785 -0.160796
2151 49.9785 -0.160794
2152 49.9785 -0.160787
2153 49.9786 -0.160782
2154 49.9786 -0.16078
2155 49.9786 -0.160777
2156 49.9786 -0.16078
2157 49.9786 -0.16078
2158 49.9785 -0.16079
2159 49.9785 -0.160788
2160 49.9786 -0.160785
2161 49.9786 -0.160777
2162 49.9786 -0.160769
2163 49.9786 -0.160762
2164 49.9786 -0.160754
2165 49.9786 -0.160745
2166 49.9786 -0.160741
2167 49.9786 -0.16074
2168 49.9786 -0.160754
2169 49.9786 -0.160758
2170 49.9786 -0.160752
2171 49.9786 -0.160751
2172 49.9786 -0.160751
2173 49.9786 -0.160747
2174 49.9786 -0.160741
2175 49.9786 -0.160743
2176 49.9786 -0.160744
2177 49.9786 -0.160747
2178 49.9786 -0.160748
2179 49.9786 -0.160751
2180 49.9786 -0.160762
2181 49.9786 -0.160761
2182 49.9786 -0.16076
2183 49.9786 -0.160756
2184 49.9786 -0.160752
2185 49.9786 -0.160748
2186 49.9786 -0.160742
2187 49.9786 -0.160735
2188 49.9786 -0.160733
2189 49.9786 -0.160729
2190 49.9786 -0.16073
2191 49.9786 -0.160731
2192 49.9786 -0.160731
2193 49.9786 -0.160725
2194 49.9786 -0.160722
2195 49.9787 -0.160718
2196 49.9787 -0.160717
2197 49.9786 -0.160723
2198 49.9786 -0.160723
2199 49.9786 -0.16072
2200 49.9786 -0.160724
2201 49.9786 -0.160721
2202 49.9786 -0.160719
2203 49.9786 -0.160719
2204 49.9786 -0.160718
2205 49.9787 -0.160712
2206 49.9787 -0.160709
2207 49.9787 -0.160704
2208 49.9787 -0.160705
2209 49.9787 -0.160705
2210 49.9787 -0.160712
2211 49.9787 -0.160709
2212 49.9787 -0.160707
2213 49.9787 -0.160708
2214 49.9787 -0.16071
2215 49.9787 -0.160702
2216 49.9787 -0.160713
2217 49.9787 -0.160714
2218 49.9787 -0.160709
2219 49.9787 -0.160705
2220 49.9787 -0.160704
2221 49.9787 -0.160702
2222 49.9787 -0.160705
2223 49.9787 -0.160702
2224 49.9787 -0.160699
2225 49.9787 -0.160698
2226 49.9787 -0.160693
2227 49.9787 -0.160692
2228 49.9787 -0.160686
2229 49.9787 -0.160683
2230 49.9787 -0.16068
2231 49.9787 -0.160682
2232 49.9787 -0.160684
2233 49.9787 -0.160683
2234 49.9787 -0.160684
2235 49.9787 -0.160684
2236 49.9787 -0.160681
2237 49.9787 -0.160679
2238 49.9787 -0.160677
2239 49.9787 -0.160674
2240 49.9787 -0.160672
2241 49.9787 -0.160664
2242 49.9787 -0.160662
2243 49.9787 -0.160659
2244 49.9787 -0.160652
2245 49.9787 -0.16066
2246 49.9787 -0.160663
2247 49.9787 -0.160659
2248 49.9787 -0.160655
2249 49.9787 -0.160652
2250 49.9787 -0.160649
2251 49.9788 -0.160645
2252 49.9788 -0.160641
2253 49.9788 -0.160639
2254 49.9788 -0.160635
2255 49.9788 -0.160626
2256 49.9788 -0.16062
2257 49.9788 -0.160621
2258 49.9788 -0.160619
2259 49.9788 -0.160617
2260 49.9788 -0.160615
2261 49.9788 -0.16061
2262 49.9788 -0.160605
2263 49.9788 -0.160599
2264 49.9788 -0.160595
2265 49.9788 -0.160597
2266 49.9788 -0.160595
2267 49.9788 -0.160596
2268 49.9788 -0.160597
2269 49.9788 -0.160597
2270 49.9788 -0.160591
2271 49.9788 -0.160588
2272 49.9788 -0.160584
2273 49.9788 -0.160583
2274 49.9788 -0.160589
2275 49.9788 -0.160589
2276 49.9788 -0.160586
2277 49.9788 -0.160594
2278 49.9788 -0.160603
2279 49.9788 -0.160608
2280 49.9788 -0.160605
2281 49.9788 -0.160605
2282 49.9788 -0.160606
2283 49.9788 -0.1606
2284 49.9788 -0.160593
2285 49.9788 -0.160583
2286 49.9788 -0.160581
2287 49.9788 -0.160582
2288 49.9788 -0.160582
2289 49.9788 -0.160581
2290 49.9789 -0.160579
2291 49.9789 -0.160576
2292 49.9789 -0.160573
2293 49.9789 -0.160573
2294 49.9789 -0.160572
2295 49.9789 -0.160572
2296 49.9789 -0.160575
2297 49.9789 -0.160574
2298 49.9788 -0.160588
2299 49.9788 -0.160584
2300 49.9789 -0.160579
2301 49.9789 -0.160575
2302 49.9789 -0.160567
2303 49.9789 -0.160562
2304 49.9789 -0.160559
2305 49.9789 -0.160558
2306 49.9789 -0.160557
2307 49.9789 -0.160558
2308 49.9789 -0.160568
2309 49.9789 -0.160571
2310 49.9789 -0.160572
2311 49.9789 -0.160568
2312 49.9789 -0.160568
2313 49.9789 -0.160565
2314 49.9789 -0.160563
2315 49.9789 -0.16056
2316 49.9789 -0.160566
2317 49.9789 -0.160565
2318 49.9789 -0.160561
2319 49.9789 -0.160559
2320 49.9789 -0.16056
2321 49.9789 -0.160559
2322 49.9789 -0.160554
2323 49.9789 -0.160548
2324 49.9789 -0.160543
2325 49.9789 -0.160536
2326 49.9789 -0.160535
2327 49.9789 -0.160537
2328 49.9789 -0.160535
2329 49.9789 -0.160532
2330 49.9789 -0.160531
2331 49.9789 -0.160536
2332 49.9789 -0.160538
2333 49.9789 -0.160538
2334 49.9789 -0.160548
2335 49.9789 -0.16055
2336 49.9789 -0.160553
2337 49.9789 -0.160569
2338 49.9788 -0.160582
2339 49.9788 -0.160584
2340 49.9788 -0.160582
2341 49.9788 -0.16058
2342 49.9788 -0.160591
2343 49.9788 -0.160592
2344 49.9788 -0.160588
2345 49.9788 -0.160585
2346 49.9788 -0.160592
2347 49.9788 -0.16059
2348 49.9788 -0.160587
2349 49.9788 -0.160592
2350 49.9788 -0.160596
2351 49.9788 -0.160595
2352 49.9788 -0.160594
2353 49.9788 -0.160594
2354 49.9788 -0.160595
2355 49.9788 -0.160592
2356 49.9788 -0.160596
2357 49.9788 -0.160595
2358 49.9788 -0.160591
2359 49.9788 -0.160585
2360 49.9788 -0.160584
2361 49.9788 -0.160582
2362 49.9788 -0.160583
2363 49.9788 -0.160581
2364 49.9789 -0.160579
2365 49.9789 -0.160578
2366 49.9789 -0.160577
2367 49.9789 -0.160578
2368 49.9789 -0.160577
2369 49.9789 -0.16057
2370 49.9789 -0.160565
2371 49.9789 -0.160559
2372 49.9789 -0.160556
2373 49.9789 -0.160554
2374 49.9789 -0.160551
2375 49.9789 -0.160547
2376 49.9789 -0.160545
2377 49.9789 -0.160542
2378 49.9789 -0.160538
2379 49.9789 -0.160538
2380 49.9789 -0.160537
2381 49.9789 -0.160535
2382 49.9789 -0.160538
2383 49.9789 -0.160537
2384 49.9789 -0.160533
2385 49.9789 -0.160528
2386 49.9789 -0.160527
2387 49.9789 -0.160525
2388 49.9789 -0.160526
2389 49.9789 -0.160524
2390 49.9789 -0.160522
2391 49.9789 -0.16052
2392 49.9789 -0.16052
2393 49.9789 -0.160521
2394 49.9789 -0.160519
2395 49.9789 -0.160512
2396 49.979 -0.160507
2397 49.979 -0.160502
2398 49.979 -0.160498
2399 49.979 -0.160497
2400 49.979 -0.160494
2401 49.979 -0.16049
2402 49.979 -0.160488
2403 49.979 -0.160484
2404 49.979 -0.160481
2405 49.979 -0.16048
2406 49.979 -0.16048
2407 49.979 -0.160478
2408 49.979 -0.160481
2409 49.979 -0.16048
2410 49.979 -0.160476
2411 49.979 -0.160471
2412 49.979 -0.160469
2413 49.979 -0.160468
2414 49.979 -0.160468
2415 49.979 -0.160467
2416 49.979 -0.160464
2417 49.979 -0.160463
2418 49.979 -0.160462
2419 49.979 -0.160464
2420 49.979 -0.160462
2421 49.979 -0.160455
2422 49.979 -0.16045
2423 49.979 -0.160444
2424 49.9791 -0.160441
2425 49.9791 -0.160439
2426 49.9791 -0.160436
2427 49.9791 -0.160433
2428 49.9791 -0.16043
2429 49.9791 -0.160427
2430 49.9791 -0.160424
2431 49.9791 -0.160423
2432 49.9791 -0.160423
2433 49.9791 -0.160421
2434 49.9791 -0.160424
2435 49.9791 -0.160423
2436 49.9791 -0.160419
2437 49.9791 -0.160414
2438 49.9791 -0.160412
2439 49.9791 -0.16041
2440 49.9791 -0.160411
2441 49.9791 -0.16041
2442 49.9791 -0.160407
2443 49.9791 -0.160406
2444 49.9791 -0.160405
2445 49.9791 -0.160406
2446 49.9791 -0.160405
2447 49.9791 -0.160398
2448 49.9791 -0.160393
2449 49.9791 -0.160387
2450 49.9791 -0.160384
2451 49.9791 -0.160382
2452 49.9791 -0.160379
2453 49.9791 -0.160376
2454 49.9791 -0.160373
2455 49.9792 -0.16037
2456 49.9792 -0.160367
2457 49.9792 -0.160366
2458 49.9792 -0.160366
2459 49.9792 -0.160363
2460 49.9792 -0.160367
2461 49.9792 -0.160366
2462 49.9792 -0.160362
2463 49.9792 -0.160357
2464 49.9792 -0.160355
2465 49.9792 -0.160353
2466 49.9792 -0.160354
2467 49.9792 -0.160352
2468 49.9792 -0.16035
2469 49.9792 -0.160349
2470 49.9792 -0.160348
2471 49.9792 -0.160349
2472 49.9792 -0.160348
2473 49.9792 -0.16034
2474 49.9792 -0.160335
2475 49.9792 -0.16033
2476 49.9792 -0.160326
2477 49.9792 -0.160326
2478 49.9792 -0.160322
2479 49.9792 -0.160318
2480 49.9792 -0.160316
2481 49.9792 -0.160313
2482 49.9792 -0.160309
2483 49.9792 -0.160308
2484 49.9792 -0.160308
2485 49.9792 -0.160306
2486 49.9792 -0.160309
2487 49.9792 -0.160308
2488 49.9792 -0.160304
2489 49.9793 -0.160299
2490 49.9793 -0.160297
2491 49.9793 -0.160296
2492 49.9793 -0.160296
2493 49.9793 -0.160295
2494 49.9793 -0.160292
2495 49.9793 -0.160291
2496 49.9793 -0.16029
2497 49.9793 -0.160292
2498 49.9793 -0.16029
2499 49.9793 -0.160283
2500 49.9793 -0.160278
2501 49.9793 -0.160273
2502 49.9793 -0.160269
2503 49.9793 -0.160267
2504 49.9793 -0.160264
2505 49.9793 -0.160261
2506 49.9793 -0.160258
2507 49.9793 -0.160255
2508 49.9793 -0.160252
2509 49.9793 -0.160251
2510 49.9793 -0.160251
2511 49.9793 -0.160249
2512 49.9793 -0.160252
2513 49.9793 -0.160251
2514 49.9793 -0.160247
2515 49.9793 -0.160242
2516 49.9793 -0.16024
2517 49.9793 -0.160238
2518 49.9793 -0.160239
2519 49.9793 -0.160238
2520 49.9793 -0.160235
2521 49.9794 -0.160227
2522 49.9794 -0.160223
2523 49.9794 -0.16023
2524 49.9794 -0.160232
2525 49.9794 -0.160228
2526 49.9794 -0.160233
2527 49.9794 -0.160233
2528 49.9794 -0.160228
2529 49.9794 -0.160233
2530 49.9793 -0.160237
2531 49.9793 -0.160241
2532 49.9793 -0.16024
2533 49.9793 -0.160238
2534 49.9793 -0.160248
2535 49.9793 -0.160248
2536 49.9793 -0.160258
