13 0.0185075 0.0142146
25 0.602802 -0.103217
46 1.41688 0.10474
59 2.22825 0.291753
83 3.31208 0.00896732
114 5.31811 -0.510778
154 7.9899 -0.79421
195 10.7479 -0.759465
228 12.9569 -0.666397
253 14.6162 -0.591801
271 15.794 -0.536488
284 16.627 -0.497541
294 17.2525 -0.467963
301 17.6741 -0.447322
306 17.9565 -0.433326
309 18.1138 -0.425338
312 18.2603 -0.417242
314 18.3856 -0.40987
317 18.4835 -0.403588
346 18.1444 -0.0813533
419 16.5173 -3.69037
544 21.2725 1.53287
595 23.4857 1.95854
665 20.1701 3.49738
892 30.3947 -6.15095
1050 40.4769 -8.05552
1090 42.6704 -7.69977
1172 45.0766 -4.35572
1235 42.7581 -2.18372
1265 43.1878 -2.30656
1285 43.6857 -2.67023
1311 43.884 -3.44824
1390 48.1037 -5.10907
1439 46.567 -4.2509
1502 48.2171 -1.23626
1505 48.2828 -1.0942
1507 48.336 -0.980745
1509 48.369 -0.911094
1511 48.4012 -0.844701
1513 48.4363 -0.774403
1515 48.4692 -0.710097
1517 48.5015 -0.647308
1519 48.5345 -0.583856
1521 48.5695 -0.516361
1530 48.6247 -0.400789
1538 48.6143 -0.334128
1560 48.6355 -0.330573
1570 48.8357 -0.304331
1572 48.8358 -0.304276
1575 48.8948 -0.303778
1577 49.0099 -0.300548
1579 49.0888 -0.300398
1581 49.1646 -0.300166
1583 49.2392 -0.299833
1585 49.312 -0.299388
1587 49.3843 -0.298846
1589 49.4552 -0.298237
1591 49.5284 -0.297475
1593 49.6 -0.296635
1595 49.6684 -0.295768
1597 49.7285 -0.294921
1599 49.8004 -0.293718
1601 49.8665 -0.292774
1603 49.9341 -0.291852
1605 49.999 -0.291025
1607 50.0642 -0.290421
1638 49.8154 -0.0797718
1639 49.8155 -0.0797329
1640 49.8158 -0.0796742
1645 49.8165 -0.0794238
1646 49.8167 -0.0793981
1647 49.8168 -0.0793801
1648 49.8169 -0.0793701
1649 49.817 -0.079362
1650 49.817 -0.0793549
1651 49.8171 -0.0793489
1652 49.8171 -0.0793439
1653 49.8172 -0.0793391
1654 49.8172 -0.0793352
1655 49.8172 -0.0793316
1656 49.8172 -0.0793281
1657 49.8173 -0.0793253
1658 49.8173 -0.0793233
1659 49.8173 -0.0793213
1660 49.8173 -0.0793196
1661 49.8173 -0.0793181
1662 49.8173 -0.0793167
1663 49.8173 -0.0793153
1664 49.8173 -0.0793141
1665 49.8173 -0.0793133
1666 49.8173 -0.0793127
1667 49.8173 -0.079312
1668 49.8173 -0.0793118
1669 49.8173 -0.0793114
1670 49.8173 -0.0793107
1671 49.8173 -0.0793104
1672 49.8173 -0.0793108
1673 49.8173 -0.0793108
1674 49.8173 -0.0793107
1675 49.8173 -0.0793108
1676 49.8173 -0.0793107
1677 49.8173 -0.0793107
1678 49.8173 -0.0793106
1679 49.8173 -0.0793111
1680 49.8173 -0.0793113
1681 49.8173 -0.0793114
1682 49.8172 -0.0793114
1683 49.8173 -0.0793111
1684 49.8173 -0.0793106
1685 49.8173 -0.0793104
1686 49.8173 -0.0793105
1687 49.8173 -0.0793105
1688 49.8173 -0.0793111
1689 49.8173 -0.0793104
1690 49.8173 -0.0793105
1691 49.8173 -0.0793105
1692 49.8173 -0.0793106
1693 49.8173 -0.079311
1694 49.8173 -0.0793109
1695 49.8173 -0.0793108
1696 49.8173 -0.0793103
1697 49.8173 -0.0793108
1698 49.8172 -0.0793112
1699 49.8172 -0.0793111
1700 49.8172 -0.079311
1701 49.8172 -0.0793112
1702 49.8172 -0.0793114
1703 49.8172 -0.0793113
1704 49.8172 -0.0793119
1705 49.8172 -0.0793118
1706 49.8172 -0.0793118
1707 49.8172 -0.0793119
1708 49.8172 -0.0793112
1709 49.8172 -0.0793114
1710 49.8172 -0.0793113
1711 49.8172 -0.0793116
1712 49.8172 -0.0793116
1713 49.8172 -0.0793124
1714 49.8172 -0.0793128
1715 49.8172 -0.0793128
1716 49.8172 -0.0793132
1717 49.8172 -0.079313
1718 49.8172 -0.0793128
1719 49.8172 -0.0793129
1720 49.8172 -0.0793131
1721 49.8172 -0.0793132
1722 49.8172 -0.0793134
1723 49.8172 -0.0793132
1724 49.8172 -0.0793139
1725 49.8171 -0.0793143
1726 49.8172 -0.0793142
1727 49.8171 -0.0793145
1728 49.8171 -0.0793146
1729 49.8171 -0.0793144
1730 49.8172 -0.0793142
1731 49.8172 -0.0793142
1732 49.8171 -0.0793145
1733 49.8171 -0.0793147
1734 49.8171 -0.079315
1735 49.8171 -0.0793151
1736 49.8171 -0.0793155
1737 49.8171 -0.0793154
1738 49.8171 -0.0793157
1739 49.8171 -0.0793159
1740 49.8171 -0.0793153
1741 49.8171 -0.0793156
1742 49.8171 -0.0793155
1743 49.8171 -0.0793155
1744 49.8171 -0.0793156
1745 49.8171 -0.0793157
1746 49.8171 -0.0793161
1747 49.8171 -0.0793162
1748 49.8171 -0.0793163
1749 49.8171 -0.0793161
1750 49.8171 -0.0793159
1751 49.8171 -0.0793162
1752 49.8171 -0.0793164
1753 49.8171 -0.0793168
1754 49.8171 -0.0793167
1755 49.8171 -0.0793167
1756 49.8171 -0.0793169
1757 49.8171 -0.0793171
1758 49.817 -0.0793176
1759 49.817 -0.0793177
1760 49.817 -0.0793178
1761 49.817 -0.0793182
1762 49.817 -0.0793182
1763 49.817 -0.079319
1764 49.817 -0.0793195
1765 49.817 -0.0793199
1766 49.817 -0.0793201
1767 49.817 -0.0793201
1768 49.817 -0.0793203
1769 49.817 -0.0793205
1770 49.8169 -0.0793209
1771 49.8169 -0.0793213
1772 49.8169 -0.0793217
1773 49.8169 -0.0793221
1774 49.8169 -0.079322
1775 49.8169 -0.0793223
1776 49.8169 -0.079322
1777 49.8169 -0.0793222
1778 49.8169 -0.0793224
1779 49.8169 -0.0793226
1780 49.8169 -0.0793224
1781 49.8169 -0.0793226
1782 49.8169 -0.0793233
1783 49.8169 -0.0793235
1784 49.8169 -0.0793237
1785 49.8168 -0.0793241
1786 49.8169 -0.079324
1787 49.8169 -0.0793239
1788 49.8168 -0.0793242
1789 49.8168 -0.0793241
1790 49.8168 -0.0793248
1791 49.8168 -0.0793256
1792 49.8168 -0.0793257
1793 49.8168 -0.0793255
1794 49.8168 -0.0793255
1795 49.8168 -0.0793253
1796 49.8168 -0.0793257
1797 49.8168 -0.079326
1798 49.8168 -0.0793259
1799 49.8168 -0.0793258
1800 49.8168 -0.0793259
1801 49.8168 -0.0793262
1802 49.8168 -0.0793263
1803 49.8168 -0.0793261
1804 49.8168 -0.079326
1805 49.8168 -0.0793264
1806 49.8168 -0.0793265
1807 49.8168 -0.0793269
1808 49.8168 -0.0793268
1809 49.8168 -0.0793271
1810 49.8168 -0.0793273
1811 49.8167 -0.0793274
1812 49.8167 -0.0793281
1813 49.8167 -0.0793286
1814 49.8167 -0.0793294
1815 49.8167 -0.0793297
1816 49.8167 -0.0793295
1817 49.8167 -0.0793293
1818 49.8167 -0.0793297
1819 49.8167 -0.0793299
1820 49.8167 -0.0793298
1821 49.8167 -0.0793299
1822 49.8167 -0.0793293
1823 49.8167 -0.0793294
1824 49.8167 -0.0793297
1825 49.8167 -0.0793297
1826 49.8167 -0.0793296
1827 49.8167 -0.0793294
1828 49.8167 -0.0793295
1829 49.8167 -0.0793298
1830 49.8167 -0.0793299
1831 49.8167 -0.0793299
1832 49.8167 -0.07933
1833 49.8167 -0.0793302
1834 49.8167 -0.0793306
1835 49.8166 -0.0793308
1836 49.8166 -0.0793309
1837 49.8166 -0.0793311
1838 49.8166 -0.0793311
1839 49.8166 -0.0793313
1840 49.8166 -0.079332
1841 49.8166 -0.0793325
1842 49.8166 -0.0793328
1843 49.8166 -0.0793324
1844 49.8166 -0.0793327
1845 49.8166 -0.0793328
1846 49.8166 -0.0793321
1847 49.8166 -0.0793316
1848 49.8166 -0.0793317
1849 49.8166 -0.0793319
1850 49.8166 -0.0793322
1851 49.8166 -0.0793325
1852 49.8166 -0.0793324
1853 49.8166 -0.0793324
1854 49.8166 -0.0793326
1855 49.8166 -0.0793327
1856 49.8166 -0.0793328
1857 49.8166 -0.0793335
1858 49.8166 -0.0793338
1859 49.8166 -0.0793337
1860 49.8166 -0.0793339
1861 49.8166 -0.0793339
1862 49.8166 -0.0793337
1863 49.8166 -0.0793335
1864 49.8166 -0.0793332
1865 49.8166 -0.0793332
1866 49.8166 -0.0793335
1867 49.8166 -0.0793339
1868 49.8166 -0.0793339
1869 49.8165 -0.079334
1870 49.8165 -0.0793342
1871 49.8165 -0.0793342
1872 49.8165 -0.0793341
1873 49.8165 -0.0793341
1874 49.8165 -0.079334
1875 49.8165 -0.0793342
1876 49.8165 -0.0793346
1877 49.8165 -0.0793345
1878 49.8165 -0.0793345
1879 49.8165 -0.0793347
1880 49.8165 -0.0793345
1881 49.8165 -0.0793345
1882 49.8165 -0.0793347
1883 49.8165 -0.0793352
1884 49.8165 -0.0793352
1885 49.8165 -0.0793351
1886 49.8165 -0.0793354
1887 49.8165 -0.0793353
1888 49.8165 -0.0793352
1889 49.8165 -0.079335
1890 49.8165 -0.0793351
1891 49.8165 -0.0793349
1892 49.8165 -0.0793351
1893 49.8165 -0.0793349
1894 49.8165 -0.0793353
1895 49.8165 -0.0793361
1896 49.8165 -0.0793361
1897 49.8165 -0.0793363
1898 49.8165 -0.0793362
1899 49.8165 -0.0793363
1900 49.8165 -0.0793361
1901 49.8165 -0.0793368
1902 49.8165 -0.079337
1903 49.8164 -0.0793378
1904 49.8164 -0.0793381
1905 49.8164 -0.0793388
1906 49.8164 -0.0793389
1907 49.8164 -0.0793389
1908 49.8164 -0.0793389
1909 49.8164 -0.0793392
1910 49.8164 -0.0793394
1911 49.8164 -0.07934
1912 49.8164 -0.0793404
1913 49.8164 -0.0793402
1914 49.8164 -0.0793402
1915 49.8164 -0.0793405
1916 49.8164 -0.0793405
1917 49.8164 -0.0793408
1918 49.8163 -0.0793409
1919 49.8163 -0.079341
1920 49.8163 -0.0793412
1921 49.8163 -0.0793409
1922 49.8163 -0.0793411
1923 49.8163 -0.0793411
1924 49.8163 -0.0793412
1925 49.8163 -0.079341
1926 49.8163 -0.0793408
1927 49.8163 -0.079341
1928 49.8163 -0.079341
1929 49.8163 -0.0793411
1930 49.8164 -0.0793408
1931 49.8164 -0.0793407
1932 49.8163 -0.0793412
1933 49.8163 -0.0793414
1934 49.8163 -0.0793413
1935 49.8163 -0.079341
1936 49.8163 -0.0793412
1937 49.8163 -0.0793415
1938 49.8163 -0.0793414
1939 49.8163 -0.0793416
1940 49.8163 -0.0793421
1941 49.8163 -0.0793419
1942 49.8163 -0.0793425
1943 49.8163 -0.0793434
1944 49.8163 -0.0793436
1945 49.8163 -0.0793437
1946 49.8163 -0.0793435
1947 49.8163 -0.079344
1948 49.8163 -0.0793441
1949 49.8162 -0.0793443
1950 49.8163 -0.0793441
1951 49.8163 -0.0793439
1952 49.8162 -0.0793448
1953 49.8162 -0.0793447
1954 49.8162 -0.0793452
1955 49.8162 -0.0793449
1956 49.8162 -0.0793451
1957 49.8162 -0.0793456
1958 49.8162 -0.0793456
1959 49.8162 -0.0793458
1960 49.8162 -0.0793466
1961 49.8162 -0.079347
1962 49.8162 -0.0793473
1963 49.8161 -0.0793482
1964 49.8161 -0.0793484
1965 49.8161 -0.0793485
1966 49.8161 -0.0793488
1967 49.8161 -0.0793488
1968 49.8161 -0.0793491
1969 49.8161 -0.0793488
1970 49.8161 -0.0793489
1971 49.8161 -0.0793487
1972 49.8161 -0.079349
1973 49.8161 -0.0793494
1974 49.8161 -0.0793492
1975 49.8161 -0.0793493
1976 49.8161 -0.079349
1977 49.8161 -0.0793491
1978 49.8161 -0.0793489
1979 49.8161 -0.0793492
1980 49.8161 -0.0793493
1981 49.8161 -0.0793497
1982 49.8161 -0.0793488
1983 49.8161 -0.0793489
1984 49.8161 -0.0793488
1985 49.8161 -0.0793488
1986 49.8161 -0.0793486
1987 49.8161 -0.0793493
1988 49.8161 -0.0793497
1989 49.8161 -0.0793501
1990 49.8161 -0.0793504
1991 49.8161 -0.0793506
1992 49.8161 -0.0793511
1993 49.816 -0.0793519
1994 49.816 -0.0793522
1995 49.816 -0.079353
1996 49.816 -0.0793531
1997 49.816 -0.0793533
1998 49.816 -0.0793536
1999 49.816 -0.079354
2000 49.816 -0.0793538
2001 49.816 -0.0793533
2002 49.816 -0.0793531
2003 49.816 -0.0793534
2004 49.816 -0.0793539
2005 49.816 -0.0793541
2006 49.816 -0.0793538
2007 49.816 -0.0793542
2008 49.816 -0.0793543
2009 49.816 -0.0793543
2010 49.816 -0.0793544
2011 49.8159 -0.079355
2012 49.8159 -0.079355
2013 49.8159 -0.0793553
2014 49.8159 -0.0793555
2015 49.8159 -0.0793558
2016 49.8159 -0.0793565
2017 49.8159 -0.0793565
2018 49.8159 -0.0793571
2019 49.8159 -0.0793573
2020 49.8159 -0.0793572
2021 49.8159 -0.0793575
2022 49.8159 -0.0793574
2023 49.8159 -0.0793576
2024 49.8158 -0.0793585
2025 49.8158 -0.079359
2026 49.8158 -0.0793592
2027 49.8158 -0.0793588
2028 49.8158 -0.0793586
2029 49.8158 -0.0793583
2030 49.8158 -0.0793587
2031 49.8158 -0.0793591
2032 49.8158 -0.0793589
2033 49.8158 -0.079359
2034 49.8158 -0.0793587
2035 49.8158 -0.0793594
2036 49.8158 -0.0793595
2037 49.8158 -0.0793601
2038 49.8158 -0.0793605
2039 49.8158 -0.0793606
2040 49.8158 -0.0793605
2041 49.8158 -0.0793604
2042 49.8158 -0.0793607
2043 49.8158 -0.0793608
2044 49.8158 -0.079361
2045 49.8158 -0.0793614
2046 49.8158 -0.0793613
2047 49.8158 -0.0793613
2048 49.8158 -0.0793613
2049 49.8158 -0.0793617
2050 49.8157 -0.0793618
2051 49.8158 -0.0793617
2052 49.8157 -0.0793624
2053 49.8157 -0.0793629
2054 49.8157 -0.0793633
2055 49.8157 -0.0793634
2056 49.8157 -0.0793633
2057 49.8157 -0.0793639
2058 49.8157 -0.0793639
2059 49.8157 -0.0793641
2060 49.8157 -0.0793644
2061 49.8157 -0.0793646
2062 49.8157 -0.0793646
2063 49.8157 -0.0793653
2064 49.8156 -0.0793657
2065 49.8156 -0.0793661
2066 49.8156 -0.0793663
2067 49.8156 -0.0793662
2068 49.8156 -0.0793657
2069 49.8156 -0.0793654
2070 49.8156 -0.0793658
2071 49.8156 -0.0793662
2072 49.8156 -0.0793664
2073 49.8156 -0.079366
2074 49.8156 -0.0793664
2075 49.8156 -0.0793667
2076 49.8156 -0.0793672
2077 49.8156 -0.0793673
2078 49.8156 -0.0793679
2079 49.8156 -0.0793678
2080 49.8156 -0.0793681
2081 49.8156 -0.0793686
2082 49.8156 -0.0793689
2083 49.8156 -0.0793686
2084 49.8156 -0.0793685
2085 49.8155 -0.0793691
2086 49.8155 -0.0793692
2087 49.8155 -0.079369
2088 49.8155 -0.0793692
2089 49.8155 -0.0793693
2090 49.8155 -0.0793695
2091 49.8155 -0.0793703
2092 49.8155 -0.0793708
2093 49.8155 -0.079371
2094 49.8155 -0.0793705
2095 49.8155 -0.0793705
2096 49.8155 -0.0793699
2097 49.8155 -0.0793701
2098 49.8155 -0.0793705
2099 49.8155 -0.0793703
2100 49.8155 -0.0793706
2101 49.8155 -0.0793705
2102 49.8155 -0.0793713
2103 49.8155 -0.0793715
2104 49.8155 -0.0793725
2105 49.8154 -0.0793729
2106 49.8154 -0.0793729
2107 49.8154 -0.0793727
2108 49.8155 -0.0793725
2109 49.8154 -0.0793728
2110 49.8154 -0.0793729
2111 49.8154 -0.0793731
2112 49.8154 -0.0793734
2113 49.8154 -0.0793733
2114 49.8154 -0.0793734
2115 49.8154 -0.0793736
2116 49.8154 -0.0793739
2117 49.8154 -0.079374
2118 49.8154 -0.0793738
2119 49.8154 -0.0793736
2120 49.8154 -0.0793734
2121 49.8154 -0.0793737
2122 49.8154 -0.0793742
2123 49.8154 -0.0793742
2124 49.8154 -0.0793748
2125 49.8154 -0.079375
2126 49.8154 -0.0793754
2127 49.8154 -0.0793756
2128 49.8154 -0.0793759
2129 49.8154 -0.079376
2130 49.8153 -0.0793768
2131 49.8153 -0.0793771
2132 49.8153 -0.0793772
2133 49.8153 -0.0793774
2134 49.8153 -0.0793775
2135 49.8153 -0.0793769
2136 49.8153 -0.0793767
2137 49.8153 -0.079377
2138 49.8153 -0.079377
2139 49.8153 -0.079377
2140 49.8153 -0.0793768
2141 49.8153 -0.0793772
2142 49.8153 -0.0793775
2143 49.8153 -0.0793782
2144 49.8153 -0.0793785
2145 49.8153 -0.0793786
2146 49.8153 -0.0793785
2147 49.8153 -0.0793789
2148 49.8153 -0.0793797
2149 49.8153 -0.07938
2150 49.8153 -0.0793797
2151 49.8153 -0.0793799
2152 49.8153 -0.0793795
2153 49.8153 -0.0793797
2154 49.8153 -0.0793796
2155 49.8153 -0.0793797
2156 49.8153 -0.0793797
2157 49.8153 -0.0793797
2158 49.8152 -0.0793801
2159 49.8152 -0.0793801
2160 49.8152 -0.0793804
2161 49.8153 -0.0793799
2162 49.8153 -0.0793799
2163 49.8153 -0.0793793
2164 49.8153 -0.079379
2165 49.8153 -0.0793794
2166 49.8153 -0.0793792
2167 49.8153 -0.0793796
2168 49.8153 -0.0793793
2169 49.8152 -0.0793802
2170 49.8152 -0.0793805
2171 49.8152 -0.0793816
2172 49.8152 -0.0793819
2173 49.8152 -0.0793819
2174 49.8152 -0.0793819
2175 49.8152 -0.0793818
2176 49.8152 -0.0793817
2177 49.8152 -0.0793819
2178 49.8152 -0.079382
2179 49.8152 -0.0793823
2180 49.8152 -0.0793822
2181 49.8152 -0.0793822
2182 49.8152 -0.0793823
2183 49.8152 -0.0793825
2184 49.8152 -0.0793826
2185 49.8152 -0.0793825
2186 49.8152 -0.0793823
2187 49.8152 -0.0793821
2188 49.8152 -0.0793823
2189 49.8152 -0.0793832
2190 49.8152 -0.0793832
2191 49.8152 -0.0793828
2192 49.8152 -0.0793828
2193 49.8152 -0.0793832
2194 49.8152 -0.0793833
2195 49.8152 -0.0793836
2196 49.8151 -0.0793838
2197 49.8151 -0.0793843
2198 49.8151 -0.0793847
2199 49.8151 -0.0793848
2200 49.8151 -0.079385
2201 49.8151 -0.0793857
2202 49.8151 -0.0793856
2203 49.8151 -0.0793856
2204 49.8151 -0.079386
2205 49.8151 -0.0793859
2206 49.8151 -0.079386
2207 49.8151 -0.0793857
2208 49.8151 -0.0793859
2209 49.8151 -0.0793864
2210 49.8151 -0.0793874
2211 49.815 -0.0793879
2212 49.815 -0.079388
2213 49.815 -0.079388
2214 49.815 -0.0793884
2215 49.815 -0.0793893
2216 49.815 -0.0793897
2217 49.815 -0.0793894
2218 49.815 -0.0793896
2219 49.815 -0.0793893
2220 49.815 -0.0793894
2221 49.815 -0.0793895
2222 49.815 -0.0793899
2223 49.815 -0.07939
2224 49.815 -0.07939
2225 49.815 -0.0793903
2226 49.815 -0.0793902
2227 49.815 -0.0793905
2228 49.815 -0.0793906
2229 49.815 -0.0793905
2230 49.815 -0.079391
2231 49.815 -0.0793909
2232 49.815 -0.0793912
2233 49.815 -0.0793911
2234 49.815 -0.0793913
2235 49.815 -0.0793911
2236 49.8149 -0.0793915
2237 49.8149 -0.0793924
2238 49.8149 -0.0793936
2239 49.8149 -0.0793939
2240 49.8149 -0.0793942
2241 49.8149 -0.079394
2242 49.8149 -0.079394
2243 49.8149 -0.0793939
2244 49.8149 -0.0793942
2245 49.8149 -0.0793942
2246 49.8149 -0.0793945
2247 49.8149 -0.0793946
2248 49.8149 -0.0793948
2249 49.8149 -0.0793951
2250 49.8148 -0.0793954
2251 49.8148 -0.0793955
2252 49.8148 -0.0793953
2253 49.8149 -0.0793951
2254 49.8149 -0.0793949
2255 49.8149 -0.0793952
2256 49.8148 -0.0793961
2257 49.8148 -0.0793961
2258 49.8148 -0.0793957
2259 49.8148 -0.0793961
2260 49.8148 -0.0793963
2261 49.8148 -0.0793966
2262 49.8148 -0.0793968
2263 49.8148 -0.0793973
2264 49.8148 -0.0793977
2265 49.8148 -0.0793977
2266 49.8148 -0.079398
2267 49.8148 -0.0793984
2268 49.8148 -0.0793992
2269 49.8148 -0.0793991
2270 49.8147 -0.0793997
2271 49.8147 -0.0794002
2272 49.8147 -0.0794002
2273 49.8147 -0.0794006
2274 49.8147 -0.0794005
2275 49.8147 -0.0794006
2276 49.8147 -0.0794014
2277 49.8147 -0.0794025
2278 49.8147 -0.0794025
2279 49.8147 -0.0794022
2280 49.8147 -0.0794021
2281 49.8147 -0.0794022
2282 49.8147 -0.079403
2283 49.8146 -0.0794034
2284 49.8147 -0.079403
2285 49.8147 -0.0794031
2286 49.8147 -0.0794028
2287 49.8147 -0.0794032
2288 49.8146 -0.0794032
2289 49.8146 -0.0794036
2290 49.8146 -0.0794037
2291 49.8146 -0.0794038
2292 49.8146 -0.0794036
2293 49.8146 -0.0794032
2294 49.8146 -0.079404
2295 49.8146 -0.0794041
2296 49.8146 -0.0794038
2297 49.8146 -0.0794034
2298 49.8146 -0.0794035
2299 49.8146 -0.0794038
2300 49.8146 -0.0794039
2301 49.8146 -0.0794048
2302 49.8146 -0.0794052
2303 49.8146 -0.0794055
2304 49.8146 -0.079405
2305 49.8146 -0.0794049
2306 49.8146 -0.0794051
2307 49.8146 -0.0794052
2308 49.8146 -0.0794059
2309 49.8146 -0.0794065
2310 49.8146 -0.0794064
2311 49.8146 -0.0794067
2312 49.8146 -0.0794066
2313 49.8146 -0.0794066
2314 49.8146 -0.0794067
2315 49.8146 -0.0794064
2316 49.8146 -0.0794069
2317 49.8146 -0.079407
2318 49.8146 -0.0794067
2319 49.8146 -0.0794066
2320 49.8146 -0.0794064
2321 49.8146 -0.0794061
2322 49.8146 -0.0794061
2323 49.8146 -0.0794063
2324 49.8146 -0.0794062
2325 49.8146 -0.079407
2326 49.8146 -0.0794071
2327 49.8146 -0.0794071
2328 49.8145 -0.079408
2329 49.8145 -0.0794082
2330 49.8145 -0.0794086
2331 49.8145 -0.0794089
2332 49.8145 -0.0794088
2333 49.8145 -0.0794091
2334 49.8145 -0.0794094
2335 49.8145 -0.0794093
2336 49.8145 -0.0794091
2337 49.8145 -0.0794094
2338 49.8145 -0.0794091
2339 49.8145 -0.0794089
2340 49.8145 -0.0794087
2341 49.8145 -0.0794087
2342 49.8145 -0.0794089
2343 49.8145 -0.0794091
2344 49.8145 -0.0794087
2345 49.8145 -0.0794086
2346 49.8145 -0.0794087
2347 49.8145 -0.079409
2348 49.8145 -0.0794096
2349 49.8145 -0.0794098
2350 49.8145 -0.0794102
2351 49.8145 -0.0794105
2352 49.8145 -0.0794102
2353 49.8145 -0.0794104
2354 49.8145 -0.0794109
2355 49.8144 -0.0794112
2356 49.8145 -0.0794111
2357 49.8144 -0.0794118
2358 49.8144 -0.0794122
2359 49.8144 -0.079412
2360 49.8144 -0.0794124
2361 49.8144 -0.0794131
2362 49.8144 -0.0794134
2363 49.8144 -0.0794143
2364 49.8144 -0.0794144
2365 49.8144 -0.0794146
2366 49.8144 -0.0794149
2367 49.8144 -0.0794149
2368 49.8144 -0.0794147
2369 49.8144 -0.0794149
2370 49.8143 -0.0794152
2371 49.8143 -0.0794154
2372 49.8143 -0.0794156
2373 49.8143 -0.0794159
2374 49.8143 -0.0794157
2375 49.8143 -0.0794153
2376 49.8143 -0.0794154
2377 49.8143 -0.0794157
2378 49.8143 -0.0794159
2379 49.8143 -0.079416
2380 49.8143 -0.0794164
2381 49.8143 -0.0794168
2382 49.8143 -0.0794167
2383 49.8143 -0.0794166
2384 49.8143 -0.0794171
2385 49.8143 -0.0794174
2386 49.8143 -0.0794177
2387 49.8143 -0.0794174
2388 49.8143 -0.0794176
2389 49.8143 -0.079418
2390 49.8143 -0.0794183
2391 49.8143 -0.0794181
2392 49.8143 -0.079418
2393 49.8143 -0.0794178
2394 49.8143 -0.0794182
2395 49.8143 -0.0794188
2396 49.8142 -0.0794197
2397 49.8142 -0.0794207
2398 49.8142 -0.0794212
2399 49.8142 -0.0794214
2400 49.8142 -0.0794217
2401 49.8142 -0.0794216
2402 49.8142 -0.0794214
2403 49.8142 -0.0794212
2404 49.8142 -0.0794211
2405 49.8142 -0.0794214
2406 49.8142 -0.0794217
2407 49.8142 -0.0794218
2408 49.8142 -0.079422
2409 49.8142 -0.0794222
2410 49.8142 -0.0794225
2411 49.8142 -0.0794228
2412 49.8142 -0.0794228
2413 49.8142 -0.0794226
2414 49.8142 -0.0794229
2415 49.8142 -0.0794227
2416 49.8142 -0.0794227
2417 49.8142 -0.0794225
2418 49.8142 -0.0794226
2419 49.8142 -0.0794224
2420 49.8142 -0.0794224
2421 49.8142 -0.0794227
2422 49.8142 -0.0794228
2423 49.8142 -0.0794225
2424 49.8142 -0.0794223
2425 49.8142 -0.0794226
2426 49.8142 -0.079423
2427 49.8142 -0.0794224
2428 49.8142 -0.0794225
2429 49.8142 -0.0794228
2430 49.8142 -0.0794223
2431 49.8142 -0.0794224
2432 49.8142 -0.0794224
2433 49.8142 -0.0794224
2434 49.8142 -0.0794226
2435 49.8142 -0.0794227
2436 49.8142 -0.0794229
2437 49.8141 -0.0794234
2438 49.8141 -0.0794238
2439 49.8141 -0.0794236
2440 49.8141 -0.0794234
2441 49.8141 -0.0794236
2442 49.8141 -0.079424
2443 49.8141 -0.0794242
2444 49.8141 -0.0794246
2445 49.8141 -0.0794252
2446 49.8141 -0.0794254
2447 49.8141 -0.0794255
2448 49.8141 -0.0794251
2449 49.8141 -0.0794247
2450 49.8141 -0.0794251
2451 49.8141 -0.0794261
2452 49.8141 -0.0794263
2453 49.8141 -0.079427
2454 49.8141 -0.0794269
2455 49.8141 -0.0794272
2456 49.8141 -0.079427
2457 49.8141 -0.0794271
2458 49.814 -0.0794279
2459 49.814 -0.0794284
2460 49.814 -0.0794288
2461 49.814 -0.0794291
2462 49.814 -0.0794291
2463 49.814 -0.0794294
2464 49.814 -0.0794295
2465 49.814 -0.0794291
2466 49.814 -0.0794291
2467 49.814 -0.0794293
2468 49.814 -0.0794297
2469 49.814 -0.0794307
2470 49.814 -0.0794309
2471 49.814 -0.0794314
2472 49.8139 -0.0794318
2473 49.8139 -0.0794323
2474 49.8139 -0.0794324
2475 49.8139 -0.0794322
2476 49.8139 -0.0794317
2477 49.8139 -0.0794316
2478 49.8139 -0.0794322
2479 49.8139 -0.0794327
2480 49.8139 -0.0794326
2481 49.8139 -0.079433
2482 49.8139 -0.079433
2483 49.8139 -0.0794329
2484 49.8139 -0.0794327
2485 49.8139 -0.0794334
2486 49.8139 -0.0794336
2487 49.8139 -0.0794338
2488 49.8139 -0.0794342
2489 49.8139 -0.0794339
2490 49.8139 -0.0794338
2491 49.8139 -0.0794339
2492 49.8139 -0.079434
2493 49.8139 -0.0794347
2494 49.8139 -0.0794352
2495 49.8139 -0.079435
2496 49.8139 -0.0794351
2497 49.8138 -0.0794361
2498 49.8138 -0.0794363
2499 49.8138 -0.0794362
2500 49.8138 -0.0794363
2501 49.8138 -0.0794367
2502 49.8138 -0.0794368
2503 49.8138 -0.0794371
2504 49.8138 -0.0794367
2505 49.8138 -0.0794363
2506 49.8138 -0.079436
2507 49.8138 -0.0794358
2508 49.8139 -0.0794356
2509 49.8139 -0.0794357
2510 49.8139 -0.0794354
2511 49.8138 -0.0794362
2512 49.8138 -0.079437
2513 49.8138 -0.0794368
2514 49.8138 -0.0794376
2515 49.8138 -0.0794381
2516 49.8138 -0.0794382
2517 49.8138 -0.0794386
2518 49.8138 -0.0794389
2519 49.8138 -0.0794397
2520 49.8138 -0.0794396
2521 49.8138 -0.0794394
2522 49.8138 -0.0794392
2523 49.8138 -0.0794386
2524 49.8138 -0.0794389
2525 49.8138 -0.0794399
2526 49.8137 -0.0794401
2527 49.8137 -0.07944
2528 49.8138 -0.0794397
2529 49.8138 -0.0794397
2530 49.8138 -0.0794398
2531 49.8137 -0.07944
2532 49.8137 -0.0794401
2533 49.8137 -0.0794402
2534 49.8137 -0.079441
2535 49.8137 -0.0794408
2536 49.8137 -0.0794406
2537 49.8137 -0.0794402
2538 49.8137 -0.07944
2539 49.8137 -0.0794404
2540 49.8137 -0.0794406
2541 49.8137 -0.0794409
2542 49.8137 -0.0794411
2543 49.8137 -0.0794408
2544 49.8137 -0.0794406
2545 49.8137 -0.0794415
2546 49.8137 -0.0794426
2547 49.8137 -0.0794423
2548 49.8137 -0.0794418
2549 49.8137 -0.0794425
2550 49.8137 -0.0794437
2551 49.8137 -0.0794438
2552 49.8136 -0.0794442
2553 49.8137 -0.0794438
2554 49.8137 -0.0794439
2555 49.8137 -0.079444
2556 49.8137 -0.079444
2557 49.8136 -0.0794449
2558 49.8136 -0.079445
2559 49.8136 -0.0794458
2560 49.8136 -0.0794456
2561 49.8136 -0.0794453
2562 49.8136 -0.0794456
2563 49.8136 -0.079446
2564 49.8136 -0.0794462
2565 49.8136 -0.0794466
2566 49.8136 -0.0794473
2567 49.8136 -0.0794475
2568 49.8136 -0.0794477
2569 49.8136 -0.0794482
2570 49.8135 -0.0794494
2571 49.8135 -0.0794498
2572 49.8135 -0.07945
2573 49.8135 -0.0794501
2574 49.8135 -0.0794501
2575 49.8135 -0.0794502
2576 49.8135 -0.07945
2577 49.8135 -0.0794506
2578 49.8135 -0.0794507
2579 49.8135 -0.0794502
2580 49.8135 -0.0794504
2581 49.8135 -0.0794503
2582 49.8135 -0.0794499
2583 49.8135 -0.0794506
2584 49.8135 -0.0794507
2585 49.8135 -0.0794514
2586 49.8135 -0.0794513
2587 49.8135 -0.0794515
2588 49.8135 -0.0794517
2589 49.8135 -0.0794516
2590 49.8135 -0.0794518
2591 49.8135 -0.0794521
2592 49.8134 -0.0794529
2593 49.8134 -0.0794539
2594 49.8134 -0.079454
2595 49.8134 -0.0794536
2596 49.8134 -0.0794539
2597 49.8134 -0.0794542
2598 49.8134 -0.0794548
2599 49.8134 -0.0794549
2600 49.8134 -0.0794549
2601 49.8134 -0.0794545
2602 49.8134 -0.079454
2603 49.8134 -0.079454
2604 49.8134 -0.0794543
2605 49.8134 -0.0794543
2606 49.8134 -0.0794546
2607 49.8134 -0.0794542
2608 49.8134 -0.0794549
2609 49.8134 -0.0794558
2610 49.8134 -0.0794561
2611 49.8134 -0.0794564
2612 49.8134 -0.0794562
2613 49.8134 -0.0794556
2614 49.8134 -0.0794563
2615 49.8134 -0.0794564
2616 49.8134 -0.0794567
2617 49.8134 -0.0794569
2618 49.8134 -0.0794568
2619 49.8134 -0.0794566
2620 49.8133 -0.0794574
2621 49.8133 -0.0794575
2622 49.8133 -0.0794573
2623 49.8133 -0.0794576
2624 49.8133 -0.0794578
2625 49.8133 -0.0794579
2626 49.8133 -0.0794577
2627 49.8133 -0.0794584
2628 49.8133 -0.0794588
2629 49.8133 -0.0794589
2630 49.8133 -0.0794592
2631 49.8133 -0.0794592
2632 49.8133 -0.079459
2633 49.8133 -0.0794587
2634 49.8133 -0.0794596
2635 49.8133 -0.0794599
2636 49.8133 -0.0794601
2637 49.8133 -0.0794611
2638 49.8133 -0.079461
2639 49.8132 -0.0794615
2640 49.8132 -0.0794617
2641 49.8132 -0.0794618
2642 49.8132 -0.0794619
2643 49.8132 -0.0794625
2644 49.8132 -0.0794625
2645 49.8132 -0.0794627
2646 49.8132 -0.0794629
2647 49.8132 -0.079463
2648 49.8132 -0.0794627
2649 49.8132 -0.0794625
2650 49.8132 -0.0794633
2651 49.8132 -0.0794644
2652 49.8132 -0.0794644
2653 49.8132 -0.0794646
2654 49.8132 -0.0794647
2655 49.8132 -0.0794651
2656 49.8132 -0.0794655
2657 49.8131 -0.0794667
2658 49.8131 -0.0794676
2659 49.8131 -0.0794678
2660 49.8131 -0.0794682
2661 49.8131 -0.0794684
2662 49.8131 -0.0794686
2663 49.8131 -0.0794681
2664 49.8131 -0.0794684
2665 49.8131 -0.0794688
2666 49.8131 -0.0794684
2667 49.8131 -0.0794681
2668 49.8131 -0.0794678
2669 49.8131 -0.0794687
2670 49.8131 -0.0794688
2671 49.8131 -0.0794697
2672 49.8131 -0.0794699
2673 49.8131 -0.0794696
2674 49.8131 -0.07947
2675 49.8131 -0.07947
2676 49.8131 -0.0794701
2677 49.813 -0.0794704
2678 49.813 -0.0794702
2679 49.8131 -0.0794695
2680 49.8131 -0.0794696
2681 49.8131 -0.0794695
2682 49.8131 -0.0794693
2683 49.8131 -0.0794691
2684 49.8131 -0.0794696
2685 49.8131 -0.0794693
2686 49.8131 -0.0794695
2687 49.8131 -0.0794696
2688 49.813 -0.0794706
2689 49.813 -0.079471
2690 49.813 -0.0794716
2691 49.813 -0.0794717
2692 49.813 -0.079472
2693 49.813 -0.079472
2694 49.813 -0.079472
2695 49.813 -0.0794726
2696 49.813 -0.0794732
2697 49.813 -0.0794735
2698 49.813 -0.079474
2699 49.813 -0.0794742
2700 49.813 -0.0794739
2701 49.813 -0.0794743
2702 49.813 -0.0794743
2703 49.813 -0.0794744
2704 49.8129 -0.0794747
2705 49.813 -0.0794745
2706 49.813 -0.0794738
2707 49.813 -0.0794739
2708 49.813 -0.0794738
2709 49.813 -0.0794736
2710 49.813 -0.0794734
2711 49.813 -0.0794739
2712 49.813 -0.0794735
2713 49.813 -0.0794738
2714 49.813 -0.0794739
2715 49.8129 -0.0794748
2716 49.8129 -0.0794753
2717 49.8129 -0.0794758
2718 49.8129 -0.079476
2719 49.8129 -0.0794763
2720 49.8129 -0.0794762
2721 49.8129 -0.0794763
2722 49.8129 -0.0794769
2723 49.8129 -0.0794774
2724 49.8129 -0.0794778
2725 49.8129 -0.0794783
2726 49.8129 -0.0794785
2727 49.8129 -0.0794782
2728 49.8129 -0.0794785
2729 49.8129 -0.0794785
2730 49.8129 -0.0794787
2731 49.8128 -0.079479
2732 49.8129 -0.0794787
2733 49.8129 -0.079478
2734 49.8129 -0.0794781
2735 49.8129 -0.079478
2736 49.8129 -0.0794779
2737 49.8129 -0.0794777
2738 49.8129 -0.0794782
2739 49.8129 -0.0794778
2740 49.8129 -0.0794781
2741 49.8129 -0.0794782
2742 49.8128 -0.0794791
2743 49.8128 -0.0794796
2744 49.8128 -0.0794801
2745 49.8128 -0.0794803
2746 49.8128 -0.0794806
2747 49.8128 -0.079481
2748 49.8128 -0.0794814
2749 49.8128 -0.0794818
2750 49.8128 -0.0794821
2751 49.8128 -0.0794824
2752 49.8128 -0.0794821
2753 49.8128 -0.0794819
2754 49.8128 -0.079483
2755 49.8127 -0.079484
2756 49.8127 -0.0794844
2757 49.8127 -0.0794848
2758 49.8127 -0.0794855
2759 49.8127 -0.0794858
2760 49.8127 -0.0794856
2761 49.8127 -0.0794864
2762 49.8127 -0.0794875
2763 49.8127 -0.0794877
2764 49.8127 -0.0794878
2765 49.8126 -0.079488
2766 49.8126 -0.0794885
2767 49.8126 -0.0794881
2768 49.8126 -0.079488
2769 49.8126 -0.079488
2770 49.8126 -0.0794883
2771 49.8126 -0.0794883
2772 49.8126 -0.0794884
2773 49.8126 -0.0794885
2774 49.8126 -0.0794884
2775 49.8126 -0.0794884
2776 49.8126 -0.0794889
2777 49.8126 -0.0794893
2778 49.8126 -0.0794892
2779 49.8126 -0.0794894
2780 49.8126 -0.0794903
2781 49.8126 -0.0794908
2782 49.8126 -0.0794911
2783 49.8126 -0.0794909
2784 49.8126 -0.0794915
2785 49.8126 -0.0794913
2786 49.8126 -0.0794913
2787 49.8126 -0.0794918
2788 49.8126 -0.0794919
2789 49.8126 -0.0794923
2790 49.8126 -0.0794924
2791 49.8125 -0.0794927
2792 49.8125 -0.0794927
2793 49.8125 -0.0794932
2794 49.8125 -0.0794936
2795 49.8125 -0.0794937
2796 49.8125 -0.0794935
2797 49.8125 -0.0794936
2798 49.8125 -0.079494
2799 49.8125 -0.0794943
2800 49.8125 -0.0794942
2801 49.8125 -0.0794952
2802 49.8125 -0.0794953
2803 49.8125 -0.0794954
2804 49.8125 -0.0794952
2805 49.8125 -0.0794956
2806 49.8125 -0.079496
2807 49.8125 -0.0794963
2808 49.8125 -0.0794968
2809 49.8124 -0.0794973
2810 49.8125 -0.0794969
2811 49.8125 -0.0794966
2812 49.8125 -0.0794963
2813 49.8125 -0.0794966
2814 49.8125 -0.0794964
2815 49.8125 -0.0794968
2816 49.8125 -0.0794966
2817 49.8124 -0.0794975
2818 49.8124 -0.0794977
2819 49.8124 -0.0794973
2820 49.8124 -0.0794978
2821 49.8124 -0.0794981
2822 49.8124 -0.079498
2823 49.8124 -0.0794974
2824 49.8124 -0.0794977
2825 49.8124 -0.0794982
2826 49.8124 -0.0794988
2827 49.8124 -0.0794981
2828 49.8124 -0.0794977
2829 49.8124 -0.0794976
2830 49.8124 -0.0794978
2831 49.8124 -0.0794976
2832 49.8124 -0.0794984
2833 49.8124 -0.0794988
2834 49.8124 -0.0794991
2835 49.8124 -0.0795
2836 49.8124 -0.0795003
2837 49.8124 -0.0795001
2838 49.8124 -0.0795005
2839 49.8124 -0.0795003
2840 49.8124 -0.0795
2841 49.8124 -0.0795002
2842 49.8124 -0.0794997
2843 49.8124 -0.0794999
2844 49.8124 -0.079501
2845 49.8124 -0.0795013
2846 49.8123 -0.0795018
2847 49.8123 -0.0795016
2848 49.8123 -0.0795019
2849 49.8123 -0.079502
2850 49.8123 -0.0795022
2851 49.8124 -0.0795013
2852 49.8124 -0.079501
2853 49.8124 -0.0795008
2854 49.8124 -0.0795011
2855 49.8124 -0.0795004
2856 49.8124 -0.0795005
2857 49.8124 -0.0795013
2858 49.8123 -0.0795024
2859 49.8123 -0.0795029
2860 49.8123 -0.0795028
2861 49.8123 -0.0795039
2862 49.8123 -0.0795039
2863 49.8123 -0.0795044
2864 49.8123 -0.0795048
2865 49.8123 -0.0795053
2866 49.8123 -0.0795051
2867 49.8123 -0.0795054
2868 49.8122 -0.0795063
2869 49.8122 -0.0795065
2870 49.8122 -0.0795071
2871 49.8122 -0.0795072
2872 49.8122 -0.0795074
2873 49.8122 -0.0795084
2874 49.8122 -0.0795089
2875 49.8122 -0.0795092
2876 49.8122 -0.0795098
2877 49.8122 -0.0795097
2878 49.8122 -0.0795094
2879 49.8122 -0.0795098
2880 49.8122 -0.0795096
2881 49.8122 -0.0795099
2882 49.8122 -0.0795105
2883 49.8121 -0.079511
2884 49.8121 -0.0795114
2885 49.8121 -0.0795115
2886 49.8121 -0.0795116
2887 49.8121 -0.0795115
2888 49.8121 -0.0795113
2889 49.8121 -0.0795115
2890 49.8121 -0.0795112
2891 49.8121 -0.0795113
2892 49.8121 -0.0795119
2893 49.8121 -0.0795124
2894 49.8121 -0.0795124
2895 49.8121 -0.0795127
2896 49.8121 -0.0795125
2897 49.8121 -0.0795128
2898 49.8121 -0.0795137
2899 49.8121 -0.0795141
2900 49.8121 -0.0795142
2901 49.8121 -0.0795143
2902 49.8121 -0.0795143
2903 49.8121 -0.0795146
2904 49.8121 -0.0795148
2905 49.8121 -0.0795145
2906 49.8121 -0.0795141
2907 49.8121 -0.0795149
2908 49.8121 -0.0795152
2909 49.812 -0.0795161
2910 49.812 -0.079516
2911 49.812 -0.0795158
2912 49.812 -0.0795155
2913 49.812 -0.0795153
2914 49.812 -0.0795153
2915 49.812 -0.0795157
2916 49.812 -0.079516
2917 49.812 -0.0795166
2918 49.812 -0.0795164
2919 49.812 -0.0795161
2920 49.812 -0.0795165
2921 49.812 -0.0795172
2922 49.812 -0.0795177
2923 49.812 -0.0795185
2924 49.812 -0.0795187
2925 49.812 -0.0795185
2926 49.812 -0.0795185
2927 49.812 -0.0795184
2928 49.812 -0.0795186
2929 49.812 -0.0795183
2930 49.812 -0.079518
2931 49.812 -0.0795189
2932 49.812 -0.0795196
2933 49.812 -0.0795195
2934 49.812 -0.0795198
2935 49.8119 -0.0795201
2936 49.8119 -0.0795203
2937 49.8119 -0.0795203
2938 49.8119 -0.0795206
2939 49.8119 -0.0795207
2940 49.8119 -0.079521
2941 49.8119 -0.0795214
2942 49.8119 -0.0795213
2943 49.8119 -0.0795213
2944 49.8119 -0.0795212
2945 49.8119 -0.0795208
2946 49.8119 -0.0795216
2947 49.8119 -0.0795222
2948 49.8119 -0.0795223
2949 49.8119 -0.0795221
2950 49.8119 -0.0795219
2951 49.8119 -0.0795222
2952 49.8119 -0.0795225
2953 49.8119 -0.0795234
2954 49.8119 -0.0795239
2955 49.8118 -0.0795249
2956 49.8118 -0.0795254
2957 49.8118 -0.0795255
2958 49.8118 -0.0795256
2959 49.8118 -0.0795248
2960 49.8119 -0.0795244
2961 49.8119 -0.0795242
2962 49.8118 -0.0795245
2963 49.8119 -0.0795242
2964 49.8118 -0.0795251
2965 49.8118 -0.079525
2966 49.8118 -0.0795248
2967 49.8118 -0.0795252
2968 49.8118 -0.0795248
2969 49.8118 -0.079525
2970 49.8118 -0.0795246
2971 49.8118 -0.0795248
2972 49.8118 -0.0795252
2973 49.8118 -0.0795248
2974 49.8118 -0.0795252
2975 49.8118 -0.0795256
2976 49.8118 -0.0795258
2977 49.8118 -0.0795268
2978 49.8118 -0.0795272
2979 49.8118 -0.079527
2980 49.8118 -0.0795268
2981 49.8118 -0.079527
2982 49.8118 -0.0795268
2983 49.8118 -0.0795272
2984 49.8118 -0.079527
2985 49.8118 -0.0795281
2986 49.8118 -0.0795282
2987 49.8118 -0.0795278
2988 49.8118 -0.0795287
2989 49.8117 -0.0795292
2990 49.8118 -0.0795288
2991 49.8118 -0.0795289
2992 49.8118 -0.0795291
2993 49.8118 -0.0795287
2994 49.8118 -0.0795284
2995 49.8118 -0.0795288
2996 49.8118 -0.079528
2997 49.8118 -0.0795281
2998 49.8118 -0.0795289
2999 49.8117 -0.0795301
3000 49.8117 -0.0795305
3001 49.8117 -0.0795305
3002 49.8117 -0.0795315
3003 49.8117 -0.0795321
3004 49.8117 -0.0795317
3005 49.8117 -0.0795327
3006 49.8117 -0.0795328
3007 49.8117 -0.0795323
3008 49.8117 -0.0795325
3009 49.8117 -0.0795328
3010 49.8117 -0.0795326
3011 49.8117 -0.0795329
3012 49.8117 -0.0795338
3013 49.8116 -0.0795342
3014 49.8116 -0.0795343
3015 49.8116 -0.0795344
3016 49.8116 -0.0795344
3017 49.8116 -0.0795347
3018 49.8116 -0.0795344
3019 49.8116 -0.0795353
3020 49.8116 -0.0795359
3021 49.8116 -0.0795364
3022 49.8116 -0.0795368
3023 49.8116 -0.0795369
3024 49.8116 -0.0795372
3025 49.8116 -0.0795375
3026 49.8116 -0.0795377
3027 49.8116 -0.079538
3028 49.8116 -0.0795383
3029 49.8116 -0.0795383
3030 49.8116 -0.0795383
3031 49.8116 -0.0795382
3032 49.8116 -0.0795378
3033 49.8116 -0.079538
3034 49.8115 -0.0795386
3035 49.8116 -0.0795385
3036 49.8115 -0.0795385
3037 49.8115 -0.0795387
3038 49.8115 -0.0795388
3039 49.8116 -0.0795384
3040 49.8116 -0.0795384
3041 49.8115 -0.0795385
3042 49.8115 -0.0795388
3043 49.8115 -0.0795389
3044 49.8115 -0.0795392
3045 49.8115 -0.0795392
3046 49.8115 -0.07954
3047 49.8115 -0.0795405
3048 49.8115 -0.0795408
3049 49.8115 -0.0795418
3050 49.8115 -0.079542
3051 49.8115 -0.0795419
3052 49.8115 -0.0795419
3053 49.8115 -0.0795417
3054 49.8115 -0.0795427
3055 49.8115 -0.0795429
3056 49.8115 -0.079543
3057 49.8115 -0.0795431
3058 49.8114 -0.0795432
3059 49.8114 -0.0795434
3060 49.8114 -0.0795442
3061 49.8114 -0.0795441
3062 49.8114 -0.0795436
3063 49.8114 -0.0795445
3064 49.8114 -0.0795444
3065 49.8114 -0.0795442
3066 49.8114 -0.0795446
3067 49.8114 -0.0795447
3068 49.8114 -0.0795445
3069 49.8114 -0.0795451
3070 49.8114 -0.079545
3071 49.8114 -0.079545
3072 49.8114 -0.0795455
3073 49.8114 -0.0795457
3074 49.8114 -0.079546
3075 49.8114 -0.0795463
3076 49.8114 -0.079547
3077 49.8114 -0.0795471
3078 49.8114 -0.079547
3079 49.8114 -0.0795474
3080 49.8114 -0.0795476
3081 49.8113 -0.0795482
3082 49.8113 -0.0795494
3083 49.8113 -0.0795493
3084 49.8113 -0.0795493
3085 49.8113 -0.0795494
3086 49.8113 -0.07955
3087 49.8113 -0.0795505
3088 49.8113 -0.0795507
3089 49.8113 -0.0795511
3090 49.8113 -0.0795507
3091 49.8113 -0.0795516
3092 49.8113 -0.0795517
3093 49.8113 -0.0795511
3094 49.8113 -0.0795513
3095 49.8113 -0.0795514
3096 49.8113 -0.0795508
3097 49.8113 -0.0795518
3098 49.8113 -0.0795516
3099 49.8113 -0.0795517
3100 49.8113 -0.0795516
3101 49.8113 -0.0795518
3102 49.8112 -0.0795529
3103 49.8112 -0.0795533
3104 49.8112 -0.0795529
3105 49.8112 -0.0795536
3106 49.8112 -0.0795542
3107 49.8112 -0.079554
3108 49.8112 -0.079554
3109 49.8112 -0.0795539
3110 49.8112 -0.0795543
3111 49.8112 -0.0795545
3112 49.8112 -0.0795543
3113 49.8112 -0.0795544
3114 49.8112 -0.0795545
3115 49.8112 -0.0795549
3116 49.8112 -0.0795547
3117 49.8112 -0.079555
3118 49.8112 -0.0795555
3119 49.8112 -0.0795552
3120 49.8112 -0.0795549
3121 49.8112 -0.0795551
3122 49.8112 -0.0795543
3123 49.8112 -0.0795544
3124 49.8112 -0.0795553
3125 49.8112 -0.0795565
3126 49.8112 -0.079557
3127 49.8112 -0.0795566
3128 49.8112 -0.0795573
3129 49.8111 -0.0795578
3130 49.8111 -0.0795577
3131 49.8111 -0.0795577
3132 49.8111 -0.0795575
3133 49.8111 -0.079558
3134 49.8111 -0.0795581
3135 49.8111 -0.079558
3136 49.8111 -0.0795581
3137 49.8111 -0.0795581
3138 49.8111 -0.0795586
3139 49.8111 -0.0795583
3140 49.8111 -0.0795586
3141 49.8111 -0.0795591
3142 49.8111 -0.0795589
3143 49.8111 -0.0795586
3144 49.8111 -0.0795587
3145 49.8111 -0.0795579
3146 49.8111 -0.079558
3147 49.8111 -0.0795589
3148 49.8111 -0.0795601
3149 49.8111 -0.0795606
3150 49.8111 -0.0795601
3151 49.8111 -0.0795609
3152 49.8111 -0.0795615
3153 49.8111 -0.0795613
3154 49.8111 -0.0795613
3155 49.8111 -0.0795611
3156 49.8111 -0.0795616
3157 49.8111 -0.0795617
3158 49.8111 -0.0795616
3159 49.8111 -0.0795617
3160 49.8111 -0.0795617
3161 49.811 -0.0795622
3162 49.8111 -0.0795619
3163 49.811 -0.0795622
3164 49.811 -0.0795628
3165 49.811 -0.0795625
3166 49.811 -0.0795622
3167 49.811 -0.0795623
3168 49.8111 -0.0795616
3169 49.8111 -0.0795617
3170 49.811 -0.0795626
3171 49.811 -0.0795638
3172 49.811 -0.0795642
3173 49.811 -0.0795638
3174 49.811 -0.0795646
3175 49.811 -0.0795651
3176 49.811 -0.079565
3177 49.811 -0.079565
3178 49.811 -0.0795648
3179 49.811 -0.0795653
3180 49.811 -0.0795654
3181 49.811 -0.0795653
3182 49.811 -0.0795654
3183 49.811 -0.0795654
3184 49.811 -0.0795659
3185 49.811 -0.0795656
3186 49.811 -0.0795659
3187 49.811 -0.0795665
3188 49.811 -0.0795662
3189 49.811 -0.0795659
3190 49.811 -0.079566
3191 49.811 -0.0795652
3192 49.811 -0.0795653
3193 49.811 -0.0795663
3194 49.8109 -0.0795675
3195 49.8109 -0.0795679
3196 49.8109 -0.0795675
3197 49.8109 -0.0795683
3198 49.8109 -0.0795688
3199 49.8109 -0.0795687
3200 49.8109 -0.0795687
3201 49.8109 -0.0795692
3202 49.8109 -0.079569
3203 49.8109 -0.0795688
3204 49.8109 -0.0795691
3205 49.8109 -0.0795687
3206 49.8109 -0.0795697
3207 49.8109 -0.0795702
3208 49.8109 -0.0795706
3209 49.8109 -0.0795717
3210 49.8109 -0.0795717
3211 49.8108 -0.0795721
3212 49.8108 -0.0795722
3213 49.8108 -0.0795733
3214 49.8108 -0.0795737
3215 49.8108 -0.079574
3216 49.8108 -0.0795744
3217 49.8108 -0.079574
3218 49.8108 -0.079575
3219 49.8108 -0.0795751
3220 49.8108 -0.0795746
3221 49.8108 -0.079575
3222 49.8108 -0.0795749
3223 49.8108 -0.0795752
3224 49.8108 -0.0795753
3225 49.8108 -0.0795756
3226 49.8108 -0.0795752
3227 49.8108 -0.0795762
3228 49.8108 -0.0795766
3229 49.8108 -0.0795762
3230 49.8108 -0.0795765
3231 49.8107 -0.0795769
3232 49.8108 -0.0795761
3233 49.8108 -0.0795763
3234 49.8107 -0.0795772
3235 49.8107 -0.0795776
3236 49.8107 -0.0795779
3237 49.8107 -0.0795789
3238 49.8107 -0.0795791
3239 49.8107 -0.0795793
3240 49.8107 -0.0795803
3241 49.8107 -0.0795802
3242 49.8107 -0.07958
3243 49.8107 -0.0795804
3244 49.8107 -0.0795805
3245 49.8107 -0.0795803
3246 49.8107 -0.0795807
3247 49.8107 -0.0795807
3248 49.8107 -0.0795811
3249 49.8107 -0.0795807
3250 49.8107 -0.0795816
3251 49.8106 -0.0795821
3252 49.8107 -0.0795816
3253 49.8106 -0.079582
3254 49.8106 -0.0795823
3255 49.8107 -0.0795816
3256 49.8106 -0.0795818
3257 49.8106 -0.0795827
3258 49.8106 -0.0795831
3259 49.8106 -0.0795834
3260 49.8106 -0.0795844
3261 49.8106 -0.0795846
3262 49.8106 -0.0795849
3263 49.8106 -0.0795859
3264 49.8106 -0.0795858
3265 49.8106 -0.0795855
3266 49.8106 -0.0795859
3267 49.8106 -0.079586
3268 49.8106 -0.0795858
3269 49.8106 -0.0795862
3270 49.8106 -0.0795862
3271 49.8106 -0.0795866
3272 49.8106 -0.0795862
3273 49.8105 -0.0795871
3274 49.8105 -0.0795876
3275 49.8105 -0.0795871
3276 49.8105 -0.0795875
3277 49.8105 -0.0795878
3278 49.8105 -0.079587
3279 49.8105 -0.0795871
3280 49.8105 -0.0795881
3281 49.8105 -0.0795885
3282 49.8105 -0.0795888
3283 49.8105 -0.0795898
3284 49.8105 -0.07959
3285 49.8105 -0.0795903
3286 49.8105 -0.0795913
3287 49.8105 -0.0795912
3288 49.8105 -0.0795909
3289 49.8105 -0.0795913
3290 49.8105 -0.0795914
3291 49.8105 -0.0795912
3292 49.8105 -0.0795916
3293 49.8105 -0.0795916
3294 49.8104 -0.079592
3295 49.8105 -0.0795916
3296 49.8104 -0.0795926
3297 49.8104 -0.0795931
3298 49.8104 -0.0795926
3299 49.8104 -0.0795929
3300 49.8104 -0.0795933
3301 49.8104 -0.0795925
3302 49.8104 -0.0795927
3303 49.8104 -0.0795936
3304 49.8104 -0.079594
3305 49.8104 -0.0795944
3306 49.8104 -0.0795953
3307 49.8104 -0.0795956
3308 49.8104 -0.0795958
3309 49.8103 -0.0795968
3310 49.8103 -0.0795967
3311 49.8104 -0.0795965
3312 49.8103 -0.0795969
3313 49.8103 -0.079597
3314 49.8103 -0.0795968
3315 49.8103 -0.0795972
3316 49.8103 -0.0795972
3317 49.8103 -0.0795976
3318 49.8103 -0.0795972
3319 49.8103 -0.0795981
3320 49.8103 -0.0795986
3321 49.8103 -0.0795982
3322 49.8103 -0.0795982
3323 49.8103 -0.0795986
3324 49.8103 -0.0795982
3325 49.8103 -0.0795982
3326 49.8103 -0.0795986
3327 49.8103 -0.0795984
3328 49.8103 -0.0795987
3329 49.8103 -0.0795989
3330 49.8103 -0.0795989
3331 49.8103 -0.0795984
3332 49.8103 -0.0795995
3333 49.8103 -0.0796
3334 49.8103 -0.079601
3335 49.8103 -0.0796014
3336 49.8103 -0.0796017
3337 49.8102 -0.0796027
3338 49.8102 -0.0796029
3339 49.8102 -0.0796032
3340 49.8102 -0.0796042
3341 49.8102 -0.0796041
3342 49.8102 -0.0796038
3343 49.8102 -0.0796043
3344 49.8102 -0.0796044
3345 49.8102 -0.0796041
3346 49.8102 -0.0796046
3347 49.8102 -0.0796046
3348 49.8102 -0.079605
3349 49.8102 -0.0796045
3350 49.8102 -0.0796055
3351 49.8102 -0.079606
3352 49.8102 -0.0796055
3353 49.8102 -0.0796058
3354 49.8102 -0.0796062
3355 49.8102 -0.0796054
3356 49.8102 -0.0796056
3357 49.8102 -0.0796065
3358 49.8101 -0.079607
3359 49.8101 -0.0796073
3360 49.8101 -0.0796083
3361 49.8101 -0.0796085
3362 49.8101 -0.0796088
3363 49.8101 -0.0796098
3364 49.8101 -0.0796097
3365 49.8101 -0.0796094
3366 49.8101 -0.0796099
3367 49.8101 -0.07961
3368 49.8101 -0.0796098
3369 49.8101 -0.0796102
3370 49.8101 -0.0796102
3371 49.8101 -0.0796106
3372 49.8101 -0.0796101
3373 49.8101 -0.0796112
3374 49.8101 -0.0796116
3375 49.8101 -0.0796112
3376 49.8101 -0.0796115
3377 49.8101 -0.0796119
3378 49.8101 -0.0796111
3379 49.8101 -0.0796113
3380 49.81 -0.0796122
3381 49.81 -0.0796126
3382 49.81 -0.079613
3383 49.81 -0.079614
3384 49.81 -0.0796142
3385 49.81 -0.0796145
3386 49.81 -0.0796156
3387 49.81 -0.0796154
3388 49.81 -0.0796152
3389 49.81 -0.0796156
3390 49.81 -0.0796157
3391 49.81 -0.0796155
3392 49.81 -0.0796159
3393 49.81 -0.0796159
3394 49.81 -0.0796163
3395 49.81 -0.0796159
3396 49.81 -0.0796168
3397 49.8099 -0.0796173
3398 49.81 -0.0796169
3399 49.8099 -0.0796172
3400 49.8099 -0.0796176
3401 49.81 -0.0796168
3402 49.81 -0.0796169
3403 49.8099 -0.0796179
3404 49.8099 -0.0796183
3405 49.8099 -0.0796187
3406 49.8099 -0.0796197
3407 49.8099 -0.0796199
3408 49.8099 -0.0796202
3409 49.8099 -0.0796212
3410 49.8099 -0.0796211
3411 49.8099 -0.0796208
3412 49.8099 -0.0796214
3413 49.8099 -0.0796214
3414 49.8099 -0.0796212
3415 49.8099 -0.0796216
3416 49.8099 -0.0796217
3417 49.8099 -0.079622
3418 49.8099 -0.0796216
3419 49.8098 -0.0796226
3420 49.8098 -0.0796231
3421 49.8098 -0.0796226
3422 49.8098 -0.079623
3423 49.8098 -0.0796234
3424 49.8098 -0.0796226
3425 49.8098 -0.0796227
3426 49.8098 -0.0796237
3427 49.8098 -0.0796241
3428 49.8098 -0.0796245
3429 49.8098 -0.0796255
3430 49.8098 -0.0796257
3431 49.8098 -0.079626
3432 49.8098 -0.079627
3433 49.8098 -0.0796269
3434 49.8098 -0.0796266
3435 49.8098 -0.0796271
3436 49.8098 -0.0796272
3437 49.8098 -0.079627
3438 49.8098 -0.0796274
3439 49.8098 -0.0796274
3440 49.8097 -0.0796278
3441 49.8098 -0.0796274
3442 49.8097 -0.0796284
3443 49.8097 -0.0796289
3444 49.8097 -0.0796283
3445 49.8097 -0.0796287
3446 49.8097 -0.0796291
3447 49.8097 -0.0796283
3448 49.8097 -0.0796284
3449 49.8097 -0.0796294
3450 49.8097 -0.0796299
3451 49.8097 -0.0796302
3452 49.8097 -0.0796312
3453 49.8097 -0.0796317
3454 49.8097 -0.079632
3455 49.8096 -0.0796331
3456 49.8096 -0.0796329
3457 49.8097 -0.0796327
3458 49.8096 -0.0796331
3459 49.8096 -0.0796332
3460 49.8096 -0.079633
3461 49.8096 -0.0796334
3462 49.8096 -0.0796334
3463 49.8096 -0.0796338
3464 49.8096 -0.0796334
3465 49.8096 -0.0796344
3466 49.8096 -0.0796349
3467 49.8096 -0.0796344
3468 49.8096 -0.0796348
3469 49.8096 -0.0796352
3470 49.8096 -0.0796343
3471 49.8096 -0.0796345
3472 49.8096 -0.0796355
3473 49.8096 -0.0796359
3474 49.8096 -0.0796363
3475 49.8096 -0.0796373
3476 49.8096 -0.0796378
3477 49.8095 -0.079638
3478 49.8095 -0.0796391
3479 49.8095 -0.079639
3480 49.8095 -0.0796387
3481 49.8095 -0.0796392
3482 49.8095 -0.0796393
3483 49.8095 -0.0796391
3484 49.8095 -0.0796395
3485 49.8095 -0.0796395
3486 49.8095 -0.0796399
3487 49.8095 -0.0796395
3488 49.8095 -0.0796405
3489 49.8095 -0.079641
3490 49.8095 -0.0796405
3491 49.8095 -0.0796409
3492 49.8095 -0.0796413
3493 49.8095 -0.0796404
3494 49.8095 -0.0796406
3495 49.8095 -0.0796416
3496 49.8095 -0.079642
3497 49.8095 -0.0796424
3498 49.8094 -0.0796434
3499 49.8094 -0.0796439
3500 49.8094 -0.0796442
3501 49.8094 -0.0796453
3502 49.8094 -0.0796451
3503 49.8094 -0.0796449
3504 49.8094 -0.0796453
3505 49.8094 -0.0796454
3506 49.8094 -0.0796452
3507 49.8094 -0.0796456
3508 49.8094 -0.0796457
3509 49.8094 -0.0796461
3510 49.8094 -0.0796456
3511 49.8094 -0.0796466
3512 49.8094 -0.0796471
3513 49.8094 -0.0796466
3514 49.8094 -0.079647
3515 49.8094 -0.0796474
3516 49.8094 -0.0796466
3517 49.8094 -0.0796467
3518 49.8094 -0.0796477
3519 49.8094 -0.0796482
3520 49.8094 -0.0796485
3521 49.8093 -0.0796495
3522 49.8093 -0.07965
3523 49.8093 -0.0796503
3524 49.8093 -0.0796514
3525 49.8093 -0.0796513
3526 49.8093 -0.079651
3527 49.8093 -0.0796515
3528 49.8093 -0.0796516
3529 49.8093 -0.0796514
3530 49.8093 -0.0796518
3531 49.8093 -0.0796518
3532 49.8093 -0.0796522
3533 49.8093 -0.0796518
3534 49.8093 -0.0796528
3535 49.8093 -0.0796533
3536 49.8093 -0.0796528
3537 49.8093 -0.0796532
3538 49.8093 -0.0796536
3539 49.8093 -0.0796527
3540 49.8093 -0.0796529
3541 49.8093 -0.0796539
3542 49.8092 -0.0796543
3543 49.8092 -0.0796547
3544 49.8092 -0.0796557
3545 49.8092 -0.0796562
3546 49.8092 -0.0796565
3547 49.8092 -0.0796576
3548 49.8092 -0.0796575
3549 49.8092 -0.0796572
3550 49.8092 -0.0796577
3551 49.8092 -0.0796578
3552 49.8092 -0.0796576
3553 49.8092 -0.079658
3554 49.8092 -0.079658
3555 49.8092 -0.0796584
3556 49.8092 -0.079658
3557 49.8092 -0.079659
3558 49.8091 -0.0796595
3559 49.8092 -0.079659
3560 49.8091 -0.0796594
3561 49.8091 -0.0796598
3562 49.8092 -0.0796589
3563 49.8092 -0.0796591
3564 49.8091 -0.0796601
3565 49.8091 -0.0796605
3566 49.8091 -0.0796609
3567 49.8091 -0.0796619
3568 49.8091 -0.0796624
3569 49.8091 -0.0796627
3570 49.8091 -0.0796638
3571 49.8091 -0.0796637
3572 49.8091 -0.0796634
3573 49.8091 -0.0796639
3574 49.8091 -0.079664
3575 49.8091 -0.0796638
3576 49.8091 -0.0796642
3577 49.8091 -0.0796642
3578 49.8091 -0.0796646
3579 49.8091 -0.0796642
3580 49.809 -0.0796652
3581 49.809 -0.0796657
3582 49.809 -0.0796652
3583 49.809 -0.0796656
3584 49.809 -0.079666
3585 49.809 -0.0796652
3586 49.809 -0.0796653
3587 49.809 -0.0796663
3588 49.809 -0.0796668
3589 49.809 -0.0796671
3590 49.809 -0.0796682
3591 49.809 -0.0796687
3592 49.809 -0.079669
3593 49.809 -0.0796701
3594 49.809 -0.07967
3595 49.809 -0.0796697
3596 49.8089 -0.0796702
3597 49.8089 -0.0796702
3598 49.809 -0.07967
3599 49.8089 -0.0796705
3600 49.8089 -0.0796705
3601 49.8089 -0.0796709
3602 49.8089 -0.0796705
3603 49.8089 -0.0796715
3604 49.8089 -0.079672
3605 49.8089 -0.0796715
3606 49.8089 -0.0796719
3607 49.8089 -0.0796723
3608 49.8089 -0.0796714
3609 49.8089 -0.0796716
3610 49.8089 -0.0796726
3611 49.8089 -0.079673
3612 49.8089 -0.0796734
3613 49.8089 -0.0796744
3614 49.8089 -0.0796749
3615 49.8089 -0.0796753
3616 49.8088 -0.0796764
3617 49.8088 -0.0796762
3618 49.8088 -0.079676
3619 49.8088 -0.0796764
3620 49.8088 -0.0796765
3621 49.8088 -0.0796763
3622 49.8088 -0.0796767
3623 49.8088 -0.0796768
3624 49.8088 -0.0796772
3625 49.8088 -0.0796767
3626 49.8088 -0.0796777
3627 49.8088 -0.0796783
3628 49.8088 -0.0796778
3629 49.8088 -0.0796781
3630 49.8088 -0.0796785
3631 49.8088 -0.0796777
3632 49.8088 -0.0796779
3633 49.8088 -0.0796789
3634 49.8088 -0.0796793
3635 49.8088 -0.0796797
3636 49.8088 -0.0796808
3637 49.8087 -0.0796813
3638 49.8087 -0.0796816
3639 49.8087 -0.0796827
3640 49.8087 -0.0796826
3641 49.8087 -0.0796823
3642 49.8087 -0.0796828
3643 49.8087 -0.0796829
3644 49.8087 -0.0796826
3645 49.8087 -0.0796831
3646 49.8087 -0.0796831
3647 49.8087 -0.0796835
3648 49.8087 -0.079683
3649 49.8087 -0.0796841
3650 49.8087 -0.0796846
3651 49.8087 -0.0796841
3652 49.8087 -0.0796845
3653 49.8087 -0.0796849
3654 49.8087 -0.079684
3655 49.8087 -0.0796842
3656 49.8087 -0.0796852
3657 49.8087 -0.0796857
3658 49.8087 -0.079686
3659 49.8086 -0.0796871
3660 49.8086 -0.0796876
3661 49.8086 -0.0796879
3662 49.8086 -0.079689
3663 49.8086 -0.0796889
3664 49.8086 -0.0796886
3665 49.8086 -0.0796891
3666 49.8086 -0.0796892
3667 49.8086 -0.079689
3668 49.8086 -0.0796894
3669 49.8086 -0.0796895
3670 49.8086 -0.0796899
3671 49.8086 -0.0796894
3672 49.8086 -0.0796905
3673 49.8086 -0.079691
3674 49.8086 -0.0796905
3675 49.8086 -0.0796908
3676 49.8086 -0.0796913
3677 49.8086 -0.0796904
3678 49.8086 -0.0796906
3679 49.8086 -0.0796916
3680 49.8085 -0.0796921
3681 49.8085 -0.0796924
3682 49.8085 -0.0796935
3683 49.8085 -0.079694
3684 49.8085 -0.0796943
3685 49.8085 -0.0796954
3686 49.8085 -0.0796953
3687 49.8085 -0.079695
3688 49.8085 -0.0796955
3689 49.8085 -0.0796956
3690 49.8085 -0.0796954
3691 49.8085 -0.0796958
3692 49.8085 -0.0796958
3693 49.8085 -0.0796962
3694 49.8085 -0.0796958
3695 49.8085 -0.0796968
3696 49.8085 -0.0796974
3697 49.8085 -0.0796969
3698 49.8085 -0.0796972
3699 49.8084 -0.0796976
3700 49.8085 -0.0796968
3701 49.8085 -0.0796969
3702 49.8084 -0.079698
3703 49.8084 -0.0796985
3704 49.8084 -0.0796988
3705 49.8084 -0.0796999
3706 49.8084 -0.0797004
3707 49.8084 -0.0797007
3708 49.8084 -0.0797019
3709 49.8084 -0.0797017
3710 49.8084 -0.0797014
3711 49.8084 -0.0797019
3712 49.8084 -0.079702
3713 49.8084 -0.0797018
3714 49.8084 -0.0797022
3715 49.8084 -0.0797023
3716 49.8084 -0.0797027
3717 49.8084 -0.0797022
3718 49.8083 -0.0797033
3719 49.8083 -0.0797038
3720 49.8083 -0.0797033
3721 49.8083 -0.0797037
3722 49.8083 -0.0797041
3723 49.8083 -0.0797032
3724 49.8083 -0.0797034
3725 49.8083 -0.0797044
3726 49.8083 -0.0797049
3727 49.8083 -0.0797053
3728 49.8083 -0.0797064
3729 49.8083 -0.0797069
3730 49.8083 -0.0797072
3731 49.8083 -0.0797083
3732 49.8083 -0.0797082
3733 49.8083 -0.0797079
3734 49.8083 -0.0797084
3735 49.8083 -0.0797085
3736 49.8083 -0.0797083
3737 49.8083 -0.0797087
3738 49.8083 -0.0797087
3739 49.8082 -0.0797092
3740 49.8083 -0.0797087
3741 49.8082 -0.0797098
3742 49.8082 -0.0797103
3743 49.8082 -0.0797098
3744 49.8082 -0.0797102
3745 49.8082 -0.0797106
3746 49.8082 -0.0797097
3747 49.8082 -0.0797099
3748 49.8082 -0.0797109
3749 49.8082 -0.0797114
3750 49.8082 -0.0797118
3751 49.8082 -0.0797129
3752 49.8082 -0.0797134
3753 49.8082 -0.0797137
3754 49.8081 -0.0797148
3755 49.8081 -0.0797147
3756 49.8082 -0.0797144
3757 49.8081 -0.0797149
3758 49.8081 -0.079715
3759 49.8081 -0.0797148
3760 49.8081 -0.0797152
3761 49.8081 -0.0797153
3762 49.8081 -0.0797157
3763 49.8081 -0.0797152
3764 49.8081 -0.0797163
3765 49.8081 -0.0797168
3766 49.8081 -0.0797163
3767 49.8081 -0.0797167
3768 49.8081 -0.0797171
3769 49.8081 -0.0797162
3770 49.8081 -0.0797164
3771 49.8081 -0.0797174
3772 49.8081 -0.0797179
3773 49.8081 -0.0797183
3774 49.8081 -0.0797194
3775 49.8081 -0.0797199
3776 49.808 -0.0797202
3777 49.808 -0.0797214
3778 49.808 -0.0797213
3779 49.808 -0.079721
3780 49.808 -0.0797215
3781 49.808 -0.0797216
3782 49.808 -0.0797213
3783 49.808 -0.0797218
3784 49.808 -0.0797218
3785 49.808 -0.0797222
3786 49.808 -0.0797218
3787 49.808 -0.0797228
3788 49.808 -0.0797234
3789 49.808 -0.0797228
3790 49.808 -0.0797232
3791 49.808 -0.0797237
3792 49.808 -0.0797226
3793 49.808 -0.0797229
3794 49.808 -0.0797239
3795 49.808 -0.0797244
3796 49.808 -0.0797248
3797 49.8079 -0.0797259
3798 49.8079 -0.0797264
3799 49.8079 -0.0797267
3800 49.8079 -0.0797279
3801 49.8079 -0.0797277
3802 49.8079 -0.0797274
3803 49.8079 -0.0797279
3804 49.8079 -0.079728
3805 49.8079 -0.0797278
3806 49.8079 -0.0797282
3807 49.8079 -0.0797283
3808 49.8079 -0.0797287
3809 49.8079 -0.0797282
3810 49.8079 -0.0797293
3811 49.8079 -0.0797299
3812 49.8079 -0.0797293
3813 49.8079 -0.0797297
3814 49.8079 -0.0797301
3815 49.8079 -0.0797293
3816 49.8079 -0.0797294
3817 49.8079 -0.0797305
3818 49.8079 -0.079731
3819 49.8079 -0.0797313
3820 49.8078 -0.0797325
3821 49.8078 -0.079733
3822 49.8078 -0.0797333
3823 49.8078 -0.0797345
3824 49.8078 -0.0797344
3825 49.8078 -0.0797341
3826 49.8078 -0.0797346
3827 49.8078 -0.0797347
3828 49.8078 -0.0797344
3829 49.8078 -0.0797349
3830 49.8078 -0.0797349
3831 49.8078 -0.0797353
3832 49.8078 -0.0797349
3833 49.8078 -0.079736
3834 49.8078 -0.0797365
3835 49.8078 -0.0797359
3836 49.8078 -0.0797363
3837 49.8078 -0.0797367
3838 49.8078 -0.0797358
3839 49.8078 -0.079736
3840 49.8078 -0.0797371
3841 49.8077 -0.0797376
3842 49.8077 -0.0797379
3843 49.8078 -0.079737
3844 49.8077 -0.0797374
3845 49.8077 -0.0797376
3846 49.8077 -0.0797386
3847 49.8077 -0.0797389
3848 49.8077 -0.0797392
3849 49.8077 -0.0797403
3850 49.8077 -0.0797401
3851 49.8077 -0.0797398
3852 49.8077 -0.0797403
3853 49.8077 -0.07974
3854 49.8077 -0.0797398
3855 49.8077 -0.0797402
3856 49.8077 -0.0797401
3857 49.8077 -0.079739
3858 49.8077 -0.0797392
3859 49.8077 -0.0797389
3860 49.8077 -0.0797385
3861 49.8077 -0.0797389
