1 0.000164839 0.000280814
2 0.000164845 0.000280075
3 0.000166165 0.00056728
4 0.000179344 0.000899043
5 0.000250695 0.00166278
6 0.000490036 0.00287429
7 0.00112314 0.00478717
8 0.00231232 0.00693387
9 0.00441032 0.00955333
10 0.00754144 0.0119751
11 0.0112172 0.0135731
12 0.0149313 0.0142497
13 0.0185075 0.0142146
14 0.0216804 0.0136084
15 0.0247169 0.012844
16 0.0257085 0.0118586
17 0.0642333 0.011773
18 0.127245 -0.00607508
19 0.193772 -0.0254512
20 0.260952 -0.0430454
21 0.328837 -0.0586832
22 0.397114 -0.0724119
23 0.465628 -0.0842895
24 0.534162 -0.094494
25 0.602802 -0.103217
26 0.627951 -0.111416
27 0.630712 -0.112425
28 0.630668 -0.112324
29 0.630444 -0.112198
30 0.630105 -0.112094
31 0.632178 -0.111857
32 0.635651 -0.111553
33 0.639073 -0.111072
34 0.642489 -0.110387
35 0.689115 -0.098964
36 0.753718 -0.0802048
37 0.819839 -0.0603677
38 0.885944 -0.0404861
39 0.951774 -0.0208835
40 1.01797 -0.00162605
41 1.08416 0.0171584
42 1.15052 0.0354716
43 1.21697 0.0533557
44 1.28358 0.0708284
45 1.35015 0.0879258
46 1.41688 0.10474
47 1.48376 0.121326
48 1.55066 0.137774
49 1.57037 0.142526
50 1.62441 0.155899
51 1.69068 0.172623
52 1.75779 0.189043
53 1.82459 0.204937
54 1.89162 0.22041
55 1.95873 0.235419
56 2.02614 0.250051
57 2.09361 0.26431
58 2.16097 0.278193
59 2.22825 0.291753
60 2.29571 0.305099
61 2.36326 0.318252
62 2.38367 0.321588
63 2.39255 0.323232
64 2.40225 0.324678
65 2.41105 0.325404
66 2.41696 0.325364
67 2.42013 0.325053
68 2.42232 0.324796
69 2.42448 0.324461
70 2.47196 0.314643
71 2.53479 0.290471
72 2.59859 0.264103
73 2.66228 0.237912
74 2.72625 0.212164
75 2.79044 0.187086
76 2.85473 0.162786
77 2.9193 0.139239
78 2.9845 0.116256
79 3.04981 0.0938619
80 3.11512 0.0720468
81 3.18082 0.0506452
82 3.2464 0.0296641
83 3.31208 0.00896732
84 3.37778 -0.0116094
85 3.44357 -0.0320492
86 3.46237 -0.0398947
87 3.51739 -0.055076
88 3.58273 -0.0754704
89 3.64858 -0.0955051
90 3.71452 -0.115045
91 3.78053 -0.134066
92 3.84701 -0.152667
93 3.91346 -0.170797
94 3.97994 -0.188508
95 4.04639 -0.205824
96 4.11304 -0.222894
97 4.17971 -0.239698
98 4.24645 -0.256273
99 4.31333 -0.272721
100 4.38023 -0.289019
101 4.44717 -0.305207
102 4.51411 -0.321291
103 4.58102 -0.337303
104 4.64798 -0.353262
105 4.71494 -0.369165
106 4.78191 -0.385011
107 4.84891 -0.400829
108 4.91593 -0.41662
109 4.98297 -0.432368
110 5.04999 -0.448094
111 5.11701 -0.46379
112 5.18404 -0.479464
113 5.25108 -0.495124
114 5.31811 -0.510778
115 5.38514 -0.526426
116 5.45218 -0.542073
117 5.4709 -0.546478
118 5.52603 -0.559512
119 5.59264 -0.575409
120 5.6597 -0.590264
121 5.72689 -0.603881
122 5.79464 -0.616389
123 5.86249 -0.627663
124 5.9306 -0.637842
125 5.99879 -0.647042
126 6.06713 -0.655423
127 6.13557 -0.663114
128 6.20395 -0.670198
129 6.27257 -0.676797
130 6.34103 -0.682949
131 6.40969 -0.688779
132 6.47865 -0.694346
133 6.54741 -0.699672
134 6.61609 -0.704796
135 6.68472 -0.709756
136 6.75338 -0.714578
137 6.82206 -0.719294
138 6.89071 -0.723924
139 6.95938 -0.728486
140 7.0281 -0.732996
141 7.09681 -0.737465
142 7.1655 -0.741893
143 7.2342 -0.746299
144 7.30287 -0.750681
145 7.37156 -0.75505
146 7.44028 -0.759412
147 7.50899 -0.763768
148 7.5777 -0.768122
149 7.6464 -0.772481
150 7.7151 -0.776835
151 7.7838 -0.781182
152 7.8525 -0.785521
153 7.92121 -0.789862
154 7.9899 -0.79421
155 8.0586 -0.798543
156 8.12728 -0.802873
157 8.14732 -0.803803
158 8.20448 -0.807944
159 8.27274 -0.812661
160 8.34107 -0.816612
161 8.40947 -0.819818
162 8.47805 -0.822263
163 8.54659 -0.823945
164 8.61548 -0.824963
165 8.68411 -0.825381
166 8.75293 -0.825276
167 8.82195 -0.82472
168 8.89057 -0.823765
169 8.95933 -0.822526
170 9.02811 -0.821003
171 9.09702 -0.819252
172 9.16581 -0.817315
173 9.23461 -0.815231
174 9.30334 -0.81303
175 9.37202 -0.810748
176 9.44086 -0.808406
177 9.50967 -0.806005
178 9.57846 -0.803552
179 9.64727 -0.801066
180 9.71606 -0.79854
181 9.78484 -0.796
182 9.85362 -0.793424
183 9.92241 -0.79083
184 9.9912 -0.788231
185 10.06 -0.785632
186 10.1288 -0.783038
187 10.1976 -0.780425
188 10.2664 -0.777817
189 10.3352 -0.775202
190 10.404 -0.77259
191 10.4728 -0.769971
192 10.5416 -0.767349
193 10.6104 -0.764722
194 10.6791 -0.76209
195 10.7479 -0.759465
196 10.8167 -0.756825
197 10.8855 -0.754173
198 10.9049 -0.753212
199 10.9627 -0.75105
200 11.0311 -0.748114
201 11.0999 -0.745133
202 11.1686 -0.742145
203 11.2374 -0.739157
204 11.3062 -0.736188
205 11.375 -0.733209
206 11.4437 -0.730239
207 11.5125 -0.727296
208 11.5812 -0.724362
209 11.65 -0.721432
210 11.7188 -0.718516
211 11.7876 -0.715604
212 11.8564 -0.712703
213 11.9252 -0.709791
214 11.9939 -0.706892
215 12.0627 -0.703997
216 12.1315 -0.701102
217 12.2003 -0.698208
218 12.269 -0.695313
219 12.3378 -0.692419
220 12.4066 -0.689521
221 12.4754 -0.68663
222 12.5442 -0.683735
223 12.6129 -0.680848
224 12.6817 -0.677959
225 12.7505 -0.675067
226 12.8193 -0.672177
227 12.8881 -0.669284
228 12.9569 -0.666397
229 13.0256 -0.663506
230 13.0944 -0.660613
231 13.1148 -0.659755
232 13.1724 -0.657174
233 13.2408 -0.653951
234 13.3096 -0.650723
235 13.3784 -0.647502
236 13.4471 -0.64432
237 13.5159 -0.641148
238 13.5847 -0.638002
239 13.6534 -0.634871
240 13.7222 -0.631751
241 13.791 -0.628641
242 13.8597 -0.625549
243 13.9285 -0.622461
244 13.9973 -0.619379
245 14.0661 -0.616309
246 14.1348 -0.613234
247 14.2036 -0.61016
248 14.2724 -0.607093
249 14.3411 -0.604037
250 14.4099 -0.600979
251 14.4787 -0.597908
252 14.5475 -0.594847
253 14.6162 -0.591801
254 14.685 -0.588759
255 14.7538 -0.585711
256 14.774 -0.584839
257 14.8318 -0.582082
258 14.9002 -0.578625
259 14.9689 -0.575192
260 15.0377 -0.571769
261 15.1064 -0.56839
262 15.1751 -0.565049
263 15.2439 -0.561759
264 15.3127 -0.558504
265 15.3815 -0.55527
266 15.4502 -0.552068
267 15.519 -0.54891
268 15.5877 -0.54577
269 15.6565 -0.542666
270 15.7253 -0.539569
271 15.794 -0.536488
272 15.8628 -0.533421
273 15.9316 -0.530358
274 15.9519 -0.529499
275 16.0092 -0.52676
276 16.0775 -0.523396
277 16.1461 -0.520043
278 16.2148 -0.516715
279 16.2836 -0.513409
280 16.3523 -0.510158
281 16.421 -0.506946
282 16.4897 -0.503784
283 16.5584 -0.500646
284 16.627 -0.497541
285 16.6958 -0.494464
286 16.7645 -0.491422
287 16.7844 -0.490607
288 16.8408 -0.487915
289 16.9089 -0.484559
290 16.9776 -0.481194
291 17.0463 -0.477861
292 17.115 -0.474549
293 17.1838 -0.471248
294 17.2525 -0.467963
295 17.3212 -0.464693
296 17.39 -0.461477
297 17.4107 -0.460552
298 17.4684 -0.45772
299 17.5368 -0.454215
300 17.6054 -0.45075
301 17.6741 -0.447322
302 17.7428 -0.443933
303 17.8114 -0.440606
304 17.8314 -0.439681
305 17.8883 -0.436842
306 17.9565 -0.433326
307 18.0253 -0.429824
308 18.094 -0.42634
309 18.1138 -0.425338
310 18.1713 -0.422278
311 18.2396 -0.418447
312 18.2603 -0.417242
313 18.3174 -0.413989
314 18.3856 -0.40987
315 18.4057 -0.408591
316 18.4659 -0.404937
317 18.4835 -0.403588
318 18.5385 -0.399856
319 18.6064 -0.394794
320 18.6264 -0.393067
321 18.6357 -0.392265
322 18.643 -0.391246
323 18.6503 -0.389668
324 18.6572 -0.387369
325 18.6636 -0.384219
326 18.6673 -0.381236
327 18.6695 -0.378923
328 18.6709 -0.376875
329 18.6716 -0.374981
330 18.672 -0.372632
331 18.6715 -0.370297
332 18.6705 -0.368416
333 18.6696 -0.367194
334 18.6691 -0.366628
335 18.6682 -0.365136
336 18.6657 -0.363162
337 18.663 -0.361335
338 18.6344 -0.336485
339 18.5752 -0.305029
340 18.5131 -0.273375
341 18.4512 -0.241864
342 18.3893 -0.21009
343 18.3278 -0.178318
344 18.2666 -0.146304
345 18.2054 -0.113916
346 18.1444 -0.0813533
347 18.0838 -0.0487043
348 18.0233 -0.0158436
349 17.9977 -0.00626009
350 17.9908 -0.00252916
351 17.9839 0.00077857
352 17.9766 0.00308615
353 17.9692 0.00417274
354 17.9624 0.00391092
355 17.957 0.00255559
356 17.9558 0.00145018
357 17.9545 0.00114973
358 17.9526 -0.000587
359 17.951 -0.00289862
360 17.9497 -0.00557322
361 17.9486 -0.00858311
362 17.9326 -0.0448629
363 17.9208 -0.110477
364 17.9097 -0.178982
365 17.8985 -0.247407
366 17.8871 -0.315606
367 17.8745 -0.383099
368 17.8598 -0.450324
369 17.8433 -0.51709
370 17.8253 -0.582751
371 17.8052 -0.648674
372 17.7839 -0.714186
373 17.7614 -0.779368
374 17.7383 -0.843785
375 17.7142 -0.907983
376 17.6896 -0.972051
377 17.6643 -1.03604
378 17.6387 -1.09993
379 17.6127 -1.16354
380 17.5865 -1.22715
381 17.5599 -1.29074
382 17.5333 -1.35422
383 17.5064 -1.41769
384 17.4794 -1.48123
385 17.4523 -1.54458
386 17.4252 -1.60782
387 17.398 -1.67106
388 17.3707 -1.73436
389 17.3433 -1.79757
390 17.316 -1.86071
391 17.2886 -1.92385
392 17.2612 -1.98702
393 17.2338 -2.05019
394 17.2063 -2.11334
395 17.1789 -2.17647
396 17.1514 -2.23958
397 17.1239 -2.30271
398 17.0964 -2.36582
399 17.0689 -2.42892
400 17.0414 -2.492
401 17.0139 -2.55508
402 16.9863 -2.61816
403 16.9588 -2.68124
404 16.9312 -2.74433
405 16.9037 -2.80742
406 16.8761 -2.87047
407 16.8485 -2.93354
408 16.821 -2.9966
409 16.7934 -3.0597
410 16.7658 -3.12278
411 16.7382 -3.18588
412 16.7106 -3.24896
413 16.683 -3.31203
414 16.6553 -3.3751
415 16.6277 -3.43817
416 16.6001 -3.50121
417 16.5725 -3.56426
418 16.5449 -3.62732
419 16.5173 -3.69037
420 16.4896 -3.75343
421 16.462 -3.81649
422 16.4546 -3.83356
423 16.4515 -3.8408
424 16.449 -3.84792
425 16.4474 -3.85498
426 16.4471 -3.86153
427 16.4478 -3.86712
428 16.4486 -3.86812
429 16.4486 -3.86967
430 16.4499 -3.87177
431 16.4517 -3.87314
432 16.4531 -3.8739
433 16.4538 -3.87416
434 16.4548 -3.8745
435 16.4559 -3.87406
436 16.4565 -3.87376
437 16.4576 -3.8729
438 16.4593 -3.87059
439 16.4776 -3.84449
440 16.5037 -3.78542
441 16.5312 -3.72183
442 16.5602 -3.65898
443 16.5908 -3.59733
444 16.6237 -3.53663
445 16.6578 -3.47784
446 16.6938 -3.42046
447 16.7318 -3.3633
448 16.7713 -3.30674
449 16.8117 -3.25121
450 16.8533 -3.19632
451 16.896 -3.14173
452 16.9394 -3.08776
453 16.9831 -3.0345
454 17.0275 -2.98163
455 17.0721 -2.92931
456 17.1172 -2.87726
457 17.1628 -2.82521
458 17.2088 -2.77334
459 17.2549 -2.72186
460 17.301 -2.6707
461 17.3474 -2.61961
462 17.394 -2.56869
463 17.4405 -2.51799
464 17.4872 -2.46743
465 17.534 -2.4169
466 17.5808 -2.3665
467 17.6278 -2.31612
468 17.6748 -2.26579
469 17.7218 -2.21551
470 17.769 -2.16523
471 17.8161 -2.115
472 17.8632 -2.06484
473 17.9103 -2.0147
474 17.9575 -1.96458
475 18.0047 -1.91447
476 18.052 -1.86439
477 18.0992 -1.81432
478 18.1465 -1.76427
479 18.1938 -1.71422
480 18.2411 -1.66419
481 18.2883 -1.61416
482 18.3356 -1.56414
483 18.3829 -1.51412
484 18.4303 -1.46411
485 18.4776 -1.4141
486 18.5249 -1.36409
487 18.5722 -1.31409
488 18.6195 -1.26409
489 18.6668 -1.21409
490 18.7142 -1.16409
491 18.7615 -1.11409
492 18.8088 -1.0641
493 18.8561 -1.01411
494 18.9035 -0.964129
495 18.9508 -0.914148
496 18.9981 -0.864164
497 19.0455 -0.814186
498 19.0928 -0.764214
499 19.1402 -0.714235
500 19.1875 -0.664258
501 19.2349 -0.614283
502 19.2822 -0.564314
503 19.3296 -0.514342
504 19.3769 -0.464381
505 19.4243 -0.414417
506 19.4716 -0.364447
507 19.519 -0.314483
508 19.5663 -0.264523
509 19.6137 -0.214563
510 19.661 -0.164601
511 19.7084 -0.114646
512 19.7558 -0.064692
513 19.8031 -0.0147406
514 19.8505 0.035215
515 19.8979 0.0851619
516 19.9452 0.13511
517 19.9926 0.185062
518 20.04 0.235007
519 20.0874 0.284955
520 20.1347 0.334901
521 20.1821 0.384849
522 20.2295 0.434797
523 20.2769 0.484739
524 20.3242 0.534678
525 20.3716 0.584613
526 20.419 0.63455
527 20.4664 0.684484
528 20.5137 0.734388
529 20.5611 0.784291
530 20.6086 0.834196
531 20.656 0.884097
532 20.7034 0.934009
533 20.7509 0.983926
534 20.7983 1.03383
535 20.8457 1.08374
536 20.8931 1.13364
537 20.9406 1.18354
538 20.988 1.23343
539 21.0354 1.28335
540 21.0828 1.33325
541 21.1303 1.38315
542 21.1777 1.43305
543 21.2251 1.48296
544 21.2725 1.53287
545 21.32 1.58276
546 21.3674 1.63266
547 21.3794 1.64519
548 21.3852 1.65117
549 21.3889 1.6544
550 21.3927 1.65714
551 21.3971 1.65965
552 21.401 1.66123
553 21.4044 1.66221
554 21.4075 1.66277
555 21.4108 1.66318
556 21.4583 1.66816
557 21.5247 1.65973
558 21.5927 1.64944
559 21.661 1.63991
560 21.7295 1.6315
561 21.7984 1.62462
562 21.867 1.61925
563 21.9356 1.61541
564 22.0041 1.61294
565 22.0727 1.6116
566 22.1416 1.61122
567 22.2101 1.61152
568 22.2787 1.61249
569 22.3475 1.61403
570 22.4162 1.61596
571 22.4849 1.61825
572 22.5538 1.62086
573 22.6227 1.62366
574 22.6915 1.62665
575 22.7603 1.6298
576 22.8291 1.63307
577 22.898 1.63641
578 22.9668 1.63986
579 22.9969 1.64031
580 23.0111 1.64106
581 23.0225 1.64222
582 23.0314 1.64362
583 23.0386 1.64528
584 23.0432 1.64681
585 23.0471 1.64839
586 23.0498 1.64971
587 23.0525 1.65112
588 23.0974 1.67511
589 23.1519 1.71467
590 23.2071 1.75594
591 23.2622 1.79712
592 23.3177 1.83809
593 23.3735 1.87873
594 23.4297 1.91897
595 23.4857 1.95854
596 23.5422 1.99775
597 23.5989 2.03662
598 23.6134 2.04986
599 23.6198 2.05423
600 23.6253 2.05855
601 23.629 2.06268
602 23.6319 2.06721
603 23.6333 2.07169
604 23.6333 2.07471
605 23.633 2.07627
606 23.6331 2.07637
607 23.6333 2.07747
608 23.6318 2.07903
609 23.6298 2.08016
610 23.6278 2.08113
611 23.597 2.09675
612 23.5328 2.10796
613 23.464 2.11819
614 23.3955 2.12938
615 23.328 2.14183
616 23.2611 2.15625
617 23.1944 2.17276
618 23.1283 2.1911
619 23.0631 2.21104
620 22.998 2.23258
621 22.9329 2.2555
622 22.8682 2.27937
623 22.804 2.304
624 22.7404 2.32918
625 22.6766 2.35507
626 22.6125 2.38166
627 22.5488 2.40845
628 22.4855 2.43547
629 22.4222 2.46286
630 22.359 2.49045
631 22.2959 2.51828
632 22.233 2.54616
633 22.1703 2.57417
634 22.1073 2.60242
635 22.0445 2.63072
636 21.9818 2.65906
637 21.9191 2.68753
638 21.8564 2.71609
639 21.7937 2.74469
640 21.7311 2.77333
641 21.6686 2.80199
642 21.606 2.83072
643 21.5435 2.8595
644 21.481 2.88829
645 21.4185 2.9171
646 21.356 2.94596
647 21.2936 2.97487
648 21.2311 3.00378
649 21.1687 3.03273
650 21.1062 3.0617
651 21.0438 3.09067
652 20.9814 3.11967
653 20.9189 3.14868
654 20.8565 3.17768
655 20.7941 3.20671
656 20.7317 3.23575
657 20.6693 3.26481
658 20.6069 3.29385
659 20.5445 3.3229
660 20.4821 3.35198
661 20.4197 3.38105
662 20.3573 3.41013
663 20.2949 3.43921
664 20.2325 3.46829
665 20.1701 3.49738
666 20.1078 3.52649
667 20.0454 3.5556
668 20.0281 3.56359
669 20.0202 3.56719
670 20.0122 3.57021
671 20.0043 3.57217
672 19.9964 3.57299
673 19.9892 3.57251
674 19.9835 3.57103
675 19.9823 3.56994
676 19.9799 3.56921
677 19.978 3.56738
678 19.9768 3.56558
679 19.9764 3.56427
680 19.976 3.56259
681 19.9766 3.56092
682 19.9772 3.56004
683 19.9776 3.55945
684 19.9783 3.55873
685 20.0033 3.5416
686 20.0642 3.51715
687 20.1296 3.49324
688 20.1931 3.46826
689 20.2558 3.44178
690 20.3173 3.41327
691 20.3778 3.38265
692 20.4377 3.3496
693 20.4966 3.31452
694 20.5548 3.27754
695 20.612 3.23914
696 20.6685 3.19917
697 20.724 3.15817
698 20.7787 3.11629
699 20.8328 3.07351
700 20.8861 3.03021
701 20.9389 2.98616
702 20.9915 2.94145
703 21.0436 2.89628
704 21.0953 2.85075
705 21.1468 2.80485
706 21.1977 2.75888
707 21.2486 2.71247
708 21.2994 2.66581
709 21.35 2.61895
710 21.4003 2.57203
711 21.4506 2.52495
712 21.5007 2.47772
713 21.5508 2.43041
714 21.6008 2.38296
715 21.6507 2.33545
716 21.7006 2.28791
717 21.7504 2.24028
718 21.8002 2.1926
719 21.8499 2.14491
720 21.8996 2.09723
721 21.9492 2.04951
722 21.9988 2.00177
723 22.0484 1.95401
724 22.098 1.90623
725 22.1475 1.85844
726 22.1971 1.81065
727 22.2466 1.76285
728 22.2962 1.71504
729 22.3457 1.66723
730 22.3952 1.6194
731 22.4447 1.57155
732 22.4942 1.52371
733 22.5438 1.47586
734 22.5932 1.42801
735 22.6427 1.38017
736 22.6922 1.33232
737 22.7417 1.28447
738 22.7912 1.23661
739 22.8406 1.18874
740 22.8901 1.14086
741 22.9396 1.09298
742 22.989 1.04511
743 23.0385 0.997238
744 23.0879 0.949362
745 23.1374 0.901475
746 23.1869 0.853585
747 23.2363 0.805694
748 23.2857 0.757808
749 23.3352 0.709915
750 23.3846 0.662013
751 23.4341 0.614115
752 23.4835 0.566205
753 23.5329 0.518295
754 23.5824 0.470384
755 23.6318 0.422478
756 23.6812 0.374566
757 23.7306 0.326656
758 23.7801 0.278754
759 23.8295 0.230841
760 23.8789 0.182923
761 23.9283 0.135014
762 23.9777 0.0871039
763 24.0271 0.0391739
764 24.0765 -0.00876841
765 24.1259 -0.0566861
766 24.1753 -0.104613
767 24.2247 -0.152539
768 24.2742 -0.200466
769 24.3236 -0.248403
770 24.373 -0.296328
771 24.4224 -0.344267
772 24.4718 -0.392213
773 24.5212 -0.440152
774 24.5706 -0.488088
775 24.6199 -0.536035
776 24.6694 -0.583986
777 24.7187 -0.63193
778 24.7681 -0.679861
779 24.8175 -0.727809
780 24.8669 -0.77577
781 24.9163 -0.823733
782 24.9656 -0.871715
783 25.015 -0.919701
784 25.0644 -0.967669
785 25.1137 -1.01565
786 25.1631 -1.06363
787 25.2124 -1.11159
788 25.2618 -1.15958
789 25.3111 -1.20758
790 25.3605 -1.25557
791 25.4099 -1.30355
792 25.4592 -1.35154
793 25.5086 -1.39952
794 25.5579 -1.44752
795 25.6073 -1.49552
796 25.6567 -1.54351
797 25.706 -1.5915
798 25.7554 -1.6395
799 25.8047 -1.68749
800 25.8541 -1.73549
801 25.9035 -1.78349
802 25.9528 -1.83148
803 26.0022 -1.87948
804 26.0515 -1.92746
805 26.1009 -1.97545
806 26.1502 -2.02343
807 26.1996 -2.07143
808 26.2489 -2.11942
809 26.2983 -2.1674
810 26.3477 -2.21539
811 26.397 -2.26338
812 26.4464 -2.31137
813 26.4957 -2.35936
814 26.5451 -2.40735
815 26.5944 -2.45535
816 26.6438 -2.50336
817 26.6931 -2.55134
818 26.7425 -2.59932
819 26.7918 -2.6473
820 26.8412 -2.69529
821 26.8905 -2.7433
822 26.9399 -2.7913
823 26.9893 -2.83929
824 27.0386 -2.88728
825 27.088 -2.93528
826 27.1373 -2.98327
827 27.1867 -3.03127
828 27.236 -3.07926
829 27.2854 -3.12725
830 27.3347 -3.17524
831 27.3841 -3.22324
832 27.4335 -3.27124
833 27.4828 -3.31921
834 27.5322 -3.3672
835 27.5815 -3.41519
836 27.6309 -3.46318
837 27.6802 -3.51118
838 27.7296 -3.55918
839 27.7789 -3.60717
840 27.8283 -3.65516
841 27.8776 -3.70315
842 27.927 -3.75115
843 27.9764 -3.79914
844 28.0257 -3.84715
845 28.0751 -3.89514
846 28.1244 -3.94314
847 28.1738 -3.99114
848 28.2231 -4.03913
849 28.2725 -4.08711
850 28.3218 -4.1351
851 28.3712 -4.18311
852 28.4205 -4.23111
853 28.4699 -4.2791
854 28.5192 -4.3271
855 28.5686 -4.3751
856 28.6179 -4.4231
857 28.6673 -4.47109
858 28.7166 -4.5191
859 28.766 -4.5671
860 28.8153 -4.6151
861 28.8647 -4.66309
862 28.914 -4.71109
863 28.9634 -4.7591
864 29.0128 -4.8071
865 29.0621 -4.85508
866 29.1115 -4.90307
867 29.1608 -4.95107
868 29.2102 -4.99907
869 29.2596 -5.04707
870 29.3089 -5.09506
871 29.3583 -5.14305
872 29.4076 -5.19105
873 29.457 -5.23904
874 29.5063 -5.28703
875 29.5557 -5.33503
876 29.605 -5.38302
877 29.6544 -5.43102
878 29.7037 -5.47901
879 29.7531 -5.52701
880 29.8025 -5.57501
881 29.8518 -5.623
882 29.9012 -5.671
883 29.9505 -5.719
884 29.9999 -5.76698
885 30.0492 -5.81497
886 30.0986 -5.86296
887 30.1479 -5.91096
888 30.1973 -5.95895
889 30.2466 -6.00696
890 30.296 -6.05496
891 30.3453 -6.10295
892 30.3947 -6.15095
893 30.444 -6.19895
894 30.4934 -6.24694
895 30.5065 -6.25974
896 30.5117 -6.26472
897 30.5158 -6.26814
898 30.5194 -6.27066
899 30.523 -6.27275
900 30.5269 -6.2746
901 30.531 -6.27607
902 30.5352 -6.27716
903 30.5389 -6.27787
904 30.588 -6.28939
905 30.6553 -6.29324
906 30.7241 -6.29642
907 30.7928 -6.30013
908 30.8616 -6.30469
909 30.9301 -6.31022
910 30.9985 -6.31675
911 31.0666 -6.32415
912 31.1349 -6.3325
913 31.2031 -6.3415
914 31.2713 -6.35113
915 31.3392 -6.36124
916 31.4073 -6.37189
917 31.4755 -6.38287
918 31.5434 -6.39411
919 31.6113 -6.40561
920 31.6791 -6.41728
921 31.7469 -6.42911
922 31.8148 -6.44109
923 31.8826 -6.45317
924 31.9502 -6.46532
925 32.0179 -6.47757
926 32.0856 -6.48984
927 32.1534 -6.50214
928 32.2211 -6.51445
929 32.2888 -6.52679
930 32.3565 -6.53913
931 32.4242 -6.55149
932 32.4919 -6.56387
933 32.5596 -6.57624
934 32.6274 -6.58864
935 32.6951 -6.60104
936 32.7628 -6.61345
937 32.8305 -6.62587
938 32.8982 -6.63831
939 32.9659 -6.65074
940 33.0336 -6.66318
941 33.1013 -6.67564
942 33.1691 -6.68811
943 33.2367 -6.70059
944 33.3045 -6.71306
945 33.3721 -6.72553
946 33.4399 -6.73803
947 33.5075 -6.75053
948 33.5752 -6.76304
949 33.6429 -6.77555
950 33.7106 -6.78807
951 33.7783 -6.8006
952 33.846 -6.81312
953 33.9137 -6.82566
954 33.9814 -6.83818
955 34.0491 -6.85072
956 34.1167 -6.86328
957 34.1844 -6.87584
958 34.2521 -6.8884
959 34.3198 -6.90095
960 34.3874 -6.91352
961 34.4551 -6.92607
962 34.5228 -6.93864
963 34.5905 -6.95121
964 34.6582 -6.96379
965 34.7258 -6.97638
966 34.7935 -6.98897
967 34.8612 -7.00158
968 34.9289 -7.01419
969 34.9965 -7.02679
970 35.0642 -7.0394
971 35.1319 -7.05201
972 35.1996 -7.06462
973 35.2673 -7.07724
974 35.3349 -7.08985
975 35.4026 -7.10247
976 35.4703 -7.11509
977 35.538 -7.12773
978 35.6057 -7.14036
979 35.6734 -7.153
980 35.741 -7.16563
981 35.8087 -7.17827
982 35.8764 -7.19091
983 35.944 -7.20356
984 36.0117 -7.2162
985 36.0794 -7.22885
986 36.147 -7.24151
987 36.2147 -7.25417
988 36.2824 -7.26683
989 36.3501 -7.27949
990 36.4177 -7.29215
991 36.4854 -7.30481
992 36.553 -7.31749
993 36.6207 -7.33015
994 36.6884 -7.34282
995 36.756 -7.35551
996 36.8237 -7.36819
997 36.8914 -7.38087
998 36.959 -7.39356
999 37.0267 -7.40624
1000 37.0944 -7.41893
1001 37.162 -7.43161
1002 37.2297 -7.44431
1003 37.2973 -7.45699
1004 37.365 -7.46969
1005 37.4326 -7.48239
1006 37.5003 -7.4951
1007 37.568 -7.5078
1008 37.6356 -7.52051
1009 37.7032 -7.53322
1010 37.7709 -7.54593
1011 37.8386 -7.55864
1012 37.9062 -7.57135
1013 37.9739 -7.58406
1014 38.0416 -7.59676
1015 38.1092 -7.60948
1016 38.1768 -7.62221
1017 38.2445 -7.63495
1018 38.3122 -7.64768
1019 38.3798 -7.66039
1020 38.4474 -7.67312
1021 38.5151 -7.68585
1022 38.5827 -7.69858
1023 38.6504 -7.7113
1024 38.718 -7.72404
1025 38.7856 -7.73677
1026 38.8533 -7.7495
1027 38.9209 -7.76225
1028 38.9886 -7.77498
1029 39.0563 -7.78772
1030 39.1239 -7.80047
1031 39.1916 -7.8132
1032 39.2592 -7.82594
1033 39.3268 -7.83868
1034 39.3945 -7.85144
1035 39.4621 -7.86418
1036 39.5298 -7.87693
1037 39.5974 -7.88969
1038 39.6651 -7.90244
1039 39.7327 -7.91519
1040 39.8004 -7.92794
1041 39.868 -7.9407
1042 39.9357 -7.95346
1043 40.0033 -7.96621
1044 40.071 -7.97897
1045 40.1386 -7.99172
1046 40.2063 -8.00449
1047 40.2739 -8.01724
1048 40.3416 -8.03
1049 40.4092 -8.04276
1050 40.4769 -8.05552
1051 40.5445 -8.06828
1052 40.6122 -8.08106
1053 40.6312 -8.08469
1054 40.6403 -8.08639
1055 40.6474 -8.08749
1056 40.6525 -8.08803
1057 40.656 -8.08819
1058 40.6589 -8.0882
1059 40.6621 -8.08803
1060 40.6651 -8.08769
1061 40.7144 -8.0814
1062 40.7795 -8.065
1063 40.846 -8.04723
1064 40.9125 -8.02963
1065 40.9791 -8.01245
1066 41.0454 -7.99601
1067 41.1123 -7.9802
1068 41.179 -7.96504
1069 41.2462 -7.95047
1070 41.3134 -7.93643
1071 41.3812 -7.92282
1072 41.4488 -7.90965
1073 41.5164 -7.89688
1074 41.5845 -7.88434
1075 41.6523 -7.87202
1076 41.7202 -7.85992
1077 41.788 -7.84799
1078 41.8557 -7.83622
1079 41.9236 -7.82456
1080 41.9915 -7.81295
1081 42.0594 -7.80144
1082 42.1272 -7.79001
1083 42.1951 -7.77862
1084 42.263 -7.76728
1085 42.3309 -7.75597
1086 42.3988 -7.74469
1087 42.4667 -7.73344
1088 42.5346 -7.7222
1089 42.6025 -7.71098
1090 42.6704 -7.69977
1091 42.7383 -7.68858
1092 42.8062 -7.67738
1093 42.8271 -7.67359
1094 42.8373 -7.67179
1095 42.8472 -7.66944
1096 42.8562 -7.66648
1097 42.8639 -7.66301
1098 42.8668 -7.6609
1099 42.8696 -7.65916
1100 42.8721 -7.65694
1101 42.8748 -7.65418
1102 42.8771 -7.65112
1103 42.8791 -7.64814
1104 42.9088 -7.60836
1105 42.9359 -7.54648
1106 42.9625 -7.48283
1107 42.9892 -7.41934
1108 43.0164 -7.35589
1109 43.0441 -7.29289
1110 43.0727 -7.23009
1111 43.102 -7.16736
1112 43.1318 -7.10521
1113 43.1619 -7.0437
1114 43.1927 -6.98219
1115 43.2239 -6.92074
1116 43.2555 -6.85947
1117 43.2874 -6.79829
1118 43.3194 -6.73756
1119 43.3517 -6.67671
1120 43.3842 -6.61589
1121 43.4167 -6.55531
1122 43.4493 -6.4948
1123 43.4822 -6.4342
1124 43.5151 -6.37366
1125 43.548 -6.31327
1126 43.581 -6.25293
1127 43.6141 -6.19251
1128 43.6472 -6.1322
1129 43.6803 -6.07187
1130 43.7135 -6.01155
1131 43.7468 -5.95128
1132 43.78 -5.89102
1133 43.8133 -5.83079
1134 43.8466 -5.77057
1135 43.8799 -5.71037
1136 43.9132 -5.65019
1137 43.9466 -5.59
1138 43.98 -5.52978
1139 44.0133 -5.46958
1140 44.0467 -5.40938
1141 44.0801 -5.34919
1142 44.1135 -5.28899
1143 44.147 -5.2288
1144 44.1804 -5.16863
1145 44.2138 -5.10847
1146 44.2473 -5.0483
1147 44.2807 -4.98813
1148 44.3142 -4.92795
1149 44.3476 -4.86778
1150 44.3811 -4.80762
1151 44.4145 -4.74746
1152 44.448 -4.68731
1153 44.4815 -4.62714
1154 44.4946 -4.60322
1155 44.4991 -4.59537
1156 44.5012 -4.5923
1157 44.503 -4.58989
1158 44.5052 -4.58736
1159 44.5075 -4.58505
1160 44.51 -4.58279
1161 44.5127 -4.58069
1162 44.5156 -4.57873
1163 44.5186 -4.57695
1164 44.5625 -4.55036
1165 44.6253 -4.5255
1166 44.6899 -4.50145
1167 44.7545 -4.47764
1168 44.819 -4.45381
1169 44.8835 -4.4297
1170 44.9479 -4.40533
1171 45.0123 -4.38065
1172 45.0766 -4.35572
1173 45.1408 -4.3305
1174 45.2049 -4.30507
1175 45.2254 -4.30087
1176 45.2339 -4.29713
1177 45.2413 -4.29316
1178 45.2457 -4.28992
1179 45.2479 -4.28742
1180 45.2492 -4.28534
1181 45.2499 -4.28375
1182 45.2504 -4.28125
1183 45.2499 -4.27898
1184 45.2492 -4.27755
1185 45.2488 -4.27677
1186 45.2483 -4.27589
1187 45.2465 -4.27411
1188 45.2178 -4.24959
1189 45.157 -4.2239
1190 45.093 -4.19758
1191 45.0302 -4.1699
1192 44.9685 -4.14043
1193 44.9075 -4.10863
1194 44.8477 -4.07505
1195 44.7887 -4.03918
1196 44.7307 -4.00173
1197 44.6744 -3.96322
1198 44.6189 -3.92309
1199 44.564 -3.88175
1200 44.5097 -3.83933
1201 44.4562 -3.79618
1202 44.4031 -3.75214
1203 44.3506 -3.70759
1204 44.2984 -3.66245
1205 44.2467 -3.61687
1206 44.1953 -3.57082
1207 44.1443 -3.52458
1208 44.0934 -3.47795
1209 44.0428 -3.43104
1210 43.9925 -3.38397
1211 43.9423 -3.33672
1212 43.8923 -3.28932
1213 43.8422 -3.24165
1214 43.7924 -3.19396
1215 43.7426 -3.14615
1216 43.693 -3.09835
1217 43.6435 -3.05046
1218 43.5941 -3.00255
1219 43.5447 -2.95464
1220 43.4953 -2.90663
1221 43.4461 -2.85861
1222 43.3969 -2.81055
1223 43.3477 -2.76244
1224 43.2985 -2.71428
1225 43.2493 -2.6661
1226 43.2001 -2.61792
1227 43.1509 -2.56968
1228 43.1018 -2.52144
1229 43.0526 -2.47321
1230 43.0035 -2.42497
1231 42.9544 -2.37672
1232 42.9053 -2.32849
1233 42.8562 -2.28024
1234 42.8071 -2.23199
1235 42.7581 -2.18372
1236 42.709 -2.13545
1237 42.6599 -2.08718
1238 42.6468 -2.07444
1239 42.641 -2.06854
1240 42.6357 -2.06227
1241 42.6312 -2.05504
1242 42.628 -2.04643
1243 42.6268 -2.03711
1244 42.6283 -2.0339
1245 42.628 -2.0342
1246 42.6278 -2.03209
1247 42.63 -2.02971
1248 42.6328 -2.02781
1249 42.636 -2.02687
1250 42.6388 -2.02673
1251 42.6411 -2.02712
1252 42.643 -2.02761
1253 42.6737 -2.03615
1254 42.7291 -2.06944
1255 42.7876 -2.10692
1256 42.8468 -2.14307
1257 42.9073 -2.17747
1258 42.9687 -2.20973
1259 43.0311 -2.23953
1260 43.094 -2.26687
1261 43.158 -2.29195
1262 43.1843 -2.30529
1263 43.1873 -2.3066
1264 43.1878 -2.30662
1265 43.1878 -2.30656
1266 43.1877 -2.30647
1267 43.1873 -2.30637
1268 43.1871 -2.30629
1269 43.1873 -2.30627
1270 43.188 -2.30634
1271 43.1892 -2.30656
1272 43.1921 -2.30734
1273 43.1957 -2.30868
1274 43.1989 -2.31023
1275 43.2019 -2.31192
1276 43.2047 -2.31367
1277 43.2466 -2.33798
1278 43.3005 -2.37872
1279 43.355 -2.42092
1280 43.4096 -2.46316
1281 43.4643 -2.5052
1282 43.5195 -2.54712
1283 43.5748 -2.5886
1284 43.6301 -2.62955
1285 43.6857 -2.67023
1286 43.7415 -2.71066
1287 43.7975 -2.75086
1288 43.8138 -2.7652
1289 43.8601 -2.79563
1290 43.883 -2.8139
1291 43.8894 -2.8192
1292 43.8923 -2.82167
1293 43.8946 -2.82384
1294 43.8967 -2.82613
1295 43.8989 -2.82899
1296 43.901 -2.83214
1297 43.9027 -2.83528
1298 43.9042 -2.83855
1299 43.9053 -2.84172
1300 43.9062 -2.8453
1301 43.9067 -2.84878
1302 43.9069 -2.85215
1303 43.9141 -2.89931
1304 43.9096 -2.96646
1305 43.9037 -3.03529
1306 43.8981 -3.10394
1307 43.8934 -3.17273
1308 43.8896 -3.2416
1309 43.8868 -3.3105
1310 43.885 -3.37932
1311 43.884 -3.44824
1312 43.8838 -3.51719
1313 43.8842 -3.5861
1314 43.8805 -3.60828
1315 43.8809 -3.61888
1316 43.8815 -3.6287
1317 43.8827 -3.63767
1318 43.8848 -3.6461
1319 43.8878 -3.65355
1320 43.8886 -3.65417
1321 43.8897 -3.65627
1322 43.8922 -3.65852
1323 43.8953 -3.66063
1324 43.8988 -3.6623
1325 43.9021 -3.66349
1326 43.9445 -3.68313
1327 44.0107 -3.69528
1328 44.0791 -3.70628
1329 44.1472 -3.71776
1330 44.2148 -3.73025
1331 44.2821 -3.74408
1332 44.3491 -3.75932
1333 44.4155 -3.77577
1334 44.4819 -3.79351
1335 44.5478 -3.81208
1336 44.6136 -3.83163
1337 44.6794 -3.85194
1338 44.745 -3.8729
1339 44.8106 -3.8944
1340 44.8759 -3.91624
1341 44.9409 -3.93831
1342 45.0058 -3.96067
1343 45.0708 -3.98335
1344 45.1357 -4.00624
1345 45.2006 -4.02934
1346 45.2653 -4.05257
1347 45.3301 -4.07592
1348 45.3948 -4.09937
1349 45.4595 -4.12289
1350 45.5242 -4.14649
1351 45.5889 -4.17016
1352 45.6535 -4.19382
1353 45.7181 -4.21757
1354 45.7826 -4.24133
1355 45.8472 -4.26515
1356 45.9117 -4.289
1357 45.9763 -4.31289
1358 46.0408 -4.33679
1359 46.1053 -4.36072
1360 46.1699 -4.38469
1361 46.2344 -4.40868
1362 46.2989 -4.4327
1363 46.3635 -4.45673
1364 46.428 -4.48078
1365 46.4925 -4.50485
1366 46.557 -4.52893
1367 46.6214 -4.55301
1368 46.6859 -4.57712
1369 46.7504 -4.60123
1370 46.8149 -4.62535
1371 46.8793 -4.64948
1372 46.9438 -4.67361
1373 47.0082 -4.69775
1374 47.0727 -4.72191
1375 47.1371 -4.74608
1376 47.2016 -4.77024
1377 47.266 -4.79441
1378 47.3304 -4.81858
1379 47.3949 -4.84277
1380 47.4594 -4.86697
1381 47.5238 -4.89117
1382 47.5883 -4.91537
1383 47.6527 -4.93955
1384 47.7171 -4.96376
1385 47.7816 -4.98797
1386 47.846 -5.01219
1387 47.9104 -5.0364
1388 47.9749 -5.06061
1389 48.0393 -5.08484
1390 48.1037 -5.10907
1391 48.1682 -5.13331
1392 48.2326 -5.15756
1393 48.2505 -5.16428
1394 48.2585 -5.16722
1395 48.2666 -5.16962
1396 48.2746 -5.17106
1397 48.2824 -5.17143
1398 48.2894 -5.17068
1399 48.2951 -5.16902
1400 48.2983 -5.16724
1401 48.3009 -5.16564
1402 48.3028 -5.16375
1403 48.3039 -5.16196
1404 48.3043 -5.1608
1405 48.3048 -5.15922
1406 48.3042 -5.15789
1407 48.3037 -5.15655
1408 48.3021 -5.15494
1409 48.3 -5.15351
1410 48.2976 -5.15231
1411 48.2688 -5.13688
1412 48.2059 -5.1175
1413 48.1391 -5.09762
1414 48.0732 -5.07685
1415 48.008 -5.05469
1416 47.9435 -5.03088
1417 47.8801 -5.00553
1418 47.817 -4.97848
1419 47.7544 -4.95004
1420 47.6921 -4.92023
1421 47.6301 -4.88922
1422 47.5691 -4.85749
1423 47.5085 -4.82486
1424 47.4479 -4.79145
1425 47.3875 -4.75741
1426 47.3279 -4.72311
1427 47.2685 -4.68837
1428 47.2093 -4.65329
1429 47.15 -4.61755
1430 47.091 -4.58169
1431 47.0323 -4.54559
1432 46.9739 -4.50935
1433 46.9154 -4.47282
1434 46.8571 -4.43615
1435 46.7989 -4.3993
1436 46.7408 -4.36234
1437 46.6828 -4.32525
1438 46.6248 -4.28813
1439 46.567 -4.2509
1440 46.5091 -4.21358
1441 46.4513 -4.1762
1442 46.4338 -4.16501
1443 46.4271 -4.16054
1444 46.4204 -4.15514
1445 46.4164 -4.15057
1446 46.4135 -4.14586
1447 46.4116 -4.14014
1448 46.4117 -4.13634
1449 46.412 -4.13461
1450 46.412 -4.13404
1451 46.4115 -4.13415
1452 46.4322 -4.1035
1453 46.4856 -4.06597
1454 46.5477 -4.03117
1455 46.6078 -3.99667
1456 46.6653 -3.95983
1457 46.721 -3.92017
1458 46.7744 -3.8776
1459 46.8251 -3.83255
1460 46.8736 -3.78472
1461 46.92 -3.73463
1462 46.9645 -3.68242
1463 47.0073 -3.6284
1464 47.0483 -3.57331
1465 47.0875 -3.51729
1466 47.1254 -3.46013
1467 47.1622 -3.4022
1468 47.1979 -3.34337
1469 47.2327 -3.28382
1470 47.2664 -3.22415
1471 47.2996 -3.1637
1472 47.332 -3.10288
1473 47.3639 -3.04176
1474 47.3953 -2.98038
1475 47.4263 -2.91873
1476 47.4569 -2.85692
1477 47.4873 -2.79495
1478 47.5173 -2.73295
1479 47.5472 -2.67093
1480 47.5768 -2.6088
1481 47.6065 -2.54657
1482 47.6359 -2.48436
1483 47.6653 -2.42207
1484 47.6946 -2.35979
1485 47.7239 -2.29747
1486 47.7531 -2.23515
1487 47.7822 -2.17279
1488 47.8113 -2.11041
1489 47.8404 -2.04802
1490 47.8695 -1.98562
1491 47.8985 -1.92322
1492 47.9276 -1.86081
1493 47.9566 -1.79839
1494 47.9856 -1.73594
1495 48.0146 -1.67349
1496 48.0436 -1.61105
1497 48.0725 -1.5486
1498 48.1015 -1.48614
1499 48.1304 -1.42367
1500 48.1593 -1.3612
1501 48.1882 -1.29874
1502 48.2171 -1.23626
1503 48.246 -1.17378
1504 48.2749 -1.1113
1505 48.2828 -1.0942
1506 48.3069 -1.04265
1507 48.336 -0.980745
1508 48.3443 -0.963441
1509 48.369 -0.911094
1510 48.3771 -0.894684
1511 48.4012 -0.844701
1512 48.4109 -0.825768
1513 48.4363 -0.774403
1514 48.4457 -0.756845
1515 48.4692 -0.710097
1516 48.4762 -0.697331
1517 48.5015 -0.647308
1518 48.5105 -0.630858
1519 48.5345 -0.583856
1520 48.5439 -0.566514
1521 48.5695 -0.516361
1522 48.5784 -0.499926
1523 48.6033 -0.451215
1524 48.6131 -0.432801
1525 48.6186 -0.421958
1526 48.6212 -0.416147
1527 48.6229 -0.411471
1528 48.6239 -0.407719
1529 48.6241 -0.405557
1530 48.6247 -0.400789
1531 48.6243 -0.397892
1532 48.6242 -0.397039
1533 48.6244 -0.397657
1534 48.6233 -0.352021
1535 48.6151 -0.335827
1536 48.6141 -0.33173
1537 48.614 -0.33365
1538 48.6143 -0.334128
1539 48.6145 -0.331328
1540 48.6144 -0.331019
1541 48.6143 -0.333057
1542 48.6143 -0.334946
1543 48.6142 -0.336194
1544 48.6145 -0.334312
1545 48.6152 -0.332173
1546 48.6151 -0.332849
1547 48.6148 -0.332645
1548 48.6157 -0.331664
1549 48.6213 -0.328363
1550 48.6284 -0.328285
1551 48.6313 -0.329735
1552 48.6348 -0.329988
1553 48.6356 -0.331477
1554 48.6353 -0.33103
1555 48.6354 -0.330878
1556 48.6355 -0.330842
1557 48.6359 -0.330791
1558 48.6352 -0.330825
1559 48.6353 -0.330535
1560 48.6355 -0.330573
1561 48.6355 -0.330533
1562 48.6354 -0.330538
1563 48.6353 -0.33052
1564 48.6792 -0.3223
1565 48.6953 -0.322897
1566 48.7389 -0.314819
1567 48.8049 -0.305432
1568 48.8321 -0.304212
1569 48.8353 -0.304421
1570 48.8357 -0.304331
1571 48.8358 -0.304306
1572 48.8358 -0.304276
1573 48.8357 -0.304236
1574 48.8813 -0.301327
1575 48.8948 -0.303778
1576 48.9428 -0.301164
1577 49.0099 -0.300548
1578 49.0324 -0.302628
1579 49.0888 -0.300398
1580 49.1095 -0.302191
1581 49.1646 -0.300166
1582 49.1844 -0.301698
1583 49.2392 -0.299833
1584 49.2566 -0.301135
1585 49.312 -0.299388
1586 49.3302 -0.300487
1587 49.3843 -0.298846
1588 49.4013 -0.299786
1589 49.4552 -0.298237
1590 49.4737 -0.298964
1591 49.5284 -0.297475
1592 49.5461 -0.298089
1593 49.6 -0.296635
1594 49.6166 -0.297121
1595 49.6684 -0.295768
1596 49.6808 -0.296208
1597 49.7285 -0.294921
1598 49.7446 -0.295114
1599 49.8004 -0.293718
1600 49.8143 -0.294024
1601 49.8665 -0.292774
1602 49.884 -0.292923
1603 49.9341 -0.291852
1604 49.9467 -0.292069
1605 49.999 -0.291025
1606 50.0144 -0.291247
1607 50.0642 -0.290421
1608 50.0799 -0.290617
1609 50.1347 -0.289835
1610 50.1519 -0.290074
1611 50.1593 -0.290084
1612 50.1679 -0.290486
1613 50.1719 -0.291236
1614 50.1789 -0.29291
1615 50.1844 -0.295876
1616 50.1845 -0.296855
1617 50.1871 -0.298518
1618 50.1858 -0.298202
1619 50.1876 -0.299474
1620 50.1875 -0.309896
1621 50.1823 -0.311229
1622 50.1856 -0.310048
1623 50.1819 -0.312848
1624 50.1757 -0.312976
1625 50.1717 -0.31263
1626 50.1676 -0.311017
1627 50.1438 -0.299044
1628 50.0937 -0.264755
1629 50.0394 -0.223174
1630 49.9839 -0.181473
1631 49.9265 -0.142276
1632 49.8671 -0.106125
1633 49.8331 -0.0872002
1634 49.8229 -0.0823887
1635 49.8176 -0.0804427
1636 49.8154 -0.0798278
1637 49.8152 -0.0797906
1638 49.8154 -0.0797718
1639 49.8155 -0.0797329
1640 49.8158 -0.0796742
1641 49.816 -0.0796038
1642 49.8161 -0.0795473
1643 49.8163 -0.0794978
1644 49.8164 -0.0794561
1645 49.8165 -0.0794238
1646 49.8167 -0.0793981
1647 49.8168 -0.0793801
1648 49.8169 -0.0793701
1649 49.817 -0.079362
1650 49.817 -0.0793549
1651 49.8171 -0.0793489
1652 49.8171 -0.0793439
1653 49.8172 -0.0793391
1654 49.8172 -0.0793352
1655 49.8172 -0.0793316
1656 49.8172 -0.0793281
1657 49.8173 -0.0793253
1658 49.8173 -0.0793233
1659 49.8173 -0.0793213
1660 49.8173 -0.0793196
1661 49.8173 -0.0793181
1662 49.8173 -0.0793167
1663 49.8173 -0.0793153
1664 49.8173 -0.0793141
1665 49.8173 -0.0793133
1666 49.8173 -0.0793127
1667 49.8173 -0.079312
1668 49.8173 -0.0793118
1669 49.8173 -0.0793114
1670 49.8173 -0.0793107
1671 49.8173 -0.0793104
1672 49.8173 -0.0793108
1673 49.8173 -0.0793108
1674 49.8173 -0.0793107
1675 49.8173 -0.0793108
1676 49.8173 -0.0793107
1677 49.8173 -0.0793107
1678 49.8173 -0.0793106
1679 49.8173 -0.0793111
1680 49.8173 -0.0793113
1681 49.8173 -0.0793114
1682 49.8172 -0.0793114
1683 49.8173 -0.0793111
1684 49.8173 -0.0793106
1685 49.8173 -0.0793104
1686 49.8173 -0.0793105
1687 49.8173 -0.0793105
1688 49.8173 -0.0793111
1689 49.8173 -0.0793104
1690 49.8173 -0.0793105
1691 49.8173 -0.0793105
1692 49.8173 -0.0793106
1693 49.8173 -0.079311
1694 49.8173 -0.0793109
1695 49.8173 -0.0793108
1696 49.8173 -0.0793103
1697 49.8173 -0.0793108
1698 49.8172 -0.0793112
1699 49.8172 -0.0793111
1700 49.8172 -0.079311
1701 49.8172 -0.0793112
1702 49.8172 -0.0793114
1703 49.8172 -0.0793113
1704 49.8172 -0.0793119
1705 49.8172 -0.0793118
1706 49.8172 -0.0793118
1707 49.8172 -0.0793119
1708 49.8172 -0.0793112
1709 49.8172 -0.0793114
1710 49.8172 -0.0793113
1711 49.8172 -0.0793116
1712 49.8172 -0.0793116
1713 49.8172 -0.0793124
1714 49.8172 -0.0793128
1715 49.8172 -0.0793128
1716 49.8172 -0.0793132
1717 49.8172 -0.079313
1718 49.8172 -0.0793128
1719 49.8172 -0.0793129
1720 49.8172 -0.0793131
1721 49.8172 -0.0793132
1722 49.8172 -0.0793134
1723 49.8172 -0.0793132
1724 49.8172 -0.0793139
1725 49.8171 -0.0793143
1726 49.8172 -0.0793142
1727 49.8171 -0.0793145
1728 49.8171 -0.0793146
1729 49.8171 -0.0793144
1730 49.8172 -0.0793142
1731 49.8172 -0.0793142
1732 49.8171 -0.0793145
1733 49.8171 -0.0793147
1734 49.8171 -0.079315
1735 49.8171 -0.0793151
1736 49.8171 -0.0793155
1737 49.8171 -0.0793154
1738 49.8171 -0.0793157
1739 49.8171 -0.0793159
1740 49.8171 -0.0793153
1741 49.8171 -0.0793156
1742 49.8171 -0.0793155
1743 49.8171 -0.0793155
1744 49.8171 -0.0793156
1745 49.8171 -0.0793157
1746 49.8171 -0.0793161
1747 49.8171 -0.0793162
1748 49.8171 -0.0793163
1749 49.8171 -0.0793161
1750 49.8171 -0.0793159
1751 49.8171 -0.0793162
1752 49.8171 -0.0793164
1753 49.8171 -0.0793168
1754 49.8171 -0.0793167
1755 49.8171 -0.0793167
1756 49.8171 -0.0793169
1757 49.8171 -0.0793171
1758 49.817 -0.0793176
1759 49.817 -0.0793177
1760 49.817 -0.0793178
1761 49.817 -0.0793182
1762 49.817 -0.0793182
1763 49.817 -0.079319
1764 49.817 -0.0793195
1765 49.817 -0.0793199
1766 49.817 -0.0793201
1767 49.817 -0.0793201
1768 49.817 -0.0793203
1769 49.817 -0.0793205
1770 49.8169 -0.0793209
1771 49.8169 -0.0793213
1772 49.8169 -0.0793217
1773 49.8169 -0.0793221
1774 49.8169 -0.079322
1775 49.8169 -0.0793223
1776 49.8169 -0.079322
1777 49.8169 -0.0793222
1778 49.8169 -0.0793224
1779 49.8169 -0.0793226
1780 49.8169 -0.0793224
1781 49.8169 -0.0793226
1782 49.8169 -0.0793233
1783 49.8169 -0.0793235
1784 49.8169 -0.0793237
1785 49.8168 -0.0793241
1786 49.8169 -0.079324
1787 49.8169 -0.0793239
1788 49.8168 -0.0793242
1789 49.8168 -0.0793241
1790 49.8168 -0.0793248
1791 49.8168 -0.0793256
1792 49.8168 -0.0793257
1793 49.8168 -0.0793255
1794 49.8168 -0.0793255
1795 49.8168 -0.0793253
1796 49.8168 -0.0793257
1797 49.8168 -0.079326
1798 49.8168 -0.0793259
1799 49.8168 -0.0793258
1800 49.8168 -0.0793259
1801 49.8168 -0.0793262
1802 49.8168 -0.0793263
1803 49.8168 -0.0793261
1804 49.8168 -0.079326
1805 49.8168 -0.0793264
1806 49.8168 -0.0793265
1807 49.8168 -0.0793269
1808 49.8168 -0.0793268
1809 49.8168 -0.0793271
1810 49.8168 -0.0793273
1811 49.8167 -0.0793274
1812 49.8167 -0.0793281
1813 49.8167 -0.0793286
1814 49.8167 -0.0793294
1815 49.8167 -0.0793297
1816 49.8167 -0.0793295
1817 49.8167 -0.0793293
1818 49.8167 -0.0793297
1819 49.8167 -0.0793299
1820 49.8167 -0.0793298
1821 49.8167 -0.0793299
1822 49.8167 -0.0793293
1823 49.8167 -0.0793294
1824 49.8167 -0.0793297
1825 49.8167 -0.0793297
1826 49.8167 -0.0793296
1827 49.8167 -0.0793294
1828 49.8167 -0.0793295
1829 49.8167 -0.0793298
1830 49.8167 -0.0793299
1831 49.8167 -0.0793299
1832 49.8167 -0.07933
1833 49.8167 -0.0793302
1834 49.8167 -0.0793306
1835 49.8166 -0.0793308
1836 49.8166 -0.0793309
1837 49.8166 -0.0793311
1838 49.8166 -0.0793311
1839 49.8166 -0.0793313
1840 49.8166 -0.079332
1841 49.8166 -0.0793325
1842 49.8166 -0.0793328
1843 49.8166 -0.0793324
1844 49.8166 -0.0793327
1845 49.8166 -0.0793328
1846 49.8166 -0.0793321
1847 49.8166 -0.0793316
1848 49.8166 -0.0793317
1849 49.8166 -0.0793319
1850 49.8166 -0.0793322
1851 49.8166 -0.0793325
1852 49.8166 -0.0793324
1853 49.8166 -0.0793324
1854 49.8166 -0.0793326
1855 49.8166 -0.0793327
1856 49.8166 -0.0793328
1857 49.8166 -0.0793335
1858 49.8166 -0.0793338
1859 49.8166 -0.0793337
1860 49.8166 -0.0793339
1861 49.8166 -0.0793339
1862 49.8166 -0.0793337
1863 49.8166 -0.0793335
1864 49.8166 -0.0793332
1865 49.8166 -0.0793332
1866 49.8166 -0.0793335
1867 49.8166 -0.0793339
1868 49.8166 -0.0793339
1869 49.8165 -0.079334
1870 49.8165 -0.0793342
1871 49.8165 -0.0793342
1872 49.8165 -0.0793341
1873 49.8165 -0.0793341
1874 49.8165 -0.079334
1875 49.8165 -0.0793342
1876 49.8165 -0.0793346
1877 49.8165 -0.0793345
1878 49.8165 -0.0793345
1879 49.8165 -0.0793347
1880 49.8165 -0.0793345
1881 49.8165 -0.0793345
1882 49.8165 -0.0793347
1883 49.8165 -0.0793352
1884 49.8165 -0.0793352
1885 49.8165 -0.0793351
1886 49.8165 -0.0793354
1887 49.8165 -0.0793353
1888 49.8165 -0.0793352
1889 49.8165 -0.079335
1890 49.8165 -0.0793351
1891 49.8165 -0.0793349
1892 49.8165 -0.0793351
1893 49.8165 -0.0793349
1894 49.8165 -0.0793353
1895 49.8165 -0.0793361
1896 49.8165 -0.0793361
1897 49.8165 -0.0793363
1898 49.8165 -0.0793362
1899 49.8165 -0.0793363
1900 49.8165 -0.0793361
1901 49.8165 -0.0793368
1902 49.8165 -0.079337
1903 49.8164 -0.0793378
1904 49.8164 -0.0793381
1905 49.8164 -0.0793388
1906 49.8164 -0.0793389
1907 49.8164 -0.0793389
1908 49.8164 -0.0793389
1909 49.8164 -0.0793392
1910 49.8164 -0.0793394
1911 49.8164 -0.07934
1912 49.8164 -0.0793404
1913 49.8164 -0.0793402
1914 49.8164 -0.0793402
1915 49.8164 -0.0793405
1916 49.8164 -0.0793405
1917 49.8164 -0.0793408
1918 49.8163 -0.0793409
1919 49.8163 -0.079341
1920 49.8163 -0.0793412
1921 49.8163 -0.0793409
1922 49.8163 -0.0793411
1923 49.8163 -0.0793411
1924 49.8163 -0.0793412
1925 49.8163 -0.079341
1926 49.8163 -0.0793408
1927 49.8163 -0.079341
1928 49.8163 -0.079341
1929 49.8163 -0.0793411
1930 49.8164 -0.0793408
1931 49.8164 -0.0793407
1932 49.8163 -0.0793412
1933 49.8163 -0.0793414
1934 49.8163 -0.0793413
1935 49.8163 -0.079341
1936 49.8163 -0.0793412
1937 49.8163 -0.0793415
1938 49.8163 -0.0793414
1939 49.8163 -0.0793416
1940 49.8163 -0.0793421
1941 49.8163 -0.0793419
1942 49.8163 -0.0793425
1943 49.8163 -0.0793434
1944 49.8163 -0.0793436
1945 49.8163 -0.0793437
1946 49.8163 -0.0793435
1947 49.8163 -0.079344
1948 49.8163 -0.0793441
1949 49.8162 -0.0793443
1950 49.8163 -0.0793441
1951 49.8163 -0.0793439
1952 49.8162 -0.0793448
1953 49.8162 -0.0793447
1954 49.8162 -0.0793452
1955 49.8162 -0.0793449
1956 49.8162 -0.0793451
1957 49.8162 -0.0793456
1958 49.8162 -0.0793456
1959 49.8162 -0.0793458
1960 49.8162 -0.0793466
1961 49.8162 -0.079347
1962 49.8162 -0.0793473
1963 49.8161 -0.0793482
1964 49.8161 -0.0793484
1965 49.8161 -0.0793485
1966 49.8161 -0.0793488
1967 49.8161 -0.0793488
1968 49.8161 -0.0793491
1969 49.8161 -0.0793488
1970 49.8161 -0.0793489
1971 49.8161 -0.0793487
1972 49.8161 -0.079349
1973 49.8161 -0.0793494
1974 49.8161 -0.0793492
1975 49.8161 -0.0793493
1976 49.8161 -0.079349
1977 49.8161 -0.0793491
1978 49.8161 -0.0793489
1979 49.8161 -0.0793492
1980 49.8161 -0.0793493
1981 49.8161 -0.0793497
1982 49.8161 -0.0793488
1983 49.8161 -0.0793489
1984 49.8161 -0.0793488
1985 49.8161 -0.0793488
1986 49.8161 -0.0793486
1987 49.8161 -0.0793493
1988 49.8161 -0.0793497
1989 49.8161 -0.0793501
1990 49.8161 -0.0793504
1991 49.8161 -0.0793506
1992 49.8161 -0.0793511
1993 49.816 -0.0793519
1994 49.816 -0.0793522
1995 49.816 -0.079353
1996 49.816 -0.0793531
1997 49.816 -0.0793533
1998 49.816 -0.0793536
1999 49.816 -0.079354
2000 49.816 -0.0793538
2001 49.816 -0.0793533
2002 49.816 -0.0793531
2003 49.816 -0.0793534
2004 49.816 -0.0793539
2005 49.816 -0.0793541
2006 49.816 -0.0793538
2007 49.816 -0.0793542
2008 49.816 -0.0793543
2009 49.816 -0.0793543
2010 49.816 -0.0793544
2011 49.8159 -0.079355
2012 49.8159 -0.079355
2013 49.8159 -0.0793553
2014 49.8159 -0.0793555
2015 49.8159 -0.0793558
2016 49.8159 -0.0793565
2017 49.8159 -0.0793565
2018 49.8159 -0.0793571
2019 49.8159 -0.0793573
2020 49.8159 -0.0793572
2021 49.8159 -0.0793575
2022 49.8159 -0.0793574
2023 49.8159 -0.0793576
2024 49.8158 -0.0793585
2025 49.8158 -0.079359
2026 49.8158 -0.0793592
2027 49.8158 -0.0793588
2028 49.8158 -0.0793586
2029 49.8158 -0.0793583
2030 49.8158 -0.0793587
2031 49.8158 -0.0793591
2032 49.8158 -0.0793589
2033 49.8158 -0.079359
2034 49.8158 -0.0793587
2035 49.8158 -0.0793594
2036 49.8158 -0.0793595
2037 49.8158 -0.0793601
2038 49.8158 -0.0793605
2039 49.8158 -0.0793606
2040 49.8158 -0.0793605
2041 49.8158 -0.0793604
2042 49.8158 -0.0793607
2043 49.8158 -0.0793608
2044 49.8158 -0.079361
2045 49.8158 -0.0793614
2046 49.8158 -0.0793613
2047 49.8158 -0.0793613
2048 49.8158 -0.0793613
2049 49.8158 -0.0793617
2050 49.8157 -0.0793618
2051 49.8158 -0.0793617
2052 49.8157 -0.0793624
2053 49.8157 -0.0793629
2054 49.8157 -0.0793633
2055 49.8157 -0.0793634
2056 49.8157 -0.0793633
2057 49.8157 -0.0793639
2058 49.8157 -0.0793639
2059 49.8157 -0.0793641
2060 49.8157 -0.0793644
2061 49.8157 -0.0793646
2062 49.8157 -0.0793646
2063 49.8157 -0.0793653
2064 49.8156 -0.0793657
2065 49.8156 -0.0793661
2066 49.8156 -0.0793663
2067 49.8156 -0.0793662
2068 49.8156 -0.0793657
2069 49.8156 -0.0793654
2070 49.8156 -0.0793658
2071 49.8156 -0.0793662
2072 49.8156 -0.0793664
2073 49.8156 -0.079366
2074 49.8156 -0.0793664
2075 49.8156 -0.0793667
2076 49.8156 -0.0793672
2077 49.8156 -0.0793673
2078 49.8156 -0.0793679
2079 49.8156 -0.0793678
2080 49.8156 -0.0793681
2081 49.8156 -0.0793686
2082 49.8156 -0.0793689
2083 49.8156 -0.0793686
2084 49.8156 -0.0793685
2085 49.8155 -0.0793691
2086 49.8155 -0.0793692
2087 49.8155 -0.079369
2088 49.8155 -0.0793692
2089 49.8155 -0.0793693
2090 49.8155 -0.0793695
2091 49.8155 -0.0793703
2092 49.8155 -0.0793708
2093 49.8155 -0.079371
2094 49.8155 -0.0793705
2095 49.8155 -0.0793705
2096 49.8155 -0.0793699
2097 49.8155 -0.0793701
2098 49.8155 -0.0793705
2099 49.8155 -0.0793703
2100 49.8155 -0.0793706
2101 49.8155 -0.0793705
2102 49.8155 -0.0793713
2103 49.8155 -0.0793715
2104 49.8155 -0.0793725
2105 49.8154 -0.0793729
2106 49.8154 -0.0793729
2107 49.8154 -0.0793727
2108 49.8155 -0.0793725
2109 49.8154 -0.0793728
2110 49.8154 -0.0793729
2111 49.8154 -0.0793731
2112 49.8154 -0.0793734
2113 49.8154 -0.0793733
2114 49.8154 -0.0793734
2115 49.8154 -0.0793736
2116 49.8154 -0.0793739
2117 49.8154 -0.079374
2118 49.8154 -0.0793738
2119 49.8154 -0.0793736
2120 49.8154 -0.0793734
2121 49.8154 -0.0793737
2122 49.8154 -0.0793742
2123 49.8154 -0.0793742
2124 49.8154 -0.0793748
2125 49.8154 -0.079375
2126 49.8154 -0.0793754
2127 49.8154 -0.0793756
2128 49.8154 -0.0793759
2129 49.8154 -0.079376
2130 49.8153 -0.0793768
2131 49.8153 -0.0793771
2132 49.8153 -0.0793772
2133 49.8153 -0.0793774
2134 49.8153 -0.0793775
2135 49.8153 -0.0793769
2136 49.8153 -0.0793767
2137 49.8153 -0.079377
2138 49.8153 -0.079377
2139 49.8153 -0.079377
2140 49.8153 -0.0793768
2141 49.8153 -0.0793772
2142 49.8153 -0.0793775
2143 49.8153 -0.0793782
2144 49.8153 -0.0793785
2145 49.8153 -0.0793786
2146 49.8153 -0.0793785
2147 49.8153 -0.0793789
2148 49.8153 -0.0793797
2149 49.8153 -0.07938
2150 49.8153 -0.0793797
2151 49.8153 -0.0793799
2152 49.8153 -0.0793795
2153 49.8153 -0.0793797
2154 49.8153 -0.0793796
2155 49.8153 -0.0793797
2156 49.8153 -0.0793797
2157 49.8153 -0.0793797
2158 49.8152 -0.0793801
2159 49.8152 -0.0793801
2160 49.8152 -0.0793804
2161 49.8153 -0.0793799
2162 49.8153 -0.0793799
2163 49.8153 -0.0793793
2164 49.8153 -0.079379
2165 49.8153 -0.0793794
2166 49.8153 -0.0793792
2167 49.8153 -0.0793796
2168 49.8153 -0.0793793
2169 49.8152 -0.0793802
2170 49.8152 -0.0793805
2171 49.8152 -0.0793816
2172 49.8152 -0.0793819
2173 49.8152 -0.0793819
2174 49.8152 -0.0793819
2175 49.8152 -0.0793818
2176 49.8152 -0.0793817
2177 49.8152 -0.0793819
2178 49.8152 -0.079382
2179 49.8152 -0.0793823
2180 49.8152 -0.0793822
2181 49.8152 -0.0793822
2182 49.8152 -0.0793823
2183 49.8152 -0.0793825
2184 49.8152 -0.0793826
2185 49.8152 -0.0793825
2186 49.8152 -0.0793823
2187 49.8152 -0.0793821
2188 49.8152 -0.0793823
2189 49.8152 -0.0793832
2190 49.8152 -0.0793832
2191 49.8152 -0.0793828
2192 49.8152 -0.0793828
2193 49.8152 -0.0793832
2194 49.8152 -0.0793833
2195 49.8152 -0.0793836
2196 49.8151 -0.0793838
2197 49.8151 -0.0793843
2198 49.8151 -0.0793847
2199 49.8151 -0.0793848
2200 49.8151 -0.079385
2201 49.8151 -0.0793857
2202 49.8151 -0.0793856
2203 49.8151 -0.0793856
2204 49.8151 -0.079386
2205 49.8151 -0.0793859
2206 49.8151 -0.079386
2207 49.8151 -0.0793857
2208 49.8151 -0.0793859
2209 49.8151 -0.0793864
2210 49.8151 -0.0793874
2211 49.815 -0.0793879
2212 49.815 -0.079388
2213 49.815 -0.079388
2214 49.815 -0.0793884
2215 49.815 -0.0793893
2216 49.815 -0.0793897
2217 49.815 -0.0793894
2218 49.815 -0.0793896
2219 49.815 -0.0793893
2220 49.815 -0.0793894
2221 49.815 -0.0793895
2222 49.815 -0.0793899
2223 49.815 -0.07939
2224 49.815 -0.07939
2225 49.815 -0.0793903
2226 49.815 -0.0793902
2227 49.815 -0.0793905
2228 49.815 -0.0793906
2229 49.815 -0.0793905
2230 49.815 -0.079391
2231 49.815 -0.0793909
2232 49.815 -0.0793912
2233 49.815 -0.0793911
2234 49.815 -0.0793913
2235 49.815 -0.0793911
2236 49.8149 -0.0793915
2237 49.8149 -0.0793924
2238 49.8149 -0.0793936
2239 49.8149 -0.0793939
2240 49.8149 -0.0793942
2241 49.8149 -0.079394
2242 49.8149 -0.079394
2243 49.8149 -0.0793939
2244 49.8149 -0.0793942
2245 49.8149 -0.0793942
2246 49.8149 -0.0793945
2247 49.8149 -0.0793946
2248 49.8149 -0.0793948
2249 49.8149 -0.0793951
2250 49.8148 -0.0793954
2251 49.8148 -0.0793955
2252 49.8148 -0.0793953
2253 49.8149 -0.0793951
2254 49.8149 -0.0793949
2255 49.8149 -0.0793952
2256 49.8148 -0.0793961
2257 49.8148 -0.0793961
2258 49.8148 -0.0793957
2259 49.8148 -0.0793961
2260 49.8148 -0.0793963
2261 49.8148 -0.0793966
2262 49.8148 -0.0793968
2263 49.8148 -0.0793973
2264 49.8148 -0.0793977
2265 49.8148 -0.0793977
2266 49.8148 -0.079398
2267 49.8148 -0.0793984
2268 49.8148 -0.0793992
2269 49.8148 -0.0793991
2270 49.8147 -0.0793997
2271 49.8147 -0.0794002
2272 49.8147 -0.0794002
2273 49.8147 -0.0794006
2274 49.8147 -0.0794005
2275 49.8147 -0.0794006
2276 49.8147 -0.0794014
2277 49.8147 -0.0794025
2278 49.8147 -0.0794025
2279 49.8147 -0.0794022
2280 49.8147 -0.0794021
2281 49.8147 -0.0794022
2282 49.8147 -0.079403
2283 49.8146 -0.0794034
2284 49.8147 -0.079403
2285 49.8147 -0.0794031
2286 49.8147 -0.0794028
2287 49.8147 -0.0794032
2288 49.8146 -0.0794032
2289 49.8146 -0.0794036
2290 49.8146 -0.0794037
2291 49.8146 -0.0794038
2292 49.8146 -0.0794036
2293 49.8146 -0.0794032
2294 49.8146 -0.079404
2295 49.8146 -0.0794041
2296 49.8146 -0.0794038
2297 49.8146 -0.0794034
2298 49.8146 -0.0794035
2299 49.8146 -0.0794038
2300 49.8146 -0.0794039
2301 49.8146 -0.0794048
2302 49.8146 -0.0794052
2303 49.8146 -0.0794055
2304 49.8146 -0.079405
2305 49.8146 -0.0794049
2306 49.8146 -0.0794051
2307 49.8146 -0.0794052
2308 49.8146 -0.0794059
2309 49.8146 -0.0794065
2310 49.8146 -0.0794064
2311 49.8146 -0.0794067
2312 49.8146 -0.0794066
2313 49.8146 -0.0794066
2314 49.8146 -0.0794067
2315 49.8146 -0.0794064
2316 49.8146 -0.0794069
2317 49.8146 -0.079407
2318 49.8146 -0.0794067
2319 49.8146 -0.0794066
2320 49.8146 -0.0794064
2321 49.8146 -0.0794061
2322 49.8146 -0.0794061
2323 49.8146 -0.0794063
2324 49.8146 -0.0794062
2325 49.8146 -0.079407
2326 49.8146 -0.0794071
2327 49.8146 -0.0794071
2328 49.8145 -0.079408
2329 49.8145 -0.0794082
2330 49.8145 -0.0794086
2331 49.8145 -0.0794089
2332 49.8145 -0.0794088
2333 49.8145 -0.0794091
2334 49.8145 -0.0794094
2335 49.8145 -0.0794093
2336 49.8145 -0.0794091
2337 49.8145 -0.0794094
2338 49.8145 -0.0794091
2339 49.8145 -0.0794089
2340 49.8145 -0.0794087
2341 49.8145 -0.0794087
2342 49.8145 -0.0794089
2343 49.8145 -0.0794091
2344 49.8145 -0.0794087
2345 49.8145 -0.0794086
2346 49.8145 -0.0794087
2347 49.8145 -0.079409
2348 49.8145 -0.0794096
2349 49.8145 -0.0794098
2350 49.8145 -0.0794102
2351 49.8145 -0.0794105
2352 49.8145 -0.0794102
2353 49.8145 -0.0794104
2354 49.8145 -0.0794109
2355 49.8144 -0.0794112
2356 49.8145 -0.0794111
2357 49.8144 -0.0794118
2358 49.8144 -0.0794122
2359 49.8144 -0.079412
2360 49.8144 -0.0794124
2361 49.8144 -0.0794131
2362 49.8144 -0.0794134
2363 49.8144 -0.0794143
2364 49.8144 -0.0794144
2365 49.8144 -0.0794146
2366 49.8144 -0.0794149
2367 49.8144 -0.0794149
2368 49.8144 -0.0794147
2369 49.8144 -0.0794149
2370 49.8143 -0.0794152
2371 49.8143 -0.0794154
2372 49.8143 -0.0794156
2373 49.8143 -0.0794159
2374 49.8143 -0.0794157
2375 49.8143 -0.0794153
2376 49.8143 -0.0794154
2377 49.8143 -0.0794157
2378 49.8143 -0.0794159
2379 49.8143 -0.079416
2380 49.8143 -0.0794164
2381 49.8143 -0.0794168
2382 49.8143 -0.0794167
2383 49.8143 -0.0794166
2384 49.8143 -0.0794171
2385 49.8143 -0.0794174
2386 49.8143 -0.0794177
2387 49.8143 -0.0794174
2388 49.8143 -0.0794176
2389 49.8143 -0.079418
2390 49.8143 -0.0794183
2391 49.8143 -0.0794181
2392 49.8143 -0.079418
2393 49.8143 -0.0794178
2394 49.8143 -0.0794182
2395 49.8143 -0.0794188
2396 49.8142 -0.0794197
2397 49.8142 -0.0794207
2398 49.8142 -0.0794212
2399 49.8142 -0.0794214
2400 49.8142 -0.0794217
2401 49.8142 -0.0794216
2402 49.8142 -0.0794214
2403 49.8142 -0.0794212
2404 49.8142 -0.0794211
2405 49.8142 -0.0794214
2406 49.8142 -0.0794217
2407 49.8142 -0.0794218
2408 49.8142 -0.079422
2409 49.8142 -0.0794222
2410 49.8142 -0.0794225
2411 49.8142 -0.0794228
2412 49.8142 -0.0794228
2413 49.8142 -0.0794226
2414 49.8142 -0.0794229
2415 49.8142 -0.0794227
2416 49.8142 -0.0794227
2417 49.8142 -0.0794225
2418 49.8142 -0.0794226
2419 49.8142 -0.0794224
2420 49.8142 -0.0794224
2421 49.8142 -0.0794227
2422 49.8142 -0.0794228
2423 49.8142 -0.0794225
2424 49.8142 -0.0794223
2425 49.8142 -0.0794226
2426 49.8142 -0.079423
2427 49.8142 -0.0794224
2428 49.8142 -0.0794225
2429 49.8142 -0.0794228
2430 49.8142 -0.0794223
2431 49.8142 -0.0794224
2432 49.8142 -0.0794224
2433 49.8142 -0.0794224
2434 49.8142 -0.0794226
2435 49.8142 -0.0794227
2436 49.8142 -0.0794229
2437 49.8141 -0.0794234
2438 49.8141 -0.0794238
2439 49.8141 -0.0794236
2440 49.8141 -0.0794234
2441 49.8141 -0.0794236
2442 49.8141 -0.079424
2443 49.8141 -0.0794242
2444 49.8141 -0.0794246
2445 49.8141 -0.0794252
2446 49.8141 -0.0794254
2447 49.8141 -0.0794255
2448 49.8141 -0.0794251
2449 49.8141 -0.0794247
2450 49.8141 -0.0794251
2451 49.8141 -0.0794261
2452 49.8141 -0.0794263
2453 49.8141 -0.079427
2454 49.8141 -0.0794269
2455 49.8141 -0.0794272
2456 49.8141 -0.079427
2457 49.8141 -0.0794271
2458 49.814 -0.0794279
2459 49.814 -0.0794284
2460 49.814 -0.0794288
2461 49.814 -0.0794291
2462 49.814 -0.0794291
2463 49.814 -0.0794294
2464 49.814 -0.0794295
2465 49.814 -0.0794291
2466 49.814 -0.0794291
2467 49.814 -0.0794293
2468 49.814 -0.0794297
2469 49.814 -0.0794307
2470 49.814 -0.0794309
2471 49.814 -0.0794314
2472 49.8139 -0.0794318
2473 49.8139 -0.0794323
2474 49.8139 -0.0794324
2475 49.8139 -0.0794322
2476 49.8139 -0.0794317
2477 49.8139 -0.0794316
2478 49.8139 -0.0794322
2479 49.8139 -0.0794327
2480 49.8139 -0.0794326
2481 49.8139 -0.079433
2482 49.8139 -0.079433
2483 49.8139 -0.0794329
2484 49.8139 -0.0794327
2485 49.8139 -0.0794334
2486 49.8139 -0.0794336
2487 49.8139 -0.0794338
2488 49.8139 -0.0794342
2489 49.8139 -0.0794339
2490 49.8139 -0.0794338
2491 49.8139 -0.0794339
2492 49.8139 -0.079434
2493 49.8139 -0.0794347
2494 49.8139 -0.0794352
2495 49.8139 -0.079435
2496 49.8139 -0.0794351
2497 49.8138 -0.0794361
2498 49.8138 -0.0794363
2499 49.8138 -0.0794362
2500 49.8138 -0.0794363
2501 49.8138 -0.0794367
2502 49.8138 -0.0794368
2503 49.8138 -0.0794371
2504 49.8138 -0.0794367
2505 49.8138 -0.0794363
2506 49.8138 -0.079436
2507 49.8138 -0.0794358
2508 49.8139 -0.0794356
2509 49.8139 -0.0794357
2510 49.8139 -0.0794354
2511 49.8138 -0.0794362
2512 49.8138 -0.079437
2513 49.8138 -0.0794368
2514 49.8138 -0.0794376
2515 49.8138 -0.0794381
2516 49.8138 -0.0794382
2517 49.8138 -0.0794386
2518 49.8138 -0.0794389
2519 49.8138 -0.0794397
2520 49.8138 -0.0794396
2521 49.8138 -0.0794394
2522 49.8138 -0.0794392
2523 49.8138 -0.0794386
2524 49.8138 -0.0794389
2525 49.8138 -0.0794399
2526 49.8137 -0.0794401
2527 49.8137 -0.07944
2528 49.8138 -0.0794397
2529 49.8138 -0.0794397
2530 49.8138 -0.0794398
2531 49.8137 -0.07944
2532 49.8137 -0.0794401
2533 49.8137 -0.0794402
2534 49.8137 -0.079441
2535 49.8137 -0.0794408
2536 49.8137 -0.0794406
2537 49.8137 -0.0794402
2538 49.8137 -0.07944
2539 49.8137 -0.0794404
2540 49.8137 -0.0794406
2541 49.8137 -0.0794409
2542 49.8137 -0.0794411
2543 49.8137 -0.0794408
2544 49.8137 -0.0794406
2545 49.8137 -0.0794415
2546 49.8137 -0.0794426
2547 49.8137 -0.0794423
2548 49.8137 -0.0794418
2549 49.8137 -0.0794425
2550 49.8137 -0.0794437
2551 49.8137 -0.0794438
2552 49.8136 -0.0794442
2553 49.8137 -0.0794438
2554 49.8137 -0.0794439
2555 49.8137 -0.079444
2556 49.8137 -0.079444
2557 49.8136 -0.0794449
2558 49.8136 -0.079445
2559 49.8136 -0.0794458
2560 49.8136 -0.0794456
2561 49.8136 -0.0794453
2562 49.8136 -0.0794456
2563 49.8136 -0.079446
2564 49.8136 -0.0794462
2565 49.8136 -0.0794466
2566 49.8136 -0.0794473
2567 49.8136 -0.0794475
2568 49.8136 -0.0794477
2569 49.8136 -0.0794482
2570 49.8135 -0.0794494
2571 49.8135 -0.0794498
2572 49.8135 -0.07945
2573 49.8135 -0.0794501
2574 49.8135 -0.0794501
2575 49.8135 -0.0794502
2576 49.8135 -0.07945
2577 49.8135 -0.0794506
2578 49.8135 -0.0794507
2579 49.8135 -0.0794502
2580 49.8135 -0.0794504
2581 49.8135 -0.0794503
2582 49.8135 -0.0794499
2583 49.8135 -0.0794506
2584 49.8135 -0.0794507
2585 49.8135 -0.0794514
2586 49.8135 -0.0794513
2587 49.8135 -0.0794515
2588 49.8135 -0.0794517
2589 49.8135 -0.0794516
2590 49.8135 -0.0794518
2591 49.8135 -0.0794521
2592 49.8134 -0.0794529
2593 49.8134 -0.0794539
2594 49.8134 -0.079454
2595 49.8134 -0.0794536
2596 49.8134 -0.0794539
2597 49.8134 -0.0794542
2598 49.8134 -0.0794548
2599 49.8134 -0.0794549
2600 49.8134 -0.0794549
2601 49.8134 -0.0794545
2602 49.8134 -0.079454
2603 49.8134 -0.079454
2604 49.8134 -0.0794543
2605 49.8134 -0.0794543
2606 49.8134 -0.0794546
2607 49.8134 -0.0794542
2608 49.8134 -0.0794549
2609 49.8134 -0.0794558
2610 49.8134 -0.0794561
2611 49.8134 -0.0794564
2612 49.8134 -0.0794562
2613 49.8134 -0.0794556
2614 49.8134 -0.0794563
2615 49.8134 -0.0794564
2616 49.8134 -0.0794567
2617 49.8134 -0.0794569
2618 49.8134 -0.0794568
2619 49.8134 -0.0794566
2620 49.8133 -0.0794574
2621 49.8133 -0.0794575
2622 49.8133 -0.0794573
2623 49.8133 -0.0794576
2624 49.8133 -0.0794578
2625 49.8133 -0.0794579
2626 49.8133 -0.0794577
2627 49.8133 -0.0794584
2628 49.8133 -0.0794588
2629 49.8133 -0.0794589
2630 49.8133 -0.0794592
2631 49.8133 -0.0794592
2632 49.8133 -0.079459
2633 49.8133 -0.0794587
2634 49.8133 -0.0794596
2635 49.8133 -0.0794599
2636 49.8133 -0.0794601
2637 49.8133 -0.0794611
2638 49.8133 -0.079461
2639 49.8132 -0.0794615
2640 49.8132 -0.0794617
2641 49.8132 -0.0794618
2642 49.8132 -0.0794619
2643 49.8132 -0.0794625
2644 49.8132 -0.0794625
2645 49.8132 -0.0794627
2646 49.8132 -0.0794629
2647 49.8132 -0.079463
2648 49.8132 -0.0794627
2649 49.8132 -0.0794625
2650 49.8132 -0.0794633
2651 49.8132 -0.0794644
2652 49.8132 -0.0794644
2653 49.8132 -0.0794646
2654 49.8132 -0.0794647
2655 49.8132 -0.0794651
2656 49.8132 -0.0794655
2657 49.8131 -0.0794667
2658 49.8131 -0.0794676
2659 49.8131 -0.0794678
2660 49.8131 -0.0794682
2661 49.8131 -0.0794684
2662 49.8131 -0.0794686
2663 49.8131 -0.0794681
2664 49.8131 -0.0794684
2665 49.8131 -0.0794688
2666 49.8131 -0.0794684
2667 49.8131 -0.0794681
2668 49.8131 -0.0794678
2669 49.8131 -0.0794687
2670 49.8131 -0.0794688
2671 49.8131 -0.0794697
2672 49.8131 -0.0794699
2673 49.8131 -0.0794696
2674 49.8131 -0.07947
2675 49.8131 -0.07947
2676 49.8131 -0.0794701
2677 49.813 -0.0794704
2678 49.813 -0.0794702
2679 49.8131 -0.0794695
2680 49.8131 -0.0794696
2681 49.8131 -0.0794695
2682 49.8131 -0.0794693
2683 49.8131 -0.0794691
2684 49.8131 -0.0794696
2685 49.8131 -0.0794693
2686 49.8131 -0.0794695
2687 49.8131 -0.0794696
2688 49.813 -0.0794706
2689 49.813 -0.079471
2690 49.813 -0.0794716
2691 49.813 -0.0794717
2692 49.813 -0.079472
2693 49.813 -0.079472
2694 49.813 -0.079472
2695 49.813 -0.0794726
2696 49.813 -0.0794732
2697 49.813 -0.0794735
2698 49.813 -0.079474
2699 49.813 -0.0794742
2700 49.813 -0.0794739
2701 49.813 -0.0794743
2702 49.813 -0.0794743
2703 49.813 -0.0794744
2704 49.8129 -0.0794747
2705 49.813 -0.0794745
2706 49.813 -0.0794738
2707 49.813 -0.0794739
2708 49.813 -0.0794738
2709 49.813 -0.0794736
2710 49.813 -0.0794734
2711 49.813 -0.0794739
2712 49.813 -0.0794735
2713 49.813 -0.0794738
2714 49.813 -0.0794739
2715 49.8129 -0.0794748
2716 49.8129 -0.0794753
2717 49.8129 -0.0794758
2718 49.8129 -0.079476
2719 49.8129 -0.0794763
2720 49.8129 -0.0794762
2721 49.8129 -0.0794763
2722 49.8129 -0.0794769
2723 49.8129 -0.0794774
2724 49.8129 -0.0794778
2725 49.8129 -0.0794783
2726 49.8129 -0.0794785
2727 49.8129 -0.0794782
2728 49.8129 -0.0794785
2729 49.8129 -0.0794785
2730 49.8129 -0.0794787
2731 49.8128 -0.079479
2732 49.8129 -0.0794787
2733 49.8129 -0.079478
2734 49.8129 -0.0794781
2735 49.8129 -0.079478
2736 49.8129 -0.0794779
2737 49.8129 -0.0794777
2738 49.8129 -0.0794782
2739 49.8129 -0.0794778
2740 49.8129 -0.0794781
2741 49.8129 -0.0794782
2742 49.8128 -0.0794791
2743 49.8128 -0.0794796
2744 49.8128 -0.0794801
2745 49.8128 -0.0794803
2746 49.8128 -0.0794806
2747 49.8128 -0.079481
2748 49.8128 -0.0794814
2749 49.8128 -0.0794818
2750 49.8128 -0.0794821
2751 49.8128 -0.0794824
2752 49.8128 -0.0794821
2753 49.8128 -0.0794819
2754 49.8128 -0.079483
2755 49.8127 -0.079484
2756 49.8127 -0.0794844
2757 49.8127 -0.0794848
2758 49.8127 -0.0794855
2759 49.8127 -0.0794858
2760 49.8127 -0.0794856
2761 49.8127 -0.0794864
2762 49.8127 -0.0794875
2763 49.8127 -0.0794877
2764 49.8127 -0.0794878
2765 49.8126 -0.079488
2766 49.8126 -0.0794885
2767 49.8126 -0.0794881
2768 49.8126 -0.079488
2769 49.8126 -0.079488
2770 49.8126 -0.0794883
2771 49.8126 -0.0794883
2772 49.8126 -0.0794884
2773 49.8126 -0.0794885
2774 49.8126 -0.0794884
2775 49.8126 -0.0794884
2776 49.8126 -0.0794889
2777 49.8126 -0.0794893
2778 49.8126 -0.0794892
2779 49.8126 -0.0794894
2780 49.8126 -0.0794903
2781 49.8126 -0.0794908
2782 49.8126 -0.0794911
2783 49.8126 -0.0794909
2784 49.8126 -0.0794915
2785 49.8126 -0.0794913
2786 49.8126 -0.0794913
2787 49.8126 -0.0794918
2788 49.8126 -0.0794919
2789 49.8126 -0.0794923
2790 49.8126 -0.0794924
2791 49.8125 -0.0794927
2792 49.8125 -0.0794927
2793 49.8125 -0.0794932
2794 49.8125 -0.0794936
2795 49.8125 -0.0794937
2796 49.8125 -0.0794935
2797 49.8125 -0.0794936
2798 49.8125 -0.079494
2799 49.8125 -0.0794943
2800 49.8125 -0.0794942
2801 49.8125 -0.0794952
2802 49.8125 -0.0794953
2803 49.8125 -0.0794954
2804 49.8125 -0.0794952
2805 49.8125 -0.0794956
2806 49.8125 -0.079496
2807 49.8125 -0.0794963
2808 49.8125 -0.0794968
2809 49.8124 -0.0794973
2810 49.8125 -0.0794969
2811 49.8125 -0.0794966
2812 49.8125 -0.0794963
2813 49.8125 -0.0794966
2814 49.8125 -0.0794964
2815 49.8125 -0.0794968
2816 49.8125 -0.0794966
2817 49.8124 -0.0794975
2818 49.8124 -0.0794977
2819 49.8124 -0.0794973
2820 49.8124 -0.0794978
2821 49.8124 -0.0794981
2822 49.8124 -0.079498
2823 49.8124 -0.0794974
2824 49.8124 -0.0794977
2825 49.8124 -0.0794982
2826 49.8124 -0.0794988
2827 49.8124 -0.0794981
2828 49.8124 -0.0794977
2829 49.8124 -0.0794976
2830 49.8124 -0.0794978
2831 49.8124 -0.0794976
2832 49.8124 -0.0794984
2833 49.8124 -0.0794988
2834 49.8124 -0.0794991
2835 49.8124 -0.0795
2836 49.8124 -0.0795003
2837 49.8124 -0.0795001
2838 49.8124 -0.0795005
2839 49.8124 -0.0795003
2840 49.8124 -0.0795
2841 49.8124 -0.0795002
2842 49.8124 -0.0794997
2843 49.8124 -0.0794999
2844 49.8124 -0.079501
2845 49.8124 -0.0795013
2846 49.8123 -0.0795018
2847 49.8123 -0.0795016
2848 49.8123 -0.0795019
2849 49.8123 -0.079502
2850 49.8123 -0.0795022
2851 49.8124 -0.0795013
2852 49.8124 -0.079501
2853 49.8124 -0.0795008
2854 49.8124 -0.0795011
2855 49.8124 -0.0795004
2856 49.8124 -0.0795005
2857 49.8124 -0.0795013
2858 49.8123 -0.0795024
2859 49.8123 -0.0795029
2860 49.8123 -0.0795028
2861 49.8123 -0.0795039
2862 49.8123 -0.0795039
2863 49.8123 -0.0795044
2864 49.8123 -0.0795048
2865 49.8123 -0.0795053
2866 49.8123 -0.0795051
2867 49.8123 -0.0795054
2868 49.8122 -0.0795063
2869 49.8122 -0.0795065
2870 49.8122 -0.0795071
2871 49.8122 -0.0795072
2872 49.8122 -0.0795074
2873 49.8122 -0.0795084
2874 49.8122 -0.0795089
2875 49.8122 -0.0795092
2876 49.8122 -0.0795098
2877 49.8122 -0.0795097
2878 49.8122 -0.0795094
2879 49.8122 -0.0795098
2880 49.8122 -0.0795096
2881 49.8122 -0.0795099
2882 49.8122 -0.0795105
2883 49.8121 -0.079511
2884 49.8121 -0.0795114
2885 49.8121 -0.0795115
2886 49.8121 -0.0795116
2887 49.8121 -0.0795115
2888 49.8121 -0.0795113
2889 49.8121 -0.0795115
2890 49.8121 -0.0795112
2891 49.8121 -0.0795113
2892 49.8121 -0.0795119
2893 49.8121 -0.0795124
2894 49.8121 -0.0795124
2895 49.8121 -0.0795127
2896 49.8121 -0.0795125
2897 49.8121 -0.0795128
2898 49.8121 -0.0795137
2899 49.8121 -0.0795141
2900 49.8121 -0.0795142
2901 49.8121 -0.0795143
2902 49.8121 -0.0795143
2903 49.8121 -0.0795146
2904 49.8121 -0.0795148
2905 49.8121 -0.0795145
2906 49.8121 -0.0795141
2907 49.8121 -0.0795149
2908 49.8121 -0.0795152
2909 49.812 -0.0795161
2910 49.812 -0.079516
2911 49.812 -0.0795158
2912 49.812 -0.0795155
2913 49.812 -0.0795153
2914 49.812 -0.0795153
2915 49.812 -0.0795157
2916 49.812 -0.079516
2917 49.812 -0.0795166
2918 49.812 -0.0795164
2919 49.812 -0.0795161
2920 49.812 -0.0795165
2921 49.812 -0.0795172
2922 49.812 -0.0795177
2923 49.812 -0.0795185
2924 49.812 -0.0795187
2925 49.812 -0.0795185
2926 49.812 -0.0795185
2927 49.812 -0.0795184
2928 49.812 -0.0795186
2929 49.812 -0.0795183
2930 49.812 -0.079518
2931 49.812 -0.0795189
2932 49.812 -0.0795196
2933 49.812 -0.0795195
2934 49.812 -0.0795198
2935 49.8119 -0.0795201
2936 49.8119 -0.0795203
2937 49.8119 -0.0795203
2938 49.8119 -0.0795206
2939 49.8119 -0.0795207
2940 49.8119 -0.079521
2941 49.8119 -0.0795214
2942 49.8119 -0.0795213
2943 49.8119 -0.0795213
2944 49.8119 -0.0795212
2945 49.8119 -0.0795208
2946 49.8119 -0.0795216
2947 49.8119 -0.0795222
2948 49.8119 -0.0795223
2949 49.8119 -0.0795221
2950 49.8119 -0.0795219
2951 49.8119 -0.0795222
2952 49.8119 -0.0795225
2953 49.8119 -0.0795234
2954 49.8119 -0.0795239
2955 49.8118 -0.0795249
2956 49.8118 -0.0795254
2957 49.8118 -0.0795255
2958 49.8118 -0.0795256
2959 49.8118 -0.0795248
2960 49.8119 -0.0795244
2961 49.8119 -0.0795242
2962 49.8118 -0.0795245
2963 49.8119 -0.0795242
2964 49.8118 -0.0795251
2965 49.8118 -0.079525
2966 49.8118 -0.0795248
2967 49.8118 -0.0795252
2968 49.8118 -0.0795248
2969 49.8118 -0.079525
2970 49.8118 -0.0795246
2971 49.8118 -0.0795248
2972 49.8118 -0.0795252
2973 49.8118 -0.0795248
2974 49.8118 -0.0795252
2975 49.8118 -0.0795256
2976 49.8118 -0.0795258
2977 49.8118 -0.0795268
2978 49.8118 -0.0795272
2979 49.8118 -0.079527
2980 49.8118 -0.0795268
2981 49.8118 -0.079527
2982 49.8118 -0.0795268
2983 49.8118 -0.0795272
2984 49.8118 -0.079527
2985 49.8118 -0.0795281
2986 49.8118 -0.0795282
2987 49.8118 -0.0795278
2988 49.8118 -0.0795287
2989 49.8117 -0.0795292
2990 49.8118 -0.0795288
2991 49.8118 -0.0795289
2992 49.8118 -0.0795291
2993 49.8118 -0.0795287
2994 49.8118 -0.0795284
2995 49.8118 -0.0795288
2996 49.8118 -0.079528
2997 49.8118 -0.0795281
2998 49.8118 -0.0795289
2999 49.8117 -0.0795301
3000 49.8117 -0.0795305
3001 49.8117 -0.0795305
3002 49.8117 -0.0795315
3003 49.8117 -0.0795321
3004 49.8117 -0.0795317
3005 49.8117 -0.0795327
3006 49.8117 -0.0795328
3007 49.8117 -0.0795323
3008 49.8117 -0.0795325
3009 49.8117 -0.0795328
3010 49.8117 -0.0795326
3011 49.8117 -0.0795329
3012 49.8117 -0.0795338
3013 49.8116 -0.0795342
3014 49.8116 -0.0795343
3015 49.8116 -0.0795344
3016 49.8116 -0.0795344
3017 49.8116 -0.0795347
3018 49.8116 -0.0795344
3019 49.8116 -0.0795353
3020 49.8116 -0.0795359
3021 49.8116 -0.0795364
3022 49.8116 -0.0795368
3023 49.8116 -0.0795369
3024 49.8116 -0.0795372
3025 49.8116 -0.0795375
3026 49.8116 -0.0795377
3027 49.8116 -0.079538
3028 49.8116 -0.0795383
3029 49.8116 -0.0795383
3030 49.8116 -0.0795383
3031 49.8116 -0.0795382
3032 49.8116 -0.0795378
3033 49.8116 -0.079538
3034 49.8115 -0.0795386
3035 49.8116 -0.0795385
3036 49.8115 -0.0795385
3037 49.8115 -0.0795387
3038 49.8115 -0.0795388
3039 49.8116 -0.0795384
3040 49.8116 -0.0795384
3041 49.8115 -0.0795385
3042 49.8115 -0.0795388
3043 49.8115 -0.0795389
3044 49.8115 -0.0795392
3045 49.8115 -0.0795392
3046 49.8115 -0.07954
3047 49.8115 -0.0795405
3048 49.8115 -0.0795408
3049 49.8115 -0.0795418
3050 49.8115 -0.079542
3051 49.8115 -0.0795419
3052 49.8115 -0.0795419
3053 49.8115 -0.0795417
3054 49.8115 -0.0795427
3055 49.8115 -0.0795429
3056 49.8115 -0.079543
3057 49.8115 -0.0795431
3058 49.8114 -0.0795432
3059 49.8114 -0.0795434
3060 49.8114 -0.0795442
3061 49.8114 -0.0795441
3062 49.8114 -0.0795436
3063 49.8114 -0.0795445
3064 49.8114 -0.0795444
3065 49.8114 -0.0795442
3066 49.8114 -0.0795446
3067 49.8114 -0.0795447
3068 49.8114 -0.0795445
3069 49.8114 -0.0795451
3070 49.8114 -0.079545
3071 49.8114 -0.079545
3072 49.8114 -0.0795455
3073 49.8114 -0.0795457
3074 49.8114 -0.079546
3075 49.8114 -0.0795463
3076 49.8114 -0.079547
3077 49.8114 -0.0795471
3078 49.8114 -0.079547
3079 49.8114 -0.0795474
3080 49.8114 -0.0795476
3081 49.8113 -0.0795482
3082 49.8113 -0.0795494
3083 49.8113 -0.0795493
3084 49.8113 -0.0795493
3085 49.8113 -0.0795494
3086 49.8113 -0.07955
3087 49.8113 -0.0795505
3088 49.8113 -0.0795507
3089 49.8113 -0.0795511
3090 49.8113 -0.0795507
3091 49.8113 -0.0795516
3092 49.8113 -0.0795517
3093 49.8113 -0.0795511
3094 49.8113 -0.0795513
3095 49.8113 -0.0795514
3096 49.8113 -0.0795508
3097 49.8113 -0.0795518
3098 49.8113 -0.0795516
3099 49.8113 -0.0795517
3100 49.8113 -0.0795516
3101 49.8113 -0.0795518
3102 49.8112 -0.0795529
3103 49.8112 -0.0795533
3104 49.8112 -0.0795529
3105 49.8112 -0.0795536
3106 49.8112 -0.0795542
3107 49.8112 -0.079554
3108 49.8112 -0.079554
3109 49.8112 -0.0795539
3110 49.8112 -0.0795543
3111 49.8112 -0.0795545
3112 49.8112 -0.0795543
3113 49.8112 -0.0795544
3114 49.8112 -0.0795545
3115 49.8112 -0.0795549
3116 49.8112 -0.0795547
3117 49.8112 -0.079555
3118 49.8112 -0.0795555
3119 49.8112 -0.0795552
3120 49.8112 -0.0795549
3121 49.8112 -0.0795551
3122 49.8112 -0.0795543
3123 49.8112 -0.0795544
3124 49.8112 -0.0795553
3125 49.8112 -0.0795565
3126 49.8112 -0.079557
3127 49.8112 -0.0795566
3128 49.8112 -0.0795573
3129 49.8111 -0.0795578
3130 49.8111 -0.0795577
3131 49.8111 -0.0795577
3132 49.8111 -0.0795575
3133 49.8111 -0.079558
3134 49.8111 -0.0795581
3135 49.8111 -0.079558
3136 49.8111 -0.0795581
3137 49.8111 -0.0795581
3138 49.8111 -0.0795586
3139 49.8111 -0.0795583
3140 49.8111 -0.0795586
3141 49.8111 -0.0795591
3142 49.8111 -0.0795589
3143 49.8111 -0.0795586
3144 49.8111 -0.0795587
3145 49.8111 -0.0795579
3146 49.8111 -0.079558
3147 49.8111 -0.0795589
3148 49.8111 -0.0795601
3149 49.8111 -0.0795606
3150 49.8111 -0.0795601
3151 49.8111 -0.0795609
3152 49.8111 -0.0795615
3153 49.8111 -0.0795613
3154 49.8111 -0.0795613
3155 49.8111 -0.0795611
3156 49.8111 -0.0795616
3157 49.8111 -0.0795617
3158 49.8111 -0.0795616
3159 49.8111 -0.0795617
3160 49.8111 -0.0795617
3161 49.811 -0.0795622
3162 49.8111 -0.0795619
3163 49.811 -0.0795622
3164 49.811 -0.0795628
3165 49.811 -0.0795625
3166 49.811 -0.0795622
3167 49.811 -0.0795623
3168 49.8111 -0.0795616
3169 49.8111 -0.0795617
3170 49.811 -0.0795626
3171 49.811 -0.0795638
3172 49.811 -0.0795642
3173 49.811 -0.0795638
3174 49.811 -0.0795646
3175 49.811 -0.0795651
3176 49.811 -0.079565
3177 49.811 -0.079565
3178 49.811 -0.0795648
3179 49.811 -0.0795653
3180 49.811 -0.0795654
3181 49.811 -0.0795653
3182 49.811 -0.0795654
3183 49.811 -0.0795654
3184 49.811 -0.0795659
3185 49.811 -0.0795656
3186 49.811 -0.0795659
3187 49.811 -0.0795665
3188 49.811 -0.0795662
3189 49.811 -0.0795659
3190 49.811 -0.079566
3191 49.811 -0.0795652
3192 49.811 -0.0795653
3193 49.811 -0.0795663
3194 49.8109 -0.0795675
3195 49.8109 -0.0795679
3196 49.8109 -0.0795675
3197 49.8109 -0.0795683
3198 49.8109 -0.0795688
3199 49.8109 -0.0795687
3200 49.8109 -0.0795687
3201 49.8109 -0.0795692
3202 49.8109 -0.079569
3203 49.8109 -0.0795688
3204 49.8109 -0.0795691
3205 49.8109 -0.0795687
3206 49.8109 -0.0795697
3207 49.8109 -0.0795702
3208 49.8109 -0.0795706
3209 49.8109 -0.0795717
3210 49.8109 -0.0795717
3211 49.8108 -0.0795721
3212 49.8108 -0.0795722
3213 49.8108 -0.0795733
3214 49.8108 -0.0795737
3215 49.8108 -0.079574
3216 49.8108 -0.0795744
3217 49.8108 -0.079574
3218 49.8108 -0.079575
3219 49.8108 -0.0795751
3220 49.8108 -0.0795746
3221 49.8108 -0.079575
3222 49.8108 -0.0795749
3223 49.8108 -0.0795752
3224 49.8108 -0.0795753
3225 49.8108 -0.0795756
3226 49.8108 -0.0795752
3227 49.8108 -0.0795762
3228 49.8108 -0.0795766
3229 49.8108 -0.0795762
3230 49.8108 -0.0795765
3231 49.8107 -0.0795769
3232 49.8108 -0.0795761
3233 49.8108 -0.0795763
3234 49.8107 -0.0795772
3235 49.8107 -0.0795776
3236 49.8107 -0.0795779
3237 49.8107 -0.0795789
3238 49.8107 -0.0795791
3239 49.8107 -0.0795793
3240 49.8107 -0.0795803
3241 49.8107 -0.0795802
3242 49.8107 -0.07958
3243 49.8107 -0.0795804
3244 49.8107 -0.0795805
3245 49.8107 -0.0795803
3246 49.8107 -0.0795807
3247 49.8107 -0.0795807
3248 49.8107 -0.0795811
3249 49.8107 -0.0795807
3250 49.8107 -0.0795816
3251 49.8106 -0.0795821
3252 49.8107 -0.0795816
3253 49.8106 -0.079582
3254 49.8106 -0.0795823
3255 49.8107 -0.0795816
3256 49.8106 -0.0795818
3257 49.8106 -0.0795827
3258 49.8106 -0.0795831
3259 49.8106 -0.0795834
3260 49.8106 -0.0795844
3261 49.8106 -0.0795846
3262 49.8106 -0.0795849
3263 49.8106 -0.0795859
3264 49.8106 -0.0795858
3265 49.8106 -0.0795855
3266 49.8106 -0.0795859
3267 49.8106 -0.079586
3268 49.8106 -0.0795858
3269 49.8106 -0.0795862
3270 49.8106 -0.0795862
3271 49.8106 -0.0795866
3272 49.8106 -0.0795862
3273 49.8105 -0.0795871
3274 49.8105 -0.0795876
3275 49.8105 -0.0795871
3276 49.8105 -0.0795875
3277 49.8105 -0.0795878
3278 49.8105 -0.079587
3279 49.8105 -0.0795871
3280 49.8105 -0.0795881
3281 49.8105 -0.0795885
3282 49.8105 -0.0795888
3283 49.8105 -0.0795898
3284 49.8105 -0.07959
3285 49.8105 -0.0795903
3286 49.8105 -0.0795913
3287 49.8105 -0.0795912
3288 49.8105 -0.0795909
3289 49.8105 -0.0795913
3290 49.8105 -0.0795914
3291 49.8105 -0.0795912
3292 49.8105 -0.0795916
3293 49.8105 -0.0795916
3294 49.8104 -0.079592
3295 49.8105 -0.0795916
3296 49.8104 -0.0795926
3297 49.8104 -0.0795931
3298 49.8104 -0.0795926
3299 49.8104 -0.0795929
3300 49.8104 -0.0795933
3301 49.8104 -0.0795925
3302 49.8104 -0.0795927
3303 49.8104 -0.0795936
3304 49.8104 -0.079594
3305 49.8104 -0.0795944
3306 49.8104 -0.0795953
3307 49.8104 -0.0795956
3308 49.8104 -0.0795958
3309 49.8103 -0.0795968
3310 49.8103 -0.0795967
3311 49.8104 -0.0795965
3312 49.8103 -0.0795969
3313 49.8103 -0.079597
3314 49.8103 -0.0795968
3315 49.8103 -0.0795972
3316 49.8103 -0.0795972
3317 49.8103 -0.0795976
3318 49.8103 -0.0795972
3319 49.8103 -0.0795981
3320 49.8103 -0.0795986
3321 49.8103 -0.0795982
3322 49.8103 -0.0795982
3323 49.8103 -0.0795986
3324 49.8103 -0.0795982
3325 49.8103 -0.0795982
3326 49.8103 -0.0795986
3327 49.8103 -0.0795984
3328 49.8103 -0.0795987
3329 49.8103 -0.0795989
3330 49.8103 -0.0795989
3331 49.8103 -0.0795984
3332 49.8103 -0.0795995
3333 49.8103 -0.0796
3334 49.8103 -0.079601
3335 49.8103 -0.0796014
3336 49.8103 -0.0796017
3337 49.8102 -0.0796027
3338 49.8102 -0.0796029
3339 49.8102 -0.0796032
3340 49.8102 -0.0796042
3341 49.8102 -0.0796041
3342 49.8102 -0.0796038
3343 49.8102 -0.0796043
3344 49.8102 -0.0796044
3345 49.8102 -0.0796041
3346 49.8102 -0.0796046
3347 49.8102 -0.0796046
3348 49.8102 -0.079605
3349 49.8102 -0.0796045
3350 49.8102 -0.0796055
3351 49.8102 -0.079606
3352 49.8102 -0.0796055
3353 49.8102 -0.0796058
3354 49.8102 -0.0796062
3355 49.8102 -0.0796054
3356 49.8102 -0.0796056
3357 49.8102 -0.0796065
3358 49.8101 -0.079607
3359 49.8101 -0.0796073
3360 49.8101 -0.0796083
3361 49.8101 -0.0796085
3362 49.8101 -0.0796088
3363 49.8101 -0.0796098
3364 49.8101 -0.0796097
3365 49.8101 -0.0796094
3366 49.8101 -0.0796099
3367 49.8101 -0.07961
3368 49.8101 -0.0796098
3369 49.8101 -0.0796102
3370 49.8101 -0.0796102
3371 49.8101 -0.0796106
3372 49.8101 -0.0796101
3373 49.8101 -0.0796112
3374 49.8101 -0.0796116
3375 49.8101 -0.0796112
3376 49.8101 -0.0796115
3377 49.8101 -0.0796119
3378 49.8101 -0.0796111
3379 49.8101 -0.0796113
3380 49.81 -0.0796122
3381 49.81 -0.0796126
3382 49.81 -0.079613
3383 49.81 -0.079614
3384 49.81 -0.0796142
3385 49.81 -0.0796145
3386 49.81 -0.0796156
3387 49.81 -0.0796154
3388 49.81 -0.0796152
3389 49.81 -0.0796156
3390 49.81 -0.0796157
3391 49.81 -0.0796155
3392 49.81 -0.0796159
3393 49.81 -0.0796159
3394 49.81 -0.0796163
3395 49.81 -0.0796159
3396 49.81 -0.0796168
3397 49.8099 -0.0796173
3398 49.81 -0.0796169
3399 49.8099 -0.0796172
3400 49.8099 -0.0796176
3401 49.81 -0.0796168
3402 49.81 -0.0796169
3403 49.8099 -0.0796179
3404 49.8099 -0.0796183
3405 49.8099 -0.0796187
3406 49.8099 -0.0796197
3407 49.8099 -0.0796199
3408 49.8099 -0.0796202
3409 49.8099 -0.0796212
3410 49.8099 -0.0796211
3411 49.8099 -0.0796208
3412 49.8099 -0.0796214
3413 49.8099 -0.0796214
3414 49.8099 -0.0796212
3415 49.8099 -0.0796216
3416 49.8099 -0.0796217
3417 49.8099 -0.079622
3418 49.8099 -0.0796216
3419 49.8098 -0.0796226
3420 49.8098 -0.0796231
3421 49.8098 -0.0796226
3422 49.8098 -0.079623
3423 49.8098 -0.0796234
3424 49.8098 -0.0796226
3425 49.8098 -0.0796227
3426 49.8098 -0.0796237
3427 49.8098 -0.0796241
3428 49.8098 -0.0796245
3429 49.8098 -0.0796255
3430 49.8098 -0.0796257
3431 49.8098 -0.079626
3432 49.8098 -0.079627
3433 49.8098 -0.0796269
3434 49.8098 -0.0796266
3435 49.8098 -0.0796271
3436 49.8098 -0.0796272
3437 49.8098 -0.079627
3438 49.8098 -0.0796274
3439 49.8098 -0.0796274
3440 49.8097 -0.0796278
3441 49.8098 -0.0796274
3442 49.8097 -0.0796284
3443 49.8097 -0.0796289
3444 49.8097 -0.0796283
3445 49.8097 -0.0796287
3446 49.8097 -0.0796291
3447 49.8097 -0.0796283
3448 49.8097 -0.0796284
3449 49.8097 -0.0796294
3450 49.8097 -0.0796299
3451 49.8097 -0.0796302
3452 49.8097 -0.0796312
3453 49.8097 -0.0796317
3454 49.8097 -0.079632
3455 49.8096 -0.0796331
3456 49.8096 -0.0796329
3457 49.8097 -0.0796327
3458 49.8096 -0.0796331
3459 49.8096 -0.0796332
3460 49.8096 -0.079633
3461 49.8096 -0.0796334
3462 49.8096 -0.0796334
3463 49.8096 -0.0796338
3464 49.8096 -0.0796334
3465 49.8096 -0.0796344
3466 49.8096 -0.0796349
3467 49.8096 -0.0796344
3468 49.8096 -0.0796348
3469 49.8096 -0.0796352
3470 49.8096 -0.0796343
3471 49.8096 -0.0796345
3472 49.8096 -0.0796355
3473 49.8096 -0.0796359
3474 49.8096 -0.0796363
3475 49.8096 -0.0796373
3476 49.8096 -0.0796378
3477 49.8095 -0.079638
3478 49.8095 -0.0796391
3479 49.8095 -0.079639
3480 49.8095 -0.0796387
3481 49.8095 -0.0796392
3482 49.8095 -0.0796393
3483 49.8095 -0.0796391
3484 49.8095 -0.0796395
3485 49.8095 -0.0796395
3486 49.8095 -0.0796399
3487 49.8095 -0.0796395
3488 49.8095 -0.0796405
3489 49.8095 -0.079641
3490 49.8095 -0.0796405
3491 49.8095 -0.0796409
3492 49.8095 -0.0796413
3493 49.8095 -0.0796404
3494 49.8095 -0.0796406
3495 49.8095 -0.0796416
3496 49.8095 -0.079642
3497 49.8095 -0.0796424
3498 49.8094 -0.0796434
3499 49.8094 -0.0796439
3500 49.8094 -0.0796442
3501 49.8094 -0.0796453
3502 49.8094 -0.0796451
3503 49.8094 -0.0796449
3504 49.8094 -0.0796453
3505 49.8094 -0.0796454
3506 49.8094 -0.0796452
3507 49.8094 -0.0796456
3508 49.8094 -0.0796457
3509 49.8094 -0.0796461
3510 49.8094 -0.0796456
3511 49.8094 -0.0796466
3512 49.8094 -0.0796471
3513 49.8094 -0.0796466
3514 49.8094 -0.079647
3515 49.8094 -0.0796474
3516 49.8094 -0.0796466
3517 49.8094 -0.0796467
3518 49.8094 -0.0796477
3519 49.8094 -0.0796482
3520 49.8094 -0.0796485
3521 49.8093 -0.0796495
3522 49.8093 -0.07965
3523 49.8093 -0.0796503
3524 49.8093 -0.0796514
3525 49.8093 -0.0796513
3526 49.8093 -0.079651
3527 49.8093 -0.0796515
3528 49.8093 -0.0796516
3529 49.8093 -0.0796514
3530 49.8093 -0.0796518
3531 49.8093 -0.0796518
3532 49.8093 -0.0796522
3533 49.8093 -0.0796518
3534 49.8093 -0.0796528
3535 49.8093 -0.0796533
3536 49.8093 -0.0796528
3537 49.8093 -0.0796532
3538 49.8093 -0.0796536
3539 49.8093 -0.0796527
3540 49.8093 -0.0796529
3541 49.8093 -0.0796539
3542 49.8092 -0.0796543
3543 49.8092 -0.0796547
3544 49.8092 -0.0796557
3545 49.8092 -0.0796562
3546 49.8092 -0.0796565
3547 49.8092 -0.0796576
3548 49.8092 -0.0796575
3549 49.8092 -0.0796572
3550 49.8092 -0.0796577
3551 49.8092 -0.0796578
3552 49.8092 -0.0796576
3553 49.8092 -0.079658
3554 49.8092 -0.079658
3555 49.8092 -0.0796584
3556 49.8092 -0.079658
3557 49.8092 -0.079659
3558 49.8091 -0.0796595
3559 49.8092 -0.079659
3560 49.8091 -0.0796594
3561 49.8091 -0.0796598
3562 49.8092 -0.0796589
3563 49.8092 -0.0796591
3564 49.8091 -0.0796601
3565 49.8091 -0.0796605
3566 49.8091 -0.0796609
3567 49.8091 -0.0796619
3568 49.8091 -0.0796624
3569 49.8091 -0.0796627
3570 49.8091 -0.0796638
3571 49.8091 -0.0796637
3572 49.8091 -0.0796634
3573 49.8091 -0.0796639
3574 49.8091 -0.079664
3575 49.8091 -0.0796638
3576 49.8091 -0.0796642
3577 49.8091 -0.0796642
3578 49.8091 -0.0796646
3579 49.8091 -0.0796642
3580 49.809 -0.0796652
3581 49.809 -0.0796657
3582 49.809 -0.0796652
3583 49.809 -0.0796656
3584 49.809 -0.079666
3585 49.809 -0.0796652
3586 49.809 -0.0796653
3587 49.809 -0.0796663
3588 49.809 -0.0796668
3589 49.809 -0.0796671
3590 49.809 -0.0796682
3591 49.809 -0.0796687
3592 49.809 -0.079669
3593 49.809 -0.0796701
3594 49.809 -0.07967
3595 49.809 -0.0796697
3596 49.8089 -0.0796702
3597 49.8089 -0.0796702
3598 49.809 -0.07967
3599 49.8089 -0.0796705
3600 49.8089 -0.0796705
3601 49.8089 -0.0796709
3602 49.8089 -0.0796705
3603 49.8089 -0.0796715
3604 49.8089 -0.079672
3605 49.8089 -0.0796715
3606 49.8089 -0.0796719
3607 49.8089 -0.0796723
3608 49.8089 -0.0796714
3609 49.8089 -0.0796716
3610 49.8089 -0.0796726
3611 49.8089 -0.079673
3612 49.8089 -0.0796734
3613 49.8089 -0.0796744
3614 49.8089 -0.0796749
3615 49.8089 -0.0796753
3616 49.8088 -0.0796764
3617 49.8088 -0.0796762
3618 49.8088 -0.079676
3619 49.8088 -0.0796764
3620 49.8088 -0.0796765
3621 49.8088 -0.0796763
3622 49.8088 -0.0796767
3623 49.8088 -0.0796768
3624 49.8088 -0.0796772
3625 49.8088 -0.0796767
3626 49.8088 -0.0796777
3627 49.8088 -0.0796783
3628 49.8088 -0.0796778
3629 49.8088 -0.0796781
3630 49.8088 -0.0796785
3631 49.8088 -0.0796777
3632 49.8088 -0.0796779
3633 49.8088 -0.0796789
3634 49.8088 -0.0796793
3635 49.8088 -0.0796797
3636 49.8088 -0.0796808
3637 49.8087 -0.0796813
3638 49.8087 -0.0796816
3639 49.8087 -0.0796827
3640 49.8087 -0.0796826
3641 49.8087 -0.0796823
3642 49.8087 -0.0796828
3643 49.8087 -0.0796829
3644 49.8087 -0.0796826
3645 49.8087 -0.0796831
3646 49.8087 -0.0796831
3647 49.8087 -0.0796835
3648 49.8087 -0.079683
3649 49.8087 -0.0796841
3650 49.8087 -0.0796846
3651 49.8087 -0.0796841
3652 49.8087 -0.0796845
3653 49.8087 -0.0796849
3654 49.8087 -0.079684
3655 49.8087 -0.0796842
3656 49.8087 -0.0796852
3657 49.8087 -0.0796857
3658 49.8087 -0.079686
3659 49.8086 -0.0796871
3660 49.8086 -0.0796876
3661 49.8086 -0.0796879
3662 49.8086 -0.079689
3663 49.8086 -0.0796889
3664 49.8086 -0.0796886
3665 49.8086 -0.0796891
3666 49.8086 -0.0796892
3667 49.8086 -0.079689
3668 49.8086 -0.0796894
3669 49.8086 -0.0796895
3670 49.8086 -0.0796899
3671 49.8086 -0.0796894
3672 49.8086 -0.0796905
3673 49.8086 -0.079691
3674 49.8086 -0.0796905
3675 49.8086 -0.0796908
3676 49.8086 -0.0796913
3677 49.8086 -0.0796904
3678 49.8086 -0.0796906
3679 49.8086 -0.0796916
3680 49.8085 -0.0796921
3681 49.8085 -0.0796924
3682 49.8085 -0.0796935
3683 49.8085 -0.079694
3684 49.8085 -0.0796943
3685 49.8085 -0.0796954
3686 49.8085 -0.0796953
3687 49.8085 -0.079695
3688 49.8085 -0.0796955
3689 49.8085 -0.0796956
3690 49.8085 -0.0796954
3691 49.8085 -0.0796958
3692 49.8085 -0.0796958
3693 49.8085 -0.0796962
3694 49.8085 -0.0796958
3695 49.8085 -0.0796968
3696 49.8085 -0.0796974
3697 49.8085 -0.0796969
3698 49.8085 -0.0796972
3699 49.8084 -0.0796976
3700 49.8085 -0.0796968
3701 49.8085 -0.0796969
3702 49.8084 -0.079698
3703 49.8084 -0.0796985
3704 49.8084 -0.0796988
3705 49.8084 -0.0796999
3706 49.8084 -0.0797004
3707 49.8084 -0.0797007
3708 49.8084 -0.0797019
3709 49.8084 -0.0797017
3710 49.8084 -0.0797014
3711 49.8084 -0.0797019
3712 49.8084 -0.079702
3713 49.8084 -0.0797018
3714 49.8084 -0.0797022
3715 49.8084 -0.0797023
3716 49.8084 -0.0797027
3717 49.8084 -0.0797022
3718 49.8083 -0.0797033
3719 49.8083 -0.0797038
3720 49.8083 -0.0797033
3721 49.8083 -0.0797037
3722 49.8083 -0.0797041
3723 49.8083 -0.0797032
3724 49.8083 -0.0797034
3725 49.8083 -0.0797044
3726 49.8083 -0.0797049
3727 49.8083 -0.0797053
3728 49.8083 -0.0797064
3729 49.8083 -0.0797069
3730 49.8083 -0.0797072
3731 49.8083 -0.0797083
3732 49.8083 -0.0797082
3733 49.8083 -0.0797079
3734 49.8083 -0.0797084
3735 49.8083 -0.0797085
3736 49.8083 -0.0797083
3737 49.8083 -0.0797087
3738 49.8083 -0.0797087
3739 49.8082 -0.0797092
3740 49.8083 -0.0797087
3741 49.8082 -0.0797098
3742 49.8082 -0.0797103
3743 49.8082 -0.0797098
3744 49.8082 -0.0797102
3745 49.8082 -0.0797106
3746 49.8082 -0.0797097
3747 49.8082 -0.0797099
3748 49.8082 -0.0797109
3749 49.8082 -0.0797114
3750 49.8082 -0.0797118
3751 49.8082 -0.0797129
3752 49.8082 -0.0797134
3753 49.8082 -0.0797137
3754 49.8081 -0.0797148
3755 49.8081 -0.0797147
3756 49.8082 -0.0797144
3757 49.8081 -0.0797149
3758 49.8081 -0.079715
3759 49.8081 -0.0797148
3760 49.8081 -0.0797152
3761 49.8081 -0.0797153
3762 49.8081 -0.0797157
3763 49.8081 -0.0797152
3764 49.8081 -0.0797163
3765 49.8081 -0.0797168
3766 49.8081 -0.0797163
3767 49.8081 -0.0797167
3768 49.8081 -0.0797171
3769 49.8081 -0.0797162
3770 49.8081 -0.0797164
3771 49.8081 -0.0797174
3772 49.8081 -0.0797179
3773 49.8081 -0.0797183
3774 49.8081 -0.0797194
3775 49.8081 -0.0797199
3776 49.808 -0.0797202
3777 49.808 -0.0797214
3778 49.808 -0.0797213
3779 49.808 -0.079721
3780 49.808 -0.0797215
3781 49.808 -0.0797216
3782 49.808 -0.0797213
3783 49.808 -0.0797218
3784 49.808 -0.0797218
3785 49.808 -0.0797222
3786 49.808 -0.0797218
3787 49.808 -0.0797228
3788 49.808 -0.0797234
3789 49.808 -0.0797228
3790 49.808 -0.0797232
3791 49.808 -0.0797237
3792 49.808 -0.0797226
3793 49.808 -0.0797229
3794 49.808 -0.0797239
3795 49.808 -0.0797244
3796 49.808 -0.0797248
3797 49.8079 -0.0797259
3798 49.8079 -0.0797264
3799 49.8079 -0.0797267
3800 49.8079 -0.0797279
3801 49.8079 -0.0797277
3802 49.8079 -0.0797274
3803 49.8079 -0.0797279
3804 49.8079 -0.079728
3805 49.8079 -0.0797278
3806 49.8079 -0.0797282
3807 49.8079 -0.0797283
3808 49.8079 -0.0797287
3809 49.8079 -0.0797282
3810 49.8079 -0.0797293
3811 49.8079 -0.0797299
3812 49.8079 -0.0797293
3813 49.8079 -0.0797297
3814 49.8079 -0.0797301
3815 49.8079 -0.0797293
3816 49.8079 -0.0797294
3817 49.8079 -0.0797305
3818 49.8079 -0.079731
3819 49.8079 -0.0797313
3820 49.8078 -0.0797325
3821 49.8078 -0.079733
3822 49.8078 -0.0797333
3823 49.8078 -0.0797345
3824 49.8078 -0.0797344
3825 49.8078 -0.0797341
3826 49.8078 -0.0797346
3827 49.8078 -0.0797347
3828 49.8078 -0.0797344
3829 49.8078 -0.0797349
3830 49.8078 -0.0797349
3831 49.8078 -0.0797353
3832 49.8078 -0.0797349
3833 49.8078 -0.079736
3834 49.8078 -0.0797365
3835 49.8078 -0.0797359
3836 49.8078 -0.0797363
3837 49.8078 -0.0797367
3838 49.8078 -0.0797358
3839 49.8078 -0.079736
3840 49.8078 -0.0797371
3841 49.8077 -0.0797376
3842 49.8077 -0.0797379
3843 49.8078 -0.079737
3844 49.8077 -0.0797374
3845 49.8077 -0.0797376
3846 49.8077 -0.0797386
3847 49.8077 -0.0797389
3848 49.8077 -0.0797392
3849 49.8077 -0.0797403
3850 49.8077 -0.0797401
3851 49.8077 -0.0797398
3852 49.8077 -0.0797403
3853 49.8077 -0.07974
3854 49.8077 -0.0797398
3855 49.8077 -0.0797402
3856 49.8077 -0.0797401
3857 49.8077 -0.079739
3858 49.8077 -0.0797392
3859 49.8077 -0.0797389
3860 49.8077 -0.0797385
3861 49.8077 -0.0797389
