1 -0.000341486 -2.55634e-07
2 -0.000366367 -3.87998e-07
3 0.000329669 1.69654e-05
4 0.00193016 0.000121949
5 0.00347174 0.000338842
6 0.00558206 0.000785594
7 0.00724058 0.00140602
8 0.00860261 0.00213976
9 0.00761059 0.00183303
10 0.00555039 -0.000182187
11 0.00446481 -0.00260863
12 0.00408906 -0.00478953
13 0.00411718 -0.00759387
14 0.00524217 -0.0100179
15 0.00629114 -0.0109068
16 0.00762865 -0.0127069
17 0.0106263 -0.014433
18 0.0139946 -0.0156181
19 0.0174482 -0.0161946
20 0.0209198 -0.016382
21 0.0243426 -0.0162714
22 0.0256818 -0.0159306
23 0.0610865 -0.0180615
24 0.126488 -0.0146972
25 0.196126 -0.0104725
26 0.265442 -0.00647955
27 0.334813 -0.00275573
28 0.404139 0.000761169
29 0.473585 0.00406886
30 0.542911 0.00724335
31 0.61201 0.0102683
32 0.68111 0.0131679
33 0.707008 0.0164981
34 0.759626 0.016693
35 0.827946 0.0196125
36 0.897171 0.0223774
37 0.965907 0.0248792
38 1.03504 0.0271541
39 1.10408 0.0292499
40 1.17306 0.0311512
41 1.2421 0.0328313
42 1.31104 0.034317
43 1.38004 0.0356397
44 1.44887 0.0367993
45 1.51773 0.0378519
46 1.58658 0.0388123
47 1.65547 0.0396865
48 1.72429 0.0404779
49 1.79315 0.0411888
50 1.86199 0.0418327
51 1.88164 0.0425525
52 1.93982 0.0425708
53 2.00836 0.0431958
54 2.07717 0.0437298
55 2.14602 0.0441802
56 2.21488 0.0445212
57 2.28373 0.0448063
58 2.35258 0.0450049
59 2.42145 0.0451523
60 2.49031 0.0452459
61 2.55915 0.0452981
62 2.628 0.0452993
63 2.69682 0.0452618
64 2.76568 0.045204
65 2.83447 0.0451258
66 2.9033 0.045031
67 2.97215 0.0449275
68 3.041 0.0447921
69 3.10985 0.0446385
70 3.12854 0.0446903
71 3.18885 0.0444305
72 3.25748 0.0442336
73 3.32632 0.0440135
74 3.39517 0.0437894
75 3.46401 0.043559
76 3.53285 0.0433219
77 3.60169 0.0430895
78 3.67054 0.0428412
79 3.73938 0.0426011
80 3.80822 0.0423618
81 3.87706 0.0421152
82 3.9459 0.0418553
83 4.01474 0.041602
84 4.08358 0.041354
85 4.15242 0.0410959
86 4.22126 0.0408263
87 4.2901 0.0405557
88 4.30788 0.0405071
89 4.31604 0.0404319
90 4.32198 0.0402591
91 4.32552 0.0400384
92 4.3793 0.0352435
93 4.4465 0.0256711
94 4.51464 0.0147624
95 4.58264 0.0032052
96 4.65036 -0.00877549
97 4.71798 -0.0211161
98 4.78561 -0.033812
99 4.85325 -0.0467773
100 4.9208 -0.0599695
101 4.98825 -0.0733404
102 5.0558 -0.0869037
103 5.12337 -0.100544
104 5.19084 -0.114317
105 5.25829 -0.128187
106 5.32563 -0.142135
107 5.39292 -0.156172
108 5.46028 -0.170301
109 5.47649 -0.17487
110 5.53392 -0.186178
111 5.6006 -0.200642
112 5.66772 -0.213958
113 5.73559 -0.225994
114 5.80397 -0.236701
115 5.87198 -0.246067
116 5.94009 -0.254364
117 6.00858 -0.261763
118 6.07695 -0.268339
119 6.14575 -0.274271
120 6.21461 -0.279604
121 6.28328 -0.284411
122 6.35185 -0.288766
123 6.42079 -0.292742
124 6.48958 -0.296361
125 6.55831 -0.299695
126 6.62691 -0.302785
127 6.69557 -0.305665
128 6.76436 -0.308371
129 6.7796 -0.308025
130 6.84044 -0.311368
131 6.90908 -0.314468
132 6.97815 -0.317952
133 7.04687 -0.321728
134 7.11542 -0.325816
135 7.184 -0.330158
136 7.25259 -0.334767
137 7.32102 -0.33959
138 7.38964 -0.34462
139 7.45835 -0.349817
140 7.5269 -0.355144
141 7.59549 -0.360598
142 7.66399 -0.366141
143 7.73242 -0.37172
144 7.80091 -0.377367
145 7.86949 -0.383072
146 7.93801 -0.388834
147 8.00646 -0.394627
148 8.07508 -0.4005
149 8.09196 -0.402011
150 8.1022 -0.402872
151 8.11309 -0.403459
152 8.12369 -0.403501
153 8.13003 -0.403009
154 8.13297 -0.402554
155 8.1353 -0.402182
156 8.13777 -0.401662
157 8.18721 -0.388678
158 8.24975 -0.363893
159 8.31313 -0.337301
160 8.3766 -0.310637
161 8.44011 -0.284049
162 8.50365 -0.257521
163 8.56728 -0.231071
164 8.63092 -0.204667
165 8.69456 -0.178322
166 8.75823 -0.152019
167 8.82192 -0.125773
168 8.88561 -0.09956
169 8.94931 -0.0733838
170 9.01303 -0.0472487
171 9.07677 -0.0211433
172 9.14066 0.00496998
173 9.20438 0.0309993
174 9.26814 0.0569877
175 9.33196 0.0829663
176 9.39577 0.108891
177 9.45956 0.134771
178 9.4738 0.142149
179 9.47868 0.144115
180 9.48239 0.145368
181 9.48598 0.146389
182 9.48968 0.147234
183 9.49336 0.147894
184 9.54872 0.156347
185 9.61669 0.162092
186 9.68535 0.167198
187 9.75401 0.172134
188 9.8227 0.1771
189 9.89136 0.182069
190 9.96002 0.187063
191 10.0287 0.192073
192 10.0973 0.197086
193 10.166 0.202099
194 10.2346 0.207127
195 10.3033 0.212152
196 10.3719 0.217186
197 10.4406 0.222214
198 10.5093 0.227249
199 10.5779 0.232302
200 10.6466 0.237357
201 10.7152 0.242413
202 10.7839 0.24748
203 10.8525 0.252553
204 10.9212 0.257637
205 10.9898 0.262713
206 11.0585 0.267784
207 11.0758 0.268396
208 11.1353 0.273683
209 11.2036 0.279375
210 11.2722 0.285044
211 11.3408 0.290688
212 11.4094 0.296296
213 11.478 0.301908
214 11.5466 0.3075
215 11.6152 0.313073
216 11.6838 0.318639
217 11.7524 0.324196
218 11.8211 0.329728
219 11.8897 0.335254
220 11.9583 0.34075
221 12.0269 0.346246
222 12.0955 0.351734
223 12.1642 0.357224
224 12.2328 0.36269
225 12.3014 0.368161
226 12.3187 0.369372
227 12.3791 0.374636
228 12.4475 0.38076
229 12.5161 0.386822
230 12.5845 0.392812
231 12.6531 0.398754
232 12.7217 0.404626
233 12.7903 0.410438
234 12.8589 0.416199
235 12.9275 0.42191
236 12.9962 0.427573
237 13.0648 0.433207
238 13.1334 0.438795
239 13.2019 0.444352
240 13.2705 0.449888
241 13.2868 0.451108
242 13.3461 0.456122
243 13.4143 0.461958
244 13.4829 0.467796
245 13.5515 0.473591
246 13.6201 0.479341
247 13.6887 0.485046
248 13.7573 0.490733
249 13.826 0.496382
250 13.8946 0.501987
251 13.9632 0.507564
252 14.0318 0.513105
253 14.0485 0.514425
254 14.1091 0.519659
255 14.1774 0.525857
256 14.246 0.532013
257 14.3145 0.538103
258 14.3831 0.544111
259 14.4517 0.550037
260 14.5203 0.555915
261 14.5889 0.561716
262 14.6067 0.56319
263 14.6159 0.56394
264 14.6249 0.564364
265 14.6335 0.564328
266 14.6424 0.563678
267 14.648 0.562615
268 14.6501 0.561933
269 14.652 0.561475
270 14.6546 0.560601
271 14.7035 0.540204
272 14.7611 0.504482
273 14.8189 0.466827
274 14.8765 0.429109
275 14.9342 0.391399
276 14.9918 0.353745
277 15.0495 0.316123
278 15.0609 0.30262
279 15.1124 0.274511
280 15.1693 0.236758
281 15.2261 0.197601
282 15.2816 0.158047
283 15.337 0.117548
284 15.392 0.0762223
285 15.4465 0.0343259
286 15.5003 -0.00790271
287 15.5541 -0.0508213
288 15.6076 -0.0941948
289 15.6606 -0.137805
290 15.7134 -0.181817
291 15.7661 -0.226155
292 15.7769 -0.239442
293 15.7803 -0.242404
294 15.783 -0.244373
295 15.7855 -0.245996
296 15.788 -0.247544
297 15.8359 -0.275173
298 15.8955 -0.307546
299 15.9562 -0.33961
300 16.0173 -0.371311
301 16.0785 -0.40268
302 16.1401 -0.433951
303 16.2018 -0.46498
304 16.2634 -0.495762
305 16.3251 -0.526431
306 16.3867 -0.556977
307 16.4484 -0.587382
308 16.5102 -0.617701
309 16.5719 -0.647894
310 16.6338 -0.678053
311 16.6958 -0.708109
312 16.7579 -0.738099
313 16.8199 -0.767965
314 16.882 -0.797779
315 16.944 -0.827541
316 17.0061 -0.857222
317 17.0682 -0.886864
318 17.1304 -0.916476
319 17.1926 -0.946036
320 17.2176 -0.957551
321 17.2282 -0.962306
322 17.2346 -0.964756
323 17.2389 -0.966093
324 17.2432 -0.967137
325 17.2473 -0.967744
326 17.2506 -0.967992
327 17.3031 -0.971721
328 17.3706 -0.966849
329 17.4394 -0.960589
330 17.5081 -0.954284
331 17.5768 -0.948197
332 17.6453 -0.942375
333 17.714 -0.936811
334 17.7826 -0.931445
335 17.8512 -0.92626
336 17.8692 -0.921306
337 17.8785 -0.920535
338 17.8866 -0.919452
339 17.8947 -0.917772
340 17.9026 -0.915168
341 17.9095 -0.911646
342 17.9131 -0.908536
343 17.9159 -0.905757
344 17.9181 -0.90257
345 17.9196 -0.899333
346 17.9205 -0.896153
347 17.921 -0.893066
348 17.9212 -0.890123
349 17.9291 -0.845715
350 17.9237 -0.778889
351 17.917 -0.709875
352 17.911 -0.640874
353 17.9056 -0.571872
354 17.9009 -0.502933
355 17.8968 -0.433836
356 17.8933 -0.36481
357 17.8902 -0.295889
358 17.8875 -0.227039
359 17.8851 -0.158023
360 17.883 -0.0892459
361 17.8812 -0.0204211
362 17.8796 0.0485701
363 17.8782 0.117419
364 17.8769 0.186268
365 17.8758 0.255099
366 17.8748 0.323898
367 17.874 0.392764
368 17.8732 0.461667
369 17.8724 0.53055
370 17.8718 0.599453
371 17.8712 0.668307
372 17.8706 0.737242
373 17.8701 0.806121
374 17.8697 0.87498
375 17.8692 0.943838
376 17.8688 1.0127
377 17.8684 1.08155
378 17.868 1.15039
379 17.8676 1.21924
380 17.8672 1.2881
381 17.8668 1.35694
382 17.8664 1.42581
383 17.866 1.49464
384 17.8657 1.56348
385 17.8653 1.63232
386 17.8649 1.70116
387 17.8645 1.77001
388 17.8642 1.83886
389 17.8638 1.90772
390 17.8635 1.97658
391 17.8631 2.04544
392 17.8628 2.1143
393 17.8624 2.18314
394 17.8618 2.20132
395 17.8618 2.21035
396 17.8622 2.21924
397 17.8631 2.22865
398 17.8651 2.23817
399 17.8683 2.24726
400 17.8713 2.25193
401 17.8736 2.25473
402 17.8761 2.25699
403 17.879 2.25869
404 17.8825 2.25965
405 17.8853 2.25949
406 17.8872 2.25895
407 17.8881 2.25852
408 17.8885 2.25846
409 17.89 2.25736
410 17.8918 2.2547
411 17.9158 2.22337
412 17.944 2.16272
413 17.9729 2.09961
414 18.0024 2.03691
415 18.0325 1.97473
416 18.0634 1.91273
417 18.0948 1.85113
418 18.1269 1.7897
419 18.1593 1.72861
420 18.1922 1.66777
421 18.2255 1.60699
422 18.2591 1.54648
423 18.2929 1.48631
424 18.3269 1.42631
425 18.3611 1.3664
426 18.3956 1.30637
427 18.4301 1.2467
428 18.4646 1.1872
429 18.4994 1.12767
430 18.5342 1.06826
431 18.5691 1.00885
432 18.6041 0.949568
433 18.6392 0.890279
434 18.6743 0.831022
435 18.7095 0.771815
436 18.7447 0.712667
437 18.78 0.653521
438 18.8152 0.594513
439 18.8506 0.535444
440 18.8859 0.476404
441 18.9213 0.417368
442 18.9568 0.358362
443 18.9922 0.299344
444 19.0277 0.240384
445 19.0631 0.181422
446 19.0986 0.122482
447 19.1341 0.0635048
448 19.1697 0.0045463
449 19.2052 -0.0544191
450 19.2408 -0.113372
451 19.2763 -0.172294
452 19.3119 -0.231229
453 19.3475 -0.290161
454 19.3831 -0.349091
455 19.4187 -0.408008
456 19.4543 -0.466908
457 19.4899 -0.525823
458 19.5255 -0.584719
459 19.5611 -0.643617
460 19.5967 -0.702531
461 19.6324 -0.761444
462 19.668 -0.820351
463 19.6757 -0.833409
464 19.68 -0.840311
465 19.6848 -0.846701
466 19.688 -0.849654
467 19.6911 -0.85183
468 19.6942 -0.853176
469 19.6963 -0.853569
470 19.6983 -0.853703
471 19.6996 -0.853456
472 19.7001 -0.853466
473 19.7008 -0.853503
474 19.7024 -0.852451
475 19.73 -0.822613
476 19.7589 -0.762857
477 19.7877 -0.699751
478 19.8172 -0.637349
479 19.848 -0.57543
480 19.8799 -0.513931
481 19.9127 -0.453051
482 19.9461 -0.393135
483 19.9805 -0.333372
484 20.0153 -0.274232
485 20.051 -0.215174
486 20.0871 -0.156298
487 20.1236 -0.0976654
488 20.1604 -0.0394843
489 20.1975 0.01843
490 20.2349 0.0760323
491 20.2727 0.133642
492 20.3107 0.191073
493 20.3491 0.24854
494 20.3876 0.305785
495 20.4262 0.362903
496 20.4649 0.419885
497 20.5038 0.476796
498 20.5429 0.533629
499 20.5819 0.590284
500 20.6211 0.646951
501 20.6604 0.703538
502 20.6694 0.71913
503 20.6739 0.725282
504 20.6793 0.731292
505 20.6845 0.735439
506 20.6902 0.738479
507 20.6969 0.740348
508 20.7041 0.740525
509 20.7062 0.739219
510 20.706 0.739621
511 20.7054 0.740754
512 20.7054 0.741818
513 20.7068 0.741155
514 20.7333 0.70882
515 20.7596 0.647573
516 20.7856 0.583235
517 20.8122 0.519381
518 20.8394 0.456345
519 20.8677 0.393884
520 20.8971 0.331451
521 20.9274 0.269131
522 20.9584 0.207201
523 20.9897 0.146078
524 21.0217 0.0851163
525 21.054 0.024439
526 21.0869 -0.0361908
527 21.1202 -0.0968035
528 21.1538 -0.157203
529 21.1875 -0.217237
530 21.2215 -0.277238
531 21.2557 -0.337112
532 21.268 -0.363079
533 21.2722 -0.370791
534 21.274 -0.373458
535 21.276 -0.375699
536 21.2783 -0.378097
537 21.2812 -0.380753
538 21.284 -0.382889
539 21.2874 -0.385305
540 21.2905 -0.387082
541 21.2934 -0.388487
542 21.2968 -0.389874
543 21.3002 -0.390873
544 21.3037 -0.391714
545 21.3538 -0.404223
546 21.4213 -0.410788
547 21.4899 -0.41616
548 21.5586 -0.421469
549 21.6274 -0.42685
550 21.6961 -0.432287
551 21.7649 -0.4378
552 21.8336 -0.443402
553 21.9023 -0.449056
554 21.971 -0.454782
555 21.9909 -0.452838
556 22.002 -0.453859
557 22.013 -0.454367
558 22.0236 -0.454133
559 22.0343 -0.453036
560 22.0444 -0.450839
561 22.0537 -0.447486
562 22.0624 -0.442769
563 22.0655 -0.439173
564 22.0673 -0.437147
565 22.069 -0.434599
566 22.0698 -0.431666
567 22.07 -0.428745
568 22.0697 -0.425868
569 22.0691 -0.423343
570 22.0643 -0.383187
571 22.0395 -0.321621
572 22.0126 -0.257505
573 21.9864 -0.193332
574 21.9614 -0.128795
575 21.9372 -0.0638951
576 21.9207 -0.0346197
577 21.9162 -0.0234273
578 21.9143 -0.0167591
579 21.9135 -0.0125726
580 21.9134 -0.00986194
581 21.9138 -0.00614938
582 21.9139 -0.00520488
583 21.9147 -0.00205297
584 21.9159 0.00164744
585 21.917 0.00441221
586 21.9184 0.0071362
587 21.9201 0.0100338
588 21.9219 0.0126274
589 21.924 0.0152362
590 21.9263 0.0176774
591 21.9287 0.0199903
592 21.9309 0.0218203
593 21.9333 0.0237162
594 21.936 0.0254512
595 21.9388 0.0269168
596 21.9419 0.0282835
597 21.9453 0.0293633
598 21.9489 0.030223
599 21.9525 0.03066
600 21.9559 0.030726
601 21.9592 0.0304813
602 21.9622 0.0299784
603 21.9648 0.0293543
604 22.012 0.0243241
605 22.0764 0.00451284
606 22.1422 -0.0171093
607 22.208 -0.0385498
608 22.2739 -0.0596943
609 22.3397 -0.080612
610 22.4057 -0.101244
611 22.4716 -0.121647
612 22.5376 -0.141835
613 22.6036 -0.161925
614 22.6217 -0.172264
615 22.6297 -0.174604
616 22.638 -0.176317
617 22.6464 -0.177189
618 22.6546 -0.177039
619 22.6621 -0.175816
620 22.6683 -0.173691
621 22.6704 -0.172173
622 22.6728 -0.170475
623 22.6749 -0.167937
624 22.6767 -0.164955
625 22.6778 -0.161892
626 22.6787 -0.158406
627 22.6792 -0.15496
628 22.6909 -0.109828
629 22.6918 -0.0427201
630 22.6916 0.0264359
631 22.6918 0.0955185
632 22.6926 0.16455
633 22.694 0.233596
634 22.696 0.302618
635 22.6985 0.37164
636 22.7014 0.440634
637 22.7046 0.50952
638 22.7082 0.578436
639 22.7121 0.647182
640 22.7162 0.715837
641 22.7205 0.784507
642 22.7249 0.853069
643 22.7295 0.921675
644 22.7343 0.990385
645 22.7392 1.05911
646 22.7441 1.12789
647 22.7491 1.19651
648 22.7542 1.2652
649 22.7594 1.33398
650 22.7645 1.40269
651 22.7698 1.47136
652 22.7751 1.54003
653 22.7804 1.60869
654 22.7856 1.67734
655 22.791 1.74601
656 22.7963 1.81466
657 22.8016 1.88331
658 22.8069 1.95193
659 22.8123 2.02057
660 22.8176 2.08919
661 22.823 2.15782
662 22.8284 2.22645
663 22.8338 2.29509
664 22.8391 2.36373
665 22.8445 2.43236
666 22.8499 2.50101
667 22.8553 2.56964
668 22.8607 2.63825
669 22.8661 2.70689
670 22.8715 2.77553
671 22.8769 2.84417
672 22.8823 2.9128
673 22.8877 2.98142
674 22.8931 3.05004
675 22.8985 3.11867
676 22.904 3.18731
677 22.9094 3.25596
678 22.9148 3.32459
679 22.9203 3.39322
680 22.9257 3.46186
681 22.9312 3.53048
682 22.9366 3.59909
683 22.942 3.66772
684 22.9475 3.73634
685 22.9529 3.80494
686 22.9584 3.87356
687 22.9638 3.94218
688 22.9693 4.01081
689 22.9705 4.02763
690 22.9713 4.0368
691 22.9728 4.04641
692 22.9754 4.05675
693 22.9793 4.0667
694 22.9844 4.07535
695 22.9877 4.07819
696 22.9902 4.08054
697 22.9933 4.0824
698 22.9967 4.08339
699 22.9997 4.08344
700 23.0018 4.08313
701 23.0025 4.08292
702 23.0418 4.07404
703 23.0977 4.04036
704 23.1557 4.00261
705 23.2141 3.96528
706 23.2728 3.92896
707 23.332 3.89366
708 23.392 3.85915
709 23.4523 3.82535
710 23.513 3.79234
711 23.5738 3.76004
712 23.6349 3.72838
713 23.6963 3.69728
714 23.7576 3.66668
715 23.8197 3.63628
716 23.8817 3.60621
717 23.9438 3.57645
718 24.006 3.54684
719 24.0685 3.51735
720 24.1309 3.4881
721 24.1934 3.45902
722 24.2559 3.43014
723 24.3185 3.40133
724 24.3812 3.37261
725 24.4438 3.34399
726 24.5065 3.31546
727 24.5692 3.28699
728 24.6319 3.25861
729 24.6946 3.23026
730 24.7574 3.20201
731 24.8203 3.17383
732 24.8832 3.14573
733 24.9461 3.11768
734 25.0089 3.08969
735 25.0718 3.06176
736 25.1347 3.03386
737 25.1976 3.00597
738 25.2606 2.97811
739 25.3235 2.95029
740 25.3865 2.92248
741 25.4495 2.89469
742 25.5125 2.86691
743 25.5754 2.83914
744 25.6384 2.81139
745 25.7014 2.78366
746 25.7644 2.75592
747 25.8274 2.7282
748 25.8905 2.70051
749 25.9535 2.67283
750 26.0165 2.64517
751 26.0796 2.61751
752 26.1426 2.58986
753 26.2056 2.5622
754 26.2687 2.53457
755 26.3317 2.50694
756 26.3948 2.47931
757 26.4578 2.45168
758 26.5209 2.42407
759 26.5839 2.39644
760 26.647 2.36882
761 26.71 2.34122
762 26.7731 2.31361
763 26.8362 2.28601
764 26.8992 2.2584
765 26.9623 2.23081
766 27.0253 2.20321
767 27.0884 2.17563
768 27.1515 2.14804
769 27.2145 2.12046
770 27.2776 2.09286
771 27.3407 2.06528
772 27.4038 2.0377
773 27.4668 2.01012
774 27.5299 1.98253
775 27.593 1.95496
776 27.656 1.92739
777 27.7191 1.89981
778 27.7822 1.87225
779 27.8453 1.84468
780 27.9083 1.81712
781 27.9714 1.78956
782 28.0345 1.762
783 28.0976 1.73444
784 28.1607 1.70689
785 28.2237 1.67933
786 28.2868 1.65179
787 28.3499 1.62424
788 28.413 1.5967
789 28.4761 1.56915
790 28.5392 1.54162
791 28.6023 1.51408
792 28.6654 1.48654
793 28.7284 1.45899
794 28.7915 1.43146
795 28.8546 1.40393
796 28.9177 1.3764
797 28.9808 1.34887
798 29.0439 1.32134
799 29.107 1.29381
800 29.1701 1.26629
801 29.2332 1.23877
802 29.2963 1.21126
803 29.3594 1.18372
804 29.4225 1.1562
805 29.4856 1.12868
806 29.5487 1.10116
807 29.6118 1.07365
808 29.6749 1.04614
809 29.738 1.01863
810 29.8011 0.99112
811 29.8642 0.963601
812 29.9273 0.936087
813 29.9658 0.91932
814 30.0535 0.881059
815 30.1166 0.85357
816 30.1797 0.826074
817 30.2428 0.798576
818 30.3059 0.771079
819 30.369 0.74358
820 30.4321 0.71608
821 30.4952 0.688584
822 30.5583 0.661082
823 30.6214 0.633596
824 30.6845 0.606102
825 30.7477 0.578608
826 30.8108 0.551114
827 30.8739 0.523627
828 30.937 0.496136
829 31.0001 0.46865
830 31.0632 0.441171
831 31.1263 0.413686
832 31.1894 0.386197
833 31.2525 0.358711
834 31.3157 0.331226
835 31.3788 0.303736
836 31.4419 0.276245
837 31.505 0.248754
838 31.5681 0.221277
839 31.6312 0.193793
840 31.6943 0.166315
841 31.7575 0.138843
842 31.8206 0.111362
843 31.8837 0.0838869
844 31.9468 0.056402
845 32.0099 0.0289227
846 32.073 0.00144593
847 32.1361 -0.0260394
848 32.1993 -0.0535246
849 32.2624 -0.080998
850 32.3255 -0.108475
851 32.3886 -0.135952
852 32.4517 -0.163419
853 32.5148 -0.190902
854 32.578 -0.218375
855 32.6411 -0.245855
856 32.7042 -0.273344
857 32.7673 -0.300819
858 32.8304 -0.328285
859 32.8935 -0.355761
860 32.9567 -0.383238
861 33.0198 -0.410717
862 33.0829 -0.438179
863 33.146 -0.465653
864 33.1601 -0.471794
865 33.1658 -0.474402
866 33.1694 -0.476224
867 33.1721 -0.47778
868 33.1748 -0.479474
869 33.1772 -0.481122
870 33.2218 -0.513887
871 33.2725 -0.559177
872 33.3231 -0.605778
873 33.3734 -0.652819
874 33.4236 -0.700124
875 33.4736 -0.747569
876 33.5234 -0.795128
877 33.5731 -0.842723
878 33.6227 -0.890455
879 33.6721 -0.938275
880 33.7216 -0.986226
881 33.771 -1.03425
882 33.8202 -1.08229
883 33.8695 -1.1304
884 33.9187 -1.17856
885 33.9678 -1.22674
886 34.0169 -1.27497
887 34.066 -1.3232
888 34.1151 -1.37151
889 34.1641 -1.41986
890 34.2131 -1.46822
891 34.2621 -1.51656
892 34.3111 -1.56495
893 34.36 -1.61336
894 34.409 -1.66182
895 34.4579 -1.71025
896 34.5068 -1.7587
897 34.5557 -1.80716
898 34.6046 -1.85564
899 34.6535 -1.90415
900 34.7023 -1.95265
901 34.7512 -2.00117
902 34.8 -2.04969
903 34.8488 -2.09822
904 34.8976 -2.14676
905 34.9464 -2.1953
906 34.9952 -2.24385
907 35.044 -2.2924
908 35.0928 -2.34096
909 35.1416 -2.38952
910 35.1904 -2.43808
911 35.2392 -2.48665
912 35.288 -2.53521
913 35.3368 -2.58379
914 35.3855 -2.63237
915 35.4343 -2.68095
916 35.4831 -2.72954
917 35.5319 -2.77812
918 35.5806 -2.82671
919 35.6294 -2.8753
920 35.6781 -2.9239
921 35.7269 -2.97249
922 35.7757 -3.02108
923 35.8244 -3.06968
924 35.8732 -3.11828
925 35.9219 -3.16687
926 35.9707 -3.21547
927 36.0194 -3.26407
928 36.0682 -3.31268
929 36.1169 -3.36129
930 36.1657 -3.4099
931 36.2144 -3.4585
932 36.2632 -3.50711
933 36.3119 -3.55572
934 36.3607 -3.60433
935 36.4094 -3.65294
936 36.4581 -3.70156
937 36.5069 -3.75018
938 36.5556 -3.7988
939 36.6043 -3.84742
940 36.6531 -3.89604
941 36.7018 -3.94467
942 36.7505 -3.99329
943 36.7992 -4.04192
944 36.848 -4.09055
945 36.8967 -4.13918
946 36.9454 -4.18781
947 36.9941 -4.23645
948 37.0428 -4.28509
949 37.0916 -4.33373
950 37.1403 -4.38236
951 37.189 -4.43099
952 37.2377 -4.47963
953 37.2864 -4.52828
954 37.3351 -4.57691
955 37.3838 -4.62555
956 37.4325 -4.67421
957 37.4813 -4.72285
958 37.53 -4.7715
959 37.5787 -4.82014
960 37.6274 -4.86879
961 37.6761 -4.91743
962 37.7248 -4.96608
963 37.7735 -5.01472
964 37.8222 -5.06336
965 37.8709 -5.11201
966 37.9196 -5.16066
967 37.9683 -5.20932
968 38.017 -5.25797
969 38.0657 -5.30662
970 38.1144 -5.35527
971 38.1631 -5.40392
972 38.2118 -5.45258
973 38.2605 -5.50123
974 38.3092 -5.54989
975 38.3579 -5.59855
976 38.4066 -5.64721
977 38.4553 -5.69586
978 38.504 -5.74452
979 38.5527 -5.79317
980 38.6014 -5.84183
981 38.6501 -5.89049
982 38.6988 -5.93915
983 38.7474 -5.98782
984 38.7961 -6.03647
985 38.8448 -6.08514
986 38.8935 -6.1338
987 38.9422 -6.18246
988 38.9909 -6.23112
989 39.0396 -6.27979
990 39.0883 -6.32847
991 39.137 -6.37713
992 39.1856 -6.4258
993 39.2343 -6.47446
994 39.283 -6.52313
995 39.3317 -6.5718
996 39.3804 -6.62047
997 39.4291 -6.66913
998 39.4778 -6.71779
999 39.5264 -6.76646
1000 39.5751 -6.81513
1001 39.6238 -6.8638
1002 39.6725 -6.91247
1003 39.7212 -6.96114
1004 39.7698 -7.00981
1005 39.8185 -7.05848
1006 39.8672 -7.10715
1007 39.9159 -7.15582
1008 39.9646 -7.2045
1009 40.0133 -7.25317
1010 40.0619 -7.30185
1011 40.1106 -7.35053
1012 40.1403 -7.38021
1013 40.2079 -7.44795
1014 40.2566 -7.49662
1015 40.3052 -7.54529
1016 40.3539 -7.59396
1017 40.4026 -7.64263
1018 40.4513 -7.6913
1019 40.5 -7.73998
1020 40.5487 -7.78866
1021 40.5974 -7.83734
1022 40.646 -7.88602
1023 40.6947 -7.9347
1024 40.7434 -7.98337
1025 40.7921 -8.03205
1026 40.8407 -8.08074
1027 40.8894 -8.12943
1028 40.9381 -8.1781
1029 40.9868 -8.22676
1030 41.0354 -8.27544
1031 41.0841 -8.32412
1032 41.1328 -8.3728
1033 41.1815 -8.42149
1034 41.2301 -8.47017
1035 41.2788 -8.51886
1036 41.3275 -8.56754
1037 41.3761 -8.61622
1038 41.4248 -8.66491
1039 41.4735 -8.7136
1040 41.5222 -8.76229
1041 41.5708 -8.81098
1042 41.6195 -8.85967
1043 41.6682 -8.90835
1044 41.7168 -8.95704
1045 41.7655 -9.00571
1046 41.8142 -9.0544
1047 41.8629 -9.10309
1048 41.9115 -9.15178
1049 41.9602 -9.20047
1050 42.0089 -9.24916
1051 42.0575 -9.29786
1052 42.1062 -9.34654
1053 42.1549 -9.39522
1054 42.2036 -9.44391
1055 42.2522 -9.49259
1056 42.3009 -9.54127
1057 42.3496 -9.58996
1058 42.3982 -9.63865
1059 42.4469 -9.68734
1060 42.4956 -9.73602
1061 42.5442 -9.7847
1062 42.5929 -9.83339
1063 42.6416 -9.88207
1064 42.6903 -9.93076
1065 42.7389 -9.97944
1066 42.7876 -10.0281
1067 42.8363 -10.0768
1068 42.8849 -10.1255
1069 42.9336 -10.1742
1070 42.9823 -10.2229
1071 43.0309 -10.2716
1072 43.0796 -10.3202
1073 43.1283 -10.3689
1074 43.1769 -10.4176
1075 43.2256 -10.4663
1076 43.2743 -10.515
1077 43.2855 -10.5262
1078 43.2911 -10.5317
1079 43.2971 -10.5366
1080 43.3035 -10.5405
1081 43.3102 -10.5429
1082 43.3168 -10.544
1083 43.3226 -10.5435
1084 43.3233 -10.5426
1085 43.3241 -10.5431
1086 43.3261 -10.5423
1087 43.328 -10.54
1088 43.3294 -10.5372
1089 43.3302 -10.5343
1090 43.3306 -10.5315
1091 43.3307 -10.5287
1092 43.3354 -10.4895
1093 43.3278 -10.4237
1094 43.319 -10.3549
1095 43.3109 -10.2863
1096 43.3036 -10.2172
1097 43.297 -10.1483
1098 43.2912 -10.0793
1099 43.2859 -10.0104
1100 43.2812 -9.94147
1101 43.2769 -9.87265
1102 43.273 -9.80374
1103 43.2695 -9.7348
1104 43.2662 -9.66598
1105 43.2631 -9.59711
1106 43.2602 -9.52825
1107 43.2576 -9.45942
1108 43.255 -9.3905
1109 43.2527 -9.3215
1110 43.2504 -9.25263
1111 43.2482 -9.18384
1112 43.2462 -9.11503
1113 43.2441 -9.04618
1114 43.2422 -8.97729
1115 43.2403 -8.90839
1116 43.2385 -8.8396
1117 43.2367 -8.77078
1118 43.2349 -8.70194
1119 43.2332 -8.6331
1120 43.2315 -8.56417
1121 43.2299 -8.49532
1122 43.2282 -8.42648
1123 43.2266 -8.35765
1124 43.225 -8.28882
1125 43.2233 -8.21999
1126 43.2217 -8.15116
1127 43.2201 -8.08233
1128 43.2185 -8.0135
1129 43.2169 -7.94468
1130 43.2153 -7.87585
1131 43.2137 -7.80702
1132 43.2121 -7.7382
1133 43.2105 -7.66937
1134 43.2089 -7.60055
1135 43.2074 -7.53173
1136 43.2058 -7.4629
1137 43.2042 -7.39408
1138 43.2026 -7.32526
1139 43.2017 -7.29684
1140 43.2014 -7.279
1141 43.2018 -7.26518
1142 43.2026 -7.25688
1143 43.2031 -7.25437
1144 43.2034 -7.25254
1145 43.2039 -7.25049
1146 43.2046 -7.24848
1147 43.2058 -7.24582
1148 43.2077 -7.24238
1149 43.2097 -7.23974
1150 43.2118 -7.23705
1151 43.214 -7.23458
1152 43.2165 -7.23217
1153 43.219 -7.23002
1154 43.2572 -7.19274
1155 43.313 -7.15423
1156 43.3703 -7.11619
1157 43.428 -7.07824
1158 43.4859 -7.04054
1159 43.5438 -7.003
1160 43.6017 -6.96561
1161 43.6597 -6.92828
1162 43.7177 -6.89103
1163 43.7758 -6.85385
1164 43.7938 -6.84779
1165 43.8008 -6.84303
1166 43.8069 -6.83801
1167 43.8104 -6.83404
1168 43.8121 -6.83089
1169 43.8132 -6.82763
1170 43.8135 -6.82443
1171 43.8133 -6.82151
1172 43.8127 -6.81833
1173 43.8035 -6.76935
1174 43.7758 -6.70815
1175 43.7457 -6.64605
1176 43.7163 -6.58374
1177 43.6879 -6.52119
1178 43.6604 -6.45799
1179 43.6337 -6.39403
1180 43.608 -6.3302
1181 43.583 -6.2659
1182 43.5586 -6.20137
1183 43.5446 -6.17518
1184 43.5397 -6.16478
1185 43.5375 -6.16077
1186 43.5363 -6.15857
1187 43.5348 -6.15565
1188 43.5332 -6.1534
1189 43.5312 -6.15082
1190 43.529 -6.1484
1191 43.4955 -6.10858
1192 43.444 -6.06472
1193 43.3904 -6.02095
1194 43.3367 -5.97761
1195 43.2829 -5.93445
1196 43.229 -5.89138
1197 43.1749 -5.84846
1198 43.1209 -5.80569
1199 43.088 -5.77972
1200 43.0126 -5.72007
1201 42.9964 -5.713
1202 42.9906 -5.70851
1203 42.9847 -5.70445
1204 42.9781 -5.70132
1205 42.9717 -5.69961
1206 42.9656 -5.6992
1207 42.9602 -5.70003
1208 42.9594 -5.70113
1209 42.9596 -5.70049
1210 42.9582 -5.70069
1211 42.9564 -5.70231
1212 42.9548 -5.70421
1213 42.9241 -5.73532
1214 42.8909 -5.79388
1215 42.8579 -5.8549
1216 42.8247 -5.91566
1217 42.7914 -5.97615
1218 42.7577 -6.03657
1219 42.7237 -6.09686
1220 42.6896 -6.15695
1221 42.6554 -6.21681
1222 42.6209 -6.27656
1223 42.5864 -6.33631
1224 42.5517 -6.39589
1225 42.5169 -6.45537
1226 42.4821 -6.51478
1227 42.4471 -6.5742
1228 42.412 -6.63356
1229 42.377 -6.69283
1230 42.3418 -6.7521
1231 42.3065 -6.81134
1232 42.2712 -6.87057
1233 42.2359 -6.92972
1234 42.2006 -6.98875
1235 42.1652 -7.04778
1236 42.1298 -7.10681
1237 42.0943 -7.16584
1238 42.0588 -7.22485
1239 42.0233 -7.28385
1240 41.9878 -7.34283
1241 41.9523 -7.4018
1242 41.9445 -7.41778
1243 41.9406 -7.42436
1244 41.9375 -7.43085
1245 41.9353 -7.43752
1246 41.9344 -7.44393
1247 41.9349 -7.44966
1248 41.9357 -7.45095
1249 41.9353 -7.45105
1250 41.9356 -7.45251
1251 41.9374 -7.45454
1252 41.9397 -7.45612
1253 41.9421 -7.45749
1254 41.9787 -7.48134
1255 42.0422 -7.50204
1256 42.1085 -7.52198
1257 42.1746 -7.542
1258 42.2407 -7.56233
1259 42.3067 -7.58288
1260 42.3725 -7.60375
1261 42.4383 -7.6248
1262 42.5039 -7.646
1263 42.5695 -7.6674
1264 42.6349 -7.68892
1265 42.7002 -7.71059
1266 42.7223 -7.71288
1267 42.7315 -7.71617
1268 42.7409 -7.71873
1269 42.7502 -7.72019
1270 42.7595 -7.72043
1271 42.7681 -7.71931
1272 42.7725 -7.71748
1273 42.7729 -7.71698
1274 42.7747 -7.71657
1275 42.777 -7.71479
1276 42.7799 -7.71214
1277 42.7819 -7.70954
1278 42.8153 -7.67727
1279 42.8528 -7.62168
1280 42.8905 -7.56366
1281 42.9281 -7.50551
1282 42.9656 -7.44745
1283 43.0031 -7.38945
1284 43.0407 -7.33149
1285 43.0783 -7.27358
1286 43.1159 -7.21572
1287 43.1535 -7.15788
1288 43.1911 -7.10006
1289 43.2287 -7.04228
1290 43.2664 -6.98453
1291 43.304 -6.92677
1292 43.3417 -6.86904
1293 43.3793 -6.81133
1294 43.417 -6.75365
1295 43.4547 -6.69597
1296 43.4924 -6.6383
1297 43.5301 -6.58065
1298 43.5678 -6.52299
1299 43.6055 -6.46534
1300 43.6432 -6.40771
1301 43.6808 -6.35008
1302 43.7185 -6.29245
1303 43.7563 -6.23483
1304 43.794 -6.17721
1305 43.8316 -6.11959
1306 43.8693 -6.06198
1307 43.907 -6.00437
1308 43.9447 -5.94675
1309 43.9824 -5.88914
1310 44.0201 -5.83155
1311 44.0431 -5.79642
1312 44.0956 -5.71629
1313 44.1333 -5.65869
1314 44.171 -5.60109
1315 44.2087 -5.5435
1316 44.2464 -5.48591
1317 44.2841 -5.42831
1318 44.3218 -5.37071
1319 44.3595 -5.31311
1320 44.3972 -5.2555
1321 44.4349 -5.19791
1322 44.4726 -5.14031
1323 44.5103 -5.08272
1324 44.5481 -5.02512
1325 44.5858 -4.96751
1326 44.6235 -4.9099
1327 44.6612 -4.85231
1328 44.6989 -4.7947
1329 44.7366 -4.73711
1330 44.7743 -4.67951
1331 44.812 -4.62192
1332 44.8497 -4.56433
1333 44.8874 -4.50674
1334 44.9251 -4.44914
1335 44.9628 -4.39155
1336 45.0005 -4.33396
1337 45.0382 -4.27637
1338 45.0759 -4.21877
1339 45.1136 -4.16117
1340 45.1514 -4.10357
1341 45.16 -4.09012
1342 45.1642 -4.08339
1343 45.1676 -4.07704
1344 45.1698 -4.07078
1345 45.1709 -4.06479
1346 45.1707 -4.05907
1347 45.1699 -4.05777
1348 45.1705 -4.05809
1349 45.1714 -4.05791
1350 45.1712 -4.05656
1351 45.1695 -4.05493
1352 45.1356 -4.02662
1353 45.0741 -4.00123
1354 45.0097 -3.97652
1355 44.9452 -3.9514
1356 44.8809 -3.92574
1357 44.8169 -3.89949
1358 44.7533 -3.87284
1359 44.6899 -3.84561
1360 44.6264 -3.81805
1361 44.5633 -3.79026
1362 44.5004 -3.76229
1363 44.4375 -3.73394
1364 44.3746 -3.7054
1365 44.3121 -3.67676
1366 44.2497 -3.64794
1367 44.1873 -3.61889
1368 44.1249 -3.58965
1369 44.0626 -3.56034
1370 44.0002 -3.53081
1371 43.9379 -3.50122
1372 43.8757 -3.47162
1373 43.8136 -3.44195
1374 43.7515 -3.41216
1375 43.6894 -3.38232
1376 43.6274 -3.35244
1377 43.5654 -3.3225
1378 43.5035 -3.29254
1379 43.4416 -3.26253
1380 43.3796 -3.23245
1381 43.3628 -3.22617
1382 43.3549 -3.22231
1383 43.347 -3.21915
1384 43.3389 -3.21706
1385 43.3309 -3.21624
1386 43.3238 -3.21675
1387 43.3179 -3.21835
1388 43.3172 -3.21933
1389 43.315 -3.21989
1390 43.3128 -3.22206
1391 43.3112 -3.22474
1392 43.3102 -3.22763
1393 43.3096 -3.23052
1394 43.3095 -3.23334
1395 43.3049 -3.27428
1396 43.3155 -3.34013
1397 43.3277 -3.40838
1398 43.3393 -3.47673
1399 43.3501 -3.54468
1400 43.3598 -3.61286
1401 43.3688 -3.6813
1402 43.3771 -3.74971
1403 43.3848 -3.81828
1404 43.392 -3.88702
1405 43.3987 -3.95572
1406 43.405 -4.02432
1407 43.4109 -4.09312
1408 43.4166 -4.16177
1409 43.4221 -4.23059
1410 43.4273 -4.29935
1411 43.4323 -4.36817
1412 43.4372 -4.43697
1413 43.442 -4.50583
1414 43.4466 -4.57461
1415 43.4512 -4.64341
1416 43.4556 -4.71214
1417 43.46 -4.78088
1418 43.4643 -4.84953
1419 43.4685 -4.91824
1420 43.4727 -4.98698
1421 43.4769 -5.05573
1422 43.481 -5.12445
1423 43.4851 -5.19318
1424 43.4892 -5.26192
1425 43.4933 -5.33065
1426 43.4973 -5.39939
1427 43.5013 -5.46812
1428 43.5054 -5.53685
1429 43.5094 -5.60558
1430 43.5134 -5.67431
1431 43.5174 -5.74304
1432 43.5214 -5.81177
1433 43.5254 -5.8805
1434 43.5293 -5.94923
1435 43.5333 -6.01795
1436 43.5373 -6.08668
1437 43.5413 -6.15541
1438 43.5453 -6.22414
1439 43.5493 -6.29286
1440 43.5532 -6.36159
1441 43.5572 -6.43032
1442 43.5612 -6.49904
1443 43.5651 -6.56777
1444 43.569 -6.6365
1445 43.573 -6.70522
1446 43.577 -6.77395
1447 43.5809 -6.84268
1448 43.5848 -6.9114
1449 43.5888 -6.98013
1450 43.5927 -7.04886
1451 43.5967 -7.11758
1452 43.6006 -7.18631
1453 43.6046 -7.25504
1454 43.6085 -7.32376
1455 43.6124 -7.39249
1456 43.6164 -7.46122
1457 43.6203 -7.52994
1458 43.6242 -7.59867
1459 43.6281 -7.6674
1460 43.6321 -7.73613
1461 43.636 -7.80485
1462 43.6399 -7.87358
1463 43.641 -7.89006
1464 43.6417 -7.90042
1465 43.6428 -7.91002
1466 43.6446 -7.91854
1467 43.6471 -7.92618
1468 43.6502 -7.93239
1469 43.6524 -7.93489
1470 43.6545 -7.93725
1471 43.657 -7.93917
1472 43.6595 -7.94042
1473 43.6626 -7.94161
1474 43.6658 -7.94217
1475 43.7106 -7.95277
1476 43.7773 -7.94886
1477 43.8461 -7.94277
1478 43.9149 -7.93697
1479 43.9836 -7.93175
1480 44.0525 -7.92728
1481 44.1215 -7.92338
1482 44.1904 -7.92003
1483 44.2592 -7.9172
1484 44.328 -7.91482
1485 44.3972 -7.91283
1486 44.4659 -7.911
1487 44.5349 -7.90954
1488 44.6036 -7.9082
1489 44.6725 -7.90715
1490 44.7413 -7.90625
1491 44.8102 -7.90555
1492 44.8792 -7.90496
1493 44.9481 -7.90448
1494 45.0169 -7.90411
1495 45.0859 -7.90383
1496 45.1548 -7.90363
1497 45.2236 -7.90347
1498 45.2925 -7.90336
1499 45.3613 -7.90331
1500 45.4302 -7.90327
1501 45.4991 -7.90328
1502 45.5679 -7.90332
1503 45.6368 -7.90339
1504 45.7056 -7.90349
1505 45.7745 -7.90362
1506 45.8433 -7.90376
1507 45.9121 -7.90393
1508 45.981 -7.90412
1509 46.0498 -7.9043
1510 46.1187 -7.90451
1511 46.1875 -7.9047
1512 46.2564 -7.90491
1513 46.3252 -7.90512
1514 46.3941 -7.90533
1515 46.4629 -7.90554
1516 46.5317 -7.90576
1517 46.6006 -7.90597
1518 46.6694 -7.9062
1519 46.7383 -7.90642
1520 46.8071 -7.90666
1521 46.8759 -7.90691
1522 46.9448 -7.90715
1523 47.0136 -7.90739
1524 47.0825 -7.90763
1525 47.1513 -7.90789
1526 47.2201 -7.90816
1527 47.289 -7.90843
1528 47.3578 -7.9087
1529 47.4267 -7.90898
1530 47.4955 -7.90925
1531 47.5643 -7.90952
1532 47.6332 -7.90979
1533 47.702 -7.91006
1534 47.7708 -7.91034
1535 47.8397 -7.91064
1536 47.9085 -7.91092
1537 47.9774 -7.9112
1538 48.0462 -7.91149
1539 48.115 -7.91179
1540 48.1839 -7.91208
1541 48.2019 -7.912
1542 48.2125 -7.912
1543 48.2228 -7.91177
1544 48.2337 -7.91109
1545 48.2443 -7.90976
1546 48.2546 -7.90761
1547 48.2639 -7.90455
1548 48.2725 -7.90044
1549 48.277 -7.89679
1550 48.2795 -7.89425
1551 48.2817 -7.89172
1552 48.2834 -7.88883
1553 48.2851 -7.88519
1554 48.2859 -7.88164
1555 48.2866 -7.8782
1556 48.2998 -7.83202
1557 48.3017 -7.76455
1558 48.3026 -7.6954
1559 48.3038 -7.62627
1560 48.3056 -7.55717
1561 48.308 -7.48817
1562 48.3108 -7.41919
1563 48.314 -7.35034
1564 48.3177 -7.28155
1565 48.3216 -7.21267
1566 48.3258 -7.1438
1567 48.3302 -7.07496
1568 48.3349 -7.00618
1569 48.3397 -6.9375
1570 48.3446 -6.86878
1571 48.3497 -6.80009
1572 48.3549 -6.7314
1573 48.3601 -6.66265
1574 48.3655 -6.59404
1575 48.3709 -6.52538
1576 48.3764 -6.45672
1577 48.3819 -6.38814
1578 48.3875 -6.31952
1579 48.3931 -6.25088
1580 48.3987 -6.18226
1581 48.4044 -6.11363
1582 48.4101 -6.04496
1583 48.4159 -5.97633
1584 48.4216 -5.90772
1585 48.4274 -5.83913
1586 48.4332 -5.77053
1587 48.439 -5.70193
1588 48.4449 -5.63333
1589 48.4507 -5.56474
1590 48.4566 -5.49614
1591 48.4624 -5.42755
1592 48.4683 -5.35895
1593 48.4741 -5.29036
1594 48.48 -5.22177
1595 48.4858 -5.15318
1596 48.4917 -5.08459
1597 48.4976 -5.016
1598 48.5035 -4.94741
1599 48.5093 -4.87882
1600 48.5152 -4.81023
1601 48.5211 -4.74164
1602 48.527 -4.67305
1603 48.5329 -4.60447
1604 48.5388 -4.53588
1605 48.5447 -4.46729
1606 48.5506 -4.39871
1607 48.5565 -4.33012
1608 48.5624 -4.26154
1609 48.5683 -4.19295
1610 48.5742 -4.12437
1611 48.5802 -4.05578
1612 48.5861 -3.9872
1613 48.592 -3.91861
1614 48.5979 -3.85003
1615 48.6038 -3.78145
1616 48.6098 -3.71286
1617 48.6157 -3.64428
1618 48.6216 -3.5757
1619 48.6275 -3.50711
1620 48.6335 -3.43853
1621 48.6394 -3.36995
1622 48.6454 -3.30137
1623 48.6513 -3.23278
1624 48.6572 -3.1642
1625 48.6632 -3.09562
1626 48.6691 -3.02704
1627 48.6751 -2.95846
1628 48.681 -2.88987
1629 48.687 -2.82129
1630 48.6929 -2.75271
1631 48.6989 -2.68413
1632 48.7048 -2.61555
1633 48.7108 -2.54697
1634 48.7167 -2.47839
1635 48.7227 -2.40981
1636 48.7286 -2.34123
1637 48.7346 -2.27265
1638 48.7405 -2.20407
1639 48.7465 -2.13549
1640 48.7525 -2.06691
1641 48.7584 -1.99833
1642 48.7607 -1.97218
1643 48.7625 -1.95508
1644 48.7644 -1.94248
1645 48.7658 -1.93647
1646 48.7663 -1.9346
1647 48.7669 -1.93255
1648 48.7678 -1.93019
1649 48.7695 -1.92679
1650 48.7713 -1.92402
1651 48.7732 -1.92142
1652 48.7749 -1.91931
1653 48.7768 -1.91715
1654 48.7791 -1.91481
1655 48.817 -1.87506
1656 48.871 -1.83412
1657 48.9264 -1.79328
1658 48.9822 -1.75272
1659 49.038 -1.71236
1660 49.0939 -1.6721
1661 49.1499 -1.63192
1662 49.206 -1.59179
1663 49.2621 -1.55177
1664 49.3183 -1.51182
1665 49.3348 -1.50556
1666 49.3405 -1.50128
1667 49.3435 -1.49881
1668 49.3459 -1.49617
1669 49.3486 -1.49261
1670 49.3509 -1.48907
1671 49.353 -1.48531
1672 49.3549 -1.48148
1673 49.379 -1.43178
1674 49.4028 -1.3684
1675 49.4262 -1.30377
1676 49.4496 -1.23888
1677 49.4729 -1.17402
1678 49.4962 -1.1092
1679 49.5195 -1.04442
1680 49.5428 -0.979631
1681 49.5662 -0.914852
1682 49.5895 -0.850097
1683 49.6129 -0.785343
1684 49.6363 -0.720586
1685 49.6597 -0.65583
1686 49.6831 -0.591083
1687 49.7065 -0.526346
1688 49.7299 -0.4616
1689 49.7533 -0.396855
1690 49.7768 -0.332128
1691 49.8002 -0.267401
1692 49.8236 -0.202673
1693 49.8471 -0.137938
1694 49.8705 -0.0732067
1695 49.894 -0.00849679
1696 49.9174 0.0562212
1697 49.9409 0.120949
1698 49.9643 0.185666
1699 49.9878 0.250393
1700 50.0112 0.31512
1701 50.0347 0.379824
1702 50.0582 0.444544
1703 50.0816 0.509263
1704 50.1051 0.573985
1705 50.1285 0.638702
1706 50.152 0.703419
1707 50.1754 0.768132
1708 50.1989 0.832844
1709 50.2224 0.897563
1710 50.2458 0.962283
1711 50.2509 0.97732
1712 50.2537 0.985478
1713 50.256 0.993692
1714 50.2571 1.00165
1715 50.2571 1.00968
1716 50.2558 1.01672
1717 50.2548 1.01714
1718 50.2545 1.0193
1719 50.2527 1.02146
1720 50.251 1.02264
1721 50.2498 1.02322
1722 50.2492 1.02351
1723 50.2482 1.02374
1724 50.2463 1.02302
1725 50.245 1.02186
1726 50.2434 1.02047
1727 50.2419 1.01836
1728 50.2403 1.01598
1729 50.2389 1.01349
1730 50.2377 1.01064
1731 50.2366 1.00738
1732 50.236 1.00438
1733 50.2355 1.00117
1734 50.2295 0.959792
1735 50.2281 0.892592
1736 50.2275 0.823131
1737 50.2268 0.75373
1738 50.2259 0.684422
1739 50.2247 0.615313
1740 50.2233 0.54624
1741 50.2218 0.477101
1742 50.22 0.408152
1743 50.218 0.339094
1744 50.2193 0.31438
1745 50.2189 0.305426
1746 50.2181 0.296459
1747 50.2167 0.287179
1748 50.2158 0.283593
1749 50.2153 0.282072
1750 50.2144 0.280204
1751 50.2128 0.27724
1752 50.2109 0.274304
1753 50.2103 0.273598
1754 50.2103 0.273594
1755 50.209 0.271477
1756 50.1783 0.229123
1757 50.1334 0.177588
1758 50.0869 0.126274
1759 50.0399 0.0756912
1760 49.9925 0.0256319
1761 49.9446 -0.0240148
1762 49.8964 -0.0732134
1763 49.8477 -0.122151
1764 49.7987 -0.17089
1765 49.7495 -0.21925
1766 49.7002 -0.26725
1767 49.6507 -0.315026
1768 49.601 -0.362708
1769 49.5512 -0.410072
1770 49.5012 -0.45737
1771 49.451 -0.504551
1772 49.4007 -0.551644
1773 49.3866 -0.562142
1774 49.3804 -0.56782
1775 49.374 -0.572656
1776 49.3668 -0.57655
1777 49.3583 -0.579297
1778 49.3492 -0.58015
1779 49.3408 -0.578888
1780 49.3399 -0.577115
1781 49.3386 -0.577329
1782 49.3365 -0.5757
1783 49.3346 -0.572823
1784 49.3335 -0.569097
1785 49.3338 -0.565808
1786 49.3345 -0.563958
1787 49.3349 -0.563222
1788 49.3357 -0.562215
1789 49.3626 -0.539704
1790 49.4199 -0.507266
1791 49.4842 -0.475826
1792 49.5462 -0.444483
1793 49.606 -0.411724
1794 49.6647 -0.376826
1795 49.7227 -0.339663
1796 49.7795 -0.300776
1797 49.8352 -0.260234
1798 49.8899 -0.218211
1799 49.9433 -0.175393
1800 49.9958 -0.131301
1801 50.0478 -0.0861368
1802 50.0993 -0.0399483
1803 50.1501 0.00693182
1804 50.2002 0.0542404
1805 50.2497 0.102192
1806 50.2658 0.117601
1807 50.267 0.118756
1808 50.2668 0.118557
1809 50.2666 0.118364
1810 50.2663 0.117971
1811 50.2661 0.117394
1812 50.2659 0.116255
1813 50.2659 0.114083
1814 50.2664 0.116163
1815 50.2653 0.11871
1816 50.2636 0.121054
1817 50.2615 0.122895
1818 50.2591 0.124221
1819 50.2564 0.124999
1820 50.2534 0.125193
1821 50.2506 0.124896
1822 50.248 0.124368
1823 50.2096 0.119281
1824 50.1471 0.0983731
1825 50.0814 0.0755307
1826 50.0153 0.0533075
1827 49.949 0.0319306
1828 49.8826 0.0114473
1829 49.8163 -0.00820732
1830 49.7497 -0.0272186
1831 49.6831 -0.045646
1832 49.6163 -0.0635137
1833 49.5496 -0.0809277
1834 49.4827 -0.0979384
1835 49.4156 -0.114618
1836 49.394 -0.122728
1837 49.3851 -0.124697
1838 49.3762 -0.126052
1839 49.3667 -0.126559
1840 49.3569 -0.125978
1841 49.347 -0.12402
1842 49.3374 -0.120471
1843 49.3327 -0.11725
1844 49.33 -0.114793
1845 49.3277 -0.11192
1846 49.3261 -0.108324
1847 49.3256 -0.104362
1848 49.3263 -0.101458
1849 49.3269 -0.100362
1850 49.3273 -0.0995585
1851 49.3286 -0.0980932
1852 49.331 -0.0965666
1853 49.3336 -0.095256
1854 49.3688 -0.0757439
1855 49.4329 -0.0552391
1856 49.4995 -0.034952
1857 49.5659 -0.014607
1858 49.6322 0.00604731
1859 49.6985 0.0270306
1860 49.7647 0.0481188
1861 49.8306 0.0693473
1862 49.8575 0.0741662
1863 49.8602 0.0744776
1864 49.8598 0.0744969
1865 49.8595 0.0745134
1866 49.8593 0.0745283
1867 49.859 0.0745377
1868 49.8588 0.074545
1869 49.8586 0.0745572
1870 49.8585 0.0745648
1871 49.8583 0.0745744
1872 49.8582 0.0745851
1873 49.8581 0.0745934
1874 49.858 0.0745994
1875 49.858 0.0746052
1876 49.8579 0.0746094
1877 49.8578 0.074623
1878 49.8578 0.0746294
1879 49.8578 0.0746377
1880 49.8577 0.0746508
1881 49.8577 0.0746578
1882 49.8577 0.0746631
1883 49.8577 0.0746616
1884 49.8576 0.0746626
1885 49.8576 0.0746718
1886 49.8576 0.0746744
1887 49.8576 0.0746797
1888 49.8576 0.0746837
1889 49.8576 0.0746827
1890 49.8576 0.074685
1891 49.8576 0.0746964
1892 49.8576 0.0747071
1893 49.8576 0.0747092
1894 49.8576 0.0747117
1895 49.8576 0.0747174
1896 49.8576 0.0747193
1897 49.8576 0.0747198
1898 49.8576 0.0747197
1899 49.8576 0.0747226
1900 49.8576 0.0747229
1901 49.8576 0.074721
1902 49.8576 0.074721
1903 49.8576 0.0747198
1904 49.8576 0.0747255
1905 49.8576 0.0747246
1906 49.8576 0.0747215
1907 49.8576 0.0747234
1908 49.8576 0.0747238
1909 49.8576 0.074724
1910 49.8576 0.0747271
1911 49.8576 0.0747297
1912 49.8576 0.0747314
1913 49.8576 0.0747373
1914 49.8576 0.0747408
1915 49.8576 0.0747426
1916 49.8576 0.074735
1917 49.8577 0.0747437
1918 49.8576 0.0747427
1919 49.8576 0.0747421
1920 49.8577 0.0747464
1921 49.8577 0.0747477
1922 49.8577 0.0747471
1923 49.8576 0.0747423
1924 49.8576 0.0747403
1925 49.8576 0.0747414
1926 49.8576 0.0747438
1927 49.8576 0.0747419
1928 49.8576 0.074743
1929 49.8577 0.0747463
1930 49.8577 0.0747519
1931 49.8577 0.0747514
1932 49.8577 0.0747494
1933 49.8577 0.0747463
1934 49.8576 0.0747368
1935 49.8576 0.074736
1936 49.8576 0.0747313
1937 49.8576 0.0747387
1938 49.8576 0.0747413
1939 49.8577 0.0747449
1940 49.8577 0.074748
1941 49.8577 0.0747531
1942 49.8577 0.0747629
1943 49.8577 0.0747658
1944 49.8577 0.0747681
1945 49.8577 0.0747712
1946 49.8577 0.074774
1947 49.8578 0.0747837
1948 49.8578 0.0747868
1949 49.8578 0.0747894
1950 49.8578 0.0747918
1951 49.8578 0.0747931
1952 49.8578 0.074801
1953 49.8578 0.0748024
1954 49.8578 0.0748042
1955 49.8598 0.0754268
1956 49.8616 0.0759132
1957 49.864 0.0763549
1958 49.8674 0.0766769
1959 49.8708 0.0765869
1960 49.8746 0.076133
1961 49.878 0.0753199
1962 49.8809 0.0743326
1963 49.8837 0.0732043
1964 49.8862 0.0719771
1965 49.9363 0.0549364
1966 49.9957 0.0225493
1967 50.0556 -0.0113409
1968 50.1157 -0.0453333
1969 50.1757 -0.0792476
1970 50.236 -0.113109
1971 50.2961 -0.146864
1972 50.3563 -0.180518
1973 50.4164 -0.2141
1974 50.4767 -0.247636
1975 50.4899 -0.260249
1976 50.4974 -0.264556
1977 50.5051 -0.269782
1978 50.5079 -0.273333
1979 50.5102 -0.276525
1980 50.5118 -0.280631
1981 50.5121 -0.28299
1982 50.5115 -0.286763
1983 50.5109 -0.287553
1984 50.51 -0.289545
1985 50.5075 -0.291418
1986 50.5042 -0.292851
1987 50.5007 -0.293238
1988 50.4978 -0.292808
1989 50.4959 -0.292102
1990 50.4947 -0.291445
1991 50.4656 -0.274482
1992 50.4149 -0.233888
1993 50.3617 -0.188919
1994 50.3289 -0.161812
1995 50.2534 -0.101042
1996 50.1982 -0.0590138
1997 50.1423 -0.0179824
1998 50.0859 0.0218713
1999 50.0655 0.0379127
2000 50.0639 0.039156
2001 50.0642 0.0389486
2002 50.0644 0.0387496
2003 50.0646 0.0385938
2004 50.0648 0.0384764
2005 50.0649 0.0383656
2006 50.0651 0.0382665
2007 50.0652 0.0381746
2008 50.0653 0.0381056
2009 50.0654 0.0380387
2010 50.0654 0.0379877
2011 50.0655 0.0379353
2012 50.0656 0.0378816
2013 50.0656 0.0378479
2014 50.0657 0.0378097
2015 50.0657 0.0377686
2016 50.0658 0.0377405
2017 50.0658 0.0377149
2018 50.0658 0.0376934
2019 50.0658 0.0376734
2020 50.0658 0.0376655
2021 50.0659 0.037649
2022 50.0659 0.0376394
2023 50.0659 0.0376274
2024 50.0659 0.0376175
2025 50.0659 0.0376052
2026 50.0659 0.0375978
2027 50.0659 0.0375911
2028 50.066 0.0375851
2029 50.066 0.037582
2030 50.066 0.0375785
2031 50.066 0.0375757
2032 50.066 0.037577
2033 50.066 0.0375813
2034 50.066 0.0375784
2035 50.066 0.0375767
2036 50.066 0.0375748
2037 50.066 0.0375734
2038 50.066 0.0375708
2039 50.066 0.0375723
2040 50.066 0.0375642
2041 50.066 0.0375686
2042 50.066 0.0375717
2043 50.066 0.0375694
2044 50.066 0.0375718
2045 50.066 0.0375765
2046 50.0659 0.037582
2047 50.0659 0.0375829
2048 50.0659 0.0375844
2049 50.0659 0.037592
2050 50.0659 0.0376005
2051 50.0659 0.0376018
2052 50.0659 0.0376022
2053 50.0659 0.0376023
2054 50.0659 0.0376072
2055 50.0659 0.0376064
2056 50.0659 0.0376075
2057 50.0659 0.0376085
2058 50.0659 0.0376121
2059 50.0659 0.0376128
2060 50.0659 0.0376196
2061 50.0659 0.0376185
2062 50.0659 0.0376199
2063 50.0659 0.0376231
2064 50.0659 0.0376274
2065 50.0659 0.0376291
2066 50.0659 0.0376292
2067 50.0659 0.0376323
2068 50.0659 0.0376374
2069 50.0658 0.0376478
2070 50.0658 0.0376519
2071 50.0658 0.037652
2072 50.0658 0.0376572
2073 50.0658 0.0376622
2074 50.0658 0.0376629
2075 50.0658 0.0376663
2076 50.0658 0.037667
2077 50.0658 0.0376644
2078 50.0658 0.0376641
2079 50.0658 0.037665
2080 50.0658 0.0376622
2081 50.0658 0.0376597
2082 50.0658 0.0376642
2083 50.0658 0.0376693
2084 50.0658 0.0376655
2085 50.0658 0.0376703
2086 50.0658 0.037673
2087 50.0658 0.037673
2088 50.0658 0.0376811
2089 50.0658 0.0376845
2090 50.0658 0.0376843
2091 50.0658 0.0376841
2092 50.0658 0.037683
2093 50.0658 0.0376843
2094 50.0658 0.037683
2095 50.0658 0.0376842
2096 50.0658 0.0376848
2097 50.0658 0.037687
2098 50.0658 0.0376932
2099 50.0658 0.0376953
2100 50.0658 0.037698
2101 50.0658 0.0376906
2102 50.0658 0.0376923
2103 50.0658 0.0376937
2104 50.0657 0.0377026
2105 50.0657 0.0377043
2106 50.0657 0.0377084
2107 50.0657 0.0377084
2108 50.0657 0.037712
2109 50.0657 0.0377157
2110 50.0657 0.0377157
2111 50.0657 0.0377189
2112 50.0657 0.0377267
2113 50.0657 0.0377244
2114 50.0657 0.0377277
2115 50.0657 0.0377345
2116 50.0657 0.0377286
2117 50.0657 0.0377416
2118 50.0657 0.0377403
2119 50.0657 0.0377409
2120 50.0657 0.0377411
2121 50.0657 0.0377276
2122 50.0657 0.0377341
2123 50.0657 0.0377385
2124 50.0657 0.0377447
2125 50.0657 0.0377406
2126 50.0657 0.0377425
2127 50.0657 0.0377439
2128 50.0657 0.0377442
2129 50.0657 0.0377432
2130 50.0657 0.0377446
2131 50.0657 0.0377375
2132 50.0657 0.0377393
2133 50.0657 0.0377405
2134 50.0657 0.0377408
2135 50.0657 0.0377549
2136 50.0656 0.037759
2137 50.0656 0.0377677
2138 50.0656 0.0377696
2139 50.0656 0.0377688
2140 50.0656 0.0377675
2141 50.0656 0.0377688
2142 50.0656 0.0377694
2143 50.0656 0.0377856
2144 50.0656 0.0377868
2145 50.0656 0.0377896
2146 50.0656 0.037789
2147 50.0656 0.0377892
2148 50.0656 0.0377974
2149 50.0656 0.0377983
2150 50.0656 0.0378001
2151 50.0656 0.0378009
2152 50.0656 0.0378086
2153 50.0656 0.0378128
2154 50.0656 0.037815
2155 50.0655 0.037823
2156 50.0655 0.0378308
2157 50.0655 0.0378332
2158 50.0655 0.0378312
2159 50.0655 0.0378361
2160 50.0655 0.0378396
2161 50.0655 0.0378526
2162 50.0655 0.0378551
2163 50.0655 0.0378582
2164 50.0655 0.0378591
2165 50.0655 0.0378582
2166 50.0655 0.037854
2167 50.0655 0.0378553
2168 50.0655 0.0378632
2169 50.0655 0.0378666
2170 50.0655 0.03787
2171 50.0655 0.0378731
2172 50.0655 0.0378717
2173 50.0655 0.0378702
2174 50.0655 0.0378698
2175 50.0655 0.0378721
2176 50.0655 0.0378718
2177 50.0655 0.0378718
2178 50.0654 0.0378778
2179 50.0654 0.0378834
2180 50.0654 0.037888
2181 50.0654 0.0378918
2182 50.0654 0.0378935
2183 50.0654 0.0378999
2184 50.0654 0.0379078
2185 50.0654 0.037913
2186 50.0654 0.0379135
2187 50.0654 0.0379164
2188 50.0654 0.0379191
2189 50.0654 0.0379239
2190 50.0654 0.037924
2191 50.0654 0.0379312
2192 50.0654 0.0379356
2193 50.0653 0.0379371
2194 50.0653 0.0379379
2195 50.0653 0.0379448
2196 50.0653 0.0379447
2197 50.0653 0.0379498
2198 50.0653 0.0379462
2199 50.0653 0.0379427
2200 50.0653 0.0379379
2201 50.0653 0.0379363
2202 50.0653 0.0379421
2203 50.0653 0.0379426
2204 50.0653 0.0379438
2205 50.0653 0.0379482
2206 50.0653 0.0379496
2207 50.0653 0.037947
2208 50.0653 0.0379458
2209 50.0653 0.0379418
2210 50.0653 0.0379416
2211 50.0653 0.0379414
2212 50.0653 0.0379385
2213 50.0653 0.0379371
2214 50.0654 0.0379342
2215 50.0654 0.0379348
2216 50.0653 0.0379371
2217 50.0654 0.037932
2218 50.0654 0.0379323
2219 50.0654 0.0379321
2220 50.0653 0.0379385
2221 50.0653 0.0379439
2222 50.0653 0.0379456
2223 50.0653 0.0379458
2224 50.0653 0.0379469
2225 50.0653 0.0379447
2226 50.0653 0.0379453
2227 50.0653 0.0379476
2228 50.0653 0.0379519
2229 50.0653 0.037958
2230 50.0653 0.0379637
2231 50.0653 0.0379722
2232 50.0653 0.0379765
2233 50.0653 0.0379754
2234 50.0653 0.0379758
2235 50.0653 0.0379872
2236 50.0653 0.037983
2237 50.0653 0.0379695
2238 50.0653 0.0379678
2239 50.0653 0.0379677
2240 50.0653 0.0379722
2241 50.0653 0.0379813
2242 50.0653 0.0379826
2243 50.0653 0.0379783
2244 50.0653 0.0379776
2245 50.0653 0.0379652
2246 50.0653 0.037967
2247 50.0653 0.0379574
2248 50.0653 0.0379606
2249 50.0653 0.0379648
2250 50.0653 0.0379681
2251 50.0653 0.0379798
2252 50.0653 0.0379833
2253 50.0653 0.0379861
2254 50.0653 0.0379834
2255 50.0653 0.0379869
2256 50.0653 0.0379864
2257 50.0653 0.0379888
2258 50.0653 0.0379897
2259 50.0653 0.0379926
2260 50.0652 0.0380032
2261 50.0652 0.0380057
2262 50.0652 0.0380069
2263 50.0652 0.0379962
2264 50.0653 0.0379941
2265 50.0652 0.0379986
2266 50.0652 0.0379997
2267 50.0652 0.0380105
2268 50.0652 0.0380194
2269 50.0652 0.0380165
2270 50.0652 0.0380193
2271 50.0652 0.0380156
2272 50.0652 0.0380159
2273 50.0652 0.0380152
2274 50.0652 0.0380193
2275 50.0652 0.0380271
2276 50.0652 0.0380331
2277 50.0652 0.0380393
2278 50.0652 0.0380459
2279 50.0652 0.0380496
2280 50.0652 0.0380527
2281 50.0652 0.0380502
2282 50.0652 0.0380507
2283 50.0652 0.0380486
2284 50.0652 0.0380483
2285 50.0652 0.038049
2286 50.0652 0.0380466
2287 50.0651 0.0380538
2288 50.0651 0.0380584
2289 50.0651 0.0380577
2290 50.0651 0.03806
2291 50.0651 0.0380613
2292 50.0651 0.0380627
2293 50.0651 0.0380672
2294 50.0651 0.038067
2295 50.0651 0.0380721
2296 50.0651 0.0380748
2297 50.0651 0.038081
2298 50.0651 0.0380892
2299 50.0651 0.0380927
2300 50.0651 0.0380969
2301 50.0651 0.0381011
2302 50.0651 0.0381022
2303 50.0651 0.0381027
2304 50.0651 0.0381001
2305 50.0651 0.0381018
2306 50.0651 0.038106
2307 50.0651 0.0381068
2308 50.0651 0.0381124
2309 50.065 0.0381259
2310 50.065 0.0381342
2311 50.065 0.0381434
2312 50.065 0.0381413
2313 50.065 0.0381393
2314 50.065 0.0381391
2315 50.065 0.0381472
2316 50.065 0.0381496
2317 50.065 0.0381504
2318 50.065 0.0381573
2319 50.065 0.0381564
2320 50.065 0.0381586
2321 50.065 0.0381634
2322 50.065 0.0381648
2323 50.0649 0.0381724
2324 50.0649 0.0381732
2325 50.065 0.0381711
2326 50.0649 0.0381782
2327 50.0649 0.03818
2328 50.0649 0.0381804
2329 50.0649 0.0381831
2330 50.0649 0.0381858
2331 50.0649 0.0381979
2332 50.0649 0.0381977
2333 50.0649 0.038198
2334 50.0649 0.0382008
2335 50.0649 0.0381997
2336 50.0649 0.0382033
2337 50.0649 0.0382063
2338 50.0649 0.0382084
2339 50.0649 0.0382165
2340 50.0649 0.0382204
2341 50.0649 0.0382212
2342 50.0649 0.0382256
2343 50.0649 0.0382246
2344 50.0649 0.0382248
2345 50.0649 0.0382262
2346 50.0649 0.0382292
2347 50.0648 0.0382338
2348 50.0648 0.0382332
2349 50.0648 0.0382315
2350 50.0648 0.038232
2351 50.0648 0.0382329
2352 50.0648 0.0382364
2353 50.0648 0.0382371
2354 50.0648 0.0382415
2355 50.0648 0.0382419
2356 50.0648 0.0382383
2357 50.0648 0.0382453
2358 50.0648 0.0382449
2359 50.0648 0.0382489
2360 50.0648 0.0382518
2361 50.0648 0.0382549
2362 50.0648 0.0382526
2363 50.0648 0.038255
2364 50.0648 0.0382603
2365 50.0648 0.0382634
2366 50.0648 0.0382655
2367 50.0648 0.0382657
2368 50.0648 0.0382674
2369 50.0648 0.0382722
2370 50.0648 0.0382733
2371 50.0648 0.0382726
2372 50.0648 0.0382731
2373 50.0648 0.0382704
2374 50.0648 0.0382725
2375 50.0648 0.0382845
2376 50.0647 0.0382891
2377 50.0647 0.0382919
2378 50.0647 0.0382968
2379 50.0647 0.0383093
2380 50.0647 0.0383109
2381 50.0647 0.0383005
2382 50.0647 0.0382974
2383 50.0647 0.0383006
2384 50.0647 0.0382971
2385 50.0647 0.038299
2386 50.0647 0.0382992
2387 50.0647 0.0383002
2388 50.0647 0.0383089
2389 50.0647 0.0383099
2390 50.0647 0.0383105
2391 50.0647 0.0383109
2392 50.0647 0.0383124
2393 50.0647 0.0383138
2394 50.0647 0.0383131
2395 50.0647 0.0383156
2396 50.0647 0.0383212
2397 50.0647 0.0383216
2398 50.0647 0.038321
2399 50.0647 0.0383268
2400 50.0647 0.0383317
2401 50.0647 0.0383334
2402 50.0647 0.0383355
2403 50.0647 0.0383344
2404 50.0647 0.0383355
2405 50.0647 0.0383353
2406 50.0647 0.0383325
2407 50.0647 0.0383363
2408 50.0647 0.0383408
2409 50.0646 0.0383483
2410 50.0646 0.0383496
2411 50.0646 0.0383504
2412 50.0646 0.0383532
2413 50.0646 0.0383545
2414 50.0646 0.0383563
2415 50.0646 0.0383674
2416 50.0646 0.0383703
2417 50.0646 0.0383738
2418 50.0646 0.0383779
2419 50.0646 0.0383763
2420 50.0646 0.0383811
2421 50.0646 0.0383845
2422 50.0646 0.0383915
2423 50.0646 0.0383952
2424 50.0646 0.0384006
2425 50.0646 0.0384045
2426 50.0646 0.0384042
2427 50.0645 0.0384105
2428 50.0645 0.0384161
2429 50.0645 0.0384212
2430 50.0645 0.0384239
2431 50.0645 0.038423
2432 50.0645 0.0384225
2433 50.0645 0.0384241
2434 50.0645 0.0384239
2435 50.0645 0.0384278
2436 50.0645 0.0384336
2437 50.0645 0.0384345
2438 50.0645 0.0384334
2439 50.0645 0.0384274
2440 50.0645 0.0384256
2441 50.0645 0.0384272
2442 50.0645 0.0384291
2443 50.0645 0.0384292
2444 50.0645 0.0384283
2445 50.0645 0.0384254
2446 50.0645 0.0384255
2447 50.0645 0.0384266
2448 50.0645 0.0384282
2449 50.0645 0.0384284
2450 50.0645 0.0384183
2451 50.0645 0.0384162
2452 50.0645 0.0384216
2453 50.0645 0.038418
2454 50.0645 0.038418
2455 50.0645 0.0384238
2456 50.0645 0.0384269
2457 50.0645 0.0384258
2458 50.0645 0.0384382
2459 50.0645 0.0384418
2460 50.0645 0.0384448
2461 50.0645 0.0384439
2462 50.0645 0.0384487
2463 50.0645 0.0384516
2464 50.0645 0.0384538
2465 50.0645 0.0384547
2466 50.0645 0.0384516
2467 50.0645 0.0384542
2468 50.0645 0.0384588
2469 50.0644 0.0384748
2470 50.0644 0.0384802
2471 50.0644 0.0384825
2472 50.0644 0.0384828
2473 50.0644 0.0384834
2474 50.0644 0.0384713
2475 50.0644 0.0384732
2476 50.0644 0.0384734
2477 50.0644 0.0384738
2478 50.0644 0.0384734
2479 50.0644 0.0384761
2480 50.0644 0.0384774
2481 50.0644 0.0384792
2482 50.0644 0.0384902
2483 50.0644 0.0384932
2484 50.0644 0.0384966
2485 50.0644 0.0385007
2486 50.0644 0.0384991
2487 50.0644 0.0385039
2488 50.0644 0.0385074
2489 50.0644 0.0385143
2490 50.0644 0.038518
2491 50.0643 0.0385233
2492 50.0643 0.0385273
2493 50.0643 0.038527
2494 50.0643 0.0385333
2495 50.0643 0.0385389
2496 50.0643 0.038544
2497 50.0643 0.0385467
2498 50.0643 0.0385458
2499 50.0643 0.0385453
2500 50.0643 0.038547
2501 50.0643 0.0385467
2502 50.0643 0.0385506
2503 50.0643 0.0385565
2504 50.0643 0.0385573
2505 50.0643 0.0385561
2506 50.0643 0.0385502
2507 50.0643 0.0385484
2508 50.0643 0.03855
2509 50.0643 0.0385519
2510 50.0643 0.0385519
2511 50.0643 0.0385511
2512 50.0643 0.0385482
2513 50.0643 0.0385483
2514 50.0643 0.0385494
2515 50.0643 0.0385509
2516 50.0643 0.0385511
2517 50.0643 0.0385409
2518 50.0643 0.0385388
2519 50.0643 0.0385442
2520 50.0643 0.0385406
2521 50.0643 0.0385405
2522 50.0643 0.0385463
2523 50.0643 0.0385495
2524 50.0643 0.0385484
2525 50.0643 0.0385607
2526 50.0643 0.0385641
2527 50.0643 0.0385672
2528 50.0643 0.0385662
2529 50.0643 0.038571
2530 50.0643 0.0385739
2531 50.0643 0.0385761
2532 50.0643 0.0385771
2533 50.0643 0.0385739
2534 50.0643 0.0385765
2535 50.0643 0.0385811
2536 50.0642 0.038597
2537 50.0642 0.0386025
2538 50.0642 0.0386047
2539 50.0642 0.038605
2540 50.0642 0.0386057
2541 50.0642 0.0385934
2542 50.0642 0.0385961
2543 50.0642 0.0385962
2544 50.0642 0.0385966
2545 50.0642 0.0385962
2546 50.0642 0.0385989
2547 50.0642 0.0386001
2548 50.0642 0.038602
2549 50.0642 0.038613
2550 50.0642 0.038616
2551 50.0642 0.0386194
2552 50.0642 0.0386235
2553 50.0642 0.0386218
2554 50.0642 0.0386266
2555 50.0642 0.0386301
2556 50.0642 0.038637
2557 50.0641 0.0386407
2558 50.0641 0.038646
2559 50.0641 0.0386499
2560 50.0641 0.0386497
2561 50.0641 0.0386559
2562 50.0641 0.0386615
2563 50.0641 0.0386666
2564 50.0641 0.0386692
2565 50.0641 0.0386684
2566 50.0641 0.0386679
2567 50.0641 0.0386695
2568 50.0641 0.0386693
2569 50.0641 0.0386732
2570 50.0641 0.0386791
2571 50.0641 0.03868
2572 50.0641 0.0386788
2573 50.0641 0.0386728
2574 50.0641 0.0386711
2575 50.0641 0.0386728
2576 50.0641 0.0386747
2577 50.0641 0.0386747
2578 50.0641 0.0386739
2579 50.0641 0.038671
2580 50.0641 0.0386711
2581 50.0641 0.0386722
2582 50.0641 0.0386737
2583 50.0641 0.038674
2584 50.0641 0.0386636
2585 50.0641 0.0386618
2586 50.0641 0.0386621
2587 50.0641 0.0386736
2588 50.0641 0.0386742
2589 50.0641 0.0386759
2590 50.0641 0.0386755
2591 50.0641 0.038675
2592 50.0641 0.0386911
2593 50.0641 0.0386917
2594 50.064 0.038699
2595 50.064 0.038702
2596 50.064 0.0387031
2597 50.0641 0.0386974
2598 50.0641 0.038697
2599 50.064 0.0386996
2600 50.064 0.0387066
2601 50.064 0.03871
2602 50.064 0.0387103
2603 50.064 0.0387123
2604 50.064 0.0387169
2605 50.064 0.0387201
2606 50.064 0.0387212
2607 50.064 0.0387235
2608 50.064 0.0387304
2609 50.064 0.0387263
2610 50.064 0.0387258
2611 50.064 0.038728
2612 50.064 0.0387358
2613 50.064 0.0387216
2614 50.064 0.038719
2615 50.064 0.0387215
2616 50.064 0.0387229
2617 50.064 0.0387235
2618 50.064 0.0387286
2619 50.064 0.0387314
2620 50.064 0.0387313
2621 50.064 0.0387284
2622 50.064 0.0387317
2623 50.064 0.0387338
2624 50.064 0.0387344
2625 50.064 0.0387353
2626 50.064 0.038736
2627 50.064 0.0387412
2628 50.064 0.0387299
2629 50.064 0.0387292
2630 50.064 0.038728
2631 50.064 0.0387438
2632 50.064 0.0387459
2633 50.064 0.0387467
2634 50.0639 0.0387601
2635 50.0639 0.0387624
2636 50.0639 0.0387635
2637 50.0639 0.0387664
2638 50.0639 0.0387723
2639 50.0639 0.0387755
2640 50.0639 0.0387803
2641 50.0639 0.038782
2642 50.0639 0.0387846
2643 50.0639 0.0387886
2644 50.0639 0.0387932
2645 50.0639 0.0387944
2646 50.0639 0.038795
2647 50.0639 0.0387962
2648 50.0639 0.0387984
2649 50.0639 0.0387943
2650 50.0639 0.0387945
2651 50.0639 0.0387927
2652 50.0639 0.038799
2653 50.0639 0.0388015
2654 50.0639 0.0388016
2655 50.0639 0.0388016
2656 50.0639 0.0388057
2657 50.0639 0.0388004
2658 50.0639 0.0387981
2659 50.0639 0.0388021
2660 50.0639 0.0388021
2661 50.0639 0.0387931
2662 50.0639 0.0387983
2663 50.0639 0.0387983
2664 50.0639 0.0387986
2665 50.0639 0.0388101
2666 50.0639 0.0388138
2667 50.0638 0.0388147
2668 50.0639 0.0388095
2669 50.0639 0.0388103
2670 50.0639 0.0388115
2671 50.0638 0.0388184
2672 50.0638 0.0388167
2673 50.0639 0.0388135
2674 50.0638 0.0388148
2675 50.0638 0.0388171
2676 50.0638 0.0388165
2677 50.0638 0.0388171
2678 50.0638 0.0388191
2679 50.0638 0.03882
2680 50.0638 0.0388153
2681 50.0639 0.0388091
2682 50.0639 0.0388136
2683 50.0638 0.0388156
2684 50.0638 0.0388246
2685 50.0638 0.0388228
2686 50.0638 0.0388287
2687 50.0638 0.0388319
2688 50.0638 0.0388371
2689 50.0638 0.0388321
2690 50.0638 0.0388348
2691 50.0638 0.0388422
2692 50.0638 0.0388413
2693 50.0638 0.0388457
2694 50.0638 0.038847
2695 50.0638 0.0388544
2696 50.0638 0.0388608
2697 50.0638 0.0388544
2698 50.0638 0.0388539
2699 50.0638 0.0388552
2700 50.0638 0.0388563
2701 50.0638 0.038857
2702 50.0638 0.038858
2703 50.0638 0.038859
2704 50.0638 0.0388632
2705 50.0638 0.0388713
2706 50.0637 0.0388734
2707 50.0637 0.0388744
2708 50.0637 0.0388772
2709 50.0638 0.0388654
2710 50.0638 0.0388644
2711 50.0638 0.038865
2712 50.0638 0.0388677
2713 50.0638 0.0388706
2714 50.0638 0.038872
2715 50.0637 0.0388732
2716 50.0637 0.0388762
2717 50.0637 0.0388749
2718 50.0637 0.0388767
2719 50.0637 0.0388801
2720 50.0637 0.0388774
2721 50.0637 0.0388727
2722 50.0637 0.0388767
2723 50.0637 0.0388818
2724 50.0637 0.0388893
2725 50.0637 0.0388923
2726 50.0637 0.0388904
2727 50.0637 0.0388966
2728 50.0637 0.0388992
2729 50.0637 0.0389011
2730 50.0637 0.0389004
2731 50.0637 0.0389016
2732 50.0637 0.0389056
2733 50.0637 0.0389151
2734 50.0637 0.038915
2735 50.0637 0.0389165
2736 50.0637 0.0389222
2737 50.0637 0.0389237
2738 50.0637 0.038922
2739 50.0637 0.0389241
2740 50.0637 0.0389238
2741 50.0637 0.0389286
2742 50.0636 0.0389321
2743 50.0636 0.0389314
2744 50.0636 0.0389336
2745 50.0636 0.0389368
2746 50.0636 0.0389382
2747 50.0636 0.0389382
2748 50.0637 0.0389296
2749 50.0636 0.038932
2750 50.0636 0.0389331
2751 50.0636 0.0389358
2752 50.0636 0.0389442
2753 50.0636 0.0389451
2754 50.0636 0.0389496
2755 50.0636 0.0389456
2756 50.0636 0.0389353
2757 50.0636 0.0389425
2758 50.0636 0.0389405
2759 50.0636 0.0389463
2760 50.0636 0.038946
2761 50.0636 0.03895
2762 50.0636 0.0389557
2763 50.0636 0.0389583
2764 50.0636 0.0389552
2765 50.0636 0.0389553
2766 50.0636 0.0389527
2767 50.0636 0.0389507
2768 50.0636 0.0389522
2769 50.0636 0.0389513
2770 50.0636 0.0389549
2771 50.0636 0.0389634
2772 50.0636 0.0389765
2773 50.0636 0.0389851
2774 50.0636 0.0389868
2775 50.0636 0.0389882
2776 50.0635 0.0389906
2777 50.0635 0.0389943
2778 50.0635 0.0390001
2779 50.0635 0.0390037
2780 50.0635 0.0390082
2781 50.0635 0.0390115
2782 50.0635 0.0390092
2783 50.0635 0.0390033
2784 50.0635 0.0390075
2785 50.0635 0.0390124
2786 50.0635 0.0390214
2787 50.0635 0.0390205
2788 50.0635 0.0390204
2789 50.0635 0.0390182
2790 50.0635 0.0390157
2791 50.0635 0.0390191
2792 50.0635 0.0390272
2793 50.0635 0.0390272
2794 50.0635 0.0390302
2795 50.0635 0.0390326
2796 50.0635 0.0390353
2797 50.0634 0.0390469
2798 50.0634 0.0390536
2799 50.0634 0.0390496
2800 50.0634 0.03905
2801 50.0634 0.0390499
2802 50.0634 0.0390514
2803 50.0635 0.0390431
2804 50.0635 0.0390442
2805 50.0635 0.0390328
2806 50.0635 0.0390303
2807 50.0635 0.0390405
2808 50.0635 0.0390423
2809 50.0635 0.0390456
2810 50.0634 0.0390511
2811 50.0634 0.0390504
2812 50.0634 0.0390518
2813 50.0634 0.0390553
2814 50.0634 0.0390567
2815 50.0634 0.0390595
2816 50.0634 0.0390665
2817 50.0634 0.0390665
2818 50.0634 0.0390658
2819 50.0634 0.0390677
2820 50.0634 0.0390705
2821 50.0634 0.0390692
2822 50.0634 0.0390705
2823 50.0634 0.039067
2824 50.0634 0.0390675
2825 50.0634 0.0390732
2826 50.0634 0.0390774
2827 50.0634 0.0390792
2828 50.0634 0.0390798
2829 50.0634 0.0390795
2830 50.0634 0.0390822
2831 50.0634 0.0390891
2832 50.0634 0.0390909
2833 50.0634 0.0390912
2834 50.0634 0.0390976
2835 50.0634 0.0390987
2836 50.0634 0.0390884
2837 50.0634 0.0390843
2838 50.0634 0.0390881
2839 50.0634 0.0390963
2840 50.0634 0.0390976
2841 50.0633 0.0391043
2842 50.0633 0.0391105
2843 50.0633 0.0391124
2844 50.0633 0.0391135
2845 50.0633 0.0391227
2846 50.0633 0.039124
2847 50.0633 0.0391243
2848 50.0633 0.0391285
2849 50.0633 0.039132
2850 50.0633 0.0391313
2851 50.0633 0.039133
2852 50.0633 0.0391402
2853 50.0633 0.0391381
2854 50.0633 0.0391406
2855 50.0633 0.039146
2856 50.0633 0.0391491
2857 50.0633 0.0391491
2858 50.0633 0.0391574
2859 50.0633 0.0391541
2860 50.0633 0.0391537
2861 50.0633 0.0391562
2862 50.0633 0.0391574
2863 50.0633 0.03916
2864 50.0633 0.0391603
2865 50.0633 0.0391602
2866 50.0632 0.0391663
2867 50.0632 0.0391712
2868 50.0632 0.039172
2869 50.0632 0.0391671
2870 50.0632 0.0391732
2871 50.0632 0.0391769
2872 50.0632 0.039182
2873 50.0632 0.0391865
2874 50.0632 0.0391869
2875 50.0632 0.0391883
2876 50.0632 0.0391891
2877 50.0632 0.0391999
2878 50.0632 0.0391956
2879 50.0632 0.0391956
2880 50.0632 0.0391959
2881 50.0632 0.0392027
2882 50.0632 0.0392049
2883 50.0632 0.039208
2884 50.0632 0.0392153
2885 50.0632 0.0392154
2886 50.0632 0.039216
2887 50.0632 0.0392165
2888 50.0632 0.039216
2889 50.0632 0.039216
2890 50.0632 0.0392147
2891 50.0632 0.039205
2892 50.0632 0.0392051
2893 50.0632 0.0392076
2894 50.0632 0.0392067
2895 50.0632 0.0392035
2896 50.0632 0.0392029
2897 50.0632 0.0392037
2898 50.0632 0.0392049
2899 50.0632 0.0392052
2900 50.0632 0.0392086
2901 50.0632 0.0392101
2902 50.0632 0.0391987
2903 50.0632 0.0391999
2904 50.0632 0.0392104
2905 50.0632 0.0392146
2906 50.0632 0.0392099
2907 50.0632 0.0392075
2908 50.0632 0.0392098
2909 50.0632 0.0392119
2910 50.0631 0.0392228
2911 50.0631 0.0392257
2912 50.0631 0.039227
2913 50.0631 0.0392243
2914 50.0631 0.0392214
2915 50.0631 0.0392212
2916 50.0631 0.0392217
2917 50.0631 0.0392296
2918 50.0631 0.0392287
2919 50.0631 0.0392308
2920 50.0631 0.0392327
2921 50.0631 0.0392332
2922 50.0631 0.0392364
2923 50.0631 0.0392393
2924 50.0631 0.0392447
2925 50.0631 0.0392485
2926 50.0631 0.0392535
2927 50.0631 0.0392569
2928 50.0631 0.0392619
2929 50.0631 0.0392659
2930 50.0631 0.0392724
2931 50.063 0.0392767
2932 50.063 0.0392792
2933 50.063 0.0392794
2934 50.063 0.0392809
2935 50.063 0.0392844
2936 50.063 0.0392783
2937 50.063 0.0392855
2938 50.063 0.0392857
2939 50.063 0.0392881
2940 50.063 0.039296
2941 50.063 0.0392952
2942 50.063 0.0392964
2943 50.063 0.0393055
2944 50.063 0.0393076
2945 50.063 0.0393072
2946 50.063 0.0393105
2947 50.063 0.0393116
2948 50.063 0.0393127
2949 50.063 0.0393186
2950 50.063 0.0393212
2951 50.063 0.0393162
2952 50.063 0.0393295
2953 50.0629 0.039337
2954 50.0629 0.0393356
2955 50.0629 0.0393403
2956 50.0629 0.0393439
2957 50.0629 0.0393459
2958 50.0629 0.0393538
2959 50.0629 0.0393583
2960 50.0629 0.0393538
2961 50.0629 0.0393544
2962 50.0629 0.0393595
2963 50.0629 0.0393605
2964 50.0629 0.0393548
2965 50.0629 0.039359
2966 50.0629 0.0393659
2967 50.0629 0.0393714
2968 50.0629 0.0393731
2969 50.0629 0.0393685
2970 50.0629 0.0393829
2971 50.0629 0.0393833
2972 50.0629 0.0393828
2973 50.0629 0.0393833
2974 50.0629 0.0393839
2975 50.0629 0.0393854
2976 50.0629 0.0393854
2977 50.0628 0.0393911
2978 50.0628 0.0393957
2979 50.0628 0.0393985
2980 50.0628 0.0394032
2981 50.0628 0.0394003
2982 50.0628 0.0394009
2983 50.0628 0.039402
2984 50.0628 0.0394054
2985 50.0628 0.0394055
2986 50.0628 0.0394078
2987 50.0628 0.0394076
2988 50.0628 0.0394154
2989 50.0628 0.0394207
2990 50.0628 0.0394233
2991 50.0628 0.0394254
2992 50.0628 0.0394266
2993 50.0628 0.0394295
2994 50.0628 0.0394298
2995 50.0628 0.0394285
2996 50.0628 0.0394312
2997 50.0628 0.0394289
2998 50.0628 0.0394366
2999 50.0628 0.0394368
3000 50.0628 0.0394389
3001 50.0628 0.0394413
3002 50.0628 0.0394443
3003 50.0628 0.0394451
3004 50.0628 0.0394444
3005 50.0627 0.0394578
3006 50.0627 0.0394619
3007 50.0627 0.0394672
3008 50.0627 0.0394705
3009 50.0627 0.0394707
3010 50.0627 0.0394757
3011 50.0627 0.0394775
3012 50.0627 0.0394787
3013 50.0627 0.0394825
3014 50.0627 0.0394836
3015 50.0627 0.0394836
3016 50.0627 0.0394838
3017 50.0627 0.0394874
3018 50.0627 0.0394906
3019 50.0627 0.0394956
3020 50.0627 0.0394979
3021 50.0627 0.039502
3022 50.0627 0.0395038
3023 50.0627 0.0395038
3024 50.0626 0.0395055
3025 50.0626 0.0395074
3026 50.0626 0.0395104
3027 50.0626 0.0395101
3028 50.0626 0.0395124
3029 50.0626 0.0395115
3030 50.0627 0.0395025
3031 50.0626 0.0395056
3032 50.0626 0.0395078
3033 50.0626 0.0395069
3034 50.0627 0.039503
3035 50.0627 0.0395025
3036 50.0627 0.0395032
3037 50.0627 0.0395022
3038 50.0627 0.0395019
3039 50.0627 0.039498
3040 50.0627 0.0394942
3041 50.0627 0.0394987
3042 50.0627 0.0395043
3043 50.0627 0.0395034
3044 50.0626 0.0395093
3045 50.0626 0.0395149
3046 50.0626 0.0395164
3047 50.0626 0.0395169
3048 50.0626 0.0395184
3049 50.0626 0.0395225
3050 50.0626 0.0395235
3051 50.0626 0.0395259
3052 50.0626 0.0395314
3053 50.0626 0.039525
3054 50.0626 0.0395292
3055 50.0626 0.03953
3056 50.0626 0.0395313
3057 50.0626 0.0395355
3058 50.0626 0.039539
3059 50.0626 0.0395412
3060 50.0626 0.0395421
3061 50.0626 0.0395386
3062 50.0626 0.0395338
3063 50.0626 0.0395364
3064 50.0626 0.0395367
3065 50.0626 0.0395312
3066 50.0626 0.0395321
3067 50.0626 0.0395319
3068 50.0626 0.0395301
3069 50.0626 0.0395277
3070 50.0626 0.039537
3071 50.0626 0.0395405
3072 50.0626 0.0395444
3073 50.0626 0.0395443
3074 50.0626 0.0395575
3075 50.0625 0.039572
3076 50.0625 0.0395755
3077 50.0625 0.0395779
3078 50.0625 0.0395795
3079 50.0625 0.0395743
3080 50.0625 0.0395903
3081 50.0625 0.039591
3082 50.0625 0.0395948
3083 50.0625 0.0395941
3084 50.0625 0.0395917
3085 50.0625 0.039592
3086 50.0625 0.0395965
3087 50.0625 0.0396031
3088 50.0625 0.0396023
3089 50.0625 0.0396031
3090 50.0625 0.0396064
3091 50.0625 0.0396116
3092 50.0625 0.0396122
3093 50.0625 0.0396127
3094 50.0625 0.0396124
3095 50.0625 0.0396126
3096 50.0625 0.0396181
3097 50.0624 0.0396228
3098 50.0625 0.0396155
3099 50.0624 0.0396192
3100 50.0624 0.0396277
3101 50.0624 0.0396293
3102 50.0624 0.0396342
3103 50.0624 0.039638
3104 50.0624 0.0396389
3105 50.0624 0.0396372
3106 50.0624 0.0396406
3107 50.0624 0.0396403
3108 50.0624 0.0396553
3109 50.0624 0.0396568
3110 50.0624 0.0396591
3111 50.0624 0.0396596
3112 50.0624 0.0396607
3113 50.0624 0.0396598
3114 50.0624 0.0396572
3115 50.0624 0.039655
3116 50.0624 0.0396572
3117 50.0624 0.039654
3118 50.0624 0.0396492
3119 50.0624 0.0396518
3120 50.0624 0.0396522
3121 50.0624 0.0396466
3122 50.0624 0.0396479
3123 50.0624 0.0396476
3124 50.0624 0.0396458
3125 50.0624 0.0396435
3126 50.0624 0.0396527
3127 50.0624 0.0396565
3128 50.0624 0.0396604
3129 50.0624 0.0396602
3130 50.0624 0.0396734
3131 50.0623 0.0396879
3132 50.0623 0.0396913
3133 50.0623 0.0396937
3134 50.0623 0.0396952
3135 50.0623 0.0396901
3136 50.0623 0.039706
3137 50.0623 0.0397068
3138 50.0623 0.0397103
3139 50.0623 0.0397097
3140 50.0623 0.0397073
3141 50.0623 0.0397076
3142 50.0623 0.0397121
3143 50.0623 0.0397187
3144 50.0623 0.0397179
3145 50.0623 0.0397187
3146 50.0623 0.039722
3147 50.0623 0.0397271
3148 50.0623 0.0397277
3149 50.0623 0.0397283
3150 50.0623 0.039728
3151 50.0623 0.0397282
3152 50.0622 0.0397336
3153 50.0622 0.0397383
3154 50.0623 0.0397309
3155 50.0622 0.0397346
3156 50.0622 0.0397432
3157 50.0622 0.0397447
3158 50.0622 0.0397495
3159 50.0622 0.0397533
3160 50.0622 0.0397541
3161 50.0622 0.0397525
3162 50.0622 0.0397558
3163 50.0622 0.0397556
3164 50.0622 0.0397699
3165 50.0622 0.0397717
3166 50.0622 0.0397739
3167 50.0622 0.0397745
3168 50.0622 0.0397756
3169 50.0622 0.0397747
3170 50.0622 0.0397721
3171 50.0622 0.0397699
3172 50.0622 0.039772
3173 50.0622 0.0397688
3174 50.0622 0.0397641
3175 50.0622 0.0397667
3176 50.0622 0.0397672
3177 50.0622 0.0397618
3178 50.0622 0.0397627
3179 50.0622 0.0397625
3180 50.0622 0.0397607
3181 50.0622 0.0397583
3182 50.0622 0.0397676
3183 50.0622 0.0397714
3184 50.0622 0.0397753
3185 50.0622 0.0397751
3186 50.0622 0.0397883
3187 50.0621 0.0398027
3188 50.0621 0.0397989
3189 50.0621 0.0397991
3190 50.0621 0.0398006
3191 50.0621 0.0398028
3192 50.0621 0.0398077
3193 50.0621 0.0398086
3194 50.0621 0.0398089
3195 50.0621 0.0398111
3196 50.0621 0.0398132
3197 50.0621 0.0398169
3198 50.0621 0.0398161
3199 50.0621 0.039815
3200 50.0621 0.0398212
3201 50.0621 0.039824
3202 50.0621 0.0398317
3203 50.0621 0.0398339
3204 50.0621 0.039834
3205 50.0621 0.0398347
3206 50.0621 0.0398363
3207 50.0621 0.0398394
3208 50.0621 0.039844
3209 50.0621 0.0398433
3210 50.062 0.0398473
3211 50.062 0.0398523
3212 50.062 0.0398531
3213 50.062 0.0398609
3214 50.062 0.0398631
3215 50.062 0.0398603
3216 50.062 0.0398628
3217 50.062 0.0398653
3218 50.062 0.0398649
3219 50.062 0.0398727
3220 50.062 0.0398695
3221 50.062 0.0398703
3222 50.062 0.0398775
3223 50.062 0.0398799
3224 50.062 0.0398895
3225 50.062 0.0398967
3226 50.062 0.0399004
3227 50.0619 0.0399054
3228 50.0619 0.0399068
3229 50.0619 0.0399059
3230 50.0619 0.0399108
3231 50.0619 0.0399125
3232 50.0619 0.0399141
3233 50.0619 0.039923
3234 50.0619 0.0399256
3235 50.0619 0.0399278
3236 50.0619 0.0399354
3237 50.0619 0.0399374
3238 50.0619 0.0399374
3239 50.0619 0.0399382
3240 50.0619 0.0399398
3241 50.0619 0.0399428
3242 50.0619 0.0399475
3243 50.0619 0.0399468
3244 50.0619 0.0399508
3245 50.0619 0.0399477
3246 50.0619 0.0399531
3247 50.0619 0.0399585
3248 50.0619 0.0399579
3249 50.0618 0.0399629
3250 50.0619 0.0399586
3251 50.0618 0.0399607
3252 50.0618 0.0399676
3253 50.0618 0.0399752
3254 50.0618 0.0399779
3255 50.0618 0.0399842
3256 50.0618 0.039983
3257 50.0618 0.039982
3258 50.0618 0.0399911
3259 50.0618 0.0399919
3260 50.0618 0.0399932
3261 50.0618 0.0400004
3262 50.0618 0.0400033
3263 50.0618 0.0400086
3264 50.0617 0.0400169
3265 50.0617 0.0400186
3266 50.0617 0.0400203
3267 50.0617 0.0400216
3268 50.0617 0.0400231
3269 50.0617 0.0400333
3270 50.0617 0.0400355
3271 50.0617 0.040038
3272 50.0617 0.0400408
3273 50.0617 0.0400442
3274 50.0617 0.040052
3275 50.0617 0.0400529
3276 50.0617 0.0400564
3277 50.0617 0.0400595
3278 50.0617 0.0400602
3279 50.0617 0.0400634
3280 50.0617 0.0400657
3281 50.0617 0.0400672
3282 50.0617 0.0400686
3283 50.0616 0.0400733
3284 50.0616 0.0400736
3285 50.0616 0.0400769
3286 50.0616 0.0400833
3287 50.0616 0.0400832
3288 50.0616 0.0400842
3289 50.0616 0.0400834
3290 50.0616 0.0400815
3291 50.0616 0.0400856
3292 50.0616 0.0400856
3293 50.0616 0.0400864
3294 50.0616 0.0400883
3295 50.0616 0.040094
3296 50.0616 0.0400962
3297 50.0616 0.0400986
3298 50.0616 0.0401035
3299 50.0616 0.0401069
3300 50.0616 0.0401111
3301 50.0616 0.0401158
3302 50.0615 0.0401294
3303 50.0615 0.0401342
3304 50.0615 0.0401494
3305 50.0615 0.0401531
3306 50.0615 0.0401523
3307 50.0615 0.0401525
3308 50.0615 0.0401535
3309 50.0615 0.0401532
3310 50.0615 0.0401625
3311 50.0615 0.0401657
3312 50.0615 0.0401684
3313 50.0615 0.0401722
3314 50.0615 0.0401751
3315 50.0615 0.0401758
3316 50.0615 0.0401779
3317 50.0615 0.0401786
3318 50.0614 0.0401899
3319 50.0614 0.0401918
3320 50.0614 0.0401928
3321 50.0614 0.0401961
3322 50.0614 0.0401989
3323 50.0614 0.0401995
3324 50.0614 0.0402022
3325 50.0614 0.0402022
3326 50.0614 0.0402012
3327 50.0614 0.0402017
3328 50.0614 0.0402029
3329 50.0614 0.0401986
3330 50.0614 0.0401955
3331 50.0614 0.0401983
3332 50.0614 0.0401997
3333 50.0614 0.0401996
3334 50.0614 0.0401972
3335 50.0614 0.0401975
3336 50.0614 0.0402006
3337 50.0614 0.0401911
3338 50.0614 0.0401956
3339 50.0614 0.0401985
3340 50.0614 0.0401994
3341 50.0614 0.0401988
3342 50.0614 0.0401892
3343 50.0614 0.0401908
3344 50.0614 0.0401908
3345 50.0614 0.040198
3346 50.0614 0.0401934
3347 50.0614 0.0401933
3348 50.0614 0.0401931
3349 50.0614 0.0401937
3350 50.0614 0.0401927
3351 50.0614 0.0401978
3352 50.0614 0.0401858
3353 50.0614 0.0401871
3354 50.0614 0.0401893
3355 50.0614 0.040188
3356 50.0614 0.0401877
3357 50.0614 0.0401949
3358 50.0614 0.0401994
3359 50.0614 0.0401989
3360 50.0614 0.0402034
3361 50.0614 0.0402088
3362 50.0614 0.0402076
3363 50.0614 0.0402129
3364 50.0614 0.0402145
3365 50.0614 0.0402173
3366 50.0614 0.0402201
3367 50.0614 0.0402138
3368 50.0614 0.040217
3369 50.0614 0.0402085
3370 50.0614 0.0402103
3371 50.0614 0.0402106
3372 50.0614 0.040211
3373 50.0614 0.0402071
3374 50.0614 0.040204
3375 50.0614 0.0402091
3376 50.0614 0.0402136
3377 50.0614 0.0402111
3378 50.0614 0.0402172
3379 50.0614 0.0402036
3380 50.0614 0.0402057
3381 50.0614 0.0402107
3382 50.0614 0.040213
3383 50.0614 0.0402077
3384 50.0614 0.040212
3385 50.0614 0.0402212
3386 50.0614 0.0402227
3387 50.0614 0.0402224
3388 50.0614 0.0402303
3389 50.0614 0.0402277
3390 50.0614 0.0402343
3391 50.0614 0.0402326
3392 50.0614 0.0402325
3393 50.0614 0.0402326
3394 50.0614 0.0402387
3395 50.0613 0.0402426
3396 50.0613 0.0402453
3397 50.0613 0.0402499
3398 50.0613 0.0402461
3399 50.0613 0.0402487
3400 50.0613 0.0402489
3401 50.0613 0.0402467
3402 50.0613 0.0402464
3403 50.0613 0.0402465
3404 50.0613 0.0402494
3405 50.0613 0.0402566
3406 50.0613 0.0402582
3407 50.0613 0.0402618
3408 50.0613 0.0402635
3409 50.0613 0.0402602
3410 50.0613 0.0402674
3411 50.0613 0.0402744
3412 50.0613 0.0402769
3413 50.0613 0.0402796
3414 50.0613 0.0402842
3415 50.0613 0.0402846
3416 50.0613 0.0402904
3417 50.0612 0.0403053
3418 50.0612 0.0403217
3419 50.0612 0.0403239
3420 50.0612 0.0403294
3421 50.0612 0.0403388
3422 50.0612 0.0403391
3423 50.0612 0.0403427
3424 50.0611 0.0403557
3425 50.0611 0.0403645
3426 50.0611 0.0403683
3427 50.0611 0.040368
3428 50.0611 0.0403665
3429 50.0611 0.0403682
3430 50.0611 0.0403765
3431 50.0611 0.0403805
3432 50.0611 0.0403821
3433 50.0611 0.0403837
3434 50.0611 0.0403882
3435 50.0611 0.0403917
3436 50.0611 0.0403917
3437 50.0611 0.0403903
3438 50.0611 0.0403927
3439 50.0611 0.0403892
3440 50.0611 0.0403937
3441 50.0611 0.0403951
3442 50.0611 0.0403921
3443 50.0611 0.0403915
3444 50.0611 0.0403919
3445 50.0611 0.0403923
3446 50.0611 0.0403946
3447 50.0611 0.0403974
3448 50.0611 0.0403985
3449 50.0611 0.0403957
3450 50.0611 0.0403969
3451 50.0611 0.0403971
3452 50.0611 0.040398
3453 50.0611 0.0404026
3454 50.0611 0.0404052
3455 50.0611 0.0404058
3456 50.0611 0.0404042
3457 50.0611 0.0403945
3458 50.0611 0.0403966
3459 50.0611 0.0403996
3460 50.0611 0.0404059
3461 50.0611 0.0403938
3462 50.0611 0.0403933
3463 50.0611 0.0403933
3464 50.0611 0.0404011
3465 50.0611 0.0404032
3466 50.0611 0.0404088
3467 50.061 0.0404096
3468 50.061 0.0404131
3469 50.061 0.0404254
3470 50.061 0.0404297
3471 50.061 0.040431
3472 50.061 0.0404329
3473 50.061 0.0404371
3474 50.061 0.040451
3475 50.061 0.0404541
3476 50.061 0.0404563
3477 50.061 0.0404612
3478 50.0609 0.0404665
3479 50.0609 0.0404684
3480 50.0609 0.0404728
3481 50.0609 0.0404723
3482 50.0609 0.0404792
3483 50.0609 0.0404841
3484 50.0609 0.040485
3485 50.0609 0.0404749
3486 50.0609 0.0404761
3487 50.0609 0.0404714
3488 50.0609 0.0404742
3489 50.0609 0.0404763
3490 50.0609 0.0404803
3491 50.0609 0.0404806
3492 50.0609 0.0404833
3493 50.0609 0.0404838
3494 50.0609 0.0404848
3495 50.0609 0.040487
3496 50.0609 0.0404899
3497 50.0609 0.0404932
3498 50.0609 0.0404957
3499 50.0609 0.040499
3500 50.0609 0.0404969
3501 50.0609 0.0405011
3502 50.0609 0.0405016
3503 50.0609 0.0405049
3504 50.0609 0.0405064
3505 50.0609 0.0405126
3506 50.0609 0.0405157
3507 50.0608 0.0405221
3508 50.0608 0.0405271
3509 50.0608 0.0405338
3510 50.0608 0.040535
3511 50.0608 0.0405282
3512 50.0608 0.0405297
3513 50.0608 0.040545
3514 50.0608 0.0405491
3515 50.0608 0.04055
3516 50.0608 0.0405494
3517 50.0608 0.0405399
3518 50.0608 0.0405433
3519 50.0608 0.0405421
3520 50.0608 0.0405496
3521 50.0608 0.0405514
3522 50.0608 0.0405549
3523 50.0608 0.0405541
3524 50.0608 0.0405544
3525 50.0608 0.0405512
3526 50.0608 0.0405567
3527 50.0608 0.0405582
3528 50.0608 0.0405574
3529 50.0608 0.0405517
3530 50.0608 0.0405507
3531 50.0608 0.0405554
3532 50.0608 0.0405583
3533 50.0608 0.0405601
3534 50.0608 0.0405561
3535 50.0608 0.0405598
3536 50.0608 0.0405551
3537 50.0608 0.0405595
3538 50.0608 0.0405686
3539 50.0608 0.0405717
3540 50.0608 0.0405725
3541 50.0608 0.040571
3542 50.0608 0.0405732
3543 50.0608 0.0405739
3544 50.0608 0.0405723
3545 50.0607 0.0405789
3546 50.0608 0.0405743
3547 50.0607 0.0405774
3548 50.0607 0.0405798
3549 50.0607 0.0405827
3550 50.0607 0.0405899
3551 50.0607 0.0405934
3552 50.0607 0.0405936
3553 50.0607 0.0405902
3554 50.0607 0.0405935
3555 50.0607 0.0406003
3556 50.0607 0.0406016
3557 50.0607 0.0406036
3558 50.0607 0.040604
3559 50.0607 0.0406073
3560 50.0607 0.0406084
3561 50.0607 0.0406135
3562 50.0607 0.0406119
3563 50.0607 0.0406149
3564 50.0607 0.0406175
3565 50.0607 0.0406214
3566 50.0607 0.0406246
3567 50.0607 0.040619
3568 50.0607 0.0406175
3569 50.0607 0.0406174
3570 50.0607 0.0406216
3571 50.0607 0.0406248
3572 50.0607 0.0406265
3573 50.0607 0.0406278
3574 50.0606 0.0406328
3575 50.0606 0.0406391
3576 50.0606 0.0406412
3577 50.0606 0.0406359
3578 50.0606 0.0406382
3579 50.0606 0.0406388
3580 50.0606 0.0406446
3581 50.0606 0.0406494
3582 50.0606 0.0406503
3583 50.0606 0.0406449
3584 50.0606 0.0406447
3585 50.0606 0.0406518
3586 50.0606 0.0406655
3587 50.0606 0.0406695
3588 50.0606 0.0406697
3589 50.0606 0.0406669
3590 50.0606 0.0406676
3591 50.0606 0.0406727
3592 50.0606 0.0406713
3593 50.0606 0.0406734
3594 50.0606 0.0406713
3595 50.0606 0.040673
3596 50.0606 0.0406781
3597 50.0606 0.0406835
3598 50.0606 0.0406848
3599 50.0606 0.0406866
3600 50.0606 0.0406863
3601 50.0606 0.0406864
3602 50.0606 0.0406862
3603 50.0606 0.0406876
3604 50.0605 0.0406893
3605 50.0605 0.0406915
3606 50.0605 0.0406942
3607 50.0605 0.0406977
3608 50.0605 0.0406979
3609 50.0605 0.0406975
3610 50.0605 0.040703
3611 50.0605 0.0407109
3612 50.0605 0.0407172
3613 50.0605 0.0407209
3614 50.0605 0.0407192
3615 50.0605 0.0407189
3616 50.0605 0.0407214
3617 50.0605 0.0407223
3618 50.0605 0.0407243
3619 50.0605 0.040724
3620 50.0605 0.0407269
3621 50.0605 0.0407293
3622 50.0605 0.0407333
3623 50.0605 0.0407361
3624 50.0605 0.0407338
3625 50.0605 0.0407324
3626 50.0605 0.040732
3627 50.0605 0.0407353
3628 50.0605 0.0407401
3629 50.0605 0.0407417
3630 50.0604 0.0407462
3631 50.0604 0.0407514
3632 50.0604 0.0407578
3633 50.0604 0.0407618
3634 50.0604 0.040757
3635 50.0604 0.0407554
3636 50.0604 0.0407595
3637 50.0604 0.0407684
3638 50.0604 0.0407701
3639 50.0604 0.0407719
3640 50.0604 0.0407668
3641 50.0604 0.0407697
3642 50.0604 0.0407737
3643 50.0604 0.0407838
3644 50.0604 0.0407831
3645 50.0604 0.0407827
3646 50.0604 0.0407798
3647 50.0604 0.0407834
3648 50.0604 0.0407896
3649 50.0604 0.0407845
3650 50.0604 0.0407855
3651 50.0604 0.0407833
3652 50.0604 0.0407871
3653 50.0604 0.0407905
3654 50.0604 0.0407942
3655 50.0604 0.0407957
3656 50.0604 0.0407975
3657 50.0604 0.0407977
3658 50.0603 0.040799
3659 50.0604 0.0407971
3660 50.0604 0.040798
3661 50.0604 0.0407985
3662 50.0603 0.0408041
3663 50.0603 0.0408093
3664 50.0603 0.0408105
3665 50.0603 0.0408052
3666 50.0603 0.0408052
3667 50.0603 0.0408103
3668 50.0603 0.0408237
3669 50.0603 0.0408331
3670 50.0603 0.0408366
3671 50.0603 0.0408346
3672 50.0603 0.0408356
3673 50.0603 0.040838
3674 50.0603 0.0408401
3675 50.0603 0.040842
3676 50.0603 0.0408413
3677 50.0603 0.0408415
3678 50.0603 0.0408467
3679 50.0603 0.0408507
3680 50.0603 0.0408522
3681 50.0603 0.0408496
3682 50.0603 0.0408506
3683 50.0603 0.0408496
3684 50.0603 0.0408519
3685 50.0602 0.0408561
3686 50.0602 0.0408586
3687 50.0602 0.0408612
3688 50.0602 0.0408642
3689 50.0602 0.0408714
3690 50.0602 0.0408748
3691 50.0602 0.040875
3692 50.0602 0.0408717
3693 50.0602 0.0408749
3694 50.0602 0.0408817
3695 50.0602 0.040882
3696 50.0602 0.0408848
3697 50.0602 0.0408858
3698 50.0602 0.0408903
3699 50.0602 0.0408991
3700 50.0602 0.0409016
3701 50.0602 0.0409062
3702 50.0602 0.0409075
3703 50.0602 0.0409083
3704 50.0601 0.0409157
3705 50.0601 0.0409217
3706 50.0601 0.0409221
3707 50.0601 0.0409199
3708 50.0601 0.0409133
3709 50.0601 0.0409141
3710 50.0601 0.0409309
3711 50.0601 0.0409352
3712 50.0601 0.0409358
3713 50.0601 0.0409378
3714 50.0601 0.0409375
3715 50.0601 0.0409402
3716 50.0601 0.0409442
3717 50.0601 0.0409466
3718 50.0601 0.040961
3719 50.06 0.0409657
3720 50.06 0.040965
3721 50.06 0.0409674
3722 50.06 0.0409709
3723 50.06 0.0409686
3724 50.06 0.0409654
3725 50.06 0.0409797
3726 50.06 0.0409785
3727 50.06 0.0409829
3728 50.06 0.0409864
3729 50.06 0.0409851
3730 50.06 0.0409913
3731 50.06 0.0409944
3732 50.06 0.0409965
3733 50.06 0.0409988
3734 50.06 0.0410002
3735 50.06 0.0410021
3736 50.06 0.0409961
3737 50.06 0.0409964
3738 50.06 0.0409976
3739 50.06 0.0409996
3740 50.06 0.0410029
3741 50.06 0.0410157
3742 50.06 0.041014
3743 50.06 0.0410148
3744 50.06 0.0410159
3745 50.06 0.0410173
3746 50.06 0.041019
3747 50.0599 0.0410227
3748 50.0599 0.041031
3749 50.0599 0.0410401
3750 50.0599 0.0410431
3751 50.0599 0.0410459
3752 50.0599 0.041047
3753 50.0599 0.0410488
3754 50.0599 0.0410466
3755 50.0599 0.0410504
3756 50.0599 0.0410521
3757 50.0599 0.0410565
3758 50.0599 0.0410536
3759 50.0599 0.0410514
3760 50.0599 0.0410489
3761 50.0599 0.0410416
3762 50.0599 0.0410489
3763 50.0599 0.0410542
3764 50.0599 0.0410581
3765 50.0599 0.041062
3766 50.0599 0.0410721
3767 50.0599 0.0410714
3768 50.0599 0.0410695
3769 50.0599 0.0410693
3770 50.0599 0.0410742
3771 50.0598 0.041081
3772 50.0599 0.0410714
3773 50.0599 0.0410617
3774 50.0599 0.0410657
3775 50.0599 0.0410528
3776 50.0599 0.041052
3777 50.0599 0.0410387
3778 50.0599 0.0410401
3779 50.0599 0.0410446
3780 50.0599 0.0410439
3781 50.0599 0.0410466
3782 50.0599 0.041049
3783 50.0599 0.0410481
3784 50.0599 0.0410506
3785 50.0599 0.0410564
3786 50.0599 0.0410562
3787 50.0599 0.041052
3788 50.0599 0.0410376
3789 50.0599 0.041034
3790 50.0599 0.0410326
3791 50.06 0.0410181
3792 50.0599 0.0410241
3793 50.0599 0.0410369
3794 50.0599 0.0410456
3795 50.0599 0.0410547
3796 50.0599 0.0410566
3797 50.0599 0.0410503
3798 50.0599 0.041043
3799 50.0599 0.0410447
3800 50.0599 0.0410407
3801 50.0599 0.0410441
3802 50.0599 0.0410462
3803 50.0599 0.0410498
3804 50.0599 0.0410512
3805 50.0599 0.0410536
3806 50.0599 0.041055
3807 50.0599 0.0410571
3808 50.0599 0.0410611
3809 50.0599 0.0410639
3810 50.0599 0.0410642
3811 50.0599 0.041067
3812 50.0599 0.0410703
3813 50.0599 0.0410744
3814 50.0599 0.0410736
3815 50.0598 0.0410786
3816 50.0598 0.0410762
3817 50.0598 0.0410837
3818 50.0598 0.0410871
3819 50.0598 0.0410879
3820 50.0598 0.0410889
3821 50.0598 0.0410927
3822 50.0598 0.0410936
3823 50.0598 0.0410966
3824 50.0598 0.0410969
3825 50.0598 0.0410973
3826 50.0598 0.0410957
3827 50.0598 0.0410978
3828 50.0598 0.0410984
3829 50.0598 0.0410982
3830 50.0598 0.0411075
3831 50.0598 0.0411078
3832 50.0598 0.0411134
3833 50.0598 0.041118
3834 50.0598 0.0411258
3835 50.0598 0.0411267
3836 50.0597 0.0411305
3837 50.0597 0.0411347
3838 50.0597 0.0411386
3839 50.0597 0.041141
3840 50.0597 0.0411397
3841 50.0597 0.0411397
3842 50.0597 0.0411312
3843 50.0598 0.0411293
3844 50.0597 0.0411345
3845 50.0597 0.0411392
3846 50.0597 0.041141
3847 50.0597 0.0411422
3848 50.0597 0.0411446
3849 50.0597 0.0411439
3850 50.0597 0.0411454
3851 50.0597 0.0411474
3852 50.0597 0.0411422
3853 50.0597 0.0411424
3854 50.0597 0.0411467
3855 50.0597 0.0411565
3856 50.0597 0.041156
3857 50.0597 0.0411586
3858 50.0597 0.0411612
3859 50.0597 0.041156
3860 50.0597 0.0411564
3861 50.0597 0.0411522
3862 50.0597 0.0411538
