1 2.26748e-07 -0.000448757
2 5.51456e-08 -0.000305833
3 2.11904e-05 -0.00212545
4 5.35687e-05 -0.00231432
5 7.4297e-05 -0.00231603
6 1.86948e-05 -0.00196937
7 -9.32473e-05 -0.00168522
8 -0.000501828 -0.000897221
9 0.00192747 -0.00483216
10 0.0047224 -0.00666353
11 0.00778781 -0.00785537
12 0.0112201 -0.00855748
13 0.0145542 -0.00858729
14 0.0183292 -0.00836229
15 0.0217792 -0.00773018
16 0.0634638 -0.0160832
17 0.117313 -0.0070378
18 0.187651 0.00277527
19 0.256199 0.0140118
20 0.32484 0.0240594
21 0.39419 0.0329705
22 0.46304 0.0409667
23 0.531942 0.0480191
24 0.601072 0.0543172
25 0.596192 0.0632965
26 0.675565 0.0613339
27 0.745436 0.0659108
28 0.814455 0.0697581
29 0.883463 0.0724211
30 0.952182 0.0739701
31 1.02144 0.0744723
32 1.09032 0.074131
33 1.15916 0.073011
34 1.22801 0.0712581
35 1.29669 0.0690012
36 1.36544 0.0662616
37 1.43419 0.0631426
38 1.50986 0.0593847
39 1.57407 0.0556077
40 1.6376 0.0517607
41 1.70658 0.0474044
42 1.77524 0.0429538
43 1.84404 0.0383854
44 1.91284 0.0337277
45 1.98161 0.0290104
46 2.05021 0.0242044
47 2.1187 0.0193556
48 2.18741 0.0144449
49 2.25608 0.009502
50 2.24539 0.0111313
51 2.33245 0.00352588
52 2.40199 -0.00215815
53 2.47068 -0.0077259
54 2.53926 -0.0132878
55 2.61595 -0.0194608
56 2.67655 -0.0243512
57 2.7512 -0.0303228
58 2.81384 -0.0353393
59 2.88244 -0.0408316
60 2.95104 -0.0463176
61 3.01965 -0.0518346
62 3.00731 -0.0505442
63 3.09609 -0.0585767
64 3.16544 -0.064849
65 3.23399 -0.0710123
66 3.30266 -0.0771449
67 3.37134 -0.0832058
68 3.43983 -0.0891832
69 3.50843 -0.0951059
70 3.57693 -0.10097
71 3.64544 -0.106795
72 3.71397 -0.112577
73 3.70207 -0.111441
74 3.77013 -0.117651
75 3.82996 -0.12321
76 3.89842 -0.129507
77 3.96691 -0.135735
78 4.0354 -0.141892
79 4.10389 -0.147952
80 4.17238 -0.15395
81 4.24091 -0.159866
82 4.31483 -0.166188
83 4.37803 -0.171572
84 4.45201 -0.177966
85 4.51122 -0.183372
86 4.58044 -0.189742
87 4.64901 -0.195991
88 4.71743 -0.20214
89 4.78591 -0.208199
90 4.85426 -0.214164
91 4.92266 -0.220062
92 4.99119 -0.22593
93 4.97881 -0.224803
94 5.06661 -0.232889
95 5.13598 -0.239421
96 5.20569 -0.245908
97 5.27294 -0.252088
98 5.34141 -0.258292
99 5.40985 -0.264409
100 5.47837 -0.270453
101 5.54702 -0.276453
102 5.53412 -0.275279
103 5.62216 -0.28352
104 5.69174 -0.290215
105 5.76032 -0.296733
106 5.82894 -0.30316
107 5.8975 -0.309473
108 5.96593 -0.315662
109 6.03442 -0.321759
110 6.10293 -0.32779
111 6.08992 -0.32659
112 6.17843 -0.334821
113 6.24768 -0.341352
114 6.3163 -0.347756
115 6.38488 -0.354079
116 6.45326 -0.360276
117 6.52192 -0.366406
118 6.59039 -0.372443
119 6.57868 -0.37135
120 6.66596 -0.37934
121 6.74258 -0.386386
122 6.80219 -0.391845
123 6.87067 -0.398058
124 6.93918 -0.404204
125 7.00746 -0.410277
126 6.99543 -0.409196
127 7.08199 -0.417674
128 7.158 -0.425429
129 7.21849 -0.431553
130 7.28676 -0.43833
131 7.35523 -0.444995
132 7.34273 -0.443881
133 7.43158 -0.453033
134 7.50082 -0.460394
135 7.57795 -0.46845
136 7.63766 -0.474562
137 7.70616 -0.481398
138 7.69315 -0.480174
139 7.78228 -0.489451
140 7.85171 -0.496876
141 7.92031 -0.50407
142 7.98877 -0.511072
143 8.05709 -0.517891
144 8.04578 -0.516789
145 8.13318 -0.525914
146 8.20506 -0.53355
147 8.27824 -0.541164
148 8.33803 -0.547266
149 8.32541 -0.546024
150 8.41379 -0.555475
151 8.4832 -0.563084
152 8.55163 -0.57043
153 8.61985 -0.577586
154 8.60699 -0.576298
155 8.69554 -0.585792
156 8.76489 -0.593358
157 8.75215 -0.592111
158 8.84036 -0.601986
159 8.90952 -0.609938
160 8.89746 -0.60875
161 8.90955 -0.609865
162 8.92055 -0.610261
163 8.93184 -0.60982
164 8.94203 -0.6084
165 8.95163 -0.605945
166 8.96089 -0.60226
167 8.96975 -0.597031
168 8.96987 -0.595126
169 8.97244 -0.592733
170 8.97498 -0.589408
171 8.97634 -0.586403
172 8.9773 -0.583568
173 8.97811 -0.580464
174 8.99637 -0.512781
175 8.9956 -0.442642
176 8.99228 -0.36587
177 8.99126 -0.303742
178 8.99078 -0.234747
179 8.99173 -0.165733
180 8.99396 -0.0966248
181 8.99725 -0.0276817
182 9.00145 0.041055
183 9.00651 0.110012
184 9.01273 0.187618
185 9.01834 0.247831
186 9.02495 0.31613
187 9.03208 0.384863
188 9.03942 0.453297
189 9.04704 0.521702
190 9.05493 0.590341
191 9.06296 0.658794
192 9.05703 0.649691
193 9.0579 0.657149
194 9.05839 0.665013
195 9.05812 0.672389
196 9.057 0.679113
197 9.05512 0.684633
198 9.05296 0.688324
199 9.05118 0.6903
200 9.04931 0.692115
201 9.04781 0.693041
202 9.04544 0.694047
203 9.04294 0.694229
204 9.04119 0.693931
205 9.03805 0.693293
206 8.98247 0.676305
207 8.92339 0.63993
208 8.86513 0.601783
209 8.8062 0.564752
210 8.74642 0.529192
211 8.68592 0.495268
212 8.61687 0.458475
213 8.56262 0.431632
214 8.50001 0.40201
215 8.43739 0.373829
216 8.37316 0.346433
217 8.3093 0.320185
218 8.24509 0.294863
219 8.18038 0.270209
220 8.11566 0.246421
221 8.05093 0.223316
222 7.98538 0.200555
223 7.92045 0.178466
224 7.85508 0.156711
225 7.84889 0.152372
226 7.83829 0.14912
227 7.8303 0.147303
228 7.82933 0.147203
229 7.82582 0.146893
230 7.82222 0.146896
231 7.81773 0.147299
232 7.81336 0.148127
233 7.80839 0.149306
234 7.8053 0.150662
235 7.802 0.152143
236 7.79957 0.153374
237 7.72733 0.187031
238 7.6671 0.225396
239 7.66979 0.233434
240 7.67024 0.235398
241 7.66663 0.23804
242 7.6649 0.239793
243 7.66273 0.24196
244 7.65996 0.245
245 7.65731 0.248575
246 7.65537 0.251925
247 7.65372 0.255332
248 7.65237 0.258855
249 7.65123 0.262665
250 7.65059 0.265975
251 7.62925 0.338976
252 7.623 0.409594
253 7.61862 0.478799
254 7.61406 0.547774
255 7.60901 0.616706
256 7.60349 0.685294
257 7.59688 0.762557
258 7.59086 0.822872
259 7.5839 0.891608
260 7.57658 0.960334
261 7.58462 0.953405
262 7.58393 0.960876
263 7.58339 0.969653
264 7.58372 0.979075
265 7.58539 0.988701
266 7.58867 0.997736
267 7.59077 0.998675
268 7.59276 1.00125
269 7.59524 1.00332
270 7.59841 1.00493
271 7.60168 1.00555
272 7.6045 1.00541
273 7.60708 1.00493
274 7.60924 1.00425
275 7.66743 0.990201
276 7.72982 0.958425
277 7.7909 0.925958
278 7.85307 0.894788
279 7.91554 0.865169
280 7.97929 0.837052
281 8.04327 0.810463
282 8.10817 0.785203
283 8.17305 0.761296
284 8.23806 0.738577
285 8.30401 0.716662
286 8.3697 0.695706
287 8.43615 0.675415
288 8.50232 0.655865
289 8.56827 0.636987
290 8.63474 0.618526
291 8.70116 0.600509
292 8.76784 0.582832
293 8.83458 0.565449
294 8.90137 0.548283
295 8.96811 0.531228
296 9.03479 0.514371
297 9.10154 0.497666
298 9.16841 0.481045
299 9.23538 0.464518
300 9.30218 0.448142
301 9.36909 0.431825
302 9.43587 0.415625
303 9.50284 0.399485
304 9.56978 0.383382
305 9.63675 0.367319
306 9.70366 0.351327
307 9.77061 0.335383
308 9.83757 0.319481
309 9.90458 0.303604
310 9.9715 0.287802
311 10.0385 0.272007
312 10.1055 0.256223
313 10.1725 0.240455
314 10.2455 0.223321
315 10.3152 0.206963
316 10.3736 0.193258
317 10.4466 0.17615
318 10.5077 0.161837
319 10.5747 0.146124
320 10.6417 0.130422
321 10.7087 0.114712
322 10.7757 0.0990237
323 10.8428 0.0833272
324 10.9098 0.0676393
325 10.9768 0.0519577
326 11.0438 0.0362718
327 11.1108 0.0205929
328 11.1779 0.00492051
329 11.2449 -0.0107471
330 11.3119 -0.0264121
331 11.379 -0.0420844
332 11.446 -0.0577482
333 11.513 -0.0734138
334 11.58 -0.0890677
335 11.6471 -0.104724
336 11.7141 -0.120369
337 11.7811 -0.136016
338 11.8482 -0.151656
339 11.9152 -0.167303
340 11.9822 -0.182946
341 12.0493 -0.198596
342 12.1163 -0.214228
343 12.1834 -0.229857
344 12.2504 -0.245495
345 12.3174 -0.261127
346 12.3845 -0.27676
347 12.4515 -0.292386
348 12.5185 -0.308025
349 12.5856 -0.323639
350 12.6526 -0.339266
351 12.7197 -0.354877
352 12.7867 -0.370493
353 12.8538 -0.386105
354 12.9208 -0.401719
355 12.9878 -0.417332
356 13.0549 -0.432936
357 13.1219 -0.448548
358 13.189 -0.464155
359 13.256 -0.479756
360 13.3231 -0.495356
361 13.3901 -0.510961
362 13.4571 -0.52657
363 13.5242 -0.542161
364 13.5912 -0.55775
365 13.6583 -0.573344
366 13.7253 -0.588938
367 13.7924 -0.604527
368 13.8594 -0.620108
369 13.9265 -0.63569
370 13.9935 -0.65128
371 14.0693 -0.668866
372 14.1276 -0.682424
373 14.1947 -0.698004
374 14.2617 -0.713581
375 14.3375 -0.73116
376 14.3959 -0.744716
377 14.4629 -0.760281
378 14.53 -0.775853
379 14.597 -0.791421
380 14.6641 -0.806992
381 14.7311 -0.822574
382 14.7982 -0.838135
383 14.8652 -0.853688
384 14.9323 -0.869256
385 14.9993 -0.884811
386 15.0664 -0.900383
387 15.1334 -0.915948
388 15.2005 -0.931507
389 15.2676 -0.947066
390 15.3346 -0.96262
391 15.4017 -0.978172
392 15.4687 -0.993735
393 15.5358 -1.00929
394 15.6028 -1.02485
395 15.6699 -1.0404
396 15.737 -1.05596
397 15.804 -1.07151
398 15.8711 -1.08706
399 15.9381 -1.10261
400 16.0052 -1.11816
401 16.0722 -1.13371
402 16.1393 -1.14926
403 16.2064 -1.16482
404 16.2734 -1.18036
405 16.3405 -1.19591
406 16.4075 -1.21145
407 16.4746 -1.22699
408 16.5417 -1.24253
409 16.6087 -1.25807
410 16.6758 -1.27362
411 16.7428 -1.28915
412 16.8099 -1.3047
413 16.877 -1.32025
414 16.944 -1.33579
415 17.0111 -1.35134
416 17.0848 -1.36841
417 17.1452 -1.3824
418 17.2123 -1.39794
419 17.2793 -1.41349
420 17.3464 -1.42902
421 17.4134 -1.44456
422 17.4805 -1.46009
423 17.5476 -1.47564
424 17.6146 -1.49118
425 17.6817 -1.50671
426 17.7488 -1.52225
427 17.8158 -1.5378
428 17.8344 -1.54216
429 17.8405 -1.54343
430 17.8504 -1.54489
431 17.8612 -1.54553
432 17.8676 -1.54487
433 17.8753 -1.54335
434 17.8811 -1.54116
435 17.8853 -1.53879
436 17.8872 -1.53714
437 17.8898 -1.53505
438 17.8921 -1.53258
439 17.8939 -1.52986
440 17.8954 -1.52696
441 17.8967 -1.52391
442 17.9265 -1.45751
443 17.9389 -1.3884
444 17.9498 -1.3201
445 17.9625 -1.24332
446 17.9739 -1.18403
447 17.9874 -1.11628
448 18.0016 -1.0488
449 18.0166 -0.981385
450 18.0321 -0.914297
451 18.0499 -0.839359
452 18.0648 -0.780132
453 18.0816 -0.713555
454 18.0991 -0.646201
455 18.1165 -0.579625
456 18.1341 -0.513094
457 18.152 -0.446596
458 18.17 -0.380177
459 18.1882 -0.313759
460 18.2065 -0.24732
461 18.2249 -0.180891
462 18.2434 -0.114729
463 18.262 -0.0484139
464 18.2806 0.0178597
465 18.2993 0.0841398
466 18.318 0.1504
467 18.3366 0.216569
468 18.3554 0.282757
469 18.3741 0.349015
470 18.3929 0.415281
471 18.4116 0.481478
472 18.4304 0.547674
473 18.4492 0.613927
474 18.468 0.680131
475 18.4869 0.746404
476 18.5057 0.812612
477 18.5246 0.878824
478 18.5434 0.945029
479 18.5623 1.01119
480 18.5811 1.07741
481 18.6024 1.15218
482 18.6189 1.20983
483 18.6378 1.27603
484 18.6567 1.34221
485 18.6756 1.4084
486 18.6945 1.4746
487 18.7134 1.54079
488 18.7323 1.60697
489 18.7512 1.6731
490 18.7702 1.7393
491 18.7891 1.80549
492 18.808 1.87167
493 18.827 1.93784
494 18.8484 2.01261
495 18.8649 2.07021
496 18.8838 2.1364
497 18.8798 2.1238
498 18.8825 2.13196
499 18.8861 2.14005
500 18.8893 2.14483
501 18.8907 2.14612
502 18.8937 2.14896
503 18.8971 2.15097
504 18.9002 2.15191
505 18.9029 2.15231
506 18.9048 2.15234
507 18.9065 2.15238
508 18.9721 2.14145
509 19.0384 2.10917
510 19.0924 2.08206
511 19.155 2.0517
512 19.2173 2.02288
513 19.2805 1.99566
514 19.3444 1.96982
515 19.4092 1.94523
516 19.4738 1.92194
517 19.5395 1.89963
518 19.6049 1.87832
519 19.6708 1.85786
520 19.7454 1.83555
521 19.8035 1.81893
522 19.8697 1.80046
523 19.9362 1.78246
524 20.0102 1.76293
525 20.07 1.74753
526 20.1367 1.73059
527 20.2036 1.71391
528 20.2705 1.69743
529 20.3373 1.68115
530 20.4043 1.66498
531 20.4712 1.64892
532 20.5469 1.6309
533 20.6054 1.61706
534 20.6723 1.60128
535 20.7393 1.58554
536 20.8064 1.56986
537 20.8734 1.55424
538 20.9404 1.5387
539 21.0075 1.52317
540 21.0745 1.50768
541 21.1416 1.49221
542 21.2174 1.47479
543 21.2758 1.46133
544 21.3516 1.44395
545 21.4101 1.43054
546 21.4859 1.4132
547 21.5443 1.39983
548 21.6114 1.3845
549 21.6786 1.36919
550 21.7457 1.35389
551 21.8128 1.33859
552 21.8799 1.32329
553 21.9557 1.30604
554 22.0141 1.29272
555 22.0812 1.27743
556 22.1484 1.26215
557 22.2155 1.24686
558 22.2826 1.23158
559 22.3497 1.2163
560 22.4168 1.20103
561 22.4839 1.18574
562 22.5511 1.17047
563 22.6182 1.1552
564 22.6853 1.13994
565 22.7524 1.12468
566 22.8196 1.10942
567 22.8867 1.09417
568 22.9538 1.0789
569 23.0209 1.06364
570 23.088 1.04838
571 23.1552 1.03313
572 23.2223 1.01787
573 23.2894 1.00262
574 23.3565 0.987368
575 23.4237 0.972117
576 23.4908 0.956873
577 23.5579 0.941627
578 23.625 0.926381
579 23.6922 0.911146
580 23.7593 0.895909
581 23.8352 0.878714
582 23.8936 0.865457
583 23.9607 0.850217
584 24.0278 0.834979
585 24.095 0.819753
586 24.1621 0.804519
587 24.2292 0.789288
588 24.2964 0.774058
589 24.3635 0.758827
590 24.4306 0.743608
591 24.4977 0.728376
592 24.5649 0.713141
593 24.632 0.697921
594 24.6991 0.682692
595 24.7663 0.667476
596 24.8334 0.652256
597 24.9005 0.637039
598 24.9677 0.621833
599 25.0348 0.606609
600 25.1019 0.591395
601 25.1691 0.576178
602 25.2362 0.560973
603 25.3034 0.545759
604 25.3705 0.530551
605 25.4376 0.515346
606 25.5048 0.500123
607 25.4916 0.503076
608 25.5772 0.482775
609 25.6448 0.465536
610 25.7106 0.447467
611 25.7759 0.428411
612 25.8423 0.408001
613 25.907 0.387079
614 25.9729 0.364972
615 26.0451 0.339857
616 26.1028 0.319167
617 26.1674 0.295416
618 26.2324 0.271096
619 26.2966 0.246692
620 26.3609 0.221933
621 26.425 0.196932
622 26.489 0.171738
623 26.5533 0.146245
624 26.6172 0.120707
625 26.6879 0.0922617
626 26.7446 0.069322
627 26.8159 0.0403541
628 26.872 0.0174686
629 26.9356 -0.00859666
630 27.0075 -0.0381315
631 27.0698 -0.0638396
632 27.1263 -0.0872291
633 27.1899 -0.113564
634 27.2534 -0.139957
635 27.317 -0.166478
636 27.3806 -0.193003
637 27.4441 -0.219527
638 27.5076 -0.246112
639 27.571 -0.272734
640 27.6344 -0.299359
641 27.7049 -0.328943
642 27.7613 -0.352712
643 27.8248 -0.379459
644 27.8881 -0.406183
645 27.9515 -0.432976
646 28.0149 -0.459764
647 28.0783 -0.486585
648 28.1417 -0.513412
649 28.2051 -0.540255
650 28.2761 -0.570308
651 28.3319 -0.593953
652 28.3952 -0.620814
653 28.4662 -0.650889
654 28.5219 -0.674548
655 28.5853 -0.701437
656 28.6562 -0.731545
657 28.7202 -0.758727
658 28.7754 -0.782166
659 28.8387 -0.809089
660 28.9021 -0.836028
661 28.9654 -0.862968
662 29.0288 -0.889899
663 29.0921 -0.916842
664 29.1554 -0.943792
665 29.2188 -0.970749
666 29.2897 -1.00093
667 29.3455 -1.02466
668 29.4088 -1.05165
669 29.4721 -1.07862
670 29.5355 -1.10559
671 29.5988 -1.13257
672 29.6704 -1.16303
673 29.7254 -1.18651
674 29.7888 -1.21351
675 29.8521 -1.24051
676 29.9154 -1.2675
677 29.9788 -1.2945
678 30.0421 -1.32151
679 30.1054 -1.34852
680 30.1687 -1.37552
681 30.232 -1.40253
682 30.2953 -1.42954
683 30.3587 -1.45656
684 30.422 -1.48358
685 30.4853 -1.51062
686 30.5486 -1.53764
687 30.6119 -1.56467
688 30.6752 -1.5917
689 30.7385 -1.61874
690 30.8018 -1.64577
691 30.8651 -1.6728
692 30.9284 -1.69984
693 30.9917 -1.72689
694 31.0551 -1.75395
695 31.1184 -1.78101
696 31.1899 -1.81155
697 31.245 -1.83509
698 31.3083 -1.86215
699 31.3716 -1.88921
700 31.4349 -1.91626
701 31.4982 -1.9433
702 31.5615 -1.97037
703 31.633 -2.00093
704 31.6881 -2.0245
705 31.7596 -2.05507
706 31.8147 -2.07862
707 31.878 -2.10568
708 31.9413 -2.13276
709 32.0046 -2.15984
710 32.0761 -2.19041
711 32.1312 -2.21397
712 32.1945 -2.24106
713 32.2578 -2.26813
714 32.321 -2.29521
715 32.3843 -2.32229
716 32.4476 -2.34938
717 32.5109 -2.37647
718 32.5742 -2.40354
719 32.6375 -2.43063
720 32.7008 -2.45772
721 32.764 -2.4848
722 32.8273 -2.51188
723 32.8906 -2.53898
724 32.9539 -2.56608
725 33.0171 -2.59318
726 33.0805 -2.6203
727 33.1437 -2.64741
728 33.213 -2.67724
729 33.2671 -2.70086
730 33.3308 -2.72878
731 33.3939 -2.75642
732 33.4569 -2.78401
733 33.52 -2.81158
734 33.583 -2.83912
735 33.6537 -2.86993
736 33.7093 -2.89416
737 33.7724 -2.92164
738 33.8355 -2.94911
739 33.8986 -2.97659
740 33.9618 -3.00403
741 34.0249 -3.03147
742 34.088 -3.0589
743 34.1512 -3.08631
744 34.2143 -3.11371
745 34.2844 -3.1441
746 34.3406 -3.16848
747 34.4108 -3.19885
748 34.467 -3.22323
749 34.5301 -3.25059
750 34.6015 -3.2815
751 34.6565 -3.3053
752 34.7197 -3.33267
753 34.7828 -3.36003
754 34.846 -3.38738
755 34.9092 -3.41472
756 34.9723 -3.44206
757 35.0355 -3.46941
758 35.0987 -3.49675
759 35.1695 -3.52734
760 35.2251 -3.5514
761 35.2959 -3.58198
762 35.3515 -3.60602
763 35.4146 -3.63334
764 35.486 -3.66418
765 35.548 -3.69094
766 35.6042 -3.71524
767 35.6674 -3.74253
768 35.7306 -3.76984
769 35.717 -3.76397
770 35.8002 -3.80044
771 35.8638 -3.82852
772 35.9267 -3.8563
773 35.9899 -3.88415
774 36.0528 -3.91183
775 36.1158 -3.93951
776 36.1789 -3.96715
777 36.2419 -3.99475
778 36.305 -4.02234
779 36.3681 -4.04989
780 36.4312 -4.07743
781 36.4943 -4.10495
782 36.5574 -4.13251
783 36.5445 -4.12687
784 36.6246 -4.1621
785 36.6885 -4.1904
786 36.7515 -4.21823
787 36.8145 -4.24602
788 36.8011 -4.24021
789 36.8831 -4.27681
790 36.8723 -4.2723
791 36.9488 -4.30741
792 37.0128 -4.33727
793 37.0042 -4.33369
794 37.0859 -4.37098
795 37.0776 -4.36742
796 37.1592 -4.40424
797 37.226 -4.43416
798 37.2237 -4.43306
799 37.2318 -4.43659
800 37.235 -4.438
801 37.3112 -4.47109
802 37.3786 -4.49997
803 37.3785 -4.49967
804 37.4587 -4.53418
805 37.4513 -4.53071
806 37.5267 -4.56293
807 37.591 -4.59033
808 37.6578 -4.61862
809 37.7093 -4.64039
810 37.6946 -4.6339
811 37.7735 -4.66742
812 37.7576 -4.66041
813 37.8377 -4.69412
814 37.9066 -4.72279
815 37.9025 -4.72077
816 37.9794 -4.753
817 37.9606 -4.74491
818 38.0343 -4.77591
819 38.1026 -4.80449
820 38.0972 -4.80206
821 38.1776 -4.83604
822 38.176 -4.83525
823 38.2524 -4.86743
824 38.3168 -4.89463
825 38.3085 -4.89105
826 38.3838 -4.92287
827 38.3647 -4.91475
828 38.4483 -4.95012
829 38.5127 -4.97729
830 38.5801 -5.00581
831 38.6345 -5.02884
832 38.62 -5.02264
833 38.6929 -5.05336
834 38.6846 -5.04977
835 38.7668 -5.08415
836 38.8332 -5.11178
837 38.8298 -5.11024
838 38.9077 -5.1428
839 38.9759 -5.17103
840 39.0293 -5.19278
841 39.0955 -5.21866
842 39.0821 -5.21256
843 39.0769 -5.21059
844 39.0733 -5.2096
845 39.077 -5.21099
846 39.0787 -5.21151
847 39.0798 -5.21189
848 39.0818 -5.21243
849 39.0902 -5.214
850 39.0904 -5.21366
851 39.0898 -5.21366
852 39.0903 -5.21391
853 39.089 -5.21403
854 39.1574 -5.21657
855 39.234 -5.21473
856 39.3023 -5.21146
857 39.3708 -5.20871
858 39.3583 -5.20403
859 39.4465 -5.20622
860 39.4335 -5.20232
861 39.5103 -5.20425
862 39.5825 -5.20392
863 39.5785 -5.20104
864 39.661 -5.20288
865 39.6569 -5.20061
866 39.7394 -5.20278
867 39.813 -5.20321
868 39.8046 -5.20109
869 39.8194 -5.20117
870 39.8297 -5.20122
871 39.9148 -5.20336
872 39.9848 -5.20409
873 39.9847 -5.20285
874 40.0754 -5.20452
875 40.0768 -5.20336
876 40.1563 -5.2047
877 40.2242 -5.20529
878 40.2223 -5.20438
879 40.244 -5.20456
880 40.2613 -5.20461
881 40.3439 -5.2057
882 40.4138 -5.20611
883 40.4128 -5.20538
884 40.4967 -5.20606
885 40.4927 -5.20535
886 40.5617 -5.20603
887 40.6237 -5.20609
888 40.6184 -5.20545
889 40.7036 -5.20576
890 40.6991 -5.20522
891 40.7826 -5.20573
892 40.862 -5.20599
893 40.9251 -5.20619
894 40.9996 -5.2062
895 41.068 -5.20599
896 41.1325 -5.20579
897 41.1967 -5.20577
898 41.2668 -5.20592
899 41.3406 -5.20602
900 41.4112 -5.20593
901 41.4769 -5.20578
902 41.4736 -5.2055
903 41.4862 -5.20518
904 41.4939 -5.20433
905 41.5041 -5.20232
906 41.5159 -5.19814
907 41.5175 -5.19588
908 41.5182 -5.19491
909 41.5188 -5.19468
910 41.5179 -5.19765
911 41.5209 -5.19186
912 41.5195 -5.18705
913 41.5186 -5.18773
914 41.5175 -5.18471
915 41.4873 -5.14973
916 41.4331 -5.11861
917 41.3849 -5.09606
918 41.3258 -5.06841
919 41.2651 -5.03797
920 41.2048 -5.00265
921 41.1488 -4.96452
922 41.0946 -4.92076
923 41.0439 -4.87417
924 40.9957 -4.82396
925 40.9503 -4.77176
926 40.9075 -4.71868
927 40.8606 -4.65678
928 40.8252 -4.60786
929 40.7852 -4.55115
930 40.7408 -4.48692
931 40.7069 -4.43685
932 40.6687 -4.37998
933 40.6307 -4.32254
934 40.5928 -4.26484
935 40.5553 -4.20722
936 40.5179 -4.14942
937 40.4806 -4.09138
938 40.4387 -4.0259
939 40.4017 -3.96776
940 40.3695 -3.91698
941 40.3326 -3.85873
942 40.2959 -3.80048
943 40.2592 -3.74219
944 40.2225 -3.6837
945 40.186 -3.62541
946 40.1495 -3.56699
947 40.113 -3.50844
948 40.0767 -3.44994
949 40.0404 -3.39144
950 40.0041 -3.33289
951 39.9679 -3.27439
952 39.9318 -3.21582
953 39.8956 -3.15722
954 39.8595 -3.09863
955 39.8233 -3.04001
956 39.7872 -2.9814
957 39.7511 -2.92274
958 39.715 -2.86407
959 39.7216 -2.87515
960 39.7177 -2.86823
961 39.7139 -2.85988
962 39.7114 -2.8506
963 39.7105 -2.84047
964 39.7119 -2.83061
965 39.7127 -2.83364
966 39.712 -2.83289
967 39.7135 -2.8294
968 39.7159 -2.82734
969 39.719 -2.82598
970 39.7216 -2.82551
971 39.7229 -2.82601
972 39.7236 -2.82624
973 39.7239 -2.82617
974 39.7243 -2.82619
975 39.7254 -2.82745
976 39.7554 -2.87496
977 39.7828 -2.93866
978 39.8101 -3.00285
979 39.8382 -3.06631
980 39.8674 -3.12856
981 39.8981 -3.19055
982 39.9302 -3.25199
983 39.9634 -3.31292
984 39.9975 -3.37317
985 40.0324 -3.43287
986 40.0683 -3.49256
987 40.1044 -3.55133
988 40.1458 -3.61745
989 40.1783 -3.66839
990 40.2159 -3.72634
991 40.2536 -3.78382
992 40.2921 -3.84169
993 40.3304 -3.89879
994 40.3691 -3.95598
995 40.4081 -4.01315
996 40.4471 -4.06997
997 40.4862 -4.12664
998 40.5257 -4.18353
999 40.5651 -4.24001
1000 40.6046 -4.29649
1001 40.6441 -4.35274
1002 40.6837 -4.40898
1003 40.7235 -4.46534
1004 40.7633 -4.52152
1005 40.8031 -4.57772
1006 40.843 -4.63385
1007 40.8829 -4.68999
1008 40.9228 -4.74599
1009 40.9628 -4.802
1010 41.0027 -4.85802
1011 41.0428 -4.91407
1012 41.0828 -4.97007
1013 41.1228 -5.02606
1014 41.1357 -5.04438
1015 41.1393 -5.04892
1016 41.1446 -5.05454
1017 41.1491 -5.0578
1018 41.1543 -5.06038
1019 41.1593 -5.0617
1020 41.1612 -5.06151
1021 41.1621 -5.06167
1022 41.1628 -5.06207
1023 41.163 -5.06269
1024 41.2206 -5.03437
1025 41.2685 -4.98898
1026 41.3155 -4.94128
1027 41.3649 -4.89324
1028 41.415 -4.84712
1029 41.4673 -4.80234
1030 41.5207 -4.75914
1031 41.5763 -4.71683
1032 41.6323 -4.67606
1033 41.6885 -4.63689
1034 41.7457 -4.59878
1035 41.8035 -4.56169
1036 41.8619 -4.52548
1037 41.9212 -4.48988
1038 41.9801 -4.45544
1039 42.04 -4.42133
1040 42.0995 -4.38814
1041 42.1598 -4.35529
1042 42.2206 -4.32272
1043 42.2813 -4.29072
1044 42.3424 -4.25896
1045 42.4114 -4.22345
1046 42.4649 -4.19626
1047 42.5343 -4.16126
1048 42.5881 -4.13442
1049 42.6499 -4.10367
1050 42.6387 -4.1075
1051 42.6444 -4.1049
1052 42.6523 -4.10216
1053 42.6606 -4.10035
1054 42.6695 -4.09968
1055 42.6788 -4.10049
1056 42.6776 -4.1013
1057 42.6774 -4.10082
1058 42.6806 -4.10141
1059 42.6843 -4.10315
1060 42.7522 -4.1417
1061 42.8046 -4.18859
1062 42.8554 -4.23552
1063 42.9068 -4.2822
1064 42.9581 -4.32803
1065 43.0103 -4.37351
1066 43.0623 -4.41803
1067 43.1152 -4.46227
1068 43.1683 -4.50603
1069 43.2214 -4.5492
1070 43.275 -4.59208
1071 43.3293 -4.6349
1072 43.3836 -4.67736
1073 43.438 -4.71949
1074 43.4924 -4.76124
1075 43.5472 -4.80302
1076 43.6023 -4.84471
1077 43.5901 -4.84099
1078 43.6618 -4.88985
1079 43.7175 -4.93155
1080 43.7055 -4.92705
1081 43.7786 -4.97765
1082 43.7665 -4.97257
1083 43.8365 -5.02199
1084 43.8924 -5.06432
1085 43.8804 -5.05861
1086 43.9524 -5.11047
1087 43.939 -5.10335
1088 44.0103 -5.15577
1089 44.0651 -5.19846
1090 44.0532 -5.19197
1091 44.1224 -5.24333
1092 44.1172 -5.24145
1093 44.1829 -5.29075
1094 44.2393 -5.33429
1095 44.2383 -5.33508
1096 44.3079 -5.38666
1097 44.2997 -5.38171
1098 44.3632 -5.42808
1099 44.3841 -5.44433
1100 44.3948 -5.45217
1101 44.462 -5.50057
1102 44.4525 -5.4941
1103 44.5165 -5.53974
1104 44.5014 -5.52923
1105 44.5599 -5.5706
1106 44.5814 -5.58604
1107 44.6166 -5.61089
1108 44.6652 -5.6453
1109 44.6631 -5.6439
1110 44.7297 -5.69091
1111 44.7213 -5.68498
1112 44.7851 -5.72961
1113 44.843 -5.77011
1114 44.8393 -5.76748
1115 44.851 -5.776
1116 44.8615 -5.78476
1117 44.8681 -5.79163
1118 44.8711 -5.79684
1119 44.8721 -5.79909
1120 44.8721 -5.7995
1121 44.8729 -5.80137
1122 44.8738 -5.80668
1123 44.8734 -5.81101
1124 44.8728 -5.8083
1125 44.8735 -5.80799
1126 44.874 -5.80841
1127 44.8742 -5.80804
1128 44.8749 -5.81082
1129 44.8746 -5.81018
1130 44.8773 -5.81642
1131 44.8855 -5.82944
1132 44.8832 -5.82518
1133 44.8852 -5.82762
1134 44.8877 -5.82886
1135 44.8902 -5.82986
1136 44.9513 -5.86239
1137 45.0189 -5.88558
1138 45.085 -5.90626
1139 45.1498 -5.92856
1140 45.2155 -5.95436
1141 45.2778 -5.98106
1142 45.3391 -6.01003
1143 45.4003 -6.04142
1144 45.4606 -6.0742
1145 45.5199 -6.10801
1146 45.5787 -6.14277
1147 45.638 -6.17871
1148 45.6965 -6.21467
1149 45.7553 -6.25121
1150 45.8135 -6.28776
1151 45.8715 -6.32449
1152 45.9297 -6.3616
1153 45.9875 -6.39865
1154 46.0454 -6.43599
1155 46.1031 -6.47336
1156 46.161 -6.51097
1157 46.2186 -6.54858
1158 46.2762 -6.58623
1159 46.3337 -6.62397
1160 46.3912 -6.66181
1161 46.4486 -6.69967
1162 46.5061 -6.73767
1163 46.5635 -6.77563
1164 46.6209 -6.81365
1165 46.6782 -6.85167
1166 46.7356 -6.88973
1167 46.7929 -6.92782
1168 46.8503 -6.96592
1169 46.9076 -7.00404
1170 46.9677 -7.044
1171 47.0223 -7.08032
1172 47.0795 -7.11846
1173 47.1368 -7.15662
1174 47.1941 -7.19478
1175 47.2514 -7.23296
1176 47.239 -7.2244
1177 47.2459 -7.22875
1178 47.2523 -7.23191
1179 47.2593 -7.23433
1180 47.266 -7.23544
1181 47.272 -7.23533
1182 47.2767 -7.23425
1183 47.2741 -7.23457
1184 47.2779 -7.23389
1185 47.2799 -7.23224
1186 47.2808 -7.23096
1187 47.2812 -7.23032
1188 47.2817 -7.22823
1189 47.2813 -7.22677
1190 47.2809 -7.22595
1191 47.2803 -7.22502
1192 47.2445 -7.19063
1193 47.1842 -7.15333
1194 47.1228 -7.11851
1195 47.0636 -7.08229
1196 47.0065 -7.04403
1197 46.951 -7.00334
1198 46.897 -6.96066
1199 46.845 -6.91594
1200 46.7943 -6.86934
1201 46.7448 -6.82096
1202 46.6967 -6.77147
1203 46.6495 -6.72048
1204 46.6038 -6.66908
1205 46.585 -6.65113
1206 46.5858 -6.65208
1207 46.586 -6.65219
1208 46.5866 -6.65302
1209 46.5862 -6.6524
1210 46.5586 -6.61141
1211 46.5286 -6.5678
1212 46.4886 -6.50894
1213 46.4482 -6.44828
1214 46.4124 -6.3934
1215 46.3752 -6.33511
1216 46.3386 -6.27651
1217 46.3026 -6.218
1218 46.2671 -6.15919
1219 46.2316 -6.09963
1220 46.1966 -6.04045
1221 46.1616 -5.98066
1222 46.1271 -5.92105
1223 46.0926 -5.86117
1224 46.0584 -5.80136
1225 46.02 -5.73392
1226 45.9903 -5.68159
1227 45.9522 -5.61398
1228 45.9227 -5.56154
1229 45.889 -5.50133
1230 45.8554 -5.4413
1231 45.8219 -5.38123
1232 45.7883 -5.32105
1233 45.7549 -5.26088
1234 45.7215 -5.20072
1235 45.6881 -5.14049
1236 45.6548 -5.08027
1237 45.6215 -5.02
1238 45.5882 -4.95979
1239 45.5506 -4.89178
1240 45.5216 -4.83924
1241 45.4844 -4.77183
1242 45.4551 -4.7187
1243 45.4218 -4.65841
1244 45.3886 -4.59814
1245 45.3554 -4.53784
1246 45.3222 -4.47755
1247 45.2891 -4.41724
1248 45.2559 -4.35692
1249 45.2227 -4.29664
1250 45.1895 -4.23632
1251 45.1564 -4.176
1252 45.1232 -4.11569
1253 45.0901 -4.05536
1254 45.057 -3.99502
1255 45.0238 -3.93471
1256 44.9907 -3.87435
1257 44.9576 -3.814
1258 44.9244 -3.75367
1259 44.8913 -3.69331
1260 44.8582 -3.63297
1261 44.8251 -3.57262
1262 44.792 -3.51228
1263 44.7589 -3.45192
1264 44.7258 -3.39156
1265 44.6927 -3.33122
1266 44.6596 -3.27086
1267 44.6265 -3.2105
1268 44.5934 -3.15015
1269 44.5604 -3.08978
1270 44.5273 -3.02942
1271 44.4942 -2.96904
1272 44.4611 -2.90868
1273 44.4281 -2.84831
1274 44.391 -2.78072
1275 44.3619 -2.72759
1276 44.3289 -2.6672
1277 44.2958 -2.60684
1278 44.2628 -2.54645
1279 44.2297 -2.48607
1280 44.1967 -2.42565
1281 44.1636 -2.36527
1282 44.1266 -2.29765
1283 44.0975 -2.24449
1284 44.0645 -2.18409
1285 44.0271 -2.11587
1286 43.9984 -2.06333
1287 43.9654 -2.00295
1288 43.9729 -2.01653
1289 43.9699 -2.01076
1290 43.9665 -2.0023
1291 43.9636 -1.99125
1292 43.9636 -1.98365
1293 43.9651 -1.9807
1294 43.9648 -1.98135
1295 43.9645 -1.97964
1296 43.9662 -1.97618
1297 43.9688 -1.97401
1298 43.9718 -1.97277
1299 43.9745 -1.9725
1300 43.9761 -1.97275
1301 43.9768 -1.97285
1302 43.9768 -1.97257
1303 44.0243 -1.99767
1304 44.0756 -2.04422
1305 44.1263 -2.09207
1306 44.1784 -2.13857
1307 44.2381 -2.18922
1308 44.2923 -2.23156
1309 44.3407 -2.26719
1310 44.3975 -2.307
1311 44.4623 -2.3504
1312 44.5132 -2.38259
1313 44.5792 -2.42285
1314 44.632 -2.45368
1315 44.6924 -2.48776
1316 44.753 -2.52088
1317 44.7473 -2.52207
1318 44.7446 -2.5211
1319 44.745 -2.52093
1320 44.7444 -2.52065
1321 44.7438 -2.52045
1322 44.7431 -2.5204
1323 44.7419 -2.52054
1324 44.7398 -2.5211
1325 44.7377 -2.52227
1326 44.7417 -2.5213
1327 44.744 -2.51939
1328 44.7456 -2.51725
1329 44.747 -2.5144
1330 44.7476 -2.5114
1331 44.7473 -2.5094
1332 44.7469 -2.50715
1333 44.7463 -2.50468
1334 44.7338 -2.44222
1335 44.7064 -2.37793
1336 44.6786 -2.31358
1337 44.6504 -2.2452
1338 44.6277 -2.18336
1339 44.6051 -2.11731
1340 44.5842 -2.05105
1341 44.5649 -1.98464
1342 44.5469 -1.91779
1343 44.53 -1.85079
1344 44.5142 -1.78402
1345 44.4991 -1.71663
1346 44.4846 -1.64906
1347 44.4707 -1.58132
1348 44.4573 -1.51356
1349 44.4443 -1.44594
1350 44.4317 -1.37807
1351 44.4193 -1.31029
1352 44.4072 -1.24248
1353 44.3953 -1.17462
1354 44.3836 -1.10685
1355 44.3721 -1.03879
1356 44.3606 -0.970917
1357 44.3493 -0.902981
1358 44.3379 -0.83483
1359 44.3268 -0.76691
1360 44.3156 -0.699004
1361 44.3045 -0.631088
1362 44.2935 -0.563105
1363 44.2825 -0.495137
1364 44.2714 -0.427166
1365 44.2605 -0.359196
1366 44.2495 -0.291226
1367 44.2386 -0.22326
1368 44.2276 -0.155293
1369 44.2231 -0.13259
1370 44.2222 -0.125723
1371 44.2216 -0.116188
1372 44.222 -0.105449
1373 44.2238 -0.0951471
1374 44.2273 -0.0853793
1375 44.2275 -0.0877943
1376 44.2293 -0.084164
1377 44.232 -0.0808275
1378 44.2345 -0.0800935
1379 44.2379 -0.0791946
1380 44.2402 -0.0794201
1381 44.2414 -0.0795254
1382 44.2413 -0.0794836
1383 44.2425 -0.0797933
1384 44.2437 -0.0809391
1385 44.2451 -0.082871
1386 44.277 -0.13264
1387 44.3041 -0.2025
1388 44.3262 -0.258627
1389 44.3523 -0.322974
1390 44.3795 -0.386763
1391 44.408 -0.450351
1392 44.4374 -0.513242
1393 44.4713 -0.583122
1394 44.499 -0.63782
1395 44.534 -0.705549
1396 44.5635 -0.760931
1397 44.5964 -0.821708
1398 44.6296 -0.881807
1399 44.6676 -0.949544
1400 44.6974 -1.00185
1401 44.7319 -1.06176
1402 44.7667 -1.12164
1403 44.8014 -1.1809
1404 44.8364 -1.24021
1405 44.8715 -1.29929
1406 44.907 -1.3586
1407 44.9424 -1.41759
1408 44.978 -1.4766
1409 45.0137 -1.53551
1410 45.0493 -1.59429
1411 45.0852 -1.65316
1412 45.121 -1.71195
1413 45.157 -1.77077
1414 45.1929 -1.8295
1415 45.2289 -1.88816
1416 45.265 -1.94685
1417 45.301 -2.00539
1418 45.3371 -2.06394
1419 45.3733 -2.1226
1420 45.4094 -2.18114
1421 45.448 -2.24372
1422 45.485 -2.30344
1423 45.518 -2.35681
1424 45.5542 -2.41536
1425 45.5904 -2.47385
1426 45.6291 -2.53642
1427 45.6629 -2.59092
1428 45.6992 -2.64944
1429 45.7354 -2.70799
1430 45.7717 -2.76649
1431 45.8079 -2.82502
1432 45.8442 -2.88349
1433 45.8805 -2.94199
1434 45.9167 -3.00047
1435 45.953 -3.05897
1436 45.9893 -3.11747
1437 46.0257 -3.17598
1438 46.062 -3.23449
1439 46.0983 -3.29297
1440 46.1346 -3.35144
1441 46.1709 -3.40991
1442 46.2072 -3.46839
1443 46.2435 -3.52686
1444 46.2798 -3.58533
1445 46.3162 -3.64382
1446 46.3525 -3.70229
1447 46.3888 -3.76075
1448 46.4252 -3.81923
1449 46.4615 -3.8777
1450 46.4978 -3.93617
1451 46.4988 -3.93763
1452 46.4991 -3.93789
1453 46.5001 -3.93909
1454 46.5024 -3.94193
1455 46.5048 -3.94451
1456 46.5074 -3.94705
1457 46.5099 -3.94912
1458 46.5127 -3.9512
1459 46.5156 -3.95308
1460 46.519 -3.95498
1461 46.5219 -3.95637
1462 46.5965 -3.99145
1463 46.6648 -4.01244
1464 46.7311 -4.03133
1465 46.8058 -4.05246
1466 46.864 -4.06947
1467 46.9299 -4.08861
1468 47.004 -4.11025
1469 47.0616 -4.12753
1470 47.1277 -4.14738
1471 47.1937 -4.16731
1472 47.1842 -4.15833
1473 47.1917 -4.16056
1474 47.2009 -4.16271
1475 47.2098 -4.16371
1476 47.2183 -4.16354
1477 47.2258 -4.16221
1478 47.2322 -4.15993
1479 47.2325 -4.15867
1480 47.2353 -4.15717
1481 47.2377 -4.15485
1482 47.2395 -4.15222
1483 47.2409 -4.14922
1484 47.2417 -4.14657
1485 47.2425 -4.14356
1486 47.2622 -4.07891
1487 47.2656 -4.00909
1488 47.268 -3.93947
1489 47.2714 -3.87026
1490 47.2761 -3.80141
1491 47.2821 -3.73267
1492 47.2893 -3.66385
1493 47.2975 -3.59504
1494 47.3066 -3.52638
1495 47.3163 -3.45801
1496 47.3265 -3.38997
1497 47.3374 -3.32189
1498 47.3487 -3.25369
1499 47.3603 -3.18548
1500 47.3722 -3.11777
1501 47.3843 -3.05001
1502 47.3977 -2.97567
1503 47.4091 -2.91448
1504 47.4218 -2.84667
1505 47.4346 -2.77902
1506 47.4475 -2.71125
1507 47.4605 -2.64361
1508 47.4734 -2.57597
1509 47.4865 -2.50826
1510 47.4996 -2.44066
1511 47.5127 -2.37312
1512 47.5259 -2.30551
1513 47.5391 -2.23794
1514 47.5523 -2.17036
1515 47.5655 -2.10281
1516 47.5788 -2.03528
1517 47.592 -1.96771
1518 47.6052 -1.90016
1519 47.6185 -1.8326
1520 47.6317 -1.76504
1521 47.6467 -1.68877
1522 47.6583 -1.6299
1523 47.6716 -1.56239
1524 47.6848 -1.49484
1525 47.6998 -1.41855
1526 47.7114 -1.35969
1527 47.7247 -1.29217
1528 47.738 -1.22463
1529 47.7513 -1.15707
1530 47.7647 -1.08954
1531 47.778 -1.02204
1532 47.7913 -0.954506
1533 47.8047 -0.886981
1534 47.818 -0.819427
1535 47.8314 -0.751904
1536 47.8447 -0.684358
1537 47.8581 -0.616815
1538 47.8714 -0.549294
1539 47.8848 -0.481749
1540 47.8982 -0.414234
1541 47.9115 -0.346698
1542 47.9249 -0.279158
1543 47.9383 -0.211635
1544 47.9517 -0.144113
1545 47.9651 -0.076597
1546 47.9784 -0.0090554
1547 47.9919 0.0584881
1548 47.989 0.0451025
1549 47.9911 0.0537267
1550 47.9939 0.0618583
1551 47.9977 0.0701969
1552 48.0016 0.0752227
1553 48.0035 0.0763427
1554 48.0059 0.0784381
1555 48.0096 0.0804671
1556 48.0129 0.0815845
1557 48.015 0.0816744
1558 48.0161 0.081265
1559 48.0175 0.0812757
1560 48.066 0.0775731
1561 48.1182 0.0465812
1562 48.1782 0.0117104
1563 48.2464 -0.0263173
1564 48.3002 -0.053801
1565 48.3627 -0.0841238
1566 48.4262 -0.113521
1567 48.4897 -0.140656
1568 48.5528 -0.166523
1569 48.622 -0.193379
1570 48.6893 -0.218178
1571 48.7469 -0.238392
1572 48.8115 -0.260468
1573 48.8021 -0.264005
1574 48.7991 -0.263702
1575 48.8752 -0.282587
1576 48.8593 -0.28266
1577 48.8609 -0.283042
1578 48.864 -0.284047
1579 48.8663 -0.285095
1580 48.8697 -0.286668
1581 48.8712 -0.287937
1582 48.8737 -0.289832
1583 48.8763 -0.29201
1584 48.9371 -0.34489
1585 48.9829 -0.398571
1586 49.032 -0.458738
1587 49.0705 -0.50559
1588 49.0572 -0.503558
1589 49.0625 -0.509345
1590 49.0683 -0.514258
1591 49.0734 -0.517266
1592 49.0793 -0.519353
1593 49.0848 -0.519999
1594 49.0866 -0.519475
1595 49.0877 -0.519203
1596 49.0889 -0.518982
1597 49.091 -0.518342
1598 49.1586 -0.489171
1599 49.2163 -0.447073
1600 49.2682 -0.409151
1601 49.3241 -0.369314
1602 49.3804 -0.331226
1603 49.4387 -0.294117
1604 49.4972 -0.258438
1605 49.5572 -0.223641
1606 49.6168 -0.190337
1607 49.6776 -0.157903
1608 49.7389 -0.126334
1609 49.7274 -0.125703
1610 49.7242 -0.126582
1611 49.7245 -0.126689
1612 49.7244 -0.126874
1613 49.7245 -0.126976
1614 49.724 -0.12713
1615 49.7247 -0.126892
1616 49.7244 -0.126901
1617 49.7252 -0.126739
1618 49.7301 -0.12733
1619 49.7336 -0.128634
1620 49.7368 -0.130155
1621 49.7387 -0.131372
1622 49.8105 -0.166962
1623 49.8675 -0.209162
1624 49.9222 -0.25107
1625 49.9774 -0.292547
1626 50.0328 -0.33339
1627 50.0956 -0.378987
1628 50.1454 -0.413876
1629 50.2091 -0.458365
1630 50.2594 -0.492509
1631 50.3166 -0.531175
1632 50.3738 -0.569439
1633 50.3603 -0.567657
1634 50.3666 -0.571317
1635 50.3731 -0.574183
1636 50.3798 -0.57606
1637 50.3864 -0.576743
1638 50.3922 -0.576221
1639 50.3964 -0.574857
1640 50.3939 -0.575265
1641 50.3977 -0.573832
1642 50.3994 -0.571873
1643 50.4003 -0.570051
1644 50.4005 -0.568882
1645 50.4009 -0.567388
1646 50.4002 -0.566251
1647 50.3997 -0.565598
1648 50.3996 -0.565337
1649 50.3975 -0.56348
1650 50.3685 -0.540697
1651 50.3115 -0.518478
1652 50.2463 -0.492855
1653 50.1819 -0.466308
1654 50.1186 -0.438556
1655 50.0479 -0.405813
1656 49.9943 -0.379024
1657 49.9337 -0.347502
1658 49.8727 -0.314316
1659 49.8125 -0.280514
1660 49.7529 -0.245901
1661 49.7434 -0.243875
1662 49.7483 -0.248258
1663 49.748 -0.247575
1664 49.747 -0.246646
1665 49.7468 -0.246495
1666 49.744 -0.243243
1667 49.7429 -0.241689
1668 49.7427 -0.241284
1669 49.7421 -0.240373
1670 49.7409 -0.238334
1671 49.7404 -0.236866
1672 49.7396 -0.234356
1673 49.7393 -0.232818
1674 49.7388 -0.22978
1675 49.7286 -0.153616
1676 49.7285 -0.0825163
1677 49.7297 -0.0135769
1678 49.7308 0.0554262
1679 49.7315 0.124653
1680 49.7317 0.193393
1681 49.7315 0.262505
1682 49.7308 0.331841
1683 49.7298 0.400656
1684 49.7284 0.469582
1685 49.733 0.461368
1686 49.7327 0.471796
1687 49.733 0.482366
1688 49.7342 0.495164
1689 49.7364 0.504179
1690 49.7407 0.515275
1691 49.7438 0.518077
1692 49.746 0.519939
1693 49.7491 0.523079
1694 49.7521 0.524045
1695 49.7562 0.525034
1696 49.7591 0.524398
1697 49.76 0.523571
1698 49.7607 0.523322
1699 49.7626 0.521895
1700 49.7641 0.519467
1701 49.7652 0.516591
1702 49.766 0.513304
1703 49.7665 0.509866
1704 49.7757 0.451489
1705 49.7772 0.381719
1706 49.7786 0.311606
1707 49.7812 0.241804
1708 49.7853 0.171823
1709 49.7908 0.102071
1710 49.7976 0.0329863
1711 49.8056 -0.0355627
1712 49.8146 -0.104272
1713 49.8144 -0.122173
1714 49.8159 -0.137401
1715 49.8164 -0.148491
1716 49.8161 -0.154545
1717 49.8157 -0.155539
1718 49.8155 -0.156744
1719 49.8153 -0.157963
1720 49.8147 -0.160312
1721 49.8136 -0.162848
1722 49.7835 -0.230743
1723 49.7471 -0.291077
1724 49.7103 -0.349929
1725 49.6738 -0.408598
1726 49.6373 -0.467479
1727 49.6282 -0.473008
1728 49.6249 -0.476917
1729 49.6235 -0.479624
1730 49.6223 -0.483266
1731 49.6215 -0.486652
1732 49.6209 -0.490481
1733 49.6208 -0.49365
1734 49.6209 -0.496555
1735 49.6212 -0.498919
1736 49.6215 -0.500546
1737 49.6219 -0.502369
1738 49.6225 -0.503958
1739 49.6234 -0.506386
1740 49.6248 -0.508983
1741 49.6268 -0.512099
1742 49.6289 -0.514899
1743 49.6724 -0.579894
1744 49.7204 -0.631658
1745 49.7684 -0.681431
1746 49.8164 -0.73115
1747 49.8644 -0.780832
1748 49.9122 -0.830625
1749 49.9599 -0.880457
1750 50.0074 -0.930373
1751 50.055 -0.980394
1752 50.1024 -1.03044
1753 50.0998 -1.01846
1754 50.1061 -1.02494
1755 50.112 -1.02966
1756 50.118 -1.03288
1757 50.1249 -1.03521
1758 50.1311 -1.03565
1759 50.1361 -1.03474
1760 50.135 -1.03401
1761 50.1355 -1.03442
1762 50.138 -1.03308
1763 50.1398 -1.03071
1764 50.1402 -1.02835
1765 50.1403 -1.02561
1766 50.1398 -1.02298
1767 50.139 -1.02074
1768 50.1219 -0.968278
1769 50.089 -0.908034
1770 50.0551 -0.846728
1771 50.0226 -0.785234
1772 49.9917 -0.722568
1773 49.9625 -0.658793
1774 49.9349 -0.594431
1775 49.9097 -0.530928
1776 49.8857 -0.465799
1777 49.8628 -0.399736
1778 49.8412 -0.333972
1779 49.8205 -0.267694
1780 49.8007 -0.201619
1781 49.7817 -0.135218
1782 49.7632 -0.0686535
1783 49.7453 -0.00196672
1784 49.7255 0.0731334
1785 49.7106 0.131368
1786 49.6917 0.206687
1787 49.6773 0.265152
1788 49.6588 0.340813
1789 49.6447 0.39952
1790 49.6288 0.466524
1791 49.613 0.533669
1792 49.5973 0.600722
1793 49.5816 0.667801
1794 49.5661 0.734985
1795 49.5506 0.802071
1796 49.5353 0.869169
1797 49.5295 0.891915
1798 49.5283 0.897823
1799 49.5273 0.907023
1800 49.5272 0.91695
1801 49.5286 0.92677
1802 49.5317 0.936144
1803 49.5313 0.932232
1804 49.533 0.936299
1805 49.5353 0.9385
1806 49.5384 0.940298
1807 49.5418 0.941132
1808 49.5442 0.94088
1809 49.545 0.940543
1810 49.546 0.940323
1811 49.5479 0.938934
1812 49.5493 0.936758
1813 49.5506 0.934433
1814 49.551 0.932543
1815 49.566 0.897709
1816 49.5754 0.836677
1817 49.5861 0.767645
1818 49.5977 0.699002
1819 49.6121 0.62178
1820 49.6247 0.562488
1821 49.6417 0.486524
1822 49.6581 0.419743
1823 49.6732 0.361156
1824 49.6911 0.294344
1825 49.7096 0.227557
1826 49.7286 0.161053
1827 49.7479 0.094889
1828 49.7677 0.0285491
1829 49.7878 -0.0377542
1830 49.8107 -0.112459
1831 49.8287 -0.170304
1832 49.8493 -0.236026
1833 49.8723 -0.308807
1834 49.8928 -0.373181
1835 49.9142 -0.440184
1836 49.9331 -0.49879
1837 49.9542 -0.564307
1838 49.9755 -0.629818
1839 49.9968 -0.69534
1840 49.9924 -0.685251
1841 49.9953 -0.693131
1842 49.9985 -0.699366
1843 50.0025 -0.705011
1844 50.0041 -0.706136
1845 50.006 -0.707677
1846 50.0074 -0.708501
1847 50.0083 -0.709016
1848 50.0108 -0.709421
1849 50.0116 -0.709256
1850 50.0141 -0.708327
1851 50.0157 -0.70664
1852 50.0164 -0.705338
1853 50.0171 -0.703066
1854 50.0172 -0.700412
1855 50.0165 -0.698243
1856 50.0153 -0.695004
1857 49.9934 -0.642759
1858 49.9572 -0.58332
1859 49.9209 -0.524031
1860 49.8859 -0.463581
1861 49.8528 -0.40268
1862 49.8216 -0.340817
1863 49.7919 -0.277585
1864 49.7602 -0.205529
1865 49.7372 -0.149167
1866 49.7122 -0.0844553
1867 49.6885 -0.0196631
1868 49.6657 0.0455534
1869 49.6438 0.111235
1870 49.6226 0.176938
1871 49.6019 0.243179
1872 49.5819 0.308958
1873 49.5624 0.375107
1874 49.5432 0.441441
1875 49.5243 0.507667
1876 49.5251 0.501806
1877 49.5234 0.508971
1878 49.522 0.517804
1879 49.5218 0.52699
1880 49.5229 0.538073
1881 49.5259 0.546583
1882 49.5255 0.542699
1883 49.5273 0.546577
1884 49.5303 0.549252
1885 49.5337 0.5509
1886 49.5369 0.551484
1887 49.5397 0.551229
1888 49.5416 0.550476
1889 49.5426 0.549848
1890 49.543 0.549646
1891 49.5454 0.547439
1892 49.5803 0.502139
1893 49.6116 0.438682
1894 49.6412 0.376062
1895 49.673 0.313989
1896 49.706 0.253649
1897 49.7414 0.194079
1898 49.7829 0.12835
1899 49.8165 0.0787916
1900 49.8564 0.0224202
1901 49.8975 -0.0331514
1902 49.9397 -0.0881603
1903 49.9824 -0.142146
1904 50.0264 -0.196069
1905 50.0707 -0.249069
1906 50.1155 -0.301556
1907 50.1607 -0.353573
1908 50.1662 -0.362632
1909 50.1664 -0.363915
1910 50.168 -0.36614
1911 50.1699 -0.369112
1912 50.1711 -0.371266
1913 50.1725 -0.374384
1914 50.1736 -0.37752
1915 50.1746 -0.38085
1916 50.1928 -0.436642
1917 50.2016 -0.496636
1918 50.2115 -0.564972
1919 50.2218 -0.633375
1920 50.2324 -0.701116
1921 50.2437 -0.76932
1922 50.2568 -0.845863
1923 50.2676 -0.905388
1924 50.2801 -0.973198
1925 50.2929 -1.04085
1926 50.287 -1.03104
1927 50.2889 -1.04056
1928 50.2899 -1.05048
1929 50.29 -1.06132
1930 50.2884 -1.07192
1931 50.2852 -1.08167
1932 50.2831 -1.08268
1933 50.2813 -1.08523
1934 50.2789 -1.08743
1935 50.276 -1.08909
1936 50.2725 -1.0903
1937 50.2699 -1.08977
1938 50.2688 -1.08908
1939 50.2686 -1.08905
1940 50.2672 -1.08893
1941 50.2661 -1.08687
1942 50.2648 -1.08437
1943 50.264 -1.08214
1944 50.2424 -1.02831
1945 50.226 -0.960583
1946 50.2101 -0.892729
1947 50.1934 -0.825165
1948 50.1756 -0.758213
1949 50.1567 -0.691763
1950 50.1365 -0.624996
1951 50.1156 -0.559034
1952 50.0938 -0.49318
1953 50.0714 -0.427681
1954 50.0485 -0.362416
1955 50.0222 -0.289264
1956 50.0014 -0.232798
1957 49.9771 -0.167993
1958 49.9528 -0.103528
1959 49.9282 -0.0389097
1960 49.9033 0.025749
1961 49.8784 0.0900412
1962 49.8533 0.154429
1963 49.8281 0.218644
1964 49.8028 0.282784
1965 49.8072 0.275491
1966 49.8083 0.273013
1967 49.8083 0.272771
1968 49.8083 0.272854
1969 49.808 0.273511
1970 49.807 0.275036
1971 49.8045 0.277638
1972 49.8023 0.279163
1973 49.8013 0.27932
1974 49.8006 0.279593
1975 49.7985 0.279699
1976 49.7983 0.279619
1977 49.7956 0.278378
1978 49.7943 0.276484
1979 49.7933 0.27413
1980 49.7931 0.271374
1981 49.7935 0.268839
1982 49.7941 0.267298
1983 49.7948 0.265913
1984 49.8188 0.215101
1985 49.857 0.157372
1986 49.8954 0.0986931
1987 49.9321 0.0397338
1988 49.9669 -0.0203811
1989 50.0001 -0.081782
1990 50.0314 -0.143896
1991 50.0608 -0.206384
1992 50.0889 -0.270231
1993 50.0923 -0.269944
1994 50.0939 -0.273343
1995 50.0937 -0.272886
1996 50.0935 -0.272198
1997 50.0934 -0.272251
1998 50.0933 -0.271935
1999 50.0929 -0.270126
2000 50.0927 -0.268614
2001 50.0927 -0.267778
2002 50.093 -0.267217
2003 50.0931 -0.267704
2004 50.0923 -0.270531
2005 50.0903 -0.272461
2006 50.0868 -0.27524
2007 50.0835 -0.276299
2008 50.0797 -0.276667
2009 50.0765 -0.276028
2010 50.0754 -0.275137
2011 50.0751 -0.274837
2012 50.0743 -0.274282
2013 50.0731 -0.272826
2014 50.0715 -0.270211
2015 50.0398 -0.217711
2016 50.0126 -0.147209
2017 49.99 -0.0903683
2018 49.9636 -0.0259131
2019 49.968 -0.0178415
2020 49.9689 -0.0177981
2021 49.969 -0.0181383
2022 49.9689 -0.0182869
2023 49.969 -0.0185386
2024 49.9689 -0.0186491
2025 49.969 -0.0188636
2026 49.969 -0.0190394
2027 49.9691 -0.0191934
2028 49.9691 -0.0193267
2029 49.9691 -0.0194438
2030 49.9691 -0.0194811
2031 49.9692 -0.0197015
2032 49.9692 -0.0197875
2033 49.9692 -0.0198483
2034 49.9692 -0.0199038
2035 49.9693 -0.0199501
2036 49.9693 -0.0199915
2037 49.9692 -0.0199604
2038 49.9693 -0.0201049
2039 49.9693 -0.0201264
2040 49.9693 -0.0201463
2041 49.9693 -0.0201629
2042 49.9693 -0.0201176
2043 49.9693 -0.0202189
2044 49.9693 -0.0202259
2045 49.9693 -0.0201808
2046 49.9693 -0.0202718
2047 49.9693 -0.0202711
2048 49.9693 -0.0202262
2049 49.9693 -0.0202968
2050 49.9693 -0.0203016
2051 49.9693 -0.0202982
2052 49.9693 -0.0202938
2053 49.9693 -0.020291
2054 49.9693 -0.0202876
2055 49.9693 -0.0202516
2056 49.9693 -0.020297
2057 49.9693 -0.0202608
2058 49.9693 -0.0202982
2059 49.9693 -0.0202918
2060 49.9693 -0.0202874
2061 49.9693 -0.0202822
2062 49.9693 -0.0202775
2063 49.9693 -0.0202717
2064 49.9693 -0.0202669
2065 49.9693 -0.0202609
2066 49.9693 -0.0202566
2067 49.9693 -0.0202504
2068 49.9693 -0.0202449
2069 49.9693 -0.0202405
2070 49.9693 -0.0202347
2071 49.9693 -0.02023
2072 49.9693 -0.0202248
2073 49.9693 -0.020221
2074 49.9693 -0.0202164
2075 49.9693 -0.0202124
2076 49.9692 -0.0202068
2077 49.9692 -0.020193
2078 49.9692 -0.0202012
2079 49.9692 -0.0201971
2080 49.9692 -0.0201913
2081 49.9692 -0.0201873
2082 49.9692 -0.0201829
2083 49.9692 -0.0201775
2084 49.9692 -0.0201722
2085 49.9692 -0.0201672
2086 49.9692 -0.020164
2087 49.9692 -0.0201597
2088 49.9692 -0.020156
2089 49.9692 -0.0201506
2090 49.9692 -0.0201473
2091 49.9692 -0.0201419
2092 49.9692 -0.0201387
2093 49.9692 -0.0201338
2094 49.9692 -0.02013
2095 49.9692 -0.0201224
2096 49.9692 -0.0201225
2097 49.9692 -0.0201178
2098 49.9692 -0.0201129
2099 49.9692 -0.0201097
2100 49.9692 -0.0201044
2101 49.9692 -0.0201012
2102 49.9692 -0.0200972
2103 49.9692 -0.0200937
2104 49.9692 -0.0200885
2105 49.9692 -0.0200845
2106 49.9692 -0.0200796
2107 49.9692 -0.0200761
2108 49.9692 -0.0200722
2109 49.9692 -0.0200672
2110 49.9692 -0.0200612
2111 49.9692 -0.020059
2112 49.9691 -0.0200551
2113 49.9691 -0.0200502
2114 49.9691 -0.0200472
2115 49.9691 -0.0200432
2116 49.9691 -0.0200398
2117 49.9691 -0.0200348
2118 49.9691 -0.0200324
2119 49.9691 -0.0200275
2120 49.9691 -0.0200243
2121 49.9691 -0.0200191
2122 49.9691 -0.0200146
2123 49.9691 -0.020011
2124 49.9691 -0.0200061
2125 49.9691 -0.0200022
2126 49.9691 -0.0199978
2127 49.9691 -0.0199954
2128 49.9691 -0.0199915
2129 49.9691 -0.0199881
2130 49.9691 -0.0199831
2131 49.9691 -0.0199792
2132 49.9691 -0.0199748
2133 49.9691 -0.0199717
2134 49.9691 -0.0199666
2135 49.9691 -0.0199632
2136 49.9691 -0.0199593
2137 49.9691 -0.0199545
2138 49.9691 -0.0199496
2139 49.9691 -0.0199451
2140 49.9691 -0.0199421
2141 49.9691 -0.0199383
2142 49.9691 -0.019935
2143 49.9691 -0.01993
2144 49.9691 -0.0199269
2145 49.9691 -0.0199219
2146 49.9691 -0.019919
2147 49.9691 -0.0199147
2148 49.9691 -0.019911
2149 49.9691 -0.0199078
2150 49.9691 -0.0199034
2151 49.969 -0.019899
2152 49.969 -0.0198944
2153 49.969 -0.0198892
2154 49.969 -0.0198852
2155 49.969 -0.0198822
2156 49.969 -0.0198783
2157 49.969 -0.0198749
2158 49.969 -0.0198699
2159 49.969 -0.019866
2160 49.969 -0.0198618
2161 49.969 -0.0198586
2162 49.969 -0.0198535
2163 49.969 -0.0198496
2164 49.969 -0.019845
2165 49.969 -0.0198409
2166 49.969 -0.0198372
2167 49.969 -0.0198323
2168 49.969 -0.0198294
2169 49.969 -0.0198255
2170 49.969 -0.0198225
2171 49.969 -0.0198179
2172 49.969 -0.0198143
2173 49.969 -0.0198095
2174 49.969 -0.0198063
2175 49.969 -0.0198014
2176 49.969 -0.0197974
2177 49.969 -0.0197939
2178 49.969 -0.0197891
2179 49.969 -0.0197852
2180 49.969 -0.0197808
2181 49.969 -0.0197778
2182 49.969 -0.0197739
2183 49.969 -0.0197707
2184 49.969 -0.0197657
2185 49.969 -0.0197618
2186 49.969 -0.0197575
2187 49.969 -0.0197543
2188 49.969 -0.0197493
2189 49.9689 -0.0197459
2190 49.9689 -0.0197421
2191 49.9689 -0.0197372
2192 49.9689 -0.0197324
2193 49.9689 -0.0197279
2194 49.9689 -0.0197249
2195 49.9689 -0.0197211
2196 49.9689 -0.0197178
2197 49.9689 -0.0197128
2198 49.9689 -0.0197098
2199 49.9689 -0.0197048
2200 49.9689 -0.0197018
2201 49.9689 -0.0196972
2202 49.9689 -0.0196937
2203 49.9689 -0.01969
2204 49.9689 -0.0196852
2205 49.9689 -0.0196814
2206 49.9689 -0.0196768
2207 49.9689 -0.0196716
2208 49.9689 -0.0196675
2209 49.9689 -0.0196646
2210 49.9689 -0.0196607
2211 49.9689 -0.0196573
2212 49.9689 -0.0196523
2213 49.9689 -0.0196472
2214 49.9689 -0.0196432
2215 49.9689 -0.0196399
2216 49.9689 -0.0196361
2217 49.9689 -0.0196312
2218 49.9689 -0.0196266
2219 49.9689 -0.0196222
2220 49.9689 -0.0196188
2221 49.9689 -0.0196139
2222 49.9689 -0.019611
2223 49.9689 -0.0196072
2224 49.9689 -0.0196042
2225 49.9689 -0.0195996
2226 49.9689 -0.019596
2227 49.9689 -0.0195919
2228 49.9688 -0.0195888
2229 49.9688 -0.0195837
2230 49.9688 -0.0195792
2231 49.9688 -0.0195758
2232 49.9688 -0.0195712
2233 49.9688 -0.0195676
2234 49.9688 -0.0195633
2235 49.9688 -0.0195603
2236 49.9688 -0.0195564
2237 49.9688 -0.0195531
2238 49.9688 -0.0195481
2239 49.9688 -0.0195433
2240 49.9688 -0.0195396
2241 49.9688 -0.0195364
2242 49.9688 -0.0195314
2243 49.9688 -0.019528
2244 49.9688 -0.0195242
2245 49.9688 -0.0195194
2246 49.9688 -0.0195145
2247 49.9688 -0.0195101
2248 49.9688 -0.0195071
2249 49.9688 -0.0195032
2250 49.9688 -0.0194999
2251 49.9688 -0.0194961
2252 49.9688 -0.0194921
2253 49.9688 -0.019488
2254 49.9688 -0.0194851
2255 49.9688 -0.0194805
2256 49.9688 -0.0194769
2257 49.9688 -0.0194732
2258 49.9688 -0.0194688
2259 49.9688 -0.0194644
2260 49.9688 -0.0194598
2261 49.9688 -0.0194546
2262 49.9688 -0.0194505
2263 49.9688 -0.0194476
2264 49.9688 -0.0194437
2265 49.9688 -0.0194404
2266 49.9687 -0.0194354
2267 49.9687 -0.0194315
2268 49.9687 -0.0194272
2269 49.9687 -0.019424
2270 49.9687 -0.019419
2271 49.9687 -0.0194144
2272 49.9687 -0.0194104
2273 49.9687 -0.0194064
2274 49.9687 -0.0194027
2275 49.9687 -0.0193978
2276 49.9687 -0.0193948
2277 49.9687 -0.0193909
2278 49.9687 -0.0193877
2279 49.9687 -0.0193834
2280 49.9687 -0.0193801
2281 49.9687 -0.0193752
2282 49.9687 -0.01937
2283 49.9687 -0.0193654
2284 49.9687 -0.0193615
2285 49.9687 -0.019358
2286 49.9687 -0.0193532
2287 49.9687 -0.0193493
2288 49.9687 -0.0193449
2289 49.9687 -0.0193419
2290 49.9687 -0.019338
2291 49.9687 -0.0193348
2292 49.9687 -0.0193303
2293 49.9687 -0.0193267
2294 49.9687 -0.0193224
2295 49.9687 -0.0193193
2296 49.9687 -0.0193142
2297 49.9687 -0.0193108
2298 49.9687 -0.0193058
2299 49.9687 -0.0193019
2300 49.9687 -0.019297
2301 49.9687 -0.019293
2302 49.9687 -0.01929
2303 49.9687 -0.0192861
2304 49.9687 -0.0192828
2305 49.9686 -0.019279
2306 49.9686 -0.0192749
2307 49.9686 -0.0192709
2308 49.9686 -0.019268
2309 49.9686 -0.0192634
2310 49.9686 -0.0192599
2311 49.9686 -0.0192561
2312 49.9686 -0.0192517
2313 49.9686 -0.0192473
2314 49.9686 -0.0192427
2315 49.9686 -0.0192398
2316 49.9686 -0.0192346
2317 49.9686 -0.0192317
2318 49.9686 -0.0192278
2319 49.9686 -0.0192245
2320 49.9686 -0.01922
2321 49.9686 -0.0192164
2322 49.9686 -0.0192116
2323 49.9686 -0.0192074
2324 49.9686 -0.019204
2325 49.9686 -0.0191991
2326 49.9686 -0.0191946
2327 49.9686 -0.0191905
2328 49.9686 -0.0191868
2329 49.9686 -0.0191829
2330 49.9686 -0.0191799
2331 49.9686 -0.019176
2332 49.9686 -0.0191727
2333 49.9686 -0.0191681
2334 49.9686 -0.0191645
2335 49.9686 -0.0191597
2336 49.9686 -0.0191565
2337 49.9686 -0.0191514
2338 49.9686 -0.0191469
2339 49.9686 -0.0191435
2340 49.9686 -0.0191386
2341 49.9686 -0.0191347
2342 49.9686 -0.0191304
2343 49.9686 -0.0191274
2344 49.9685 -0.0191235
2345 49.9685 -0.0191202
2346 49.9685 -0.0191152
2347 49.9685 -0.0191114
2348 49.9685 -0.019107
2349 49.9685 -0.0191039
2350 49.9685 -0.0190988
2351 49.9685 -0.0190955
2352 49.9685 -0.0190917
2353 49.9685 -0.0190868
2354 49.9685 -0.019082
2355 49.9685 -0.0190775
2356 49.9685 -0.0190746
2357 49.9685 -0.0190707
2358 49.9685 -0.0190677
2359 49.9685 -0.0190627
2360 49.9685 -0.0190597
2361 49.9685 -0.0190547
2362 49.9685 -0.0190518
2363 49.9685 -0.0190472
2364 49.9685 -0.0190436
2365 49.9685 -0.0190399
2366 49.9685 -0.0190355
2367 49.9685 -0.0190311
2368 49.9685 -0.0190265
2369 49.9685 -0.0190235
2370 49.9685 -0.0190184
2371 49.9685 -0.0190155
2372 49.9685 -0.0190116
2373 49.9685 -0.0190082
2374 49.9685 -0.0190033
2375 49.9685 -0.0189994
2376 49.9685 -0.0189946
2377 49.9685 -0.0189912
2378 49.9685 -0.0189875
2379 49.9685 -0.0189826
2380 49.9685 -0.018978
2381 49.9685 -0.018974
2382 49.9684 -0.0189689
2383 49.9684 -0.0189649
2384 49.9684 -0.0189619
2385 49.9684 -0.018958
2386 49.9684 -0.0189547
2387 49.9684 -0.0189502
2388 49.9684 -0.0189465
2389 49.9684 -0.0189426
2390 49.9684 -0.0189394
2391 49.9684 -0.0189343
2392 49.9684 -0.0189298
2393 49.9684 -0.0189263
2394 49.9684 -0.0189215
2395 49.9684 -0.0189176
2396 49.9684 -0.0189133
2397 49.9684 -0.0189102
2398 49.9684 -0.0189064
2399 49.9684 -0.0189031
2400 49.9684 -0.0188981
2401 49.9684 -0.0188942
2402 49.9684 -0.0188902
2403 49.9684 -0.0188872
2404 49.9684 -0.0188822
2405 49.9684 -0.0188788
2406 49.9684 -0.018875
2407 49.9684 -0.0188702
2408 49.9684 -0.0188653
2409 49.9684 -0.0188609
2410 49.9684 -0.0188579
2411 49.9684 -0.018854
2412 49.9684 -0.0188507
2413 49.9684 -0.0188458
2414 49.9684 -0.0188427
2415 49.9684 -0.0188389
2416 49.9684 -0.0188359
2417 49.9684 -0.0188313
2418 49.9684 -0.0188278
2419 49.9684 -0.0188232
2420 49.9684 -0.0188194
2421 49.9684 -0.0188151
2422 49.9683 -0.0188104
2423 49.9683 -0.0188075
2424 49.9683 -0.0188023
2425 49.9683 -0.0187994
2426 49.9683 -0.0187956
2427 49.9683 -0.0187925
2428 49.9683 -0.0187875
2429 49.9683 -0.0187836
2430 49.9683 -0.0187789
2431 49.9683 -0.0187755
2432 49.9683 -0.0187717
2433 49.9683 -0.0187669
2434 49.9683 -0.0187623
2435 49.9683 -0.0187582
2436 49.9683 -0.0187545
2437 49.9683 -0.0187496
2438 49.9683 -0.0187467
2439 49.9683 -0.0187428
2440 49.9683 -0.0187395
2441 49.9683 -0.018735
2442 49.9683 -0.0187313
2443 49.9683 -0.0187265
2444 49.9683 -0.0187233
2445 49.9683 -0.0187182
2446 49.9683 -0.0187138
2447 49.9683 -0.0187087
2448 49.9683 -0.0187047
2449 49.9683 -0.0187008
2450 49.9683 -0.0186965
2451 49.9683 -0.0186934
2452 49.9683 -0.0186896
2453 49.9683 -0.0186863
2454 49.9683 -0.0186813
2455 49.9683 -0.0186774
2456 49.9683 -0.0186731
2457 49.9683 -0.01867
2458 49.9683 -0.0186649
2459 49.9683 -0.0186615
2460 49.9682 -0.0186566
2461 49.9682 -0.0186526
2462 49.9682 -0.0186478
2463 49.9682 -0.0186437
2464 49.9682 -0.0186407
2465 49.9682 -0.0186369
2466 49.9682 -0.0186336
2467 49.9682 -0.0186286
2468 49.9682 -0.0186256
2469 49.9682 -0.0186218
2470 49.9682 -0.018618
2471 49.9682 -0.0186142
2472 49.9682 -0.0186106
2473 49.9682 -0.0186069
2474 49.9682 -0.0186025
2475 49.9682 -0.0185975
2476 49.9682 -0.0185934
2477 49.9682 -0.0185905
2478 49.9682 -0.0185853
2479 49.9682 -0.0185824
2480 49.9682 -0.0185786
2481 49.9682 -0.0185752
2482 49.9682 -0.0185702
2483 49.9682 -0.0185651
2484 49.9682 -0.0185611
2485 49.9682 -0.0185578
2486 49.9682 -0.018554
2487 49.9682 -0.0185492
2488 49.9682 -0.0185446
2489 49.9682 -0.0185405
2490 49.9682 -0.0185368
2491 49.9682 -0.0185319
2492 49.9682 -0.018529
2493 49.9682 -0.0185251
2494 49.9682 -0.0185204
2495 49.9682 -0.0185167
2496 49.9682 -0.018513
2497 49.9682 -0.0185082
2498 49.9682 -0.0185051
2499 49.9681 -0.0184999
2500 49.9681 -0.0184956
2501 49.9681 -0.0184923
2502 49.9681 -0.0184874
2503 49.9681 -0.0184835
2504 49.9681 -0.0184796
2505 49.9681 -0.0184761
2506 49.9681 -0.0184728
2507 49.9681 -0.0184695
2508 49.9681 -0.0184652
2509 49.9681 -0.0184615
2510 49.9681 -0.0184572
2511 49.9681 -0.0184541
2512 49.9681 -0.01845
2513 49.9681 -0.0184467
2514 49.9681 -0.0184429
2515 49.9681 -0.018438
2516 49.9681 -0.0184332
2517 49.9681 -0.0184287
2518 49.9681 -0.0184258
2519 49.9681 -0.0184219
2520 49.9681 -0.0184186
2521 49.9681 -0.0184136
2522 49.9681 -0.0184106
2523 49.9681 -0.0184056
2524 49.9681 -0.0184027
2525 49.9681 -0.0183981
2526 49.9681 -0.0183946
2527 49.9681 -0.0183899
2528 49.9681 -0.0183862
2529 49.9681 -0.0183818
2530 49.9681 -0.0183772
2531 49.9681 -0.0183742
2532 49.9681 -0.0183691
2533 49.9681 -0.0183662
2534 49.9681 -0.0183623
2535 49.9681 -0.0183573
2536 49.9681 -0.0183534
2537 49.968 -0.0183495
2538 49.968 -0.0183447
2539 49.968 -0.0183413
2540 49.968 -0.0183376
2541 49.968 -0.0183327
2542 49.968 -0.0183282
2543 49.968 -0.0183241
2544 49.968 -0.0183189
2545 49.968 -0.0183149
2546 49.968 -0.018312
2547 49.968 -0.0183081
2548 49.968 -0.0183048
2549 49.968 -0.0183003
2550 49.968 -0.0182967
2551 49.968 -0.0182918
2552 49.968 -0.0182887
2553 49.968 -0.0182836
2554 49.968 -0.0182791
2555 49.968 -0.0182756
2556 49.968 -0.0182708
2557 49.968 -0.0182669
2558 49.968 -0.0182626
2559 49.968 -0.0182595
2560 49.968 -0.0182557
2561 49.968 -0.0182524
2562 49.968 -0.0182479
2563 49.968 -0.0182444
2564 49.968 -0.0182401
2565 49.968 -0.018237
2566 49.968 -0.0182319
2567 49.968 -0.0182285
2568 49.968 -0.0182247
2569 49.968 -0.0182199
2570 49.968 -0.0182151
2571 49.968 -0.0182106
2572 49.968 -0.0182076
2573 49.968 -0.0182038
2574 49.968 -0.0182008
2575 49.968 -0.018197
2576 49.9679 -0.0181929
2577 49.9679 -0.0181889
2578 49.9679 -0.0181844
2579 49.9679 -0.0181804
2580 49.9679 -0.0181769
2581 49.9679 -0.0181731
2582 49.9679 -0.0181687
2583 49.9679 -0.0181637
2584 49.9679 -0.0181597
2585 49.9679 -0.0181558
2586 49.9679 -0.0181516
2587 49.9679 -0.0181487
2588 49.9679 -0.0181448
2589 49.9679 -0.0181415
2590 49.9679 -0.0181365
2591 49.9679 -0.0181326
2592 49.9679 -0.0181278
2593 49.9679 -0.0181245
2594 49.9679 -0.0181207
2595 49.9679 -0.0181159
2596 49.9679 -0.0181113
2597 49.9679 -0.0181072
2598 49.9679 -0.0181035
2599 49.9679 -0.0180986
2600 49.9679 -0.0180957
2601 49.9679 -0.0180918
2602 49.9679 -0.0180885
2603 49.9679 -0.0180839
2604 49.9679 -0.0180803
2605 49.9679 -0.0180755
2606 49.9679 -0.0180723
2607 49.9679 -0.0180672
2608 49.9679 -0.0180628
2609 49.9679 -0.0180593
2610 49.9679 -0.0180545
2611 49.9679 -0.0180506
2612 49.9679 -0.0180466
2613 49.9679 -0.0180437
2614 49.9678 -0.0180398
2615 49.9678 -0.0180348
2616 49.9678 -0.0180309
2617 49.9678 -0.018027
2618 49.9678 -0.0180227
2619 49.9678 -0.0180196
2620 49.9678 -0.0180145
2621 49.9678 -0.0180111
2622 49.9678 -0.0180073
2623 49.9678 -0.0180025
2624 49.9678 -0.0179977
2625 49.9678 -0.0179932
2626 49.9678 -0.0179902
2627 49.9678 -0.0179864
2628 49.9678 -0.0179834
2629 49.9678 -0.0179784
2630 49.9678 -0.0179754
2631 49.9678 -0.0179704
2632 49.9678 -0.0179675
2633 49.9678 -0.0179629
2634 49.9678 -0.0179594
2635 49.9678 -0.0179556
2636 49.9678 -0.0179512
2637 49.9678 -0.0179462
2638 49.9678 -0.0179422
2639 49.9678 -0.0179392
2640 49.9678 -0.0179354
2641 49.9678 -0.0179324
2642 49.9678 -0.0179285
2643 49.9678 -0.0179252
2644 49.9678 -0.0179202
2645 49.9678 -0.0179163
2646 49.9678 -0.0179116
2647 49.9678 -0.0179073
2648 49.9678 -0.017904
2649 49.9678 -0.0178991
2650 49.9678 -0.0178945
2651 49.9678 -0.0178905
2652 49.9677 -0.0178854
2653 49.9677 -0.0178813
2654 49.9677 -0.0178784
2655 49.9677 -0.0178745
2656 49.9677 -0.0178712
2657 49.9677 -0.0178667
2658 49.9677 -0.017863
2659 49.9677 -0.0178582
2660 49.9677 -0.0178551
2661 49.9677 -0.01785
2662 49.9677 -0.0178455
2663 49.9677 -0.017842
2664 49.9677 -0.0178372
2665 49.9677 -0.0178333
2666 49.9677 -0.017829
2667 49.9677 -0.0178259
2668 49.9677 -0.0178221
2669 49.9677 -0.0178181
2670 49.9677 -0.0178138
2671 49.9677 -0.0178103
2672 49.9677 -0.0178063
2673 49.9677 -0.0178033
2674 49.9677 -0.0177982
2675 49.9677 -0.0177939
2676 49.9677 -0.0177906
2677 49.9677 -0.0177857
2678 49.9677 -0.0177809
2679 49.9677 -0.0177764
2680 49.9677 -0.0177721
2681 49.9677 -0.0177688
2682 49.9677 -0.0177656
2683 49.9677 -0.0177606
2684 49.9677 -0.0177576
2685 49.9677 -0.0177526
2686 49.9677 -0.0177497
2687 49.9677 -0.017745
2688 49.9677 -0.0177415
2689 49.9677 -0.0177378
2690 49.9677 -0.017733
2691 49.9676 -0.0177292
2692 49.9676 -0.0177246
2693 49.9676 -0.0177217
2694 49.9676 -0.0177178
2695 49.9676 -0.0177148
2696 49.9676 -0.017711
2697 49.9676 -0.0177076
2698 49.9676 -0.0177027
2699 49.9676 -0.0176988
2700 49.9676 -0.0176945
2701 49.9676 -0.0176913
2702 49.9676 -0.0176875
2703 49.9676 -0.0176827
2704 49.9676 -0.0176781
2705 49.9676 -0.017674
2706 49.9676 -0.0176703
2707 49.9676 -0.0176654
2708 49.9676 -0.0176625
2709 49.9676 -0.0176586
2710 49.9676 -0.0176553
2711 49.9676 -0.0176508
2712 49.9676 -0.0176457
2713 49.9676 -0.0176417
2714 49.9676 -0.0176386
2715 49.9676 -0.0176335
2716 49.9676 -0.017629
2717 49.9676 -0.0176256
2718 49.9676 -0.0176207
2719 49.9676 -0.0176168
2720 49.9676 -0.0176125
2721 49.9676 -0.0176095
2722 49.9676 -0.0176056
2723 49.9676 -0.0176027
2724 49.9676 -0.0175977
2725 49.9676 -0.0175931
2726 49.9676 -0.0175891
2727 49.9676 -0.017586
2728 49.9676 -0.017581
2729 49.9676 -0.0175776
2730 49.9675 -0.0175738
2731 49.9675 -0.017569
2732 49.9675 -0.0175642
2733 49.9675 -0.0175601
2734 49.9675 -0.0175571
2735 49.9675 -0.0175533
2736 49.9675 -0.01755
2737 49.9675 -0.017545
2738 49.9675 -0.017542
2739 49.9675 -0.017537
2740 49.9675 -0.0175341
2741 49.9675 -0.0175295
2742 49.9675 -0.0175259
2743 49.9675 -0.0175222
2744 49.9675 -0.0175178
2745 49.9675 -0.0175134
2746 49.9675 -0.0175088
2747 49.9675 -0.0175059
2748 49.9675 -0.0175011
2749 49.9675 -0.0174981
2750 49.9675 -0.0174942
2751 49.9675 -0.0174912
2752 49.9675 -0.0174862
2753 49.9675 -0.0174811
2754 49.9675 -0.0174773
2755 49.9675 -0.0174738
2756 49.9675 -0.01747
2757 49.9675 -0.0174652
2758 49.9675 -0.0174606
2759 49.9675 -0.0174565
2760 49.9675 -0.0174515
2761 49.9675 -0.0174474
2762 49.9675 -0.0174445
2763 49.9675 -0.0174406
2764 49.9675 -0.0174373
2765 49.9675 -0.0174327
2766 49.9675 -0.0174291
2767 49.9675 -0.0174243
2768 49.9674 -0.0174211
2769 49.9674 -0.017416
2770 49.9674 -0.0174116
2771 49.9674 -0.0174081
2772 49.9674 -0.0174033
2773 49.9674 -0.0173994
2774 49.9674 -0.0173951
2775 49.9674 -0.017392
2776 49.9674 -0.0173882
2777 49.9674 -0.0173849
2778 49.9674 -0.0173805
2779 49.9674 -0.0173764
2780 49.9674 -0.0173726
2781 49.9674 -0.0173695
2782 49.9674 -0.0173644
2783 49.9674 -0.0173603
2784 49.9674 -0.0173568
2785 49.9674 -0.0173519
2786 49.9674 -0.0173471
2787 49.9674 -0.0173426
2788 49.9674 -0.0173397
2789 49.9674 -0.0173358
2790 49.9674 -0.0173325
2791 49.9674 -0.0173276
2792 49.9674 -0.0173246
2793 49.9674 -0.0173207
2794 49.9674 -0.0173178
2795 49.9674 -0.0173132
2796 49.9674 -0.0173096
2797 49.9674 -0.0173059
2798 49.9674 -0.0173015
2799 49.9674 -0.0172971
2800 49.9674 -0.0172932
2801 49.9674 -0.0172902
2802 49.9674 -0.0172854
2803 49.9674 -0.0172824
2804 49.9674 -0.0172786
2805 49.9674 -0.0172752
2806 49.9674 -0.0172703
2807 49.9673 -0.0172664
2808 49.9673 -0.0172616
2809 49.9673 -0.0172583
2810 49.9673 -0.0172545
2811 49.9673 -0.0172497
2812 49.9673 -0.0172451
2813 49.9673 -0.017241
2814 49.9673 -0.0172373
2815 49.9673 -0.0172324
2816 49.9673 -0.0172295
2817 49.9673 -0.0172256
2818 49.9673 -0.0172223
2819 49.9673 -0.0172178
2820 49.9673 -0.0172142
2821 49.9673 -0.0172093
2822 49.9673 -0.0172062
2823 49.9673 -0.0172011
2824 49.9673 -0.0171966
2825 49.9673 -0.0171932
2826 49.9673 -0.0171883
2827 49.9673 -0.0171844
2828 49.9673 -0.0171801
2829 49.9673 -0.0171771
2830 49.9673 -0.0171732
2831 49.9673 -0.01717
2832 49.9673 -0.017165
2833 49.9673 -0.0171611
2834 49.9673 -0.0171568
2835 49.9673 -0.0171537
2836 49.9673 -0.0171486
2837 49.9673 -0.0171443
2838 49.9673 -0.017141
2839 49.9673 -0.0171361
2840 49.9673 -0.0171313
2841 49.9673 -0.0171268
2842 49.9673 -0.0171239
2843 49.9673 -0.01712
2844 49.9673 -0.0171167
2845 49.9672 -0.0171118
2846 49.9672 -0.0171088
2847 49.9672 -0.0171038
2848 49.9672 -0.0171008
2849 49.9672 -0.0170962
2850 49.9672 -0.0170927
2851 49.9672 -0.0170882
2852 49.9672 -0.0170843
2853 49.9672 -0.01708
2854 49.9672 -0.0170754
2855 49.9672 -0.0170724
2856 49.9672 -0.0170677
2857 49.9672 -0.0170647
2858 49.9672 -0.0170608
2859 49.9672 -0.0170575
2860 49.9672 -0.0170525
2861 49.9672 -0.0170486
2862 49.9672 -0.0170439
2863 49.9672 -0.0170395
2864 49.9672 -0.0170363
2865 49.9672 -0.0170314
2866 49.9672 -0.0170268
2867 49.9672 -0.0170228
2868 49.9672 -0.0170191
2869 49.9672 -0.0170142
2870 49.9672 -0.0170113
2871 49.9672 -0.0170074
2872 49.9672 -0.0170041
2873 49.9672 -0.0169995
2874 49.9672 -0.0169959
2875 49.9672 -0.0169911
2876 49.9672 -0.0169879
2877 49.9672 -0.016983
2878 49.9672 -0.0169791
2879 49.9672 -0.016974
2880 49.9672 -0.0169697
2881 49.9672 -0.0169661
2882 49.9672 -0.0169618
2883 49.9671 -0.0169588
2884 49.9671 -0.0169549
2885 49.9671 -0.0169517
2886 49.9671 -0.0169472
2887 49.9671 -0.0169437
2888 49.9671 -0.0169394
2889 49.9671 -0.0169362
2890 49.9671 -0.0169322
2891 49.9671 -0.0169288
2892 49.9671 -0.016925
2893 49.9671 -0.0169202
2894 49.9671 -0.0169154
2895 49.9671 -0.0169109
2896 49.9671 -0.016908
2897 49.9671 -0.0169041
2898 49.9671 -0.0168992
2899 49.9671 -0.0168952
2900 49.9671 -0.0168922
2901 49.9671 -0.0168872
2902 49.9671 -0.0168843
2903 49.9671 -0.0168797
2904 49.9671 -0.0168761
2905 49.9671 -0.0168724
2906 49.9671 -0.016868
2907 49.9671 -0.0168636
2908 49.9671 -0.016859
2909 49.9671 -0.0168561
2910 49.9671 -0.0168522
2911 49.9671 -0.0168486
2912 49.9671 -0.0168454
2913 49.9671 -0.0168421
2914 49.9671 -0.0168375
2915 49.9671 -0.0168334
2916 49.9671 -0.0168293
2917 49.9671 -0.0168259
2918 49.9671 -0.016821
2919 49.9671 -0.016817
2920 49.9671 -0.0168124
2921 49.9671 -0.0168083
2922 49.967 -0.0168046
2923 49.967 -0.0167997
2924 49.967 -0.0167968
2925 49.967 -0.0167929
2926 49.967 -0.0167897
2927 49.967 -0.0167851
2928 49.967 -0.0167815
2929 49.967 -0.0167766
2930 49.967 -0.0167716
2931 49.967 -0.0167669
2932 49.967 -0.0167627
2933 49.967 -0.0167594
2934 49.967 -0.0167549
2935 49.967 -0.0167514
2936 49.967 -0.016747
2937 49.967 -0.016744
2938 49.967 -0.0167401
2939 49.967 -0.0167352
2940 49.967 -0.016731
2941 49.967 -0.0167274
2942 49.967 -0.016723
2943 49.967 -0.016718
2944 49.967 -0.0167139
2945 49.967 -0.0167106
2946 49.967 -0.0167068
2947 49.967 -0.0167019
2948 49.967 -0.0166971
2949 49.967 -0.0166927
2950 49.967 -0.0166897
2951 49.967 -0.0166858
2952 49.967 -0.0166826
2953 49.967 -0.0166776
2954 49.967 -0.0166746
2955 49.967 -0.0166696
2956 49.967 -0.0166667
2957 49.967 -0.0166621
2958 49.967 -0.0166586
2959 49.967 -0.0166548
2960 49.9669 -0.0166501
2961 49.9669 -0.0166463
2962 49.9669 -0.0166417
2963 49.9669 -0.0166387
2964 49.9669 -0.016634
2965 49.9669 -0.016631
2966 49.9669 -0.0166271
2967 49.9669 -0.0166238
2968 49.9669 -0.0166188
2969 49.9669 -0.0166149
2970 49.9669 -0.0166102
2971 49.9669 -0.0166068
2972 49.9669 -0.0166031
2973 49.9669 -0.0165981
2974 49.9669 -0.0165941
2975 49.9669 -0.01659
2976 49.9669 -0.0165863
2977 49.9669 -0.0165814
2978 49.9669 -0.0165785
2979 49.9669 -0.0165746
2980 49.9669 -0.0165713
2981 49.9669 -0.0165668
2982 49.9669 -0.0165632
2983 49.9669 -0.0165583
2984 49.9669 -0.0165532
2985 49.9669 -0.0165491
2986 49.9669 -0.0165446
2987 49.9669 -0.0165411
2988 49.9669 -0.0165363
2989 49.9669 -0.0165324
2990 49.9669 -0.0165285
2991 49.9669 -0.0165256
2992 49.9669 -0.0165217
2993 49.9669 -0.0165185
2994 49.9669 -0.0165135
2995 49.9669 -0.0165096
2996 49.9669 -0.0165053
2997 49.9669 -0.0165022
2998 49.9668 -0.0164971
2999 49.9668 -0.0164938
3000 49.9668 -0.01649
3001 49.9668 -0.0164852
3002 49.9668 -0.0164803
3003 49.9668 -0.0164763
3004 49.9668 -0.0164733
3005 49.9668 -0.0164694
3006 49.9668 -0.0164662
3007 49.9668 -0.0164612
3008 49.9668 -0.0164582
3009 49.9668 -0.0164532
3010 49.9668 -0.0164484
3011 49.9668 -0.0164447
3012 49.9668 -0.0164411
3013 49.9668 -0.0164374
3014 49.9668 -0.016433
3015 49.9668 -0.0164287
3016 49.9668 -0.0164247
3017 49.9668 -0.0164217
3018 49.9668 -0.016417
3019 49.9668 -0.016414
3020 49.9668 -0.0164101
3021 49.9668 -0.0164068
3022 49.9668 -0.0164018
3023 49.9668 -0.0163979
3024 49.9668 -0.0163932
3025 49.9668 -0.0163898
3026 49.9668 -0.0163861
3027 49.9668 -0.0163812
3028 49.9668 -0.0163767
3029 49.9668 -0.0163726
3030 49.9668 -0.0163689
3031 49.9668 -0.016364
3032 49.9668 -0.0163611
3033 49.9668 -0.0163572
3034 49.9668 -0.0163539
3035 49.9668 -0.0163494
3036 49.9668 -0.0163458
3037 49.9667 -0.0163409
3038 49.9667 -0.0163357
3039 49.9667 -0.0163317
3040 49.9667 -0.0163274
3041 49.9667 -0.016324
3042 49.9667 -0.0163192
3043 49.9667 -0.0163153
3044 49.9667 -0.016311
3045 49.9667 -0.0163079
3046 49.9667 -0.0163041
3047 49.9667 -0.0163008
3048 49.9667 -0.0162963
3049 49.9667 -0.0162929
3050 49.9667 -0.0162886
3051 49.9667 -0.0162854
3052 49.9667 -0.0162804
3053 49.9667 -0.016277
3054 49.9667 -0.0162732
3055 49.9667 -0.016268
3056 49.9667 -0.0162639
3057 49.9667 -0.0162594
3058 49.9667 -0.0162565
3059 49.9667 -0.0162526
3060 49.9667 -0.0162494
3061 49.9667 -0.0162444
3062 49.9667 -0.0162414
3063 49.9667 -0.0162364
3064 49.9667 -0.0162325
3065 49.9667 -0.0162294
3066 49.9667 -0.0162252
3067 49.9667 -0.0162209
3068 49.9667 -0.0162179
3069 49.9667 -0.0162138
3070 49.9667 -0.0162105
3071 49.9667 -0.0162073
3072 49.9667 -0.0162027
3073 49.9667 -0.0161991
3074 49.9667 -0.0161943
3075 49.9667 -0.0161913
3076 49.9666 -0.0161862
3077 49.9666 -0.0161817
3078 49.9666 -0.0161783
3079 49.9666 -0.0161738
3080 49.9666 -0.0161702
3081 49.9666 -0.0161663
3082 49.9666 -0.0161633
3083 49.9666 -0.0161595
3084 49.9666 -0.0161566
3085 49.9666 -0.0161521
3086 49.9666 -0.0161485
3087 49.9666 -0.0161442
3088 49.9666 -0.0161412
3089 49.9666 -0.0161361
3090 49.9666 -0.0161328
3091 49.9666 -0.016129
3092 49.9666 -0.0161242
3093 49.9666 -0.0161193
3094 49.9666 -0.0161149
3095 49.9666 -0.0161119
3096 49.9666 -0.0161081
3097 49.9666 -0.0161048
3098 49.9666 -0.0160998
3099 49.9666 -0.0160968
3100 49.9666 -0.0160918
3101 49.9666 -0.0160889
3102 49.9666 -0.0160843
3103 49.9666 -0.0160808
3104 49.9666 -0.0160771
3105 49.9666 -0.0160726
3106 49.9666 -0.0160683
3107 49.9666 -0.0160637
3108 49.9666 -0.0160607
3109 49.9666 -0.016056
3110 49.9666 -0.016053
3111 49.9666 -0.0160491
3112 49.9666 -0.0160458
3113 49.9666 -0.0160408
3114 49.9666 -0.0160369
3115 49.9665 -0.0160322
3116 49.9665 -0.016029
3117 49.9665 -0.0160252
3118 49.9665 -0.0160204
3119 49.9665 -0.0160158
3120 49.9665 -0.0160117
3121 49.9665 -0.016008
3122 49.9665 -0.0160041
3123 49.9665 -0.0160012
3124 49.9665 -0.0159973
3125 49.9665 -0.015994
3126 49.9665 -0.0159894
3127 49.9665 -0.0159858
3128 49.9665 -0.015981
3129 49.9665 -0.015978
3130 49.9665 -0.0159729
3131 49.9665 -0.0159684
3132 49.9665 -0.0159649
3133 49.9665 -0.0159601
3134 49.9665 -0.0159562
3135 49.9665 -0.0159519
3136 49.9665 -0.0159476
3137 49.9665 -0.0159444
3138 49.9665 -0.0159411
3139 49.9665 -0.0159361
3140 49.9665 -0.0159323
3141 49.9665 -0.015928
3142 49.9665 -0.0159249
3143 49.9665 -0.0159199
3144 49.9665 -0.0159165
3145 49.9665 -0.0159127
3146 49.9665 -0.0159079
3147 49.9665 -0.0159028
3148 49.9665 -0.0158988
3149 49.9665 -0.0158959
3150 49.9665 -0.015892
3151 49.9665 -0.0158888
3152 49.9665 -0.0158838
3153 49.9664 -0.0158808
3154 49.9664 -0.0158758
3155 49.9664 -0.0158729
3156 49.9664 -0.0158683
3157 49.9664 -0.0158648
3158 49.9664 -0.015861
3159 49.9664 -0.0158566
3160 49.9664 -0.0158523
3161 49.9664 -0.0158477
3162 49.9664 -0.0158447
3163 49.9664 -0.01584
3164 49.9664 -0.0158369
3165 49.9664 -0.0158331
3166 49.9664 -0.0158297
3167 49.9664 -0.0158248
3168 49.9664 -0.0158209
3169 49.9664 -0.0158161
3170 49.9664 -0.015813
3171 49.9664 -0.0158092
3172 49.9664 -0.0158042
3173 49.9664 -0.0158002
3174 49.9664 -0.0157961
3175 49.9664 -0.0157911
3176 49.9664 -0.015787
3177 49.9664 -0.0157841
3178 49.9664 -0.0157803
3179 49.9664 -0.0157773
3180 49.9664 -0.0157727
3181 49.9664 -0.0157691
3182 49.9664 -0.0157643
3183 49.9664 -0.0157613
3184 49.9664 -0.0157561
3185 49.9664 -0.0157517
3186 49.9664 -0.0157482
3187 49.9664 -0.0157434
3188 49.9664 -0.0157386
3189 49.9664 -0.0157349
3190 49.9664 -0.0157318
3191 49.9663 -0.015728
3192 49.9663 -0.015723
3193 49.9663 -0.015719
3194 49.9663 -0.0157152
3195 49.9663 -0.0157109
3196 49.9663 -0.0157078
3197 49.9663 -0.0157028
3198 49.9663 -0.0156994
3199 49.9663 -0.0156956
3200 49.9663 -0.0156905
3201 49.9663 -0.0156863
3202 49.9663 -0.0156818
3203 49.9663 -0.0156789
3204 49.9663 -0.015675
3205 49.9663 -0.0156718
3206 49.9663 -0.0156668
3207 49.9663 -0.0156638
3208 49.9663 -0.0156588
3209 49.9663 -0.0156559
3210 49.9663 -0.0156513
3211 49.9663 -0.0156478
3212 49.9663 -0.015644
3213 49.9663 -0.0156396
3214 49.9663 -0.0156353
3215 49.9663 -0.0156307
3216 49.9663 -0.0156277
3217 49.9663 -0.015623
3218 49.9663 -0.0156188
3219 49.9663 -0.0156154
3220 49.9663 -0.0156121
3221 49.9663 -0.0156071
3222 49.9663 -0.0156032
3223 49.9663 -0.0155985
3224 49.9663 -0.0155942
3225 49.9663 -0.0155909
3226 49.9663 -0.0155859
3227 49.9663 -0.0155819
3228 49.9663 -0.0155778
3229 49.9662 -0.0155741
3230 49.9662 -0.0155693
3231 49.9662 -0.0155663
3232 49.9662 -0.0155626
3233 49.9662 -0.0155595
3234 49.9662 -0.015555
3235 49.9662 -0.0155513
3236 49.9662 -0.0155465
3237 49.9662 -0.0155413
3238 49.9662 -0.0155372
3239 49.9662 -0.0155328
3240 49.9662 -0.0155277
3241 49.9662 -0.0155237
3242 49.9662 -0.0155199
3243 49.9662 -0.0155155
3244 49.9662 -0.0155125
3245 49.9662 -0.0155086
3246 49.9662 -0.0155054
3247 49.9662 -0.0155004
3248 49.9662 -0.0154965
3249 49.9662 -0.0154922
3250 49.9662 -0.0154892
3251 49.9662 -0.0154841
3252 49.9662 -0.0154808
3253 49.9662 -0.015477
3254 49.9662 -0.0154722
3255 49.9662 -0.0154671
3256 49.9662 -0.0154631
3257 49.9662 -0.0154602
3258 49.9662 -0.0154563
3259 49.9662 -0.015453
3260 49.9662 -0.0154481
3261 49.9662 -0.0154451
3262 49.9662 -0.0154401
3263 49.9662 -0.0154353
3264 49.9662 -0.0154316
3265 49.9662 -0.015428
3266 49.9662 -0.0154243
3267 49.9661 -0.0154199
3268 49.9661 -0.0154156
3269 49.9661 -0.0154109
3270 49.9661 -0.015408
3271 49.9661 -0.0154033
3272 49.9661 -0.0154002
3273 49.9661 -0.0153964
3274 49.9661 -0.015393
3275 49.9661 -0.0153886
3276 49.9661 -0.015385
3277 49.9661 -0.0153802
3278 49.9661 -0.0153771
3279 49.9661 -0.0153733
3280 49.9661 -0.0153685
3281 49.9661 -0.0153639
3282 49.9661 -0.0153598
3283 49.9661 -0.0153561
3284 49.9661 -0.0153512
3285 49.9661 -0.0153483
3286 49.9661 -0.0153444
3287 49.9661 -0.0153398
3288 49.9661 -0.0153359
3289 49.9661 -0.0153325
3290 49.9661 -0.0153276
3291 49.9661 -0.0153246
3292 49.9661 -0.0153195
3293 49.9661 -0.0153152
3294 49.9661 -0.0153119
3295 49.9661 -0.015307
3296 49.9661 -0.0153031
3297 49.9661 -0.0152993
3298 49.9661 -0.0152963
3299 49.9661 -0.0152924
3300 49.9661 -0.0152892
3301 49.9661 -0.0152842
3302 49.9661 -0.0152803
3303 49.9661 -0.015276
3304 49.9661 -0.015273
3305 49.966 -0.0152679
3306 49.966 -0.0152646
3307 49.966 -0.0152608
3308 49.966 -0.015256
3309 49.966 -0.0152511
3310 49.966 -0.0152472
3311 49.966 -0.0152442
3312 49.966 -0.0152403
3313 49.966 -0.0152354
3314 49.966 -0.0152314
3315 49.966 -0.0152284
3316 49.966 -0.0152234
3317 49.966 -0.0152205
3318 49.966 -0.0152159
3319 49.966 -0.0152124
3320 49.966 -0.0152087
3321 49.966 -0.0152042
3322 49.966 -0.0151999
3323 49.966 -0.0151953
3324 49.966 -0.0151923
3325 49.966 -0.0151885
3326 49.966 -0.0151855
3327 49.966 -0.0151817
3328 49.966 -0.0151783
3329 49.966 -0.0151734
3330 49.966 -0.0151695
3331 49.966 -0.0151647
3332 49.966 -0.0151616
3333 49.966 -0.0151578
3334 49.966 -0.015153
3335 49.966 -0.0151484
3336 49.966 -0.0151443
3337 49.966 -0.0151406
3338 49.966 -0.015137
3339 49.966 -0.0151338
3340 49.966 -0.0151299
3341 49.966 -0.0151266
3342 49.966 -0.0151225
3343 49.966 -0.0151191
3344 49.9659 -0.0151143
3345 49.9659 -0.0151113
3346 49.9659 -0.0151074
3347 49.9659 -0.0151026
3348 49.9659 -0.0150981
3349 49.9659 -0.0150948
3350 49.9659 -0.01509
3351 49.9659 -0.0150865
3352 49.9659 -0.0150821
3353 49.9659 -0.0150791
3354 49.9659 -0.0150752
3355 49.9659 -0.015072
3356 49.9659 -0.015067
3357 49.9659 -0.0150632
3358 49.9659 -0.0150589
3359 49.9659 -0.0150559
3360 49.9659 -0.0150508
3361 49.9659 -0.0150474
3362 49.9659 -0.0150436
3363 49.9659 -0.0150388
3364 49.9659 -0.015034
3365 49.9659 -0.0150298
3366 49.9659 -0.0150253
3367 49.9659 -0.0150208
3368 49.9659 -0.0150166
3369 49.9659 -0.0150132
3370 49.9659 -0.0150083
3371 49.9659 -0.0150039
3372 49.9659 -0.0149998
3373 49.9659 -0.0149964
3374 49.9659 -0.0149916
3375 49.9659 -0.0149871
3376 49.9659 -0.0149829
3377 49.9659 -0.0149795
3378 49.9659 -0.0149747
3379 49.9659 -0.0149702
3380 49.9659 -0.014966
3381 49.9658 -0.0149626
3382 49.9658 -0.0149577
3383 49.9658 -0.0149533
3384 49.9658 -0.0149491
3385 49.9658 -0.0149442
3386 49.9658 -0.0149401
3387 49.9658 -0.0149356
3388 49.9658 -0.0149314
3389 49.9658 -0.0149264
3390 49.9658 -0.0149224
3391 49.9658 -0.014918
3392 49.9658 -0.0149137
3393 49.9658 -0.0149103
3394 49.9658 -0.0149055
3395 49.9658 -0.014901
3396 49.9658 -0.0148968
3397 49.9658 -0.0148934
3398 49.9658 -0.0148886
3399 49.9658 -0.0148841
3400 49.9658 -0.0148798
3401 49.9658 -0.0148767
3402 49.9658 -0.0148718
3403 49.9658 -0.0148674
3404 49.9658 -0.0148631
3405 49.9658 -0.0148598
3406 49.9658 -0.0148549
3407 49.9658 -0.0148504
3408 49.9658 -0.0148462
3409 49.9658 -0.0148421
3410 49.9658 -0.0148382
3411 49.9658 -0.0148337
3412 49.9658 -0.0148295
3413 49.9658 -0.0148261
3414 49.9658 -0.0148213
3415 49.9658 -0.0148164
3416 49.9658 -0.0148126
3417 49.9657 -0.0148092
3418 49.9657 -0.0148044
3419 49.9657 -0.0147999
3420 49.9657 -0.0147957
3421 49.9657 -0.0147925
3422 49.9657 -0.0147877
3423 49.9657 -0.0147832
3424 49.9657 -0.014779
3425 49.9657 -0.0147756
3426 49.9657 -0.0147708
3427 49.9657 -0.0147663
3428 49.9657 -0.0147621
3429 49.9657 -0.0147589
3430 49.9657 -0.014754
3431 49.9657 -0.0147496
3432 49.9657 -0.0147453
3433 49.9657 -0.014742
3434 49.9657 -0.0147371
3435 49.9657 -0.0147326
3436 49.9657 -0.0147284
3437 49.9657 -0.014725
3438 49.9657 -0.0147202
3439 49.9657 -0.0147157
3440 49.9657 -0.0147115
3441 49.9657 -0.0147081
3442 49.9657 -0.0147033
3443 49.9657 -0.0146988
3444 49.9657 -0.0146946
3445 49.9657 -0.0146912
3446 49.9657 -0.0146864
3447 49.9657 -0.0146819
3448 49.9657 -0.0146777
3449 49.9657 -0.0146743
3450 49.9657 -0.0146694
3451 49.9657 -0.014665
3452 49.9657 -0.0146607
3453 49.9657 -0.0146574
3454 49.9656 -0.0146525
3455 49.9656 -0.0146481
3456 49.9656 -0.0146438
3457 49.9656 -0.0146404
3458 49.9656 -0.0146356
3459 49.9656 -0.0146311
3460 49.9656 -0.0146269
3461 49.9656 -0.0146219
3462 49.9656 -0.0146179
3463 49.9656 -0.0146135
3464 49.9656 -0.0146092
3465 49.9656 -0.0146061
3466 49.9656 -0.0146012
3467 49.9656 -0.0145968
3468 49.9656 -0.0145925
3469 49.9656 -0.0145893
3470 49.9656 -0.0145845
3471 49.9656 -0.01458
3472 49.9656 -0.0145758
3473 49.9656 -0.0145724
3474 49.9656 -0.0145676
3475 49.9656 -0.0145631
3476 49.9656 -0.0145589
3477 49.9656 -0.0145555
3478 49.9656 -0.0145507
3479 49.9656 -0.0145462
3480 49.9656 -0.014542
3481 49.9656 -0.0145386
3482 49.9656 -0.0145337
3483 49.9656 -0.0145293
3484 49.9656 -0.0145247
3485 49.9656 -0.0145218
3486 49.9656 -0.0145169
3487 49.9656 -0.0145124
3488 49.9656 -0.0145078
3489 49.9656 -0.0145049
3490 49.9655 -0.0145
3491 49.9655 -0.0144955
3492 49.9655 -0.0144909
3493 49.9655 -0.0144858
3494 49.9655 -0.0144819
3495 49.9655 -0.0144775
3496 49.9655 -0.0144728
3497 49.9655 -0.01447
3498 49.9655 -0.0144651
3499 49.9655 -0.0144606
3500 49.9655 -0.014456
3501 49.9655 -0.0144531
3502 49.9655 -0.0144482
3503 49.9655 -0.0144437
3504 49.9655 -0.0144408
3505 49.9655 -0.0144362
3506 49.9655 -0.0144317
3507 49.9655 -0.0144277
3508 49.9655 -0.0144248
3509 49.9655 -0.01442
3510 49.9655 -0.0144161
3511 49.9655 -0.0144116
3512 49.9655 -0.0144088
3513 49.9655 -0.0144041
3514 49.9655 -0.0143996
3515 49.9655 -0.0143951
3516 49.9655 -0.0143923
3517 49.9655 -0.0143877
3518 49.9655 -0.0143831
3519 49.9655 -0.0143786
3520 49.9655 -0.0143748
3521 49.9655 -0.0143704
3522 49.9655 -0.0143658
3523 49.9655 -0.0143614
3524 49.9655 -0.0143575
3525 49.9655 -0.0143526
3526 49.9654 -0.0143487
3527 49.9654 -0.0143442
3528 49.9654 -0.0143404
3529 49.9654 -0.0143359
3530 49.9654 -0.0143314
3531 49.9654 -0.0143264
3532 49.9654 -0.014322
3533 49.9654 -0.0143182
3534 49.9654 -0.0143137
3535 49.9654 -0.0143107
3536 49.9654 -0.0143058
3537 49.9654 -0.0143016
3538 49.9654 -0.0142971
3539 49.9654 -0.0142941
3540 49.9654 -0.0142892
3541 49.9654 -0.014285
3542 49.9654 -0.0142816
3543 49.9654 -0.0142767
3544 49.9654 -0.0142723
3545 49.9654 -0.014268
3546 49.9654 -0.0142646
3547 49.9654 -0.0142598
3548 49.9654 -0.0142553
3549 49.9654 -0.0142511
3550 49.9654 -0.0142477
3551 49.9654 -0.0142429
3552 49.9654 -0.0142377
3553 49.9654 -0.0142337
3554 49.9654 -0.0142309
3555 49.9654 -0.0142259
3556 49.9654 -0.0142215
3557 49.9654 -0.0142168
3558 49.9654 -0.014214
3559 49.9654 -0.0142091
3560 49.9654 -0.0142039
3561 49.9654 -0.0141999
3562 49.9653 -0.0141971
3563 49.9653 -0.0141921
3564 49.9653 -0.0141877
3565 49.9653 -0.0141848
3566 49.9653 -0.0141802
3567 49.9653 -0.0141761
3568 49.9653 -0.0141715
3569 49.9653 -0.0141685
3570 49.9653 -0.0141634
3571 49.9653 -0.0141594
3572 49.9653 -0.0141549
3573 49.9653 -0.0141513
3574 49.9653 -0.0141477
3575 49.9653 -0.0141429
3576 49.9653 -0.0141387
3577 49.9653 -0.0141341
3578 49.9653 -0.0141304
3579 49.9653 -0.0141262
3580 49.9653 -0.0141232
3581 49.9653 -0.0141182
3582 49.9653 -0.0141145
3583 49.9653 -0.0141102
3584 49.9653 -0.0141053
3585 49.9653 -0.0141013
3586 49.9653 -0.0140972
3587 49.9653 -0.0140929
3588 49.9653 -0.0140887
3589 49.9653 -0.0140846
3590 49.9653 -0.0140807
3591 49.9653 -0.0140769
3592 49.9653 -0.0140727
3593 49.9653 -0.0140692
3594 49.9653 -0.0140645
3595 49.9653 -0.0140599
3596 49.9653 -0.0140554
3597 49.9653 -0.0140517
3598 49.9653 -0.0140478
3599 49.9652 -0.0140431
3600 49.9652 -0.0140389
3601 49.9652 -0.0140343
3602 49.9652 -0.0140314
3603 49.9652 -0.0140265
3604 49.9652 -0.0140232
3605 49.9652 -0.0140188
3606 49.9652 -0.0140157
3607 49.9652 -0.0140116
3608 49.9652 -0.0140085
3609 49.9652 -0.0140037
3610 49.9652 -0.0139999
3611 49.9652 -0.0139958
3612 49.9652 -0.0139925
3613 49.9652 -0.0139888
3614 49.9652 -0.013984
3615 49.9652 -0.0139805
3616 49.9652 -0.013976
3617 49.9652 -0.0139726
3618 49.9652 -0.0139684
3619 49.9652 -0.0139641
3620 49.9652 -0.0139611
3621 49.9652 -0.0139562
3622 49.9652 -0.0139517
3623 49.9652 -0.0139482
3624 49.9652 -0.0139446
3625 49.9652 -0.0139398
3626 49.9652 -0.0139358
3627 49.9652 -0.0139326
3628 49.9652 -0.0139288
3629 49.9652 -0.0139243
3630 49.9652 -0.0139208
3631 49.9652 -0.0139166
3632 49.9652 -0.0139131
3633 49.9652 -0.0139094
3634 49.9652 -0.013905
3635 49.9652 -0.0139003
3636 49.9652 -0.0138967
3637 49.9652 -0.0138935
3638 49.9651 -0.013889
3639 49.9651 -0.0138856
3640 49.9651 -0.0138824
3641 49.9651 -0.0138778
3642 49.9651 -0.0138737
3643 49.9651 -0.0138702
3644 49.9651 -0.0138655
3645 49.9651 -0.0138609
3646 49.9651 -0.0138565
3647 49.9651 -0.0138536
3648 49.9651 -0.0138497
3649 49.9651 -0.0138449
3650 49.9651 -0.0138408
3651 49.9651 -0.0138361
3652 49.9651 -0.0138324
3653 49.9651 -0.0138282
3654 49.9651 -0.0138252
3655 49.9651 -0.0138202
3656 49.9651 -0.0138157
3657 49.9651 -0.0138115
3658 49.9651 -0.0138083
3659 49.9651 -0.0138051
3660 49.9651 -0.0138006
3661 49.9651 -0.0137966
3662 49.9651 -0.013792
3663 49.9651 -0.0137889
3664 49.9651 -0.0137851
3665 49.9651 -0.0137803
3666 49.9651 -0.0137757
3667 49.9651 -0.0137712
3668 49.9651 -0.0137679
3669 49.9651 -0.0137646
3670 49.9651 -0.0137596
3671 49.9651 -0.0137558
3672 49.9651 -0.013751
3673 49.9651 -0.0137466
3674 49.9651 -0.0137421
3675 49.965 -0.0137392
3676 49.965 -0.0137354
3677 49.965 -0.0137321
3678 49.965 -0.0137286
3679 49.965 -0.0137253
3680 49.965 -0.0137203
3681 49.965 -0.013717
3682 49.965 -0.0137126
3683 49.965 -0.0137083
3684 49.965 -0.0137037
3685 49.965 -0.0137008
3686 49.965 -0.013697
3687 49.965 -0.0136922
3688 49.965 -0.0136893
3689 49.965 -0.0136847
3690 49.965 -0.0136812
3691 49.965 -0.0136771
3692 49.965 -0.0136724
3693 49.965 -0.0136682
3694 49.965 -0.0136652
3695 49.965 -0.0136603
3696 49.965 -0.0136573
3697 49.965 -0.0136535
3698 49.965 -0.0136506
3699 49.965 -0.0136459
3700 49.965 -0.0136418
3701 49.965 -0.0136372
3702 49.965 -0.0136342
3703 49.965 -0.0136304
3704 49.965 -0.0136275
3705 49.965 -0.0136225
3706 49.965 -0.013618
3707 49.965 -0.0136147
3708 49.965 -0.0136109
3709 49.965 -0.0136062
3710 49.965 -0.0136014
3711 49.965 -0.0135972
3712 49.965 -0.0135927
3713 49.965 -0.0135888
3714 49.9649 -0.0135846
3715 49.9649 -0.0135816
3716 49.9649 -0.0135765
3717 49.9649 -0.013572
3718 49.9649 -0.013568
3719 49.9649 -0.013565
3720 49.9649 -0.0135612
3721 49.9649 -0.0135582
3722 49.9649 -0.0135533
3723 49.9649 -0.0135487
3724 49.9649 -0.0135443
3725 49.9649 -0.0135409
3726 49.9649 -0.0135361
3727 49.9649 -0.0135322
3728 49.9649 -0.0135287
3729 49.9649 -0.0135243
3730 49.9649 -0.0135207
3731 49.9649 -0.0135159
3732 49.9649 -0.0135116
3733 49.9649 -0.0135084
3734 49.9649 -0.0135036
3735 49.9649 -0.0134986
3736 49.9649 -0.0134947
3737 49.9649 -0.0134913
3738 49.9649 -0.0134865
3739 49.9649 -0.0134826
3740 49.9649 -0.0134783
3741 49.9649 -0.0134753
3742 49.9649 -0.0134704
3743 49.9649 -0.0134659
3744 49.9649 -0.0134629
3745 49.9649 -0.0134578
3746 49.9649 -0.0134534
3747 49.9649 -0.0134494
3748 49.9649 -0.0134463
3749 49.9649 -0.0134425
3750 49.9649 -0.0134378
3751 49.9648 -0.0134336
3752 49.9648 -0.013429
3753 49.9648 -0.0134245
3754 49.9648 -0.0134201
3755 49.9648 -0.0134152
3756 49.9648 -0.0134116
3757 49.9648 -0.0134074
3758 49.9648 -0.0134031
3759 49.9648 -0.0133985
3760 49.9648 -0.0133956
3761 49.9648 -0.0133918
3762 49.9648 -0.013387
3763 49.9648 -0.0133824
3764 49.9648 -0.013378
3765 49.9648 -0.0133746
3766 49.9648 -0.0133698
3767 49.9648 -0.013366
3768 49.9648 -0.0133612
3769 49.9648 -0.0133567
3770 49.9648 -0.0133527
3771 49.9648 -0.0133497
3772 49.9648 -0.0133459
3773 49.9648 -0.0133427
3774 49.9648 -0.0133377
3775 49.9648 -0.0133332
3776 49.9648 -0.0133287
3777 49.9648 -0.0133253
3778 49.9648 -0.0133205
3779 49.9648 -0.0133176
3780 49.9648 -0.0133126
3781 49.9648 -0.0133086
3782 49.9648 -0.0133044
3783 49.9648 -0.013301
3784 49.9648 -0.0132973
3785 49.9648 -0.0132929
3786 49.9648 -0.0132886
3787 49.9648 -0.013284
3788 49.9647 -0.0132796
3789 49.9647 -0.0132756
3790 49.9647 -0.0132727
3791 49.9647 -0.013268
3792 49.9647 -0.013265
3793 49.9647 -0.0132605
3794 49.9647 -0.0132563
3795 49.9647 -0.0132521
3796 49.9647 -0.0132489
3797 49.9647 -0.0132445
3798 49.9647 -0.0132406
3799 49.9647 -0.0132359
3800 49.9647 -0.0132325
3801 49.9647 -0.0132293
3802 49.9647 -0.0132244
3803 49.9647 -0.0132193
3804 49.9647 -0.0132153
3805 49.9647 -0.0132117
3806 49.9647 -0.0132074
3807 49.9647 -0.0132044
3808 49.9647 -0.0131993
3809 49.9647 -0.0131942
3810 49.9647 -0.0131903
3811 49.9647 -0.0131866
3812 49.9647 -0.013183
3813 49.9647 -0.0131782
3814 49.9647 -0.0131734
3815 49.9647 -0.0131694
3816 49.9647 -0.0131652
3817 49.9647 -0.0131607
3818 49.9647 -0.0131577
3819 49.9647 -0.0131539
3820 49.9647 -0.0131507
3821 49.9647 -0.0131458
3822 49.9647 -0.0131418
3823 49.9647 -0.0131381
3824 49.9647 -0.0131333
3825 49.9646 -0.0131292
3826 49.9646 -0.0131264
3827 49.9646 -0.0131217
3828 49.9646 -0.0131176
3829 49.9646 -0.0131134
3830 49.9646 -0.01311
3831 49.9646 -0.0131063
3832 49.9646 -0.0131019
3833 49.9646 -0.0130976
3834 49.9646 -0.013093
3835 49.9646 -0.0130886
3836 49.9646 -0.0130841
3837 49.9646 -0.0130812
3838 49.9646 -0.0130765
3839 49.9646 -0.0130735
3840 49.9646 -0.013069
3841 49.9646 -0.0130644
3842 49.9646 -0.0130611
3843 49.9646 -0.0130578
3844 49.9646 -0.0130529
3845 49.9646 -0.013049
3846 49.9646 -0.0130443
3847 49.9646 -0.0130393
3848 49.9646 -0.0130354
3849 49.9646 -0.0130323
3850 49.9646 -0.0130285
3851 49.9646 -0.0130237
3852 49.9646 -0.0130192
3853 49.9646 -0.0130147
3854 49.9646 -0.013011
3855 49.9646 -0.0130068
3856 49.9646 -0.0130031
3857 49.9646 -0.0129983
3858 49.9646 -0.0129954
3859 49.9646 -0.0129905
3860 49.9646 -0.0129864
3861 49.9646 -0.012983
3862 49.9646 -0.0129797
