0 0.000810235 2.29999e-06
2 0.0478899 0.000199812
4 0.183441 0.000751144
6 0.26157 0.00105203
8 0.336757 0.00138115
10 0.41091 0.00181439
12 0.483026 0.00231126
14 0.551678 0.00283387
16 0.620567 0.00344235
18 0.69637 0.00431225
20 0.769163 0.00534576
22 0.846192 0.00659726
24 0.911468 0.00768144
26 0.982443 0.00860092
28 1.04266 0.0092646
30 1.10424 0.00996984
32 1.16884 0.0107559
34 1.23409 0.0115976
36 1.30295 0.0125432
38 1.36966 0.0134927
40 1.43901 0.0145719
42 1.50736 0.0157818
44 1.57727 0.0172296
46 1.64763 0.0189182
48 1.71684 0.0207947
50 1.78804 0.0229389
52 1.85528 0.025146
54 1.92221 0.0276355
56 2.00659 0.0309701
58 2.08043 0.0338279
93 1.93741 0.22496
178 6.03975 0.903441
326 15.8121 0.266176
399 16.2886 4.0917
540 22.9035 3.54101
622 18.9864 1.69362
702 22.5985 3.24237
753 20.8972 4.83666
968 31.0339 14.2711
1165 41.1211 6.60502
1254 46.5904 5.47126
1324 47.709 9.02715
1491 51.6683 1.51608
1521 51.979 0.892983
1523 52.0493 0.77447
1556 51.661 0.956176
1588 51.4949 -0.0435291
1616 51.3673 0.431271
1650 50.327 -0.256477
1652 50.2063 -0.323554
1654 50.1394 -0.360096
1685 50.3073 -0.107761
1711 49.7817 0.0848622
1712 49.7818 0.0848688
1713 49.7818 0.0850102
1714 49.7818 0.0850257
1715 49.782 0.084996
1716 49.7821 0.0849683
1717 49.7823 0.0849397
1718 49.7824 0.0849152
1719 49.7825 0.0848948
1720 49.7825 0.0848865
1721 49.7826 0.0848755
1722 49.7827 0.08486
1723 49.7827 0.0848463
1724 49.7828 0.0848387
1725 49.7828 0.0848343
1726 49.7828 0.0848294
1727 49.7829 0.0848244
1728 49.7829 0.0848233
1729 49.7829 0.0848161
1730 49.783 0.0848074
1731 49.783 0.0848038
1732 49.783 0.084809
1733 49.783 0.0848186
1734 49.783 0.0848223
1735 49.783 0.0848226
1736 49.783 0.0848253
1737 49.783 0.0848255
1738 49.783 0.0848221
1739 49.783 0.0848286
1740 49.783 0.0848334
1741 49.783 0.084832
1742 49.783 0.0848262
1743 49.783 0.0848254
1744 49.783 0.0848289
1745 49.783 0.0848398
1746 49.783 0.0848451
1747 49.783 0.0848402
1748 49.783 0.0848431
1749 49.783 0.0848406
1750 49.783 0.0848373
1751 49.783 0.0848453
1752 49.783 0.0848517
1753 49.783 0.0848522
1754 49.783 0.0848512
1755 49.783 0.0848509
1756 49.783 0.0848552
1757 49.783 0.0848571
1758 49.783 0.0848595
1759 49.783 0.0848493
1760 49.783 0.0848525
1761 49.783 0.084849
1762 49.783 0.0848448
1763 49.783 0.0848444
1764 49.783 0.0848463
1765 49.783 0.0848553
1766 49.783 0.0848584
1767 49.783 0.0848623
1768 49.783 0.0848635
1769 49.783 0.084865
1770 49.783 0.0848731
1771 49.783 0.0848641
1772 49.783 0.084861
1773 49.783 0.0848557
1774 49.783 0.0848503
1775 49.783 0.0848494
1776 49.783 0.0848437
1777 49.783 0.0848482
1778 49.783 0.0848571
1779 49.783 0.0848595
1780 49.783 0.0848565
1781 49.783 0.0848503
1782 49.783 0.084846
1783 49.783 0.0848433
1784 49.783 0.0848507
1785 49.783 0.0848531
1786 49.783 0.0848494
1787 49.783 0.0848464
1788 49.783 0.0848482
1789 49.783 0.0848519
1790 49.783 0.0848542
1791 49.783 0.0848554
1792 49.783 0.0848599
1793 49.783 0.0848574
1794 49.783 0.0848527
1795 49.783 0.0848522
1796 49.783 0.0848608
1797 49.783 0.0848733
1798 49.7829 0.0848795
1799 49.7829 0.084882
1800 49.7829 0.0848867
1801 49.7829 0.0848885
1802 49.7829 0.0848866
1803 49.7829 0.0848946
1804 49.7829 0.0849005
1805 49.7829 0.0849
1806 49.7829 0.084895
1807 49.7829 0.0848951
1808 49.7829 0.0848993
1809 49.7829 0.0849107
1810 49.7829 0.0849165
1811 49.7829 0.084912
1812 49.7829 0.0849153
1813 49.7829 0.0849131
1814 49.7829 0.0849101
1815 49.7829 0.0849184
1816 49.7829 0.084925
1817 49.7829 0.0849257
1818 49.7829 0.0849249
1819 49.7829 0.0849247
1820 49.7829 0.0849291
1821 49.7829 0.0849311
1822 49.7829 0.0849336
1823 49.7829 0.0849235
1824 49.7829 0.0849268
1825 49.7829 0.0849233
1826 49.7829 0.0849191
1827 49.7829 0.0849188
1828 49.7829 0.0849207
1829 49.7829 0.0849297
1830 49.7829 0.0849329
1831 49.7828 0.0849368
1832 49.7828 0.084938
1833 49.7828 0.0849395
1834 49.7828 0.0849476
1835 49.7828 0.0849386
1836 49.7828 0.0849355
1837 49.7829 0.0849302
1838 49.7829 0.0849248
1839 49.7829 0.084924
1840 49.7829 0.0849182
1841 49.7829 0.0849227
1842 49.7829 0.0849316
