56 47.8679
76 46.5515
95 45.3033
112 44.1927
127 43.2203
141 42.3164
153 41.5497
163 40.9213
172 40.3623
180 39.8718
187 39.4496
193 39.0979
198 38.8139
202 38.5972
206 38.382
209 38.2358
211 38.151
213 38.075
215 38.0014
217 37.9288
219 37.8569
221 37.7872
223 37.7173
225 37.6456
227 37.5713
229 37.5009
231 37.4324
233 37.3628
235 37.2933
242 37.146
246 37.0258
248 36.9407
250 36.8646
252 36.7916
254 36.7202
256 36.6528
258 36.586
260 36.5199
262 36.4525
264 36.3844
271 36.2388
273 36.235
275 36.1755
277 36.1095
279 36.0405
281 35.9804
283 35.911
285 35.8416
287 35.7678
289 35.6931
291 35.6256
293 35.5574
295 35.4893
297 35.4182
299 35.3464
301 35.2759
303 35.204
305 35.1359
307 35.0663
309 34.998
311 34.9287
313 34.8597
315 34.7909
317 34.7228
667 22.2955
692 20.8343
703 20.2322
708 19.9907
711 19.8664
713 19.7948
715 19.7288
717 19.6657
719 19.6134
721 19.5525
723 19.4935
725 19.4331
727 19.3722
729 19.3153
731 19.2581
733 19.2026
735 19.1454
737 19.0886
739 19.0312
741 18.9739
743 18.9176
745 18.8595
747 18.8016
749 18.7465
751 18.6896
753 18.6309
755 18.5738
757 18.5165
759 18.4576
761 18.4006
763 18.3433
765 18.2852
771 18.1689
773 18.1674
775 18.1105
777 18.0527
779 17.9935
781 17.9399
783 17.8812
785 17.8226
787 17.7593
789 17.6956
791 17.6354
793 17.5725
795 17.5126
797 17.4493
799 17.3867
801 17.3262
803 17.2633
805 17.2012
807 17.1389
809 17.0781
811 17.0153
813 16.9529
815 16.8902
817 16.8274
819 16.7677
821 16.707
823 16.6475
825 16.588
827 16.5285
829 16.4695
831 16.4103
833 16.3512
835 16.2911
837 16.2322
839 16.1712
841 16.111
843 16.0518
845 15.9932
847 15.9334
849 15.8741
851 15.8138
853 15.7534
855 15.6927
857 15.6328
859 15.5731
861 15.5136
863 15.4531
865 15.3943
867 15.3344
869 15.2755
871 15.2162
873 15.1577
875 15.0986
877 15.0411
879 14.9834
881 14.9268
883 14.8684
885 14.8094
887 14.7514
889 14.6925
891 14.6349
893 14.5766
895 14.5181
897 14.4592
899 14.404
901 14.3465
903 14.2903
905 14.2334
907 14.1776
909 14.1203
911 14.0633
913 14.006
915 13.9504
917 13.8945
919 13.8367
921 13.7815
923 13.7238
925 13.6679
927 13.6111
929 13.5586
1172 7.56813
1174 7.51922
1176 7.4771
1178 7.43662
1185 7.35608
1187 7.35602
1189 7.32684
1191 7.29537
1193 7.26203
1195 7.22661
1207 6.93522
1209 6.90583
1211 6.88069
1213 6.85501
1215 6.83431
1217 6.81508
1219 6.79748
1221 6.7784
1223 6.75972
1225 6.74314
1227 6.7267
1229 6.71193
1231 6.69724
1233 6.68404
1235 6.67094
1237 6.65872
1239 6.64692
1241 6.63571
1243 6.62518
1245 6.61543
1247 6.60621
1249 6.59784
1251 6.59022
1253 6.58304
1255 6.57676
1357 4.43829
1359 4.35592
1361 4.28404
1363 4.21744
1365 4.15684
1367 4.08634
1369 4.02266
1371 3.96337
1377 3.89431
1389 3.88793
1419 3.8487
1421 3.84261
1423 3.83471
1425 3.82744
1427 3.82079
1429 3.8167
1528 1.84367
1530 1.78675
1532 1.74093
1534 1.69795
1536 1.65652
1538 1.61996
1540 1.58178
1542 1.54409
1544 1.5093
1546 1.4802
1553 1.44657
1555 1.44642
1605 1.18153
1609 1.07169
1611 0.981441
1613 0.906021
1615 0.831443
1617 0.763188
1619 0.696146
1621 0.633108
1633 0.532985
1672 0.339276
1676 0.233917
1677 0.175076
1678 0.158756
1679 0.157524
