1 0.000664411 1.72248e-06
2 0.0470405 0.000174963
3 0.11361 0.000418984
4 0.136059 0.00048391
5 0.191911 0.000687835
6 0.212981 0.000760406
7 0.267341 0.00096833
8 0.287666 0.00105037
9 0.341476 0.00129929
10 0.360822 0.00140438
11 0.4132 0.0016589
12 0.431958 0.00178724
13 0.484409 0.00207906
14 0.502942 0.00221792
15 0.554662 0.00253576
16 0.572725 0.00269113
17 0.623756 0.00305047
18 0.639826 0.0032308
19 0.689366 0.00362974
20 0.713305 0.00391731
21 0.77023 0.00453783
22 0.792196 0.00492566
23 0.847175 0.00561044
24 0.867721 0.00603803
25 0.913809 0.00670573
26 0.940491 0.00728713
27 0.991385 0.00817094
28 1.00763 0.00873296
29 1.05257 0.00966706
30 1.06508 0.0102399
31 1.11689 0.0115003
32 1.1359 0.0123721
33 1.18549 0.0137461
34 1.20661 0.0147264
35 1.2605 0.0163747
36 1.28047 0.0173994
37 1.33286 0.0191242
38 1.35454 0.0202607
39 1.40537 0.0220562
40 1.42289 0.0230521
41 1.42982 0.0233017
42 1.43693 0.0233651
43 1.44036 0.0231407
44 1.44672 0.0223974
45 1.44906 0.0213836
46 1.45423 0.0196227
47 1.45826 0.0165895
48 1.46089 0.013785
49 1.463 0.0109535
50 1.46444 0.0081333
51 1.48835 -0.0267106
52 1.50174 -0.0879309
53 1.5125 -0.15401
54 1.52191 -0.222804
55 1.51576 -0.256252
56 1.51606 -0.263782
57 1.51626 -0.266477
58 1.51632 -0.266823
59 1.51628 -0.266285
60 1.516 -0.265275
61 1.51556 -0.263998
62 1.51541 -0.2633
63 1.51543 -0.263112
64 1.51502 -0.262327
65 1.51428 -0.261035
66 1.51542 -0.262266
67 1.51772 -0.264236
68 1.52061 -0.265881
69 1.52371 -0.266897
70 1.52679 -0.267334
71 1.52879 -0.267135
72 1.5306 -0.267046
73 1.57198 -0.267654
74 1.63545 -0.250708
75 1.70182 -0.230758
76 1.76899 -0.211566
77 1.83629 -0.193287
78 1.90358 -0.176585
79 1.97142 -0.161812
80 2.04083 -0.148356
81 2.1092 -0.13552
82 2.17713 -0.1239
83 2.24538 -0.113053
84 2.31376 -0.102878
85 2.38213 -0.0933011
86 2.45053 -0.0842591
87 2.51889 -0.0756686
88 2.58728 -0.0674955
89 2.65566 -0.0596489
90 2.72413 -0.0520984
91 2.79267 -0.0447771
92 2.86113 -0.0376865
93 2.92962 -0.0307796
94 2.99814 -0.0240251
95 3.06671 -0.0174061
96 3.13527 -0.0109113
97 3.20374 -0.00451888
98 3.22712 -0.00103937
99 3.27999 0.00283258
100 3.34761 0.00949211
101 3.41591 0.0158307
102 3.48448 0.0217141
103 3.55301 0.0271381
104 3.62141 0.0321367
105 3.69006 0.0367566
106 3.75867 0.0410542
107 3.82724 0.0450684
108 3.89586 0.0488385
109 3.96451 0.0523888
110 4.03324 0.0557627
111 4.10203 0.0589791
112 4.17081 0.0620702
113 4.23959 0.0650366
114 4.30837 0.0679167
115 4.37713 0.0707117
116 4.4459 0.0734522
117 4.51472 0.0761355
118 4.58347 0.0787544
119 4.65218 0.0813205
120 4.72096 0.0838452
121 4.78973 0.0863325
122 4.85836 0.0887939
123 4.92709 0.0912497
124 4.99588 0.0936859
125 5.0647 0.0961189
126 5.1335 0.098524
127 5.20231 0.10091
128 5.27111 0.103274
129 5.33991 0.105614
130 5.40871 0.107946
131 5.47751 0.110266
132 5.54631 0.112572
133 5.61511 0.114876
134 5.68391 0.117178
135 5.75272 0.119479
136 5.82152 0.121769
137 5.89032 0.124061
138 5.95912 0.126352
139 6.02792 0.128642
140 6.09673 0.130926
141 6.16553 0.133202
142 6.23433 0.135469
143 6.30313 0.137738
144 6.37194 0.140007
145 6.44074 0.14227
146 6.50954 0.144527
147 6.57834 0.146786
148 6.64715 0.149035
149 6.71595 0.151289
150 6.78475 0.153537
151 6.85356 0.155789
152 6.92236 0.158033
153 6.99116 0.160282
154 7.05996 0.162517
155 7.12877 0.164753
156 7.19757 0.166989
157 7.26637 0.169217
158 7.33518 0.171452
159 7.40398 0.173677
160 7.47278 0.175897
161 7.54159 0.178121
162 7.61039 0.180359
163 7.67919 0.182579
164 7.70156 0.18327
165 7.75643 0.185175
166 7.82472 0.187598
167 7.89346 0.189851
168 7.96224 0.191903
169 8.03127 0.193771
170 8.10022 0.19547
171 8.16909 0.19702
172 8.23796 0.198433
173 8.30675 0.199737
174 8.37565 0.200943
175 8.44445 0.202069
176 8.5133 0.203129
177 8.5821 0.204118
178 8.65092 0.20506
179 8.71969 0.205948
180 8.78851 0.206801
181 8.85732 0.207622
182 8.92613 0.208411
183 8.99494 0.209193
184 9.06379 0.209971
185 9.13261 0.210732
186 9.20143 0.211489
187 9.2703 0.212235
188 9.33911 0.212962
189 9.40791 0.213682
190 9.47671 0.214406
191 9.54551 0.215129
192 9.61431 0.215844
193 9.68311 0.216557
194 9.75192 0.21727
195 9.82072 0.217975
196 9.88952 0.21868
197 9.95833 0.219384
198 10.0271 0.220081
199 10.0959 0.220774
200 10.1647 0.221463
201 10.2335 0.222162
202 10.3024 0.222853
203 10.3712 0.223535
204 10.44 0.224219
205 10.5088 0.224901
206 10.5776 0.225571
207 10.6464 0.226241
208 10.7152 0.226912
209 10.784 0.227589
210 10.8529 0.228253
211 10.9217 0.228912
212 10.9905 0.229575
213 11.0593 0.230231
214 11.1281 0.230892
215 11.1969 0.23154
216 11.2657 0.232187
217 11.3346 0.232831
218 11.4034 0.233478
219 11.4722 0.234112
220 11.541 0.234754
221 11.6098 0.235386
222 11.6786 0.23603
223 11.7475 0.236658
224 11.8163 0.23729
225 11.8851 0.237918
226 11.9539 0.238551
227 12.0227 0.239164
228 12.0916 0.239782
229 12.1604 0.2404
230 12.2292 0.241015
231 12.298 0.241622
232 12.3668 0.242226
233 12.4357 0.242842
234 12.4582 0.243013
235 12.5139 0.243577
236 12.5823 0.24427
237 12.6511 0.244943
238 12.7199 0.245617
239 12.7888 0.246285
240 12.8576 0.246949
241 12.9264 0.247604
242 12.9952 0.248257
243 13.0641 0.248906
244 13.1329 0.249561
245 13.2017 0.250208
246 13.2705 0.250852
247 13.3394 0.251495
248 13.4082 0.252136
249 13.477 0.252778
250 13.5458 0.253411
251 13.6147 0.254041
252 13.6835 0.254674
253 13.7524 0.255295
254 13.8212 0.255919
255 13.89 0.25654
256 13.9588 0.257149
257 14.0276 0.257766
258 14.0965 0.258388
259 14.1653 0.259
260 14.2341 0.259611
261 14.303 0.260226
262 14.3718 0.260833
263 14.4406 0.261443
264 14.5094 0.262041
265 14.5783 0.262649
266 14.6471 0.263253
267 14.716 0.263847
268 14.7848 0.264433
269 14.8536 0.265023
270 14.9224 0.265614
271 14.9912 0.266201
272 15.0601 0.266791
273 15.1289 0.267382
274 15.1978 0.267963
275 15.2666 0.268544
276 15.3354 0.269119
277 15.4042 0.26969
278 15.473 0.270269
279 15.5419 0.270843
280 15.6107 0.271422
281 15.6795 0.271989
282 15.7483 0.272552
283 15.8172 0.273118
284 15.886 0.273686
285 15.9548 0.274252
286 16.0236 0.274814
287 16.0461 0.274982
288 16.057 0.27512
289 16.0686 0.275537
290 16.0805 0.276464
291 16.0912 0.277963
292 16.0965 0.279311
293 16.0988 0.27999
294 16.1013 0.280706
295 16.1042 0.281832
296 16.149 0.300358
297 16.2059 0.33597
298 16.2633 0.373942
299 16.3205 0.412124
300 16.3778 0.450362
301 16.4351 0.488604
302 16.4924 0.52681
303 16.5496 0.564986
304 16.607 0.603146
305 16.6643 0.641291
306 16.7216 0.679411
307 16.7789 0.717527
308 16.8363 0.755628
309 16.8936 0.793716
310 16.951 0.831798
311 17.0084 0.869875
312 17.0657 0.907934
313 17.1231 0.945981
314 17.1805 0.984023
315 17.2379 1.02207
316 17.2953 1.06011
317 17.3526 1.09814
318 17.41 1.13617
319 17.4674 1.1742
320 17.5248 1.21223
321 17.5822 1.25026
322 17.6396 1.28828
323 17.6969 1.32628
324 17.7543 1.36432
325 17.8117 1.40234
326 17.8691 1.44037
327 17.9265 1.47839
328 17.9839 1.5164
329 18.0413 1.55441
330 18.0987 1.59243
331 18.1561 1.63045
332 18.2135 1.66846
333 18.2709 1.70647
334 18.3283 1.74449
335 18.3857 1.78251
336 18.4431 1.82051
337 18.5005 1.85852
338 18.5579 1.89653
339 18.6153 1.93453
340 18.6727 1.97254
341 18.69 1.9845
342 18.7364 2.01477
343 18.7935 2.0526
344 18.851 2.0904
345 18.9087 2.12801
346 18.9664 2.16542
347 19.0244 2.20271
348 19.0824 2.23985
349 19.1405 2.27685
350 19.1985 2.31368
351 19.2568 2.35049
352 19.3152 2.38716
353 19.3736 2.42374
354 19.432 2.46022
355 19.4904 2.49665
356 19.5489 2.53301
357 19.6074 2.56933
358 19.666 2.60559
359 19.7245 2.64181
360 19.7831 2.678
361 19.8418 2.71416
362 19.9004 2.75028
363 19.9591 2.78634
364 20.0177 2.82237
365 20.0764 2.85838
366 20.1351 2.89438
367 20.1938 2.93033
368 20.2525 2.96625
369 20.3112 3.00217
370 20.37 3.03805
371 20.3879 3.04882
372 20.4346 3.07764
373 20.4928 3.11356
374 20.5514 3.14967
375 20.6101 3.18578
376 20.6688 3.22184
377 20.7274 3.25785
378 20.786 3.29384
379 20.8447 3.32982
380 20.9035 3.36579
381 20.9622 3.40173
382 21.0209 3.43766
383 21.0797 3.47355
384 21.1384 3.50943
385 21.1972 3.5453
386 21.256 3.58117
387 21.3147 3.617
388 21.3735 3.65284
389 21.3906 3.66316
390 21.4377 3.69211
391 21.496 3.72808
392 21.5545 3.76419
393 21.6132 3.80031
394 21.6718 3.83639
395 21.7305 3.87241
396 21.7892 3.9084
397 21.8479 3.94436
398 21.9066 3.98031
399 21.9653 4.01623
400 21.9836 4.02738
401 22.0309 4.05659
402 22.0891 4.09275
403 22.1476 4.12907
404 22.2062 4.16537
405 22.2648 4.20161
406 22.3234 4.23781
407 22.3416 4.24907
408 22.3892 4.27847
409 22.4474 4.31471
410 22.5059 4.35106
411 22.5644 4.38737
412 22.5824 4.39849
413 22.6297 4.42793
414 22.6878 4.46435
415 22.7461 4.50089
416 22.7638 4.51197
417 22.8101 4.54096
418 22.8262 4.55126
419 22.872 4.5803
420 22.888 4.59096
421 22.9334 4.62051
422 22.957 4.63682
423 22.9654 4.64246
424 22.9701 4.64516
425 22.974 4.64708
426 22.9779 4.64862
427 22.9816 4.64976
428 22.9856 4.65064
429 22.9891 4.65104
430 22.9921 4.65115
431 22.9948 4.65105
432 22.9976 4.65072
433 22.9998 4.65019
434 23.0017 4.64967
435 23.0039 4.64894
436 23.0063 4.64784
437 23.0092 4.64621
438 23.0119 4.64416
439 23.0145 4.64211
440 23.0531 4.61804
441 23.0992 4.56871
442 23.1451 4.5168
443 23.1906 4.4648
444 23.236 4.4126
445 23.2811 4.36039
446 23.3261 4.30811
447 23.3711 4.25566
448 23.416 4.20319
449 23.4608 4.15069
450 23.4723 4.12753
451 23.4775 4.12169
452 23.4828 4.11673
453 23.4882 4.11301
454 23.4939 4.11055
455 23.4995 4.10942
456 23.5045 4.10959
457 23.5061 4.11046
458 23.5059 4.11015
459 23.5063 4.10968
460 23.5078 4.11058
461 23.5093 4.11265
462 23.5107 4.11496
463 23.5362 4.14575
464 23.5611 4.2077
465 23.5859 4.2724
466 23.6112 4.33687
467 23.6371 4.40113
468 23.6635 4.46531
469 23.6902 4.52902
470 23.7174 4.5924
471 23.7449 4.65576
472 23.7727 4.71897
473 23.8009 4.78207
474 23.8292 4.84504
475 23.8578 4.90794
476 23.8866 4.97093
477 23.9155 5.03372
478 23.9445 5.09631
479 23.9735 5.1587
480 24.0028 5.22113
481 24.0321 5.28353
482 24.0614 5.34578
483 24.0909 5.40796
484 24.1204 5.47022
485 24.15 5.5324
486 24.1797 5.59459
487 24.2093 5.65667
488 24.239 5.71873
489 24.2688 5.78076
490 24.2986 5.84278
491 24.3285 5.90481
492 24.3584 5.96688
493 24.3883 6.0289
494 24.4183 6.09087
495 24.4266 6.11113
496 24.4294 6.1167
497 24.4312 6.11973
498 24.433 6.12236
499 24.4352 6.12499
500 24.4377 6.12762
501 24.4399 6.12968
502 24.4427 6.13218
503 24.4436 6.13259
504 24.4436 6.1329
505 24.4435 6.13304
506 24.4796 6.16241
507 24.5355 6.19928
508 24.5936 6.23653
509 24.6148 6.24506
510 24.658 6.27737
511 24.6784 6.28619
512 24.7183 6.3156
513 24.7348 6.32281
514 24.7744 6.35196
515 24.7939 6.36201
516 24.838 6.39359
517 24.8538 6.40088
518 24.8934 6.42922
519 24.9111 6.43831
520 24.9499 6.46518
521 24.9646 6.47236
522 25.005 6.50002
523 25.021 6.50794
524 25.0603 6.53418
525 25.0767 6.54249
526 25.1188 6.57005
527 25.1362 6.57878
528 25.1784 6.60586
529 25.1969 6.6153
530 25.2387 6.64156
531 25.256 6.65022
532 25.2989 6.67667
533 25.3159 6.68496
534 25.3573 6.70996
535 25.3746 6.7184
536 25.4176 6.74394
537 25.4352 6.75241
538 25.4785 6.77778
539 25.4965 6.78645
540 25.5394 6.81122
541 25.5559 6.81903
542 25.5987 6.8434
543 25.6178 6.85262
544 25.6622 6.87746
545 25.6811 6.88661
546 25.7263 6.91172
547 25.7448 6.9206
548 25.7887 6.94475
549 25.8057 6.95288
550 25.8501 6.97711
551 25.8673 6.98532
552 25.9113 7.00907
553 25.9281 7.0171
554 25.9723 7.04079
555 25.9887 7.04858
556 26.0327 7.07203
557 26.0497 7.08011
558 26.0936 7.1032
559 26.1107 7.11123
560 26.155 7.13417
561 26.1719 7.14191
562 26.2162 7.16448
563 26.2326 7.17176
564 26.2764 7.1937
565 26.2938 7.20131
566 26.3385 7.22335
567 26.356 7.23088
568 26.4011 7.25285
569 26.4188 7.26044
570 26.463 7.28167
571 26.4797 7.28874
572 26.4804 7.28894
573 26.4796 7.28857
574 26.4812 7.28941
575 26.4806 7.28908
576 26.5197 7.31039
577 26.5335 7.31862
578 26.575 7.34129
579 26.5859 7.34782
580 26.633 7.3734
581 26.6493 7.38288
582 26.6932 7.40698
583 26.7122 7.41791
584 26.7607 7.44458
585 26.7753 7.45309
586 26.7792 7.45524
587 26.7824 7.45724
588 26.7861 7.46
589 26.7894 7.46324
590 26.7918 7.4666
591 26.7954 7.47289
592 26.7956 7.47735
593 26.7963 7.48104
594 26.7962 7.48443
595 26.7957 7.48548
596 26.796 7.48629
597 26.7961 7.48743
598 26.7963 7.4891
599 26.7968 7.49146
600 26.7977 7.49437
601 26.7994 7.49773
602 26.8017 7.50051
603 26.8044 7.50282
604 26.8078 7.50467
605 26.8114 7.50585
606 26.815 7.50648
607 26.8186 7.50661
608 26.8196 7.50604
609 26.8195 7.50616
610 26.8604 7.51269
611 26.8787 7.50225
612 26.9226 7.50716
613 26.9424 7.4975
614 26.9881 7.50069
615 27.0078 7.49152
616 27.0548 7.49328
617 27.075 7.48441
618 27.1203 7.48456
619 27.1386 7.47642
620 27.1397 7.47578
621 27.1397 7.47594
622 27.1403 7.47601
623 27.1396 7.47598
624 27.1409 7.47618
625 27.1863 7.47893
626 27.2545 7.47977
627 27.2837 7.47775
628 27.3365 7.47978
629 27.3594 7.47812
630 27.4126 7.48028
631 27.4314 7.47862
632 27.4812 7.48062
633 27.5001 7.47935
634 27.5448 7.481
635 27.5613 7.48008
636 27.6136 7.48205
637 27.6352 7.48133
638 27.6847 7.48301
639 27.7071 7.48259
640 27.7589 7.48421
641 27.7797 7.48379
642 27.8311 7.48535
643 27.8533 7.48506
644 27.9031 7.48645
645 27.9227 7.4862
646 27.9739 7.48758
647 27.9944 7.48737
648 28.0428 7.48856
649 28.0611 7.48838
650 28.1106 7.48955
651 28.1296 7.4894
652 28.1785 7.49051
653 28.1983 7.49046
654 28.248 7.49152
655 28.2668 7.49145
656 28.3169 7.49244
657 28.3368 7.49238
658 28.3859 7.49325
659 28.4051 7.49317
660 28.4555 7.494
661 28.4745 7.49393
662 28.5234 7.4947
663 28.543 7.4947
664 28.5934 7.4955
665 28.613 7.49556
666 28.6631 7.49635
667 28.6828 7.49643
668 28.733 7.49716
669 28.7529 7.49722
670 28.8048 7.49787
671 28.8249 7.49786
672 28.8754 7.49837
673 28.8953 7.49829
674 28.9461 7.49873
675 28.9658 7.49863
676 29.0162 7.49902
677 29.031 7.49892
678 29.0835 7.49929
679 29.1025 7.49924
680 29.1527 7.49962
681 29.1724 7.4996
682 29.2205 7.49992
683 29.2389 7.49988
684 29.2896 7.50019
685 29.309 7.50014
686 29.3581 7.50041
687 29.3775 7.50036
688 29.4274 7.50058
689 29.4463 7.50051
690 29.494 7.50069
691 29.5114 7.50061
692 29.56 7.50075
693 29.5787 7.50063
694 29.6277 7.5007
695 29.6457 7.50056
696 29.6942 7.50058
697 29.7123 7.50043
698 29.7613 7.50042
699 29.7801 7.50026
700 29.8289 7.50022
701 29.8471 7.50005
702 29.8962 7.49995
703 29.9137 7.49975
704 29.9611 7.49959
705 29.9787 7.49935
706 30.0278 7.49911
707 30.0463 7.49883
708 30.0961 7.4985
709 30.1154 7.49817
710 30.1653 7.49778
711 30.1835 7.49744
712 30.2336 7.497
713 30.2529 7.49664
714 30.3019 7.49616
715 30.3212 7.49579
716 30.3721 7.49524
717 30.3915 7.49483
718 30.4406 7.49423
719 30.4601 7.49378
720 30.5109 7.4931
721 30.5296 7.49266
722 30.5787 7.49198
723 30.5979 7.49155
724 30.6481 7.49083
725 30.667 7.49039
726 30.717 7.48965
727 30.7366 7.48921
728 30.7864 7.48842
729 30.805 7.48796
730 30.8552 7.48712
731 30.8743 7.48663
732 30.9234 7.48575
733 30.942 7.48524
734 30.9921 7.48424
735 31.0115 7.48364
736 31.0613 7.48255
737 31.0802 7.48192
738 31.1297 7.48078
739 31.149 7.48013
740 31.1988 7.47895
741 31.2177 7.47831
742 31.268 7.47709
743 31.2875 7.47646
744 31.3376 7.47524
745 31.3568 7.47464
746 31.4059 7.47346
747 31.4243 7.47288
748 31.4739 7.47159
749 31.4924 7.47091
750 31.5418 7.46948
751 31.5598 7.46874
752 31.6094 7.46722
753 31.6286 7.46641
754 31.6789 7.46483
755 31.6976 7.46405
756 31.7478 7.4625
757 31.7666 7.46177
758 31.8163 7.46027
759 31.8346 7.45965
760 31.8842 7.45826
761 31.9034 7.45772
762 31.9534 7.45639
763 31.9731 7.45587
764 32.024 7.45451
765 32.043 7.45399
766 32.0925 7.45261
767 32.1117 7.45205
768 32.1622 7.45065
769 32.1815 7.4501
770 32.2319 7.44878
771 32.2513 7.44833
772 32.3015 7.44711
773 32.3206 7.44674
774 32.3705 7.44563
775 32.3903 7.44532
776 32.4401 7.4443
777 32.4584 7.44407
778 32.5085 7.44309
779 32.5282 7.44287
780 32.5787 7.44192
781 32.598 7.4417
782 32.6488 7.44076
783 32.6682 7.44054
784 32.7179 7.43966
785 32.7372 7.43948
786 32.7882 7.43869
787 32.8081 7.43857
788 32.8576 7.43785
789 32.8767 7.43775
790 32.9278 7.43706
791 32.946 7.43699
792 32.9953 7.43638
793 33.0156 7.43631
794 33.0659 7.43576
795 33.0835 7.43574
796 33.1332 7.43526
797 33.1527 7.43527
798 33.203 7.43483
799 33.2218 7.43485
800 33.272 7.43448
801 33.2914 7.43453
802 33.3414 7.43419
803 33.3609 7.43423
804 33.4113 7.43395
805 33.4305 7.43405
806 33.4805 7.43385
807 33.4995 7.43397
808 33.5494 7.43382
809 33.5673 7.43394
810 33.6172 7.43382
811 33.6372 7.43394
812 33.687 7.43384
813 33.7057 7.43392
814 33.7558 7.43377
815 33.7747 7.43381
816 33.8241 7.43365
817 33.8438 7.43364
818 33.8528 7.43355
819 33.8629 7.43299
820 33.8685 7.43201
821 33.8724 7.43091
822 33.8793 7.42805
823 33.884 7.42381
824 33.8886 7.41847
825 33.8907 7.41248
826 33.89 7.4098
827 33.8904 7.40832
828 33.8888 7.40303
829 33.8829 7.39894
830 33.8796 7.3978
831 33.8777 7.39741
832 33.8761 7.39757
833 33.8526 7.4003
834 33.7944 7.42026
835 33.731 7.44517
836 33.6662 7.46953
837 33.6004 7.49205
838 33.5556 7.5074
839 33.5363 7.51332
840 33.5331 7.51497
841 33.5365 7.51337
842 33.5357 7.51357
843 33.5333 7.51493
844 33.5309 7.51659
845 33.5284 7.5185
846 33.5262 7.52042
847 33.4948 7.54669
848 33.4474 7.5942
849 33.3991 7.64363
850 33.351 7.69329
851 33.303 7.74315
852 33.2551 7.79302
853 33.2072 7.84287
854 33.1594 7.89275
855 33.1117 7.94264
856 33.064 7.99254
857 33.0474 8.01234
858 33.0425 8.01732
859 33.0378 8.02138
860 33.0331 8.02434
861 33.028 8.02637
862 33.023 8.02718
863 33.0192 8.02688
864 33.0177 8.02624
865 33.0175 8.02627
866 33.0167 8.02629
867 33.015 8.02512
868 33.0129 8.0228
869 32.9832 7.99608
870 32.9477 7.93951
871 32.9115 7.8802
872 32.8751 7.8212
873 32.8381 7.76272
874 32.8007 7.70466
875 32.7627 7.64684
876 32.7243 7.58927
877 32.6855 7.53194
878 32.6464 7.47494
879 32.6072 7.41837
880 32.5676 7.36188
881 32.5278 7.30546
882 32.4878 7.2492
883 32.4477 7.1931
884 32.4073 7.137
885 32.3669 7.08115
886 32.3264 7.02542
887 32.2859 6.96985
888 32.2452 6.91433
889 32.2043 6.8588
890 32.1634 6.80335
891 32.1224 6.74795
892 32.0814 6.6926
893 32.0403 6.63729
894 31.9991 6.58204
895 31.958 6.52684
896 31.9168 6.47166
897 31.8756 6.4165
898 31.8344 6.36137
899 31.7931 6.30625
900 31.7518 6.25114
901 31.7106 6.19605
902 31.6693 6.14096
903 31.628 6.08587
904 31.5867 6.03079
905 31.5454 5.97572
906 31.5041 5.92065
907 31.4628 5.86558
908 31.4215 5.8105
909 31.3802 5.75543
910 31.3389 5.70037
911 31.2976 5.64531
912 31.2562 5.59024
913 31.2149 5.53518
914 31.1735 5.48011
915 31.1322 5.42506
916 31.0909 5.37002
917 31.0495 5.31498
918 31.0082 5.25994
919 30.9668 5.20491
920 30.9255 5.14987
921 30.8841 5.09483
922 30.8428 5.03979
923 30.8014 4.98475
924 30.7601 4.92974
925 30.7187 4.8747
926 30.6773 4.81967
927 30.6649 4.80284
928 30.6599 4.7961
929 30.6556 4.78924
930 30.6523 4.7819
931 30.6505 4.77446
932 30.6503 4.76745
933 30.6514 4.76532
934 30.6508 4.76581
935 30.6504 4.76391
936 30.6523 4.76215
937 30.6543 4.76073
938 30.6567 4.75988
939 30.6592 4.75965
940 30.6616 4.75978
941 30.6919 4.7593
942 30.7523 4.78036
943 30.817 4.80574
944 30.8817 4.83053
945 30.9467 4.85427
946 31.0119 4.87705
947 31.0774 4.89872
948 31.1435 4.91967
949 31.2102 4.93996
950 31.2767 4.95957
951 31.3432 4.97843
952 31.4099 4.99677
953 31.4766 5.01462
954 31.5433 5.03201
955 31.6104 5.04907
956 31.6775 5.06587
957 31.7448 5.08238
958 31.8118 5.09863
959 31.8789 5.1146
960 31.946 5.1304
961 32.0132 5.14605
962 32.0804 5.16156
963 32.1476 5.17697
964 32.2148 5.19229
965 32.2819 5.20753
966 32.3491 5.22268
967 32.4163 5.23775
968 32.4834 5.25275
969 32.5506 5.26769
970 32.6178 5.2826
971 32.685 5.29747
972 32.7523 5.31232
973 32.8196 5.32713
974 32.8868 5.34192
975 32.9541 5.35668
976 33.0213 5.37141
977 33.0886 5.38614
978 33.1558 5.40087
979 33.223 5.41558
980 33.2903 5.43029
981 33.3575 5.44499
982 33.4248 5.45968
983 33.492 5.47438
984 33.5593 5.48907
985 33.6266 5.50375
986 33.6938 5.51843
987 33.7611 5.53311
988 33.8283 5.54778
989 33.8956 5.56246
990 33.9628 5.57711
991 34.0301 5.59177
992 34.0973 5.60642
993 34.1646 5.62108
994 34.2319 5.63573
995 34.2991 5.65037
996 34.3664 5.66501
997 34.4337 5.67965
998 34.5009 5.69429
999 34.5682 5.70892
1000 34.6355 5.72355
1001 34.7028 5.73817
1002 34.77 5.7528
1003 34.8373 5.76742
1004 34.9045 5.78203
1005 34.9718 5.79664
1006 35.0391 5.81126
1007 35.1064 5.82587
1008 35.1736 5.84047
1009 35.2409 5.85508
1010 35.3082 5.86969
1011 35.3754 5.88428
1012 35.4427 5.89888
1013 35.51 5.91348
1014 35.5772 5.92807
1015 35.6445 5.94266
1016 35.7118 5.95724
1017 35.7332 5.96193
1018 35.7406 5.96353
1019 35.745 5.96435
1020 35.7486 5.96493
1021 35.7522 5.96535
1022 35.8011 5.96983
1023 35.8684 5.97094
1024 35.9372 5.97102
1025 36.0059 5.97077
1026 36.0747 5.97039
1027 36.1435 5.96993
1028 36.2123 5.96942
1029 36.2811 5.9689
1030 36.35 5.96837
1031 36.4188 5.96781
1032 36.4876 5.96723
1033 36.5565 5.96665
1034 36.6253 5.96607
1035 36.6942 5.9655
1036 36.763 5.96491
1037 36.8318 5.96432
1038 36.9007 5.96374
1039 36.9695 5.96314
1040 37.0384 5.96253
1041 37.1072 5.96195
1042 37.176 5.96135
1043 37.2449 5.96074
1044 37.3137 5.96014
1045 37.3825 5.95954
1046 37.4514 5.95894
1047 37.5202 5.95832
1048 37.5433 5.95745
1049 37.5539 5.95733
1050 37.5642 5.95702
1051 37.5735 5.95637
1052 37.5827 5.95524
1053 37.5916 5.9534
1054 37.6008 5.95055
1055 37.6099 5.94634
1056 37.6123 5.9436
1057 37.6147 5.94221
1058 37.617 5.93992
1059 37.619 5.93726
1060 37.6207 5.93446
1061 37.6222 5.9314
1062 37.646 5.89321
1063 37.6629 5.82826
1064 37.6789 5.76107
1065 37.6949 5.69386
1066 37.7112 5.62664
1067 37.7277 5.55955
1068 37.7444 5.49265
1069 37.7613 5.42587
1070 37.7785 5.35912
1071 37.7959 5.29237
1072 37.8134 5.22574
1073 37.8312 5.15909
1074 37.849 5.0925
1075 37.8669 5.02597
1076 37.8848 4.95945
1077 37.9029 4.89297
1078 37.9211 4.82652
1079 37.9393 4.7601
1080 37.9575 4.69368
1081 37.9758 4.62733
1082 37.9941 4.56095
1083 38.0124 4.49457
1084 38.0307 4.42819
1085 38.049 4.36182
1086 38.0674 4.29551
1087 38.0857 4.22917
1088 38.1041 4.16282
1089 38.1224 4.09648
1090 38.1408 4.03015
1091 38.1592 3.96381
1092 38.1776 3.89747
1093 38.1961 3.83113
1094 38.2145 3.76479
1095 38.2329 3.69849
1096 38.2513 3.63218
1097 38.2559 3.61115
1098 38.272 3.55832
1099 38.2908 3.49259
1100 38.3096 3.42627
1101 38.3281 3.35992
1102 38.3465 3.29354
1103 38.3647 3.22717
1104 38.3828 3.16071
1105 38.4007 3.09424
1106 38.4185 3.02775
1107 38.4363 2.96115
1108 38.454 2.89461
1109 38.4717 2.82814
1110 38.4893 2.76157
1111 38.5068 2.69505
1112 38.5243 2.6285
1113 38.5418 2.5619
1114 38.5592 2.49531
1115 38.5767 2.4287
1116 38.5941 2.3621
1117 38.6115 2.29549
1118 38.6289 2.22887
1119 38.6463 2.16225
1120 38.6637 2.09563
1121 38.6811 2.02901
1122 38.6984 1.9624
1123 38.7158 1.89578
1124 38.7331 1.82916
1125 38.7382 1.80855
1126 38.7404 1.80061
1127 38.7428 1.79369
1128 38.7459 1.78764
1129 38.7477 1.78538
1130 38.7489 1.78367
1131 38.7509 1.78164
1132 38.7538 1.77968
1133 38.7568 1.77838
1134 38.7597 1.7773
1135 38.8004 1.7606
1136 38.8666 1.75511
1137 38.9355 1.75158
1138 39.0042 1.74796
1139 39.0731 1.74388
1140 39.1417 1.73943
1141 39.2105 1.73441
1142 39.2792 1.72904
1143 39.3479 1.72329
1144 39.4165 1.71729
1145 39.4852 1.71095
1146 39.5188 1.71267
1147 39.5378 1.7105
1148 39.5541 1.70829
1149 39.5667 1.70609
1150 39.5752 1.70409
1151 39.5732 1.70515
1152 39.5708 1.70599
1153 39.5716 1.70563
1154 39.5741 1.70435
1155 39.5765 1.7029
1156 39.5796 1.70081
1157 39.621 1.67271
1158 39.6733 1.62956
1159 39.7259 1.5848
1160 39.7782 1.53984
1161 39.8302 1.49483
1162 39.8822 1.44965
1163 39.9342 1.40438
1164 39.9861 1.35908
1165 40.038 1.31374
1166 40.0898 1.26834
1167 40.1042 1.25262
1168 40.1109 1.24698
1169 40.117 1.24252
1170 40.123 1.23931
1171 40.1295 1.23722
1172 40.1356 1.23653
1173 40.1406 1.23711
1174 40.1417 1.23806
1175 40.1414 1.23747
1176 40.142 1.23703
1177 40.1435 1.23796
1178 40.145 1.23989
1179 40.1712 1.26806
1180 40.1962 1.32914
1181 40.2204 1.39416
1182 40.2448 1.459
1183 40.2697 1.52363
1184 40.295 1.58778
1185 40.3211 1.65177
1186 40.3475 1.71547
1187 40.3743 1.77884
1188 40.4013 1.84187
1189 40.4289 1.90496
1190 40.4568 1.96811
1191 40.4848 2.03106
1192 40.513 2.09399
1193 40.5415 2.15691
1194 40.57 2.21972
1195 40.5986 2.28239
1196 40.6274 2.34507
1197 40.6562 2.40759
1198 40.6851 2.47004
1199 40.714 2.53248
1200 40.7431 2.59497
1201 40.7722 2.6574
1202 40.8013 2.71974
1203 40.8306 2.78209
1204 40.8424 2.81176
1205 40.8427 2.81421
1206 40.8418 2.81243
1207 40.8417 2.81222
1208 40.8428 2.81374
1209 40.8427 2.81357
1210 40.8427 2.81392
1211 40.844 2.81534
1212 40.8462 2.81712
1213 40.8488 2.81894
1214 40.8519 2.8207
1215 40.8554 2.82236
1216 40.8588 2.82354
1217 40.8622 2.82443
1218 40.8654 2.82496
1219 40.8685 2.8253
1220 40.9131 2.8334
1221 40.98 2.8303
1222 41.0488 2.82542
1223 41.1177 2.8207
1224 41.1867 2.81622
1225 41.2556 2.81197
1226 41.3243 2.80802
1227 41.3931 2.80438
1228 41.4621 2.80095
1229 41.531 2.79776
1230 41.5565 2.79172
1231 41.5671 2.79139
1232 41.5775 2.79141
1233 41.5875 2.79189
1234 41.5971 2.79302
1235 41.6068 2.79506
1236 41.6161 2.79818
1237 41.6247 2.80243
1238 41.6295 2.80626
1239 41.6318 2.80887
1240 41.6337 2.81156
1241 41.6346 2.81393
1242 41.635 2.81525
1243 41.6351 2.81532
1244 41.6356 2.81576
1245 41.6361 2.81677
1246 41.6372 2.81897
1247 41.6387 2.82231
1248 41.6405 2.82565
1249 41.6424 2.82872
1250 41.6442 2.83119
1251 41.6464 2.83377
1252 41.6487 2.83615
1253 41.651 2.83821
1254 41.6533 2.84001
1255 41.6561 2.84198
1256 41.6592 2.84379
1257 41.6625 2.84543
1258 41.6657 2.84682
1259 41.709 2.86827
1260 41.7726 2.89044
1261 41.8381 2.91217
1262 41.9036 2.93365
1263 41.9691 2.95512
1264 42.0346 2.97658
1265 42.1001 2.99806
1266 42.1655 3.01957
1267 42.231 3.04109
1268 42.2964 3.06262
1269 42.319 3.06688
1270 42.3266 3.06952
1271 42.3331 3.07235
1272 42.3386 3.07579
1273 42.3415 3.07854
1274 42.3432 3.08085
1275 42.3443 3.08313
1276 42.3449 3.08579
1277 42.3445 3.08832
1278 42.3438 3.08999
1279 42.3432 3.09087
1280 42.3424 3.09227
1281 42.3227 3.11567
1282 42.2657 3.14376
1283 42.1997 3.16933
1284 42.1353 3.19495
1285 42.0723 3.22208
1286 42.01 3.25089
1287 41.9486 3.28142
1288 41.8878 3.31353
1289 41.8277 3.34719
1290 41.7685 3.38184
1291 41.71 3.41766
1292 41.652 3.45452
1293 41.5943 3.49231
1294 41.5373 3.53067
1295 41.4806 3.56984
1296 41.4243 3.6095
1297 41.3683 3.64977
1298 41.3126 3.69052
1299 41.2572 3.73162
1300 41.2022 3.77304
1301 41.1473 3.81481
1302 41.0926 3.85679
1303 41.0382 3.89897
1304 40.984 3.94134
1305 40.9298 3.98398
1306 40.8758 4.02675
1307 40.8219 4.06965
1308 40.7681 4.11268
1309 40.7144 4.15588
1310 40.6608 4.19909
1311 40.6073 4.24235
1312 40.5539 4.28577
1313 40.5005 4.32922
1314 40.4471 4.37276
1315 40.3938 4.41633
1316 40.3406 4.45994
1317 40.2874 4.5036
1318 40.2343 4.54729
1319 40.1811 4.59102
1320 40.128 4.6348
1321 40.0748 4.67861
1322 40.0218 4.72242
1323 39.9687 4.76625
1324 39.9156 4.8101
1325 39.8626 4.85396
1326 39.8456 4.86758
1327 39.8395 4.87257
1328 39.8338 4.87657
1329 39.8278 4.87965
1330 39.8215 4.88169
1331 39.8157 4.8823
1332 39.8108 4.88184
1333 39.8097 4.88099
1334 39.8098 4.88169
1335 39.8089 4.88212
1336 39.8073 4.88133
1337 39.8056 4.87976
1338 39.7747 4.8547
1339 39.7397 4.79819
1340 39.7043 4.7387
1341 39.6688 4.67928
1342 39.6329 4.62006
1343 39.5968 4.56116
1344 39.5603 4.50252
1345 39.5237 4.44413
1346 39.4866 4.38586
1347 39.4494 4.32773
1348 39.4121 4.26985
1349 39.3745 4.21204
1350 39.3368 4.15431
1351 39.2989 4.09672
1352 39.261 4.03926
1353 39.223 3.98187
1354 39.1848 3.92453
1355 39.1466 3.86725
1356 39.1083 3.81002
1357 39.0698 3.75274
1358 39.0314 3.69555
1359 38.9929 3.63845
1360 38.9544 3.58136
1361 38.9158 3.52431
1362 38.8772 3.46729
1363 38.8386 3.41032
1364 38.8 3.35334
1365 38.7613 3.29635
1366 38.7227 3.23938
1367 38.684 3.18241
1368 38.6453 3.12547
1369 38.6066 3.06854
1370 38.5679 3.0116
1371 38.5292 2.95467
1372 38.4905 2.89772
1373 38.4518 2.8408
1374 38.4131 2.7839
1375 38.3744 2.72699
1376 38.3356 2.67009
1377 38.2969 2.61318
1378 38.2581 2.55627
1379 38.2194 2.49936
1380 38.1806 2.44246
1381 38.1419 2.38556
1382 38.1031 2.32866
1383 38.0644 2.27177
1384 38.0256 2.21488
1385 37.9868 2.15799
1386 37.948 2.1011
1387 37.9093 2.04422
1388 37.8705 1.98735
1389 37.8317 1.93046
1390 37.7929 1.87358
1391 37.7542 1.8167
1392 37.7154 1.75983
1393 37.6766 1.70295
1394 37.6378 1.64609
1395 37.599 1.58923
1396 37.5602 1.53236
1397 37.5214 1.47549
1398 37.4826 1.41863
1399 37.4438 1.36176
1400 37.4049 1.30489
1401 37.3661 1.24802
1402 37.3273 1.19116
1403 37.2885 1.13431
1404 37.2497 1.07745
1405 37.2109 1.02059
1406 37.172 0.963737
1407 37.1332 0.906892
1408 37.0944 0.850047
1409 37.0556 0.793193
1410 37.0167 0.736342
1411 36.9779 0.679501
1412 36.9391 0.622657
1413 36.9273 0.605374
1414 36.923 0.59884
1415 36.9194 0.592612
1416 36.9167 0.585948
1417 36.9152 0.579255
1418 36.9152 0.573498
1419 36.9161 0.571597
1420 36.9156 0.571598
1421 36.9148 0.571288
1422 36.9146 0.570387
1423 36.9154 0.569006
1424 36.9415 0.542392
1425 37.0014 0.516038
1426 37.066 0.490573
1427 37.1301 0.464834
1428 37.1937 0.438379
1429 37.2569 0.411278
1430 37.3196 0.383516
1431 37.3823 0.354971
1432 37.4449 0.326129
1433 37.5071 0.296769
1434 37.5693 0.266969
1435 37.6312 0.236888
1436 37.6928 0.206542
1437 37.7544 0.175813
1438 37.8161 0.14472
1439 37.8778 0.113392
1440 37.9391 0.0820066
1441 38.0002 0.0504626
1442 38.0612 0.0187794
1443 38.1223 -0.0131804
1444 38.1832 -0.0451694
1445 38.2442 -0.0773262
1446 38.305 -0.109505
1447 38.3657 -0.141758
1448 38.4264 -0.174095
1449 38.4872 -0.206532
1450 38.548 -0.239062
1451 38.6086 -0.27162
1452 38.6693 -0.304242
1453 38.7299 -0.336863
1454 38.7904 -0.369517
1455 38.851 -0.402248
1456 38.9116 -0.435018
1457 38.9721 -0.467766
1458 39.0326 -0.50055
1459 39.0931 -0.533359
1460 39.1536 -0.566196
1461 39.2141 -0.599042
1462 39.2746 -0.631887
1463 39.3351 -0.664759
1464 39.3956 -0.697648
1465 39.456 -0.730538
1466 39.5165 -0.763441
1467 39.577 -0.796361
1468 39.5963 -0.806174
1469 39.6041 -0.810349
1470 39.6113 -0.813619
1471 39.6185 -0.815879
1472 39.6253 -0.816942
1473 39.6316 -0.816866
1474 39.637 -0.815768
1475 39.6372 -0.814899
1476 39.6385 -0.81548
1477 39.6407 -0.814046
1478 39.6424 -0.811921
1479 39.6438 -0.809585
1480 39.645 -0.806942
1481 39.6634 -0.774856
1482 39.6741 -0.710186
1483 39.683 -0.641477
1484 39.692 -0.572918
1485 39.7015 -0.504546
1486 39.7116 -0.436233
1487 39.7222 -0.368049
1488 39.7333 -0.299865
1489 39.7447 -0.231909
1490 39.7566 -0.163845
1491 39.7686 -0.0958661
1492 39.7809 -0.0279907
1493 39.7934 0.0398138
1494 39.8061 0.107532
1495 39.819 0.175218
1496 39.8321 0.242954
1497 39.8452 0.310563
1498 39.8585 0.378172
1499 39.8718 0.445743
1500 39.8852 0.51329
1501 39.8987 0.580832
1502 39.9122 0.648372
1503 39.9258 0.715908
1504 39.9393 0.783433
1505 39.9529 0.850946
1506 39.9665 0.918458
1507 39.9802 0.985979
1508 39.9938 1.05348
1509 40.0075 1.12093
1510 40.0212 1.18839
1511 40.0349 1.25586
1512 40.0486 1.32329
1513 40.0623 1.39075
1514 40.076 1.45821
1515 40.0898 1.52567
1516 40.1035 1.59313
1517 40.1172 1.6606
1518 40.131 1.72805
1519 40.1447 1.79551
1520 40.1585 1.86296
1521 40.1723 1.93041
1522 40.186 1.99787
1523 40.1998 2.06531
1524 40.2136 2.13275
1525 40.2274 2.20022
1526 40.2412 2.26767
1527 40.255 2.33511
1528 40.2688 2.40256
1529 40.2826 2.46999
1530 40.2964 2.53745
1531 40.3102 2.60489
1532 40.324 2.67235
1533 40.3378 2.73981
1534 40.3516 2.80724
1535 40.3655 2.87468
1536 40.3793 2.94211
1537 40.3932 3.00955
1538 40.407 3.07699
1539 40.4208 3.14443
1540 40.4347 3.21184
1541 40.4485 3.27928
1542 40.4624 3.34672
1543 40.4763 3.41416
1544 40.4901 3.48159
1545 40.504 3.54903
1546 40.5179 3.61645
1547 40.5317 3.68387
1548 40.5456 3.75131
1549 40.5595 3.81875
1550 40.5637 3.83998
1551 40.5656 3.84849
1552 40.568 3.85675
1553 40.5715 3.86482
1554 40.5758 3.87162
1555 40.5792 3.87482
1556 40.5819 3.8772
1557 40.585 3.87889
1558 40.5886 3.87986
1559 40.5918 3.87967
1560 40.5941 3.87907
1561 40.5957 3.87842
1562 40.597 3.87783
1563 40.6261 3.86251
1564 40.6671 3.81211
1565 40.7088 3.75641
1566 40.7514 3.70165
1567 40.795 3.64795
1568 40.8398 3.59528
1569 40.8855 3.54362
1570 40.9323 3.49268
1571 40.9802 3.44231
1572 41.0283 3.39296
1573 41.0769 3.34451
1574 41.1263 3.29654
1575 41.1762 3.249
1576 41.2265 3.20186
1577 41.2772 3.15521
1578 41.3284 3.10893
1579 41.3797 3.063
1580 41.4315 3.01735
1581 41.4834 2.97201
1582 41.5355 2.92695
1583 41.5878 2.88211
1584 41.6402 2.83745
1585 41.6929 2.79288
1586 41.7456 2.74842
1587 41.7983 2.70419
1588 41.8512 2.66008
1589 41.9041 2.61617
1590 41.957 2.57233
1591 42.0101 2.52849
1592 42.0633 2.48469
1593 42.1165 2.44095
1594 42.1697 2.39728
1595 42.223 2.35364
1596 42.2762 2.31004
1597 42.3295 2.26648
1598 42.3829 2.22295
1599 42.4363 2.17945
1600 42.4896 2.13597
1601 42.543 2.09254
1602 42.5965 2.04911
1603 42.6499 2.00571
1604 42.7034 1.96233
1605 42.7569 1.91893
1606 42.8104 1.87558
1607 42.8639 1.83224
1608 42.9174 1.78891
1609 42.9709 1.7456
1610 43.0244 1.7023
1611 43.0779 1.65902
1612 43.1315 1.61574
1613 43.185 1.57246
1614 43.2386 1.5292
1615 43.2921 1.48595
1616 43.3457 1.44271
1617 43.3992 1.39947
1618 43.4528 1.35623
1619 43.5063 1.31301
1620 43.5599 1.26978
1621 43.6135 1.22657
1622 43.6671 1.18336
1623 43.7207 1.14015
1624 43.7743 1.09695
1625 43.8279 1.05375
1626 43.8815 1.01056
1627 43.9351 0.967363
1628 43.9887 0.924165
1629 44.0423 0.880985
1630 44.0959 0.837799
1631 44.1495 0.794618
1632 44.2031 0.751444
1633 44.2568 0.708268
1634 44.3104 0.665101
1635 44.364 0.621933
1636 44.4176 0.578771
1637 44.4712 0.535607
1638 44.5248 0.492453
1639 44.5785 0.449305
1640 44.6321 0.406151
1641 44.6857 0.363002
1642 44.7394 0.319845
1643 44.793 0.276683
1644 44.8466 0.233537
1645 44.9003 0.190388
1646 44.9539 0.147245
1647 45.0076 0.104102
1648 45.0612 0.0609605
1649 45.1148 0.0178178
1650 45.1685 -0.0253155
1651 45.2221 -0.068451
1652 45.2758 -0.111586
1653 45.3294 -0.154725
1654 45.3831 -0.197861
1655 45.4367 -0.240987
1656 45.4904 -0.284113
1657 45.544 -0.327235
1658 45.5977 -0.370353
1659 45.6513 -0.413476
1660 45.705 -0.456597
1661 45.7587 -0.499724
1662 45.8123 -0.542837
1663 45.866 -0.585954
1664 45.9197 -0.629072
1665 45.9733 -0.672192
1666 46.027 -0.715302
1667 46.0807 -0.758414
1668 46.1343 -0.801519
1669 46.188 -0.844625
1670 46.2417 -0.887733
1671 46.2954 -0.930822
1672 46.3491 -0.973915
1673 46.4028 -1.017
1674 46.4565 -1.06009
1675 46.5102 -1.10317
1676 46.5639 -1.14625
1677 46.6176 -1.18933
1678 46.6713 -1.23241
1679 46.725 -1.27548
1680 46.7787 -1.31855
1681 46.8324 -1.36162
1682 46.8861 -1.40469
1683 46.9398 -1.44775
1684 46.9935 -1.49081
1685 47.0472 -1.53387
1686 47.101 -1.57694
1687 47.1547 -1.62
1688 47.2084 -1.66306
1689 47.2621 -1.70611
1690 47.3158 -1.74917
1691 47.3695 -1.79223
1692 47.4232 -1.83529
1693 47.4769 -1.87835
1694 47.5306 -1.92141
1695 47.5843 -1.96447
1696 47.638 -2.00753
1697 47.6918 -2.05059
1698 47.7455 -2.09364
1699 47.7992 -2.1367
1700 47.8529 -2.17974
1701 47.9066 -2.22279
1702 47.9603 -2.26585
1703 48.014 -2.30891
1704 48.0677 -2.35196
1705 48.1214 -2.39501
1706 48.1751 -2.43806
1707 48.2289 -2.48112
1708 48.2826 -2.52417
1709 48.3363 -2.56722
1710 48.39 -2.61028
1711 48.4437 -2.65334
1712 48.4974 -2.6964
1713 48.5511 -2.73947
1714 48.6048 -2.78252
1715 48.6586 -2.82558
1716 48.7123 -2.86864
1717 48.766 -2.9117
1718 48.8197 -2.95476
1719 48.8734 -2.99782
1720 48.9271 -3.04088
1721 48.9808 -3.08394
1722 49.0346 -3.12701
1723 49.0883 -3.17007
1724 49.142 -3.21313
1725 49.1957 -3.25618
1726 49.2494 -3.29925
1727 49.3031 -3.34231
1728 49.3568 -3.38536
1729 49.4106 -3.42843
1730 49.4643 -3.47149
1731 49.518 -3.51454
1732 49.5717 -3.55757
1733 49.6254 -3.60064
1734 49.6791 -3.6437
1735 49.7329 -3.68675
1736 49.7866 -3.72981
1737 49.8403 -3.77286
1738 49.894 -3.81591
1739 49.9477 -3.85896
1740 50.0014 -3.90203
1741 50.0551 -3.94509
1742 50.1089 -3.98815
1743 50.1626 -4.0312
1744 50.2163 -4.07426
1745 50.27 -4.11733
1746 50.3237 -4.16038
1747 50.3774 -4.20344
1748 50.4311 -4.24649
1749 50.4849 -4.28956
1750 50.5386 -4.33261
1751 50.5923 -4.37567
1752 50.646 -4.41871
1753 50.6605 -4.43036
1754 50.6669 -4.43538
1755 50.6731 -4.43963
1756 50.6797 -4.44295
1757 50.6865 -4.44505
1758 50.6929 -4.44574
1759 50.6985 -4.44522
1760 50.6995 -4.44418
1761 50.7009 -4.44463
1762 50.703 -4.44342
1763 50.7049 -4.44117
1764 50.706 -4.4385
1765 50.7066 -4.43577
1766 50.7066 -4.43309
1767 50.7064 -4.43055
1768 50.707 -4.39876
1769 50.6875 -4.33642
1770 50.6655 -4.27034
1771 50.6444 -4.20392
1772 50.6243 -4.13716
1773 50.6053 -4.07047
1774 50.5874 -4.00363
1775 50.5727 -3.96539
1776 50.5677 -3.9492
1777 50.5644 -3.93986
1778 50.5625 -3.93603
1779 50.5617 -3.93419
1780 50.5607 -3.93204
1781 50.5593 -3.92965
1782 50.5575 -3.92704
1783 50.535 -3.89152
1784 50.4903 -3.84138
1785 50.4435 -3.79057
1786 50.3965 -3.73988
1787 50.3495 -3.6892
1788 50.3025 -3.63857
1789 50.2556 -3.58796
1790 50.2086 -3.53738
1791 50.1617 -3.48681
1792 50.1411 -3.47001
1793 50.1364 -3.46478
1794 50.1337 -3.46131
1795 50.1318 -3.45811
1796 50.1302 -3.4547
1797 50.1291 -3.45121
1798 50.1282 -3.44773
1799 50.1276 -3.44438
1800 50.1189 -3.39799
1801 50.1145 -3.33075
1802 50.1107 -3.26189
1803 50.1067 -3.19314
1804 50.1023 -3.12448
1805 50.0976 -3.05585
1806 50.0925 -2.98711
1807 50.0871 -2.91844
1808 50.0814 -2.84983
1809 50.0755 -2.78101
1810 50.0695 -2.71233
1811 50.0633 -2.64372
1812 50.0569 -2.57498
1813 50.0503 -2.50635
1814 50.0437 -2.4378
1815 50.0371 -2.36923
1816 50.0303 -2.30065
1817 50.0235 -2.23198
1818 50.0166 -2.16342
1819 50.0097 -2.09492
1820 50.0027 -2.02648
1821 49.9957 -1.958
1822 49.9886 -1.88951
1823 49.9816 -1.82103
1824 49.9745 -1.75255
1825 49.9674 -1.68408
1826 49.9602 -1.61561
1827 49.9531 -1.54714
1828 49.9459 -1.47867
1829 49.9388 -1.41021
1830 49.9316 -1.34174
1831 49.9244 -1.27328
1832 49.9172 -1.20482
1833 49.91 -1.13635
1834 49.9029 -1.06789
1835 49.8957 -0.99943
1836 49.8885 -0.930972
1837 49.8813 -0.862513
1838 49.8741 -0.794059
1839 49.8668 -0.725601
1840 49.8596 -0.657142
1841 49.8524 -0.588683
1842 49.8452 -0.520226
1843 49.838 -0.451768
1844 49.8308 -0.383311
1845 49.8236 -0.314853
1846 49.8164 -0.246396
1847 49.8091 -0.17794
1848 49.8019 -0.109483
1849 49.7947 -0.0410279
1850 49.7874 0.0274282
1851 49.7802 0.0958834
1852 49.773 0.164339
1853 49.7657 0.232794
1854 49.7585 0.301249
1855 49.7512 0.369703
1856 49.744 0.438158
1857 49.7418 0.460174
1858 49.7356 0.515212
1859 49.7333 0.53441
1860 49.7323 0.542021
1861 49.7308 0.549294
1862 49.7287 0.556016
1863 49.7259 0.562106
1864 49.7237 0.564818
1865 49.7219 0.566906
1866 49.7199 0.568525
1867 49.7181 0.569323
1868 49.7173 0.569617
1869 49.7161 0.570097
1870 49.7154 0.569831
1871 49.7139 0.569611
1872 49.7122 0.567523
1873 49.711 0.564815
1874 49.7104 0.561923
1875 49.7103 0.558989
1876 49.7106 0.556369
1877 49.7117 0.527605
1878 49.727 0.464748
1879 49.7443 0.397264
1880 49.7608 0.329684
1881 49.7762 0.26202
1882 49.7873 0.227104
1883 49.7885 0.223347
1884 49.7884 0.223597
1885 49.7882 0.223951
1886 49.7881 0.224274
1887 49.788 0.22456
1888 49.7879 0.224818
1889 49.7878 0.225039
1890 49.7877 0.225228
1891 49.7876 0.225396
1892 49.7876 0.225541
1893 49.7875 0.225671
1894 49.7875 0.225786
1895 49.7874 0.225883
1896 49.7874 0.225976
1897 49.7874 0.226044
1898 49.7873 0.226109
1899 49.7873 0.226166
1900 49.7873 0.226205
1901 49.7873 0.22624
1902 49.7873 0.226273
1903 49.7872 0.226313
1904 49.7872 0.226345
1905 49.7872 0.226367
1906 49.7872 0.226384
1907 49.7872 0.226408
1908 49.7872 0.226433
1909 49.7872 0.226445
1910 49.7872 0.226458
1911 49.7872 0.226463
1912 49.7872 0.226475
1913 49.7872 0.226496
1914 49.7872 0.226504
1915 49.7872 0.226504
1916 49.7872 0.226496
1917 49.7872 0.2265
1918 49.7872 0.226504
1919 49.7871 0.22651
1920 49.7871 0.22652
1921 49.7871 0.226528
1922 49.7871 0.226528
1923 49.7871 0.226538
1924 49.7871 0.226546
1925 49.7871 0.226547
1926 49.7871 0.226534
1927 49.7871 0.226541
1928 49.7871 0.226548
1929 49.7871 0.226551
1930 49.7871 0.226549
1931 49.7871 0.226551
1932 49.7871 0.226553
1933 49.7871 0.226543
1934 49.7871 0.226547
1935 49.7871 0.226554
1936 49.7871 0.22656
1937 49.7871 0.226556
1938 49.7871 0.226562
1939 49.7871 0.226552
1940 49.7871 0.226554
1941 49.7871 0.226556
1942 49.7871 0.226558
1943 49.7871 0.226558
1944 49.7871 0.226542
1945 49.7871 0.22652
1946 49.7871 0.226502
1947 49.7871 0.226492
1948 49.7871 0.226488
1949 49.7871 0.226482
1950 49.7871 0.226482
1951 49.7871 0.22648
1952 49.7871 0.226462
1953 49.7871 0.226457
1954 49.7871 0.226454
1955 49.7872 0.226452
1956 49.7872 0.226445
1957 49.7872 0.226427
1958 49.7872 0.226424
1959 49.7872 0.226416
1960 49.7872 0.22642
1961 49.7872 0.226427
1962 49.7872 0.22643
1963 49.7872 0.226427
1964 49.7872 0.226428
1965 49.7872 0.226434
1966 49.7872 0.226434
1967 49.7872 0.226436
1968 49.7872 0.226442
1969 49.7872 0.226443
1970 49.7872 0.226448
1971 49.7872 0.226444
1972 49.7872 0.226452
1973 49.7871 0.226455
1974 49.7871 0.226466
1975 49.7871 0.226471
1976 49.7871 0.226472
1977 49.7871 0.22647
1978 49.7871 0.226474
1979 49.7871 0.226485
1980 49.7871 0.226488
1981 49.7871 0.226494
1982 49.7871 0.226501
1983 49.7871 0.226504
1984 49.7871 0.226504
1985 49.7871 0.226509
1986 49.7871 0.226512
1987 49.7871 0.226507
1988 49.7871 0.226505
1989 49.7871 0.226494
1990 49.7871 0.226495
1991 49.7871 0.226498
1992 49.7871 0.226483
1993 49.7871 0.226496
1994 49.7871 0.226495
1995 49.7871 0.226487
1996 49.7871 0.226492
1997 49.7871 0.22649
1998 49.7871 0.226492
1999 49.7871 0.226475
2000 49.7871 0.226463
2001 49.7871 0.226463
2002 49.7871 0.226464
2003 49.7871 0.226467
2004 49.7871 0.226465
2005 49.7871 0.226467
2006 49.7871 0.226461
2007 49.7871 0.226462
2008 49.7871 0.226458
2009 49.7871 0.226457
2010 49.7871 0.226459
2011 49.7871 0.226462
2012 49.7871 0.226459
2013 49.7871 0.226453
2014 49.7871 0.226453
2015 49.7872 0.226451
2016 49.7871 0.226454
2017 49.7871 0.226455
2018 49.7871 0.226458
2019 49.7871 0.226455
2020 49.7871 0.226454
2021 49.7871 0.226458
2022 49.7871 0.226465
2023 49.7871 0.226462
2024 49.7871 0.226454
2025 49.7872 0.22645
2026 49.7872 0.226451
2027 49.7872 0.226446
2028 49.7872 0.22645
2029 49.7872 0.226447
2030 49.7871 0.226453
2031 49.7872 0.226448
2032 49.7871 0.226456
2033 49.7871 0.22646
2034 49.7871 0.226463
2035 49.7871 0.226465
2036 49.7871 0.226468
2037 49.7871 0.226466
2038 49.7871 0.226463
2039 49.7871 0.226464
2040 49.7871 0.226467
2041 49.7871 0.22646
2042 49.7872 0.226446
2043 49.7872 0.226429
2044 49.7872 0.226425
2045 49.7872 0.226429
2046 49.7872 0.226423
2047 49.7872 0.226423
2048 49.7872 0.226425
2049 49.7872 0.226423
2050 49.7872 0.226423
2051 49.7872 0.226426
2052 49.7872 0.226422
2053 49.7872 0.226414
2054 49.7872 0.226399
2055 49.7872 0.226379
2056 49.7872 0.226375
2057 49.7872 0.226372
2058 49.7872 0.226362
2059 49.7872 0.226358
2060 49.7872 0.22634
2061 49.7872 0.226336
2062 49.7872 0.226342
2063 49.7872 0.226342
2064 49.7872 0.226338
2065 49.7872 0.226329
2066 49.7872 0.226327
2067 49.7872 0.226333
2068 49.7872 0.226334
2069 49.7872 0.22634
2070 49.7872 0.226334
2071 49.7872 0.226309
2072 49.7872 0.226306
2073 49.7872 0.226312
2074 49.7872 0.226311
2075 49.7872 0.226304
2076 49.7872 0.226305
2077 49.7872 0.226299
2078 49.7872 0.226297
2079 49.7872 0.226295
2080 49.7872 0.226301
2081 49.7872 0.226294
2082 49.7872 0.226293
2083 49.7872 0.2263
2084 49.7872 0.226301
2085 49.7872 0.226304
2086 49.7872 0.226284
2087 49.7872 0.226285
2088 49.7872 0.226291
2089 49.7872 0.226285
2090 49.7872 0.226287
2091 49.7872 0.226286
2092 49.7872 0.226286
2093 49.7872 0.226284
2094 49.7872 0.226282
2095 49.7872 0.226286
2096 49.7872 0.226288
2097 49.7872 0.226283
2098 49.7872 0.226283
2099 49.7872 0.22629
2100 49.7872 0.226289
2101 49.7872 0.22627
2102 49.7872 0.226271
2103 49.7872 0.226267
2104 49.7872 0.22627
2105 49.7872 0.226275
2106 49.7872 0.226272
2107 49.7872 0.226266
2108 49.7872 0.226267
2109 49.7872 0.226269
2110 49.7872 0.226261
2111 49.7872 0.226257
2112 49.7872 0.226254
2113 49.7872 0.226245
2114 49.7872 0.22624
2115 49.7872 0.226218
2116 49.7872 0.226196
2117 49.7872 0.226174
2118 49.7872 0.226157
2119 49.7872 0.226156
2120 49.7872 0.226155
2121 49.7872 0.226161
2122 49.7872 0.226165
2123 49.7872 0.226163
2124 49.7872 0.226165
2125 49.7872 0.226165
2126 49.7872 0.226169
2127 49.7872 0.226151
2128 49.7872 0.226146
2129 49.7872 0.226139
2130 49.7872 0.226148
2131 49.7872 0.226155
2132 49.7872 0.226161
2133 49.7872 0.226163
2134 49.7872 0.226139
2135 49.7872 0.226134
2136 49.7872 0.226143
2137 49.7872 0.22615
2138 49.7872 0.226149
2139 49.7872 0.22615
2140 49.7872 0.226152
2141 49.7872 0.226152
2142 49.7872 0.226158
2143 49.7872 0.226142
2144 49.7872 0.226131
2145 49.7872 0.226123
2146 49.7872 0.226128
2147 49.7872 0.226133
2148 49.7872 0.226138
2149 49.7872 0.226145
2150 49.7872 0.226138
2151 49.7872 0.226135
2152 49.7872 0.226138
2153 49.7872 0.226138
2154 49.7872 0.226115
2155 49.7872 0.226114
2156 49.7872 0.226098
2157 49.7872 0.226095
2158 49.7872 0.226095
2159 49.7872 0.22607
2160 49.7872 0.226043
2161 49.7872 0.226017
2162 49.7872 0.226017
2163 49.7872 0.226017
2164 49.7872 0.22602
2165 49.7872 0.22601
2166 49.7872 0.226009
2167 49.7872 0.225991
2168 49.7872 0.225982
2169 49.7872 0.225975
2170 49.7872 0.225973
2171 49.7872 0.225977
2172 49.7872 0.225964
2173 49.7872 0.225986
2174 49.7872 0.225997
2175 49.7872 0.226002
2176 49.7872 0.225998
2177 49.7872 0.22599
2178 49.7872 0.225966
2179 49.7872 0.225945
2180 49.7872 0.225944
2181 49.7872 0.225951
2182 49.7872 0.225961
2183 49.7872 0.225964
2184 49.7872 0.225958
2185 49.7872 0.225958
2186 49.7872 0.225962
2187 49.7872 0.225945
2188 49.7872 0.225922
2189 49.7872 0.2259
2190 49.7872 0.225897
2191 49.7872 0.225897
2192 49.7872 0.22589
2193 49.7872 0.225875
2194 49.7872 0.225857
2195 49.7872 0.225854
2196 49.7872 0.225852
2197 49.7872 0.225845
2198 49.7872 0.225846
2199 49.7872 0.225843
2200 49.7872 0.225837
2201 49.7873 0.225822
2202 49.7873 0.2258
2203 49.7873 0.225789
2204 49.7873 0.225771
2205 49.7873 0.225768
2206 49.7873 0.225765
2207 49.7873 0.225766
2208 49.7873 0.225766
2209 49.7873 0.225771
2210 49.7873 0.225771
2211 49.7873 0.22576
2212 49.7873 0.225751
2213 49.7873 0.225732
2214 49.7873 0.225723
2215 49.7873 0.225717
2216 49.7873 0.225718
2217 49.7873 0.225721
2218 49.7873 0.225711
2219 49.7873 0.225711
2220 49.7873 0.225707
2221 49.7873 0.225707
2222 49.7873 0.225703
2223 49.7873 0.225686
2224 49.7873 0.225678
2225 49.7873 0.225672
2226 49.7873 0.225653
2227 49.7873 0.225643
2228 49.7873 0.225636
2229 49.7873 0.225637
2230 49.7873 0.225632
2231 49.7873 0.225627
2232 49.7873 0.225632
2233 49.7873 0.225631
2234 49.7873 0.225637
2235 49.7873 0.225634
2236 49.7873 0.225639
2237 49.7873 0.225627
2238 49.7873 0.225615
2239 49.7873 0.225605
2240 49.7873 0.225603
2241 49.7873 0.225602
2242 49.7873 0.225595
2243 49.7873 0.225591
2244 49.7873 0.2256
2245 49.7873 0.225594
2246 49.7873 0.225587
2247 49.7873 0.225588
2248 49.7873 0.225583
2249 49.7873 0.225578
2250 49.7873 0.225583
2251 49.7873 0.225582
2252 49.7873 0.225588
2253 49.7873 0.225584
2254 49.7873 0.22559
2255 49.7873 0.225578
2256 49.7873 0.225566
2257 49.7873 0.225556
2258 49.7873 0.225554
2259 49.7873 0.225553
2260 49.7873 0.225546
2261 49.7873 0.225538
2262 49.7873 0.225531
2263 49.7873 0.225537
2264 49.7873 0.225547
2265 49.7873 0.225554
2266 49.7873 0.225554
2267 49.7873 0.22553
2268 49.7873 0.225527
2269 49.7873 0.225504
2270 49.7873 0.225496
2271 49.7873 0.225491
2272 49.7873 0.225495
2273 49.7873 0.225493
2274 49.7873 0.225476
2275 49.7873 0.225475
2276 49.7873 0.225464
2277 49.7873 0.225468
2278 49.7873 0.225471
2279 49.7873 0.225467
2280 49.7873 0.225465
2281 49.7873 0.22547
2282 49.7873 0.225481
2283 49.7873 0.225479
2284 49.7873 0.225463
2285 49.7873 0.225463
2286 49.7873 0.225468
2287 49.7873 0.225468
2288 49.7873 0.225462
2289 49.7873 0.225453
2290 49.7873 0.225427
2291 49.7873 0.225414
2292 49.7873 0.225405
2293 49.7873 0.225405
2294 49.7873 0.225406
2295 49.7873 0.225413
2296 49.7873 0.225421
2297 49.7873 0.225425
2298 49.7873 0.225434
2299 49.7873 0.225431
2300 49.7873 0.225413
2301 49.7873 0.225404
2302 49.7873 0.225405
2303 49.7873 0.2254
2304 49.7873 0.225399
2305 49.7873 0.225387
2306 49.7873 0.225389
2307 49.7873 0.225388
2308 49.7873 0.225389
2309 49.7873 0.225379
2310 49.7873 0.225369
2311 49.7873 0.225388
2312 49.7873 0.225375
2313 49.7873 0.225363
2314 49.7873 0.22536
2315 49.7873 0.225361
2316 49.7873 0.225351
2317 49.7873 0.225342
2318 49.7873 0.225335
2319 49.7873 0.225337
2320 49.7873 0.22534
2321 49.7873 0.225337
2322 49.7873 0.225338
2323 49.7873 0.225329
2324 49.7873 0.225325
2325 49.7873 0.225327
2326 49.7873 0.225302
2327 49.7873 0.225297
2328 49.7873 0.225301
2329 49.7873 0.225306
2330 49.7873 0.225302
2331 49.7873 0.2253
2332 49.7873 0.225298
2333 49.7873 0.225289
2334 49.7873 0.225294
2335 49.7873 0.22528
2336 49.7873 0.22528
2337 49.7873 0.225279
2338 49.7873 0.225285
2339 49.7873 0.225287
2340 49.7873 0.225284
2341 49.7873 0.225285
2342 49.7873 0.225283
2343 49.7873 0.225281
2344 49.7873 0.225273
2345 49.7873 0.225267
2346 49.7873 0.225259
2347 49.7873 0.225252
2348 49.7873 0.22525
2349 49.7873 0.225237
2350 49.7873 0.225231
2351 49.7874 0.225208
2352 49.7874 0.225206
2353 49.7874 0.225204
2354 49.7874 0.225204
2355 49.7874 0.225206
2356 49.7873 0.225209
2357 49.7874 0.225205
2358 49.7874 0.225205
2359 49.7874 0.225197
2360 49.7874 0.225195
2361 49.7874 0.225177
2362 49.7874 0.225179
2363 49.7874 0.22518
2364 49.7874 0.225177
2365 49.7874 0.225178
2366 49.7874 0.225173
2367 49.7874 0.225155
2368 49.7874 0.225145
2369 49.7874 0.22514
2370 49.7874 0.225141
2371 49.7874 0.225135
2372 49.7874 0.225126
2373 49.7874 0.225117
2374 49.7874 0.22512
2375 49.7874 0.225125
2376 49.7874 0.225125
2377 49.7874 0.225122
2378 49.7874 0.225123
2379 49.7874 0.225118
2380 49.7874 0.2251
2381 49.7874 0.22509
2382 49.7874 0.225085
2383 49.7874 0.225086
2384 49.7874 0.22508
2385 49.7874 0.225071
2386 49.7874 0.225063
2387 49.7874 0.225065
2388 49.7874 0.22507
2389 49.7874 0.225071
2390 49.7874 0.225067
2391 49.7874 0.225068
2392 49.7874 0.225063
2393 49.7874 0.225045
2394 49.7874 0.225035
2395 49.7874 0.22503
2396 49.7874 0.225032
2397 49.7874 0.225025
2398 49.7874 0.225016
2399 49.7874 0.225008
2400 49.7874 0.22501
2401 49.7874 0.225015
2402 49.7874 0.225016
2403 49.7874 0.225012
2404 49.7874 0.225013
2405 49.7874 0.225008
2406 49.7874 0.22499
2407 49.7874 0.22498
2408 49.7874 0.224975
2409 49.7874 0.224977
2410 49.7874 0.22497
2411 49.7874 0.224961
2412 49.7874 0.224953
2413 49.7874 0.224955
2414 49.7874 0.22496
2415 49.7874 0.224961
2416 49.7874 0.224957
2417 49.7874 0.224958
2418 49.7874 0.224953
2419 49.7874 0.224935
2420 49.7874 0.224925
2421 49.7874 0.22492
2422 49.7874 0.224922
2423 49.7874 0.224916
2424 49.7874 0.224906
2425 49.7874 0.224898
2426 49.7874 0.2249
2427 49.7874 0.224905
2428 49.7874 0.224906
2429 49.7874 0.224902
2430 49.7874 0.224904
2431 49.7874 0.224898
2432 49.7874 0.22488
2433 49.7874 0.22487
2434 49.7874 0.224865
2435 49.7874 0.224867
2436 49.7874 0.224861
2437 49.7874 0.224851
2438 49.7874 0.224843
2439 49.7874 0.224845
2440 49.7874 0.22485
2441 49.7874 0.224851
2442 49.7874 0.224847
2443 49.7874 0.224849
2444 49.7874 0.224843
2445 49.7874 0.224826
2446 49.7874 0.224815
2447 49.7874 0.22481
2448 49.7874 0.224812
2449 49.7874 0.224806
2450 49.7874 0.224796
2451 49.7874 0.224788
2452 49.7874 0.22479
2453 49.7874 0.224795
2454 49.7874 0.224796
2455 49.7874 0.224792
2456 49.7874 0.224794
2457 49.7874 0.224788
2458 49.7874 0.22477
2459 49.7874 0.22476
2460 49.7874 0.224755
2461 49.7874 0.224757
2462 49.7874 0.224751
2463 49.7874 0.224741
2464 49.7874 0.224733
2465 49.7874 0.224735
2466 49.7874 0.22474
2467 49.7874 0.224741
2468 49.7874 0.224737
2469 49.7874 0.224739
2470 49.7874 0.224733
2471 49.7874 0.224716
2472 49.7874 0.224705
2473 49.7874 0.2247
2474 49.7874 0.224702
2475 49.7874 0.224696
2476 49.7874 0.224686
2477 49.7874 0.224678
2478 49.7874 0.224681
2479 49.7874 0.224686
2480 49.7874 0.224686
2481 49.7874 0.224683
2482 49.7874 0.224684
2483 49.7874 0.224679
2484 49.7874 0.224661
2485 49.7874 0.224651
2486 49.7874 0.224645
2487 49.7874 0.224647
2488 49.7874 0.224641
2489 49.7874 0.224632
2490 49.7874 0.224623
2491 49.7874 0.224626
2492 49.7874 0.224631
2493 49.7874 0.224631
2494 49.7874 0.224628
2495 49.7874 0.224629
2496 49.7874 0.224624
2497 49.7874 0.224606
2498 49.7875 0.224596
2499 49.7875 0.22459
2500 49.7875 0.224592
2501 49.7875 0.224586
2502 49.7875 0.224576
2503 49.7875 0.224568
2504 49.7875 0.22457
2505 49.7875 0.224575
2506 49.7875 0.224576
2507 49.7875 0.224572
2508 49.7875 0.224574
2509 49.7875 0.224568
2510 49.7875 0.224551
2511 49.7875 0.22454
2512 49.7875 0.224535
2513 49.7875 0.224537
2514 49.7875 0.224531
2515 49.7875 0.224521
2516 49.7875 0.224513
2517 49.7875 0.224516
2518 49.7875 0.22452
2519 49.7875 0.224521
2520 49.7875 0.224517
2521 49.7875 0.224519
2522 49.7875 0.224513
2523 49.7875 0.224496
2524 49.7875 0.224485
2525 49.7875 0.22448
2526 49.7875 0.224482
2527 49.7875 0.224476
2528 49.7875 0.224467
2529 49.7875 0.224458
2530 49.7875 0.224461
2531 49.7875 0.224466
2532 49.7875 0.224466
2533 49.7875 0.224463
2534 49.7875 0.224464
2535 49.7875 0.224459
2536 49.7875 0.224441
2537 49.7875 0.224431
2538 49.7875 0.224425
2539 49.7875 0.224427
2540 49.7875 0.224421
2541 49.7875 0.224412
2542 49.7875 0.224403
2543 49.7875 0.224406
2544 49.7875 0.224411
2545 49.7875 0.224411
2546 49.7875 0.224408
2547 49.7875 0.224409
2548 49.7875 0.224404
2549 49.7875 0.224386
2550 49.7875 0.224376
2551 49.7875 0.22437
2552 49.7875 0.224373
2553 49.7875 0.224366
2554 49.7875 0.224357
2555 49.7875 0.224348
2556 49.7875 0.224351
2557 49.7875 0.224356
2558 49.7875 0.224356
2559 49.7875 0.224353
2560 49.7875 0.224354
2561 49.7875 0.224349
2562 49.7875 0.224331
2563 49.7875 0.224321
2564 49.7875 0.224316
2565 49.7875 0.224317
2566 49.7875 0.224311
2567 49.7875 0.224302
2568 49.7875 0.224293
2569 49.7875 0.224296
2570 49.7875 0.224301
2571 49.7875 0.224302
2572 49.7875 0.224298
2573 49.7875 0.224299
2574 49.7875 0.224294
2575 49.7875 0.224276
2576 49.7875 0.224266
2577 49.7875 0.224261
2578 49.7875 0.224263
2579 49.7875 0.224257
2580 49.7875 0.224247
2581 49.7875 0.224239
2582 49.7875 0.224241
2583 49.7875 0.224246
2584 49.7875 0.224247
2585 49.7875 0.224243
2586 49.7875 0.224244
2587 49.7875 0.224239
2588 49.7875 0.224221
2589 49.7875 0.224211
2590 49.7875 0.224206
2591 49.7875 0.224208
2592 49.7875 0.224201
2593 49.7875 0.224192
2594 49.7875 0.224184
2595 49.7875 0.224186
