1 0.000169693 0.000260176
2 0.000169839 0.000161452
3 0.000165711 -0.000746336
4 0.000144459 -0.00115587
5 0.000150964 -0.000988523
6 0.000286456 -0.000229695
7 0.000805162 0.0013963
8 0.00191932 0.00340544
9 0.00405639 0.0059951
10 0.00718893 0.00832475
11 0.0107442 0.00992257
12 0.0144357 0.0108735
13 0.0181001 0.0112576
14 0.0214938 0.0112223
15 0.0225979 0.0105106
16 0.0225937 0.0105126
17 0.0627802 0.0185546
18 0.128615 0.0156623
19 0.197682 0.0109238
20 0.267145 0.0065851
21 0.336719 0.00241628
22 0.405951 -0.00149428
23 0.475138 -0.00508594
24 0.544441 -0.00843809
25 0.570275 -0.0160152
26 0.623075 -0.0127884
27 0.691286 -0.015757
28 0.760307 -0.0186368
29 0.829025 -0.0211291
30 0.897942 -0.0231686
31 0.966787 -0.0248808
32 1.03556 -0.0262714
33 1.1043 -0.0273937
34 1.17312 -0.0282714
35 1.24186 -0.0289472
36 1.31075 -0.0294389
37 1.37959 -0.0297924
38 1.44846 -0.030005
39 1.47052 -0.0323668
40 1.52731 -0.0302975
41 1.59584 -0.0303779
42 1.66466 -0.0304202
43 1.73356 -0.0303896
44 1.80244 -0.0302825
45 1.87127 -0.0301093
46 1.94011 -0.0298844
47 2.00895 -0.0295978
48 2.07778 -0.0292694
49 2.1466 -0.0288965
50 2.21544 -0.0284872
51 2.28428 -0.0280552
52 2.35308 -0.0276019
53 2.37356 -0.0283592
54 2.43074 -0.0271033
55 2.49916 -0.02655
56 2.56802 -0.0260195
57 2.63687 -0.0254578
58 2.7057 -0.0248901
59 2.77453 -0.0243057
60 2.84336 -0.0237176
61 2.91218 -0.0231335
62 2.98101 -0.0225417
63 3.04984 -0.021947
64 3.11867 -0.0213416
65 3.1875 -0.02074
66 3.25633 -0.0201286
67 3.27687 -0.0203171
68 3.33474 -0.0193929
69 3.4032 -0.0186463
70 3.47203 -0.0178991
71 3.54087 -0.0171547
72 3.6097 -0.0164163
73 3.67854 -0.0156613
74 3.74737 -0.0149218
75 3.81621 -0.014168
76 3.88504 -0.013423
77 3.95388 -0.01268
78 4.02271 -0.0119316
79 4.09154 -0.0111858
80 4.11113 -0.0111533
81 4.16969 -0.0103177
82 4.23826 -0.00950011
83 4.3071 -0.0086829
84 4.37594 -0.00785242
85 4.44478 -0.00702094
86 4.5136 -0.00620699
87 4.58244 -0.00539628
88 4.65126 -0.00457481
89 4.7201 -0.00375404
90 4.78894 -0.00293051
91 4.85777 -0.0021063
92 4.87774 -0.00196129
93 4.93588 -0.00111918
94 5.00434 -0.000149805
95 5.07316 0.000806992
96 5.14201 0.00176383
97 5.21086 0.00270865
98 5.2797 0.0036367
99 5.34852 0.0045377
100 5.41737 0.00543063
101 5.4862 0.00631807
102 5.55503 0.00719643
103 5.57498 0.00738334
104 5.63309 0.00824375
105 5.70154 0.00924051
106 5.77037 0.0102304
107 5.8392 0.0111878
108 5.90804 0.0121524
109 5.97687 0.0131068
110 6.0457 0.0140683
111 6.11453 0.0150283
112 6.18337 0.0159814
113 6.20321 0.0162152
114 6.26145 0.0171435
115 6.3299 0.0182774
116 6.39873 0.0193912
117 6.46757 0.0204876
118 6.53641 0.0215679
119 6.60524 0.0226356
120 6.67407 0.0236822
121 6.7429 0.024724
122 6.76239 0.0249876
123 6.82047 0.025991
124 6.88893 0.0272122
125 6.95775 0.0284326
126 7.02658 0.0296099
127 7.09539 0.0307519
128 7.16422 0.0318765
129 7.23304 0.0329872
130 7.25271 0.0332738
131 7.3109 0.0342816
132 7.37937 0.0354713
133 7.44824 0.0366443
134 7.51716 0.0377972
135 7.586 0.0389203
136 7.65483 0.0400226
137 7.67505 0.0403012
138 7.73404 0.0413493
139 7.80259 0.0426014
140 7.87141 0.0438216
141 7.94024 0.0450114
142 8.00907 0.0461863
143 8.07791 0.047341
144 8.09803 0.0476281
145 8.15651 0.0486697
146 8.22503 0.0499051
147 8.29386 0.0511174
148 8.36269 0.0523034
149 8.43147 0.0534718
150 8.45131 0.0537638
151 8.50913 0.0548313
152 8.57754 0.056109
153 8.64637 0.0573789
154 8.7152 0.0586553
155 8.73562 0.0590134
156 8.7943 0.0601741
157 8.8628 0.0615689
158 8.93163 0.0629256
159 9.00053 0.0642515
160 9.02059 0.0646003
161 9.07863 0.0657512
162 9.14706 0.0671527
163 9.21581 0.0685011
164 9.23498 0.0688433
165 9.29309 0.0700436
166 9.36162 0.0714657
167 9.43055 0.0728553
168 9.45017 0.0732129
169 9.50773 0.0744106
170 9.57608 0.0758328
171 9.64481 0.0772166
172 9.66473 0.0775764
173 9.72315 0.0788038
174 9.79165 0.0802834
175 9.81097 0.0806777
176 9.86938 0.0819988
177 9.88743 0.0824472
178 9.94465 0.0838404
179 9.96273 0.084356
180 10.0181 0.085835
181 10.0361 0.0864323
182 10.0877 0.0879192
183 10.1004 0.0884011
184 10.1522 0.0899582
185 10.1705 0.0906302
186 10.2294 0.0924348
187 10.2429 0.0929576
188 10.2969 0.094609
189 10.3144 0.0952297
190 10.365 0.0967745
191 10.3769 0.0971868
192 10.4287 0.0987227
193 10.4423 0.0991293
194 10.4917 0.100523
195 10.5074 0.100923
196 10.5619 0.102354
197 10.5788 0.102689
198 10.6319 0.103974
199 10.6497 0.104278
200 10.7014 0.105458
201 10.7164 0.105661
202 10.7689 0.106814
203 10.7846 0.10701
204 10.8359 0.108083
205 10.8524 0.108271
206 10.9056 0.109309
207 10.9225 0.10946
208 10.9753 0.110409
209 10.9925 0.110531
210 11.0461 0.111445
211 11.0625 0.11154
212 11.1141 0.112368
213 11.1299 0.112426
214 11.1822 0.113184
215 11.1977 0.113201
216 11.2495 0.113884
217 11.265 0.113907
218 11.3168 0.114617
219 11.3326 0.114694
220 11.3856 0.115442
221 11.4025 0.115529
222 11.4112 0.115697
223 11.4185 0.116186
224 11.4263 0.117387
225 11.4292 0.118507
226 11.432 0.119549
227 11.4357 0.121481
228 11.4374 0.122942
229 11.4737 0.145209
230 11.5228 0.189474
231 11.5702 0.238067
232 11.6194 0.286715
233 11.6687 0.33435
234 11.7197 0.381345
235 11.7702 0.426673
236 11.8224 0.471608
237 11.8758 0.516494
238 11.9295 0.560768
239 11.9828 0.603943
240 12.0367 0.646874
241 12.0505 0.661787
242 12.0574 0.666946
243 12.0636 0.670842
244 12.0707 0.674006
245 12.0782 0.676128
246 12.0825 0.67635
247 12.0855 0.676274
248 12.0877 0.675983
249 12.0903 0.67559
250 12.1381 0.667646
251 12.2008 0.643618
252 12.2648 0.617806
253 12.329 0.592403
254 12.3933 0.567593
255 12.4579 0.543404
256 12.5227 0.519739
257 12.5878 0.496531
258 12.6527 0.473829
259 12.7179 0.451514
260 12.783 0.429426
261 12.8483 0.407635
262 12.9139 0.386026
263 12.9794 0.364619
264 13.045 0.343328
265 13.1106 0.322189
266 13.1765 0.30119
267 13.2421 0.280375
268 13.2601 0.272091
269 13.2694 0.269331
270 13.2798 0.266804
271 13.2889 0.265205
272 13.2941 0.264778
273 13.2979 0.264795
274 13.3004 0.265024
275 13.3028 0.265306
276 13.3508 0.272556
277 13.4153 0.290504
278 13.4813 0.310056
279 13.5473 0.329468
280 13.6132 0.348571
281 13.6796 0.36746
282 13.746 0.386089
283 13.8124 0.404452
284 13.8786 0.422563
285 13.945 0.440466
286 14.0115 0.45822
287 14.0779 0.475806
288 14.1445 0.493324
289 14.211 0.510729
290 14.2775 0.528045
291 14.3442 0.545315
292 14.4109 0.562528
293 14.4775 0.57969
294 14.5442 0.596819
295 14.6109 0.613907
296 14.6776 0.630984
297 14.7443 0.648042
298 14.811 0.665092
299 14.8777 0.682106
300 14.9444 0.699098
301 15.0111 0.716063
302 15.0779 0.732998
303 15.1446 0.7499
304 15.2114 0.766793
305 15.2781 0.783661
306 15.3448 0.800537
307 15.4116 0.817398
308 15.4783 0.834261
309 15.5451 0.851108
310 15.6118 0.867953
311 15.6785 0.884784
312 15.7453 0.901628
313 15.812 0.918456
314 15.8788 0.935288
315 15.9456 0.95212
316 16.0123 0.968929
317 16.079 0.985736
318 16.1458 1.00254
319 16.2125 1.01933
320 16.2793 1.03613
321 16.2976 1.04096
322 16.3537 1.05514
323 16.4199 1.07244
324 16.4868 1.08973
325 16.5537 1.10679
326 16.6204 1.1236
327 16.6873 1.14022
328 16.7541 1.15663
329 16.8211 1.1729
330 16.8881 1.18901
331 16.9551 1.205
332 17.0221 1.22088
333 17.0893 1.23671
334 17.1563 1.25243
335 17.2234 1.26808
336 17.2905 1.28366
337 17.3575 1.29915
338 17.4246 1.31462
339 17.4916 1.33007
340 17.5587 1.3455
341 17.6258 1.36089
342 17.6929 1.37626
343 17.76 1.39162
344 17.8271 1.40696
345 17.8942 1.42227
346 17.9613 1.43758
347 18.0284 1.45287
348 18.0956 1.46814
349 18.1627 1.48341
350 18.2298 1.49866
351 18.297 1.51391
352 18.3641 1.52915
353 18.4312 1.5444
354 18.4984 1.55964
355 18.5655 1.57486
356 18.6326 1.5901
357 18.6998 1.60533
358 18.7669 1.62055
359 18.834 1.63577
360 18.9012 1.65099
361 18.9683 1.66621
362 19.0354 1.68142
363 19.1026 1.69663
364 19.1697 1.71184
365 19.2369 1.72704
366 19.304 1.74224
367 19.3711 1.75744
368 19.4383 1.77263
369 19.5054 1.78782
370 19.5726 1.803
371 19.6397 1.81818
372 19.7069 1.83336
373 19.774 1.84854
374 19.8412 1.86372
375 19.9083 1.8789
376 19.9754 1.89408
377 20.0426 1.90925
378 20.1097 1.92443
379 20.1769 1.93961
380 20.244 1.95477
381 20.3112 1.96993
382 20.3783 1.98508
383 20.4455 2.00024
384 20.5126 2.01541
385 20.5299 2.01925
386 20.5866 2.03233
387 20.6532 2.04813
388 20.7202 2.06395
389 20.7873 2.07975
390 20.8544 2.09547
391 20.9214 2.11112
392 20.9885 2.12671
393 21.0555 2.14225
394 21.1226 2.15776
395 21.1897 2.17326
396 21.218 2.17973
397 21.2346 2.18333
398 21.2473 2.18549
399 21.257 2.1865
400 21.2614 2.18649
401 21.2637 2.18645
402 21.266 2.18636
403 21.2691 2.18603
404 21.3189 2.17832
405 21.3836 2.15897
406 21.4491 2.1381
407 21.5148 2.11729
408 21.5805 2.09667
409 21.6462 2.07627
410 21.7121 2.0561
411 21.7296 2.04644
412 21.737 2.04429
413 21.7445 2.04276
414 21.7517 2.04199
415 21.7584 2.04209
416 21.7647 2.04306
417 21.7694 2.04466
418 21.7728 2.04647
419 21.7754 2.04843
420 21.7776 2.05077
421 21.7795 2.05357
422 21.7807 2.05652
423 21.7817 2.0596
424 21.7823 2.06279
425 21.7956 2.10472
426 21.7964 2.17163
427 21.7957 2.24086
428 21.7954 2.30988
429 21.7959 2.37888
430 21.7969 2.44786
431 21.7946 2.49821
432 21.7912 2.51765
433 21.7901 2.5207
434 21.7892 2.51599
435 21.7887 2.51046
436 21.7884 2.50722
437 21.79 2.51088
438 21.7916 2.51508
439 21.7933 2.51891
440 21.8171 2.56384
441 21.8504 2.62266
442 21.8848 2.68231
443 21.9194 2.74189
444 21.9541 2.80147
445 21.9887 2.86105
446 22.0234 2.92061
447 22.0581 2.98017
448 22.0927 3.03971
449 22.1273 3.09924
450 22.1371 3.11552
451 22.1414 3.12316
452 22.1451 3.13107
453 22.1476 3.13925
454 22.1485 3.1473
455 22.1478 3.15305
456 22.1466 3.15602
457 22.1459 3.15754
458 22.1453 3.15878
459 22.1439 3.16086
460 22.1172 3.19711
461 22.0637 3.23745
462 22.0076 3.2779
463 21.9518 3.31874
464 21.8964 3.36016
465 21.8416 3.40217
466 21.7872 3.4447
467 21.7334 3.48749
468 21.6798 3.53095
469 21.6266 3.5747
470 21.5735 3.61896
471 21.5207 3.66334
472 21.4681 3.70805
473 21.4158 3.75293
474 21.3638 3.79787
475 21.312 3.84301
476 21.2601 3.88843
477 21.2084 3.93398
478 21.1567 3.97966
479 21.1053 4.02532
480 21.054 4.07114
481 21.0026 4.11704
482 20.9514 4.16298
483 20.9002 4.20897
484 20.8491 4.25502
485 20.798 4.30119
486 20.7469 4.34738
487 20.6959 4.39357
488 20.6449 4.43982
489 20.594 4.48609
490 20.543 4.53242
491 20.4921 4.57874
492 20.4411 4.62508
493 20.3902 4.67144
494 20.369 4.68966
495 20.3639 4.69423
496 20.3614 4.69702
497 20.359 4.69996
498 20.357 4.70292
499 20.3551 4.70608
500 20.3534 4.70936
501 20.352 4.71287
502 20.351 4.71617
503 20.3501 4.71986
504 20.3374 4.76987
505 20.3322 4.83715
506 20.328 4.90575
507 20.3238 4.97449
508 20.3195 5.04321
509 20.315 5.11194
510 20.3103 5.18055
511 20.3055 5.24924
512 20.3005 5.31796
513 20.2954 5.38669
514 20.2978 5.40764
515 20.2969 5.41682
516 20.2956 5.42483
517 20.2937 5.43226
518 20.2913 5.43871
519 20.288 5.4444
520 20.2855 5.44721
521 20.2834 5.44902
522 20.2817 5.44999
523 20.2793 5.45099
524 20.2766 5.45109
525 20.2741 5.45068
526 20.2718 5.44998
527 20.2315 5.43902
528 20.1774 5.40248
529 20.1217 5.36089
530 20.0656 5.31975
531 20.009 5.27964
532 19.9522 5.24084
533 19.8944 5.20299
534 19.8361 5.16597
535 19.7775 5.12992
536 19.7183 5.09452
537 19.6587 5.05979
538 19.5985 5.02557
539 19.5383 4.99203
540 19.478 4.95908
541 19.4174 4.92656
542 19.3565 4.89429
543 19.2955 4.86231
544 19.2342 4.83063
545 19.1728 4.79918
546 19.1113 4.76797
547 19.0498 4.73694
548 18.9881 4.706
549 18.9265 4.67522
550 18.8648 4.64459
551 18.803 4.61404
552 18.7412 4.5836
553 18.6794 4.55324
554 18.6175 4.52296
555 18.5556 4.49274
556 18.4936 4.46257
557 18.4317 4.43251
558 18.3697 4.40253
559 18.3076 4.37259
560 18.2456 4.3427
561 18.1836 4.31283
562 18.1215 4.283
563 18.0594 4.2532
564 17.9973 4.22344
565 17.9353 4.1937
566 17.8732 4.16401
567 17.8111 4.13433
568 17.7489 4.10466
569 17.6868 4.07499
570 17.6246 4.04537
571 17.5625 4.01577
572 17.5003 3.98619
573 17.4382 3.95662
574 17.376 3.92708
575 17.3138 3.89757
576 17.2516 3.86808
577 17.1894 3.83857
578 17.1272 3.80908
579 17.065 3.7796
580 17.0028 3.75013
581 16.9406 3.72068
582 16.8784 3.69122
583 16.8622 3.68336
584 16.8539 3.67929
585 16.8462 3.67468
586 16.8431 3.67188
587 16.841 3.66969
588 16.8396 3.66762
589 16.8391 3.66627
590 16.8385 3.66414
591 16.8389 3.6626
592 16.8394 3.66068
593 16.8409 3.65879
594 16.8428 3.65755
595 16.8447 3.65682
596 16.8469 3.65661
597 16.849 3.65702
598 16.8507 3.65759
599 16.8527 3.65851
600 16.8842 3.67396
601 16.9389 3.71156
602 16.9962 3.75101
603 17.0539 3.78963
604 17.112 3.82729
605 17.1708 3.86407
606 17.23 3.89997
607 17.2894 3.93491
608 17.3493 3.96923
609 17.41 4.00311
610 17.4707 4.03632
611 17.5318 4.06895
612 17.5927 4.10104
613 17.654 4.1327
614 17.7155 4.16407
615 17.777 4.1951
616 17.8386 4.22585
617 17.9005 4.25642
618 17.9625 4.28685
619 18.0245 4.31709
620 18.0865 4.34721
621 18.1485 4.37721
622 18.2106 4.40711
623 18.2728 4.43693
624 18.3349 4.46667
625 18.3971 4.49634
626 18.4593 4.52594
627 18.5216 4.55548
628 18.5839 4.58496
629 18.6462 4.61438
630 18.7085 4.64375
631 18.7708 4.67308
632 18.8332 4.70237
633 18.8955 4.73161
634 18.9579 4.76082
635 19.0203 4.79
636 19.0827 4.81914
637 19.1451 4.84823
638 19.2075 4.8773
639 19.2699 4.90634
640 19.3323 4.93534
641 19.3948 4.96432
642 19.4572 4.99327
643 19.5197 5.02222
644 19.5822 5.05115
645 19.6447 5.08005
646 19.7072 5.10893
647 19.7697 5.13781
648 19.8322 5.16667
649 19.8947 5.19552
650 19.9572 5.22434
651 20.0197 5.25316
652 20.0822 5.28197
653 20.1447 5.31076
654 20.2073 5.33955
655 20.2698 5.36834
656 20.3323 5.39711
657 20.3949 5.42588
658 20.4574 5.45464
659 20.5199 5.48339
660 20.5825 5.51215
661 20.6451 5.54091
662 20.7076 5.56966
663 20.7702 5.5984
664 20.8328 5.62714
665 20.8953 5.65586
666 20.9579 5.68457
667 21.0205 5.71328
668 21.083 5.742
669 21.1456 5.7707
670 21.2082 5.7994
671 21.2707 5.8281
672 21.3333 5.85678
673 21.3959 5.88547
674 21.4584 5.91414
675 21.521 5.94281
676 21.5836 5.97147
677 21.6462 6.00015
678 21.7087 6.02883
679 21.7713 6.0575
680 21.8339 6.08614
681 21.8965 6.1148
682 21.9591 6.14345
683 22.0217 6.17209
684 22.0843 6.20073
685 22.1469 6.22936
686 22.2094 6.258
687 22.272 6.28664
688 22.3346 6.31529
689 22.3972 6.34392
690 22.4598 6.37254
691 22.5224 6.40116
692 22.585 6.42979
693 22.6476 6.4584
694 22.7102 6.48701
695 22.7728 6.51563
696 22.8354 6.54424
697 22.8981 6.57286
698 22.9607 6.60147
699 23.0233 6.63008
700 23.0859 6.65868
701 23.1485 6.68729
702 23.2111 6.71589
703 23.2737 6.74449
704 23.3363 6.77309
705 23.3989 6.80168
706 23.4616 6.83029
707 23.5242 6.85889
708 23.5868 6.88749
709 23.6494 6.91609
710 23.712 6.94467
711 23.7747 6.97325
712 23.8373 7.00184
713 23.8999 7.03042
714 23.9625 7.05897
715 24.0252 7.08753
716 24.0878 7.11609
717 24.1505 7.14463
718 24.2131 7.17319
719 24.2757 7.20174
720 24.3384 7.23029
721 24.401 7.25883
722 24.4637 7.28738
723 24.5263 7.31592
724 24.5889 7.34446
725 24.6516 7.373
726 24.7142 7.40155
727 24.7769 7.43009
728 24.8395 7.45863
729 24.9022 7.48717
730 24.9648 7.51571
731 25.0275 7.54425
732 25.0901 7.57279
733 25.1528 7.60133
734 25.2154 7.62986
735 25.2781 7.65839
736 25.3407 7.68692
737 25.4034 7.71545
738 25.466 7.74399
739 25.5287 7.77252
740 25.5913 7.80106
741 25.654 7.82959
742 25.7166 7.85811
743 25.7793 7.88664
744 25.8419 7.91519
745 25.9046 7.94371
746 25.9672 7.97224
747 26.0299 8.00078
748 26.0925 8.0293
749 26.1552 8.05784
750 26.2178 8.08637
751 26.2805 8.1149
752 26.3431 8.14343
753 26.4058 8.17195
754 26.4684 8.20049
755 26.5311 8.22903
756 26.5937 8.25756
757 26.6564 8.28609
758 26.719 8.31462
759 26.7817 8.34315
760 26.8443 8.37168
761 26.907 8.40022
762 26.9696 8.42875
763 27.0323 8.45728
764 27.0488 8.46476
765 27.0562 8.46807
766 27.0614 8.47009
767 27.0654 8.4714
768 27.069 8.47236
769 27.0729 8.47315
770 27.0767 8.47365
771 27.1282 8.48029
772 27.1962 8.481
773 27.2652 8.48068
774 27.334 8.48038
775 27.4029 8.48024
776 27.4718 8.48022
777 27.5406 8.48038
778 27.6094 8.48066
779 27.6783 8.48106
780 27.7472 8.48156
781 27.8161 8.48217
782 27.8849 8.48283
783 27.9537 8.48356
784 28.0224 8.48436
785 28.0912 8.48523
786 28.1601 8.48613
787 28.2289 8.48705
788 28.2976 8.488
789 28.3664 8.48897
790 28.4351 8.48997
791 28.5039 8.49097
792 28.5727 8.49199
793 28.6414 8.49303
794 28.7102 8.49407
795 28.7789 8.49512
796 28.8477 8.49618
797 28.9165 8.49724
798 28.9852 8.49832
799 29.054 8.4994
800 29.1228 8.50049
801 29.1916 8.50159
802 29.2603 8.50269
803 29.3291 8.50379
804 29.3979 8.5049
805 29.4667 8.50601
806 29.5355 8.50712
807 29.6042 8.50825
808 29.673 8.50938
809 29.7418 8.51051
810 29.8106 8.51165
811 29.8793 8.51278
812 29.9481 8.51393
813 30.0169 8.51507
814 30.0857 8.51622
815 30.1545 8.51736
816 30.2233 8.51852
817 30.2921 8.51967
818 30.3609 8.52084
819 30.4297 8.522
820 30.4985 8.52316
821 30.5673 8.52434
822 30.6361 8.52551
823 30.7048 8.52668
824 30.7736 8.52785
825 30.8424 8.52903
826 30.9112 8.53021
827 30.98 8.53139
828 31.0488 8.53259
829 31.1176 8.53378
830 31.1864 8.53499
831 31.2552 8.53619
832 31.324 8.53738
833 31.3928 8.53859
834 31.4616 8.53981
835 31.5305 8.54102
836 31.5993 8.54222
837 31.6681 8.54344
838 31.737 8.54465
839 31.8058 8.54586
840 31.8192 8.546
841 31.8206 8.54603
842 31.8206 8.54605
843 31.8196 8.54613
844 31.8169 8.54645
845 31.8181 8.5466
846 31.8212 8.54605
847 31.825 8.54492
848 31.8287 8.54344
849 31.8314 8.54204
850 31.8344 8.54044
851 31.837 8.53873
852 31.8821 8.51206
853 31.9338 8.46798
854 31.9853 8.42233
855 32.037 8.37627
856 32.0883 8.33023
857 32.1395 8.28417
858 32.1907 8.23807
859 32.2418 8.19192
860 32.2929 8.14575
861 32.344 8.09954
862 32.3554 8.0831
863 32.3612 8.07804
864 32.3665 8.07417
865 32.3719 8.07141
866 32.3774 8.06968
867 32.3827 8.06913
868 32.3869 8.06966
869 32.3878 8.07029
870 32.3884 8.07016
871 32.39 8.07081
872 32.3917 8.07254
873 32.3931 8.07478
874 32.3945 8.07733
875 32.4181 8.11277
876 32.4371 8.17676
877 32.4553 8.24364
878 32.4736 8.31042
879 32.4924 8.37696
880 32.5114 8.44318
881 32.531 8.50938
882 32.5509 8.57549
883 32.5711 8.64142
884 32.5916 8.70726
885 32.6123 8.77309
886 32.6331 8.83866
887 32.6542 8.90429
888 32.6754 8.96984
889 32.6967 9.0354
890 32.7182 9.10093
891 32.7397 9.16624
892 32.7614 9.2316
893 32.7831 9.29699
894 32.8048 9.36236
895 32.8266 9.42771
896 32.8484 9.49304
897 32.8702 9.55836
898 32.892 9.62361
899 32.9139 9.68887
900 32.9358 9.75417
901 32.9578 9.81946
902 32.9797 9.88471
903 33.0017 9.94993
904 33.0237 10.0152
905 33.0457 10.0804
906 33.0677 10.1456
907 33.0897 10.2109
908 33.1118 10.2761
909 33.1338 10.3413
910 33.1389 10.3598
911 33.1416 10.3672
912 33.1449 10.3743
913 33.1486 10.38
914 33.1515 10.3829
915 33.1545 10.3853
916 33.1582 10.387
917 33.1619 10.3877
918 33.1646 10.3874
919 33.1662 10.387
920 33.167 10.3868
921 33.1672 10.387
922 33.1691 10.386
923 33.1946 10.3586
924 33.2226 10.2987
925 33.2504 10.235
926 33.2787 10.172
927 33.3083 10.1096
928 33.3388 10.0476
929 33.3704 9.98602
930 33.4026 9.92495
931 33.4358 9.86411
932 33.4694 9.80379
933 33.5037 9.74379
934 33.5385 9.68405
935 33.5736 9.62475
936 33.6094 9.56527
937 33.6454 9.50596
938 33.6816 9.44715
939 33.718 9.38856
940 33.7545 9.33028
941 33.7912 9.27214
942 33.8281 9.21405
943 33.8652 9.15591
944 33.9025 9.09798
945 33.9398 9.04018
946 33.9771 8.98249
947 34.0147 8.9248
948 34.0523 8.86718
949 34.09 8.80951
950 34.1278 8.75192
951 34.1656 8.69438
952 34.2035 8.6368
953 34.2414 8.57936
954 34.2794 8.52184
955 34.3174 8.46445
956 34.3554 8.40707
957 34.3934 8.34974
958 34.4314 8.2924
959 34.4695 8.23505
960 34.5076 8.17773
961 34.5457 8.12039
962 34.5838 8.06305
963 34.6219 8.00572
964 34.6601 7.94841
965 34.6982 7.89112
966 34.7364 7.83382
967 34.7745 7.77651
968 34.8127 7.71922
969 34.8509 7.66195
970 34.8891 7.60467
971 34.9272 7.5474
972 34.9654 7.49015
973 35.0036 7.43288
974 35.0418 7.3756
975 35.08 7.31833
976 35.1182 7.26106
977 35.1564 7.20379
978 35.1946 7.14655
979 35.2329 7.0893
980 35.2711 7.03204
981 35.3093 6.97479
982 35.3475 6.91753
983 35.3858 6.86028
984 35.424 6.80302
985 35.4622 6.74577
986 35.5005 6.68853
987 35.5387 6.63128
988 35.577 6.57404
989 35.6152 6.5168
990 35.6535 6.45957
991 35.6917 6.40233
992 35.73 6.34511
993 35.7682 6.28788
994 35.8065 6.23065
995 35.8447 6.17342
996 35.883 6.11618
997 35.9213 6.05895
998 35.9595 6.00172
999 35.9978 5.94449
1000 36.0361 5.88728
1001 36.0743 5.83006
1002 36.1126 5.77284
1003 36.1509 5.71562
1004 36.1892 5.6584
1005 36.2275 5.60118
1006 36.2658 5.54397
1007 36.3041 5.48676
1008 36.3424 5.42956
1009 36.3807 5.37235
1010 36.419 5.31515
1011 36.4572 5.25794
1012 36.4955 5.20073
1013 36.5339 5.14354
1014 36.5436 5.1289
1015 36.5763 5.08029
1016 36.6145 5.02333
1017 36.6529 4.96621
1018 36.6913 4.90907
1019 36.7297 4.85193
1020 36.7681 4.79479
1021 36.8065 4.73766
1022 36.8449 4.68052
1023 36.8833 4.62339
1024 36.9217 4.56625
1025 36.9602 4.50912
1026 36.9986 4.452
1027 37.037 4.39487
1028 37.0754 4.33774
1029 37.1138 4.28061
1030 37.1522 4.22348
1031 37.1906 4.16635
1032 37.229 4.10924
1033 37.2674 4.05212
1034 37.3059 3.995
1035 37.3443 3.93788
1036 37.3827 3.88076
1037 37.4211 3.82364
1038 37.4596 3.76653
1039 37.4694 3.7519
1040 37.5022 3.70319
1041 37.5405 3.64626
1042 37.579 3.58916
1043 37.6174 3.53206
1044 37.6559 3.47497
1045 37.6943 3.41786
1046 37.7328 3.36075
1047 37.7427 3.34585
1048 37.7754 3.29721
1049 37.8137 3.24024
1050 37.852 3.18307
1051 37.8616 3.16874
1052 37.894 3.12057
1053 37.9032 3.10676
1054 37.9356 3.05886
1055 37.9441 3.04628
1056 37.9738 3.00283
1057 37.9793 2.99495
1058 38.0082 2.95312
1059 38.0143 2.94465
1060 38.0443 2.90173
1061 38.0512 2.89267
1062 38.0817 2.8496
1063 38.089 2.84011
1064 38.1202 2.79668
1065 38.1283 2.78645
1066 38.1603 2.7427
1067 38.1683 2.7329
1068 38.2007 2.68923
1069 38.2093 2.6789
1070 38.2394 2.63897
1071 38.2461 2.63131
1072 38.2752 2.59295
1073 38.2844 2.58192
1074 38.3189 2.53669
1075 38.3278 2.5261
1076 38.3601 2.4837
1077 38.3712 2.46997
1078 38.4025 2.42888
1079 38.4109 2.41841
1080 38.4421 2.37723
1081 38.4509 2.36602
1082 38.481 2.32621
1083 38.4903 2.31406
1084 38.5224 2.27126
1085 38.532 2.25847
1086 38.5632 2.21653
1087 38.574 2.20183
1088 38.6059 2.15867
1089 38.6151 2.1459
1090 38.6467 2.10278
1091 38.6566 2.08886
1092 38.662 2.08136
1093 38.6663 2.07463
1094 38.6695 2.06838
1095 38.6709 2.06432
1096 38.6715 2.06154
1097 38.6724 2.05703
1098 38.6723 2.05352
1099 38.672 2.05382
1100 38.6724 2.0528
1101 38.676 2.00438
1102 38.6717 1.93594
1103 38.6633 1.91459
1104 38.6629 1.90459
1105 38.6629 1.8954
1106 38.6639 1.88706
1107 38.6663 1.87816
1108 38.669 1.87278
1109 38.6703 1.87124
1110 38.6708 1.87063
1111 38.6735 1.86749
1112 38.7074 1.83436
1113 38.7601 1.79895
1114 38.8185 1.76155
1115 38.8761 1.72459
1116 38.9326 1.68582
1117 38.989 1.64502
1118 39.0443 1.60318
1119 39.0986 1.56028
1120 39.1517 1.51692
1121 39.204 1.47294
1122 39.2562 1.42809
1123 39.3081 1.38293
1124 39.3597 1.33754
1125 39.4113 1.29181
1126 39.4626 1.24591
1127 39.514 1.19972
1128 39.565 1.15353
1129 39.616 1.10712
1130 39.6669 1.0606
1131 39.7177 1.01398
1132 39.7683 0.967336
1133 39.8189 0.920584
1134 39.8694 0.873851
1135 39.9199 0.827006
1136 39.9703 0.7801
1137 40.0207 0.733184
1138 40.071 0.68623
1139 40.1213 0.639235
1140 40.135 0.627386
1141 40.1407 0.622186
1142 40.1451 0.61867
1143 40.1495 0.615859
1144 40.1535 0.613978
1145 40.1573 0.612674
1146 40.1612 0.611739
1147 40.1644 0.61133
1148 40.1648 0.611491
1149 40.1646 0.611109
1150 40.1646 0.610797
1151 40.1641 0.610563
1152 40.1619 0.610307
1153 40.1594 0.609509
1154 40.1573 0.608539
1155 40.1559 0.607464
1156 40.1554 0.606563
1157 40.1573 0.607236
1158 40.159 0.609606
1159 40.1602 0.612314
1160 40.1606 0.615318
1161 40.1602 0.617979
1162 40.1596 0.620387
1163 40.1587 0.622482
1164 40.1507 0.657375
1165 40.1198 0.715541
1166 40.0864 0.776737
1167 40.054 0.83825
1168 40.0228 0.900222
1169 39.9926 0.962661
1170 39.9634 1.02536
1171 39.9353 1.08828
1172 39.908 1.15171
1173 39.8813 1.21543
1174 39.8552 1.27932
1175 39.8298 1.34327
1176 39.8047 1.40771
1177 39.7799 1.4723
1178 39.7556 1.53706
1179 39.7315 1.60185
1180 39.7077 1.6666
1181 39.6843 1.73114
1182 39.661 1.79597
1183 39.6379 1.8608
1184 39.6149 1.92574
1185 39.592 1.99073
1186 39.5693 2.05575
1187 39.5466 2.12083
1188 39.524 2.18592
1189 39.5014 2.25105
1190 39.4789 2.31625
1191 39.4565 2.38143
1192 39.4342 2.44657
1193 39.4118 2.51171
1194 39.3896 2.57686
1195 39.3673 2.64202
1196 39.3451 2.70713
1197 39.3228 2.77227
1198 39.3006 2.83744
1199 39.2784 2.90261
1200 39.2562 2.96779
1201 39.234 3.03295
1202 39.2119 3.09811
1203 39.1897 3.1633
1204 39.1675 3.22851
1205 39.1454 3.2937
1206 39.1232 3.35889
1207 39.1011 3.42408
1208 39.079 3.48927
1209 39.0569 3.55446
1210 39.0475 3.58122
1211 39.0435 3.59202
1212 39.041 3.59781
1213 39.0395 3.60058
1214 39.038 3.60338
1215 39.0363 3.60593
1216 39.0344 3.60849
1217 39.0026 3.64992
1218 38.9549 3.69771
1219 38.9054 3.74547
1220 38.8556 3.79303
1221 38.8056 3.84052
1222 38.7557 3.88774
1223 38.7057 3.93499
1224 38.6555 3.98222
1225 38.6053 4.02941
1226 38.5903 4.03852
1227 38.5846 4.04394
1228 38.5789 4.04852
1229 38.5732 4.05184
1230 38.5672 4.05403
1231 38.5613 4.05488
1232 38.5565 4.05435
1233 38.5555 4.05348
1234 38.5558 4.05416
1235 38.555 4.05458
1236 38.5533 4.05338
1237 38.5518 4.05135
1238 38.5246 4.02167
1239 38.4965 3.9608
1240 38.4686 3.8973
1241 38.4404 3.83388
1242 38.4119 3.77087
1243 38.3829 3.7081
1244 38.3534 3.64543
1245 38.3237 3.58299
1246 38.2936 3.52078
1247 38.2631 3.4587
1248 38.2324 3.39677
1249 38.2015 3.33495
1250 38.1705 3.27336
1251 38.1392 3.21187
1252 38.1079 3.15055
1253 38.0764 3.08924
1254 38.0449 3.02801
1255 38.0132 2.96677
1256 37.9814 2.90569
1257 37.9495 2.84456
1258 37.9176 2.78344
1259 37.8855 2.72236
1260 37.8535 2.66145
1261 37.8214 2.60051
1262 37.7892 2.53961
1263 37.7571 2.47876
1264 37.7248 2.41792
1265 37.6926 2.35707
1266 37.6603 2.2963
1267 37.628 2.23549
1268 37.5956 2.1747
1269 37.5632 2.11394
1270 37.5308 2.05318
1271 37.4984 1.99244
1272 37.466 1.93172
1273 37.4336 1.871
1274 37.4011 1.81029
1275 37.3687 1.7496
1276 37.3362 1.68893
1277 37.3037 1.62823
1278 37.2712 1.56757
1279 37.2387 1.50688
1280 37.2062 1.44623
1281 37.1737 1.38557
1282 37.1412 1.32488
1283 37.1087 1.26421
1284 37.0762 1.20353
1285 37.0436 1.14287
1286 37.0111 1.08222
1287 36.9785 1.02155
1288 36.946 0.96086
1289 36.9134 0.900201
1290 36.8808 0.839546
1291 36.8483 0.778891
1292 36.8157 0.718241
1293 36.8073 0.70201
1294 36.8034 0.694567
1295 36.8001 0.687179
1296 36.798 0.67965
1297 36.7972 0.672332
1298 36.7978 0.665743
1299 36.7988 0.664542
1300 36.7979 0.664993
1301 36.7973 0.664209
1302 36.7981 0.662767
1303 36.7995 0.661445
1304 36.8016 0.659792
1305 36.836 0.634063
1306 36.8986 0.6109
1307 36.9639 0.588163
1308 37.029 0.565222
1309 37.0941 0.541804
1310 37.159 0.518159
1311 37.2239 0.493996
1312 37.2886 0.469573
1313 37.353 0.444991
1314 37.4172 0.420094
1315 37.4813 0.394998
1316 37.5453 0.369715
1317 37.6095 0.344167
1318 37.6736 0.31848
1319 37.7377 0.292702
1320 37.8016 0.266841
1321 37.8655 0.240911
1322 37.9293 0.21487
1323 37.9929 0.18881
1324 38.0566 0.162642
1325 38.1203 0.136396
1326 38.1839 0.110118
1327 38.2475 0.0837992
1328 38.311 0.0574205
1329 38.3745 0.0309863
1330 38.438 0.00448778
1331 38.5016 -0.0220459
1332 38.5651 -0.0486256
1333 38.6286 -0.0752231
1334 38.692 -0.101853
1335 38.7554 -0.128505
1336 38.8189 -0.155189
1337 38.8823 -0.181905
1338 38.9458 -0.208656
1339 39.0092 -0.235406
1340 39.0726 -0.262185
1341 39.136 -0.288972
1342 39.1994 -0.315771
1343 39.2628 -0.342605
1344 39.3262 -0.369439
1345 39.3896 -0.396281
1346 39.4529 -0.42312
1347 39.5163 -0.449995
1348 39.5797 -0.476871
1349 39.6431 -0.503755
1350 39.7064 -0.530637
1351 39.7698 -0.557538
1352 39.7875 -0.564547
1353 39.7951 -0.567705
1354 39.8024 -0.570209
1355 39.8098 -0.571799
1356 39.8169 -0.572311
1357 39.823 -0.571759
1358 39.8279 -0.570425
1359 39.8295 -0.569354
1360 39.8318 -0.568451
1361 39.8342 -0.566303
1362 39.836 -0.563685
1363 39.8375 -0.560797
1364 39.8384 -0.557893
1365 39.8392 -0.554887
1366 39.8529 -0.515186
1367 39.8554 -0.448353
1368 39.8568 -0.379131
1369 39.8586 -0.309931
1370 39.8611 -0.240878
1371 39.8642 -0.171815
1372 39.8678 -0.102745
1373 39.872 -0.0337646
1374 39.8766 0.0351445
1375 39.8815 0.103789
1376 39.8868 0.172417
1377 39.8924 0.241121
1378 39.8982 0.309851
1379 39.9042 0.378391
1380 39.9104 0.446968
1381 39.9167 0.515652
1382 39.9232 0.584216
1383 39.9298 0.652877
1384 39.9365 0.721531
1385 39.9433 0.790089
1386 39.9501 0.858622
1387 39.957 0.927154
1388 39.9639 0.995627
1389 39.9709 1.06414
1390 39.9779 1.13265
1391 39.9849 1.2012
1392 39.992 1.26976
1393 39.9991 1.33824
1394 40.0062 1.40672
1395 40.0133 1.4752
1396 40.0204 1.54368
1397 40.0276 1.61217
1398 40.0347 1.68066
1399 40.0419 1.74914
1400 40.049 1.81762
1401 40.0562 1.88609
1402 40.0633 1.95457
1403 40.0705 2.02304
1404 40.0777 2.09151
1405 40.0848 2.15998
1406 40.092 2.22843
1407 40.0992 2.29689
1408 40.1064 2.36535
1409 40.1136 2.43382
1410 40.1208 2.50228
1411 40.1279 2.57075
1412 40.1351 2.63923
1413 40.1424 2.7077
1414 40.1496 2.77616
1415 40.1568 2.84462
1416 40.164 2.91309
1417 40.1712 2.98155
1418 40.1784 3.05003
1419 40.1856 3.11849
1420 40.1928 3.18695
1421 40.2001 3.25543
1422 40.2073 3.32389
1423 40.2145 3.39235
1424 40.2217 3.46082
1425 40.229 3.52928
1426 40.2362 3.59773
1427 40.2435 3.66619
1428 40.2507 3.73467
1429 40.2579 3.80312
1430 40.2652 3.87159
1431 40.2724 3.94004
1432 40.2743 3.95918
1433 40.2754 3.96774
1434 40.2769 3.97578
1435 40.2792 3.98383
1436 40.2825 3.99139
1437 40.2864 3.99718
1438 40.2894 4.00003
1439 40.2921 4.00232
1440 40.2952 4.00401
1441 40.2984 4.00504
1442 40.3015 4.00549
1443 40.3044 4.00563
1444 40.3461 4.01044
1445 40.4109 3.99796
1446 40.4784 3.98292
1447 40.5459 3.96852
1448 40.6136 3.95498
1449 40.6814 3.94232
1450 40.7494 3.93046
1451 40.8177 3.91929
1452 40.8418 3.90827
1453 40.8517 3.90717
1454 40.8615 3.90655
1455 40.8711 3.90668
1456 40.8799 3.90764
1457 40.8879 3.9095
1458 40.8952 3.91232
1459 40.9021 3.91632
1460 40.9051 3.91919
1461 40.907 3.92145
1462 40.908 3.92358
1463 40.9087 3.92613
1464 40.9087 3.92866
1465 40.9082 3.93105
1466 40.9074 3.93283
1467 40.8966 3.97016
1468 40.8601 4.02454
1469 40.8195 4.08096
1470 40.7795 4.13834
1471 40.7409 4.19601
1472 40.7039 4.25389
1473 40.6681 4.31251
1474 40.6332 4.37217
1475 40.5991 4.43257
1476 40.5658 4.49335
1477 40.5335 4.55401
1478 40.5021 4.61484
1479 40.4711 4.67637
1480 40.4406 4.73824
1481 40.4107 4.80004
1482 40.3811 4.86235
1483 40.3518 4.9249
1484 40.3229 4.9877
1485 40.2943 5.05053
1486 40.2659 5.11337
1487 40.2377 5.17644
1488 40.2098 5.23944
1489 40.182 5.30258
1490 40.1543 5.36568
1491 40.1267 5.42885
1492 40.0993 5.49196
1493 40.0719 5.55518
1494 40.0447 5.61849
1495 40.0175 5.68176
1496 39.9904 5.74505
1497 39.9634 5.80839
1498 39.9364 5.87172
1499 39.9094 5.93512
1500 39.8824 5.99851
1501 39.8555 6.06186
1502 39.8286 6.12523
1503 39.8018 6.18862
1504 39.775 6.25201
1505 39.7481 6.31542
1506 39.7213 6.37883
1507 39.6945 6.44224
1508 39.6678 6.50566
1509 39.641 6.56909
1510 39.6142 6.63252
1511 39.5875 6.69593
1512 39.5607 6.75936
1513 39.534 6.82278
1514 39.5073 6.88621
1515 39.4805 6.94965
1516 39.4538 7.0131
1517 39.4271 7.07655
1518 39.4004 7.14
1519 39.3929 7.15729
1520 39.3899 7.16453
1521 39.3873 7.17245
1522 39.3856 7.18109
1523 39.3852 7.1901
1524 39.3866 7.19928
1525 39.3882 7.20056
1526 39.3883 7.20233
1527 39.3902 7.20497
1528 39.3932 7.20713
1529 39.3965 7.20836
1530 39.4001 7.20872
1531 39.4032 7.20797
1532 39.4054 7.20688
1533 39.4068 7.20588
1534 39.4083 7.20461
1535 39.4319 7.1814
1536 39.466 7.12513
1537 39.5004 7.0645
1538 39.5355 7.00479
1539 39.5716 6.94587
1540 39.6089 6.88772
1541 39.6474 6.83002
1542 39.6868 6.77296
1543 39.727 6.71663
1544 39.7678 6.66089
1545 39.8093 6.60554
1546 39.8514 6.55068
1547 39.894 6.49627
1548 39.9369 6.44223
1549 39.9803 6.38852
1550 40.0239 6.33514
1551 40.0679 6.28184
1552 40.1121 6.22886
1553 40.1566 6.17602
1554 40.2013 6.12342
1555 40.246 6.07107
1556 40.291 6.01875
1557 40.336 5.96671
1558 40.3811 5.91479
1559 40.4264 5.8629
1560 40.4718 5.81104
1561 40.5172 5.75934
1562 40.5627 5.70771
1563 40.6083 5.65614
1564 40.6539 5.60462
1565 40.6996 5.55309
1566 40.7453 5.50162
1567 40.7911 5.45017
1568 40.8369 5.39877
1569 40.8827 5.3474
1570 40.9286 5.29604
1571 40.9744 5.24472
1572 41.0203 5.19341
1573 41.0663 5.14212
1574 41.1122 5.09084
1575 41.1581 5.03957
1576 41.2041 4.98832
1577 41.2501 4.93708
1578 41.2961 4.88585
1579 41.3421 4.83463
1580 41.388 4.78341
1581 41.434 4.7322
1582 41.48 4.68099
1583 41.5261 4.62979
1584 41.5721 4.57859
1585 41.6181 4.5274
1586 41.6641 4.47621
1587 41.7101 4.42502
1588 41.7562 4.37383
1589 41.8022 4.32265
1590 41.8482 4.27147
1591 41.8943 4.22029
1592 41.9403 4.16913
1593 41.9864 4.11795
1594 42.0324 4.06678
1595 42.0784 4.01561
1596 42.1245 3.96444
1597 42.1705 3.91327
1598 42.2166 3.86211
1599 42.2627 3.81096
1600 42.3087 3.7598
1601 42.3548 3.70866
1602 42.4009 3.6575
1603 42.4469 3.60635
1604 42.493 3.5552
1605 42.5391 3.50405
1606 42.5851 3.4529
1607 42.6312 3.40175
1608 42.6773 3.35061
1609 42.6891 3.33739
1610 42.6937 3.33237
1611 42.6985 3.32791
1612 42.7034 3.32455
1613 42.7083 3.32231
1614 42.7129 3.32121
1615 42.717 3.32114
1616 42.7201 3.32179
1617 42.722 3.32252
1618 42.7233 3.32305
1619 42.7253 3.32398
1620 42.7591 3.34728
1621 42.7986 3.40022
1622 42.8383 3.45689
1623 42.8786 3.51291
1624 42.9198 3.56823
1625 42.9618 3.62295
1626 43.0042 3.67672
1627 43.0477 3.73007
1628 43.0917 3.78303
1629 43.1365 3.83577
1630 43.1816 3.88798
1631 43.2269 3.93963
1632 43.2729 3.99112
1633 43.3191 4.04236
1634 43.3654 4.09315
1635 43.3775 4.11245
1636 43.383 4.11804
1637 43.3889 4.12299
1638 43.3953 4.12686
1639 43.4029 4.12968
1640 43.4113 4.13092
1641 43.4165 4.13015
1642 43.4194 4.12919
1643 43.421 4.12837
1644 43.4224 4.12767
1645 43.4245 4.12618
1646 43.459 4.09853
1647 43.4982 4.04412
1648 43.5378 3.98718
1649 43.578 3.93103
1650 43.619 3.87575
1651 43.661 3.82102
1652 43.7038 3.76691
1653 43.7472 3.71342
1654 43.7912 3.66047
1655 43.8358 3.60794
1656 43.8811 3.55562
1657 43.9267 3.50377
1658 43.9729 3.45215
1659 44.0191 3.40093
1660 44.0656 3.35005
1661 44.1124 3.29941
1662 44.1594 3.24899
1663 44.2065 3.19884
1664 44.2537 3.14888
1665 44.3013 3.09893
1666 44.349 3.0491
1667 44.3967 2.99947
1668 44.4445 2.94997
1669 44.4924 2.90055
1670 44.5404 2.85115
1671 44.5885 2.80184
1672 44.6366 2.75257
1673 44.6848 2.70336
1674 44.733 2.65421
1675 44.7812 2.60511
1676 44.8295 2.55607
1677 44.8779 2.50701
1678 44.9263 2.45803
1679 44.9747 2.40904
1680 45.0231 2.36009
1681 45.0715 2.31116
1682 45.12 2.26223
1683 45.1685 2.2133
1684 45.217 2.16443
1685 45.2654 2.11558
1686 45.3139 2.06673
1687 45.3625 2.01788
1688 45.411 1.96906
1689 45.4595 1.92024
1690 45.5081 1.87144
1691 45.5566 1.82264
1692 45.6052 1.77384
1693 45.6537 1.72504
1694 45.7023 1.67626
1695 45.7509 1.62748
1696 45.7995 1.57871
1697 45.848 1.52995
1698 45.8966 1.48118
1699 45.9452 1.43242
1700 45.9938 1.38366
1701 46.0424 1.33489
1702 46.091 1.28613
1703 46.1396 1.2374
1704 46.1883 1.18865
1705 46.2369 1.13991
1706 46.2855 1.09118
1707 46.3341 1.04244
1708 46.3827 0.993712
1709 46.4313 0.944969
1710 46.48 0.896243
1711 46.5286 0.847519
1712 46.5772 0.798805
1713 46.6259 0.750087
1714 46.6745 0.701376
1715 46.7232 0.652659
1716 46.7718 0.603961
1717 46.8204 0.555255
1718 46.8691 0.506541
1719 46.9177 0.457824
1720 46.9664 0.40912
1721 47.015 0.360411
1722 47.0637 0.311715
1723 47.1124 0.263021
1724 47.161 0.214317
1725 47.2097 0.165633
1726 47.2583 0.116944
1727 47.307 0.0682432
1728 47.3556 0.019557
1729 47.4043 -0.0291254
1730 47.453 -0.0778175
1731 47.5016 -0.126509
1732 47.5503 -0.175184
1733 47.5989 -0.223866
1734 47.6476 -0.272546
1735 47.6963 -0.32122
1736 47.745 -0.369886
1737 47.7936 -0.41855
1738 47.8423 -0.467185
1739 47.8909 -0.515857
1740 47.9396 -0.564525
1741 47.9883 -0.613193
1742 48.037 -0.661859
1743 48.0857 -0.710518
1744 48.1344 -0.759179
1745 48.1831 -0.80783
1746 48.2318 -0.856487
1747 48.2805 -0.905141
1748 48.3292 -0.95379
1749 48.378 -1.00243
1750 48.4267 -1.05108
1751 48.4754 -1.09972
1752 48.5241 -1.14836
1753 48.5728 -1.197
1754 48.6215 -1.24564
1755 48.6703 -1.29428
1756 48.719 -1.34291
1757 48.7677 -1.39154
1758 48.8164 -1.44018
1759 48.8651 -1.48882
1760 48.9139 -1.53745
1761 48.9626 -1.58608
1762 49.0113 -1.63473
1763 49.0601 -1.68336
1764 49.1088 -1.73199
1765 49.1575 -1.78061
1766 49.2063 -1.82923
1767 49.255 -1.87786
1768 49.3037 -1.92648
1769 49.3524 -1.97512
1770 49.4011 -2.02376
1771 49.4499 -2.0724
1772 49.4986 -2.12104
1773 49.5473 -2.16966
1774 49.5961 -2.21829
1775 49.6448 -2.26692
1776 49.6935 -2.31555
1777 49.7423 -2.36419
1778 49.791 -2.41282
1779 49.8397 -2.46145
1780 49.8885 -2.51008
1781 49.9372 -2.55871
1782 49.9859 -2.60734
1783 50.0347 -2.65597
1784 50.0834 -2.70461
1785 50.1321 -2.75325
1786 50.1808 -2.80187
1787 50.2296 -2.85049
1788 50.2783 -2.8991
1789 50.327 -2.94774
1790 50.3758 -2.99637
1791 50.4245 -3.045
1792 50.4732 -3.09361
1793 50.5219 -3.14223
1794 50.5707 -3.19087
1795 50.6194 -3.23951
1796 50.6681 -3.28814
1797 50.7169 -3.33677
1798 50.7656 -3.38539
1799 50.8143 -3.43402
1800 50.8631 -3.48264
1801 50.9118 -3.53127
1802 50.9605 -3.5799
1803 51.0093 -3.62852
1804 51.058 -3.67715
1805 51.1067 -3.72578
1806 51.1555 -3.77441
1807 51.2042 -3.82303
1808 51.2529 -3.87165
1809 51.3017 -3.92028
1810 51.3504 -3.9689
1811 51.3991 -4.01752
1812 51.4478 -4.06614
1813 51.4966 -4.11476
1814 51.5453 -4.16339
1815 51.594 -4.21202
1816 51.6427 -4.26065
1817 51.6915 -4.30927
1818 51.7402 -4.35789
1819 51.789 -4.40653
1820 51.8377 -4.45516
1821 51.8864 -4.50379
1822 51.9352 -4.55242
1823 51.9839 -4.60105
1824 52.0326 -4.64969
1825 52.0814 -4.69832
1826 52.1301 -4.74693
1827 52.1788 -4.79556
1828 52.2275 -4.84419
1829 52.2763 -4.89283
1830 52.325 -4.94146
1831 52.3737 -4.99009
1832 52.4225 -5.03871
1833 52.4712 -5.08734
1834 52.5199 -5.13596
1835 52.5686 -5.18458
1836 52.6173 -5.23321
1837 52.6661 -5.28183
1838 52.7148 -5.33046
1839 52.7635 -5.37909
1840 52.8123 -5.42771
1841 52.861 -5.47635
1842 52.9097 -5.52498
1843 52.9585 -5.57361
1844 53.0072 -5.62222
1845 53.0559 -5.67085
1846 53.1047 -5.71948
1847 53.1534 -5.76808
1848 53.2021 -5.81671
1849 53.2508 -5.86534
1850 53.2995 -5.91397
1851 53.3483 -5.96258
1852 53.397 -6.01121
1853 53.4457 -6.05984
1854 53.4581 -6.07224
1855 53.463 -6.07703
1856 53.4685 -6.08167
1857 53.4741 -6.08511
1858 53.4798 -6.08735
1859 53.4854 -6.08839
1860 53.4903 -6.08816
1861 53.4914 -6.08742
1862 53.4921 -6.08784
1863 53.4942 -6.08711
1864 53.4956 -6.08528
1865 53.4962 -6.08404
1866 53.4967 -6.08237
1867 53.4963 -6.08046
1868 53.496 -6.07959
1869 53.4959 -6.07919
1870 53.479 -6.05481
1871 53.4312 -6.01151
1872 53.3778 -5.96626
1873 53.3259 -5.9201
1874 53.2752 -5.87266
1875 53.2256 -5.82388
1876 53.1775 -5.77411
1877 53.1306 -5.72349
1878 53.0847 -5.67194
1879 53.0399 -5.61977
1880 52.996 -5.56697
1881 52.9528 -5.51334
1882 52.9101 -5.45903
1883 52.868 -5.40407
1884 52.8267 -5.34889
1885 52.786 -5.29332
1886 52.7457 -5.23723
1887 52.7058 -5.18087
1888 52.6664 -5.12436
1889 52.6272 -5.06753
1890 52.5883 -5.01056
1891 52.5498 -4.95347
1892 52.5114 -4.89614
1893 52.4732 -4.83877
1894 52.4352 -4.78119
1895 52.3973 -4.7235
1896 52.3596 -4.66576
1897 52.322 -4.60803
1898 52.2845 -4.55026
1899 52.2471 -4.49243
1900 52.2097 -4.43453
1901 52.1724 -4.37665
1902 52.1352 -4.3187
1903 52.098 -4.26074
1904 52.0608 -4.20266
1905 52.0238 -4.1446
1906 51.9867 -4.08649
1907 51.9498 -4.02841
1908 51.9128 -3.97033
1909 51.8759 -3.91222
1910 51.839 -3.85402
1911 51.8021 -3.79583
1912 51.7652 -3.73768
1913 51.7284 -3.67952
1914 51.6915 -3.62133
1915 51.6547 -3.56315
1916 51.6179 -3.50498
1917 51.5812 -3.44679
1918 51.5444 -3.38861
1919 51.5076 -3.33042
1920 51.4708 -3.27222
1921 51.4341 -3.21403
1922 51.3973 -3.15584
1923 51.3606 -3.09762
1924 51.3238 -3.03942
1925 51.2871 -2.98121
1926 51.2504 -2.923
1927 51.2136 -2.86478
1928 51.1769 -2.80656
1929 51.1402 -2.74834
1930 51.1035 -2.69012
1931 51.0668 -2.63189
1932 51.0301 -2.57366
1933 50.9934 -2.51542
1934 50.9567 -2.45718
1935 50.92 -2.39894
1936 50.8833 -2.34069
1937 50.8466 -2.28243
1938 50.8099 -2.22417
1939 50.7732 -2.16594
1940 50.7365 -2.10769
1941 50.6998 -2.04944
1942 50.6632 -1.9912
1943 50.6265 -1.93294
1944 50.5898 -1.87469
1945 50.5532 -1.81644
1946 50.5165 -1.75818
1947 50.4799 -1.69991
1948 50.4432 -1.64165
1949 50.4065 -1.58339
1950 50.3699 -1.52512
1951 50.3332 -1.46686
1952 50.2966 -1.40857
1953 50.2599 -1.3503
1954 50.2233 -1.29202
1955 50.1867 -1.23375
1956 50.15 -1.17547
1957 50.1134 -1.11718
1958 50.0767 -1.05891
1959 50.0401 -1.00064
1960 50.0306 -0.985443
1961 50.0281 -0.981289
1962 50.0262 -0.977933
1963 50.0246 -0.974669
1964 50.023 -0.971075
1965 50.0217 -0.967564
1966 50.0037 -0.916541
1967 49.9876 -0.850543
1968 49.972 -0.783307
1969 49.9568 -0.716107
1970 49.9415 -0.648969
1971 49.9263 -0.581833
1972 49.9111 -0.514716
1973 49.8958 -0.447584
1974 49.8805 -0.380458
1975 49.8652 -0.313332
1976 49.8499 -0.246208
1977 49.8346 -0.179087
1978 49.8193 -0.11197
1979 49.804 -0.0448634
1980 49.7887 0.0222536
1981 49.7734 0.0893751
1982 49.758 0.156489
1983 49.7427 0.223605
1984 49.7274 0.29071
1985 49.7246 0.30925
1986 49.7226 0.318208
1987 49.7212 0.326669
1988 49.7206 0.335317
1989 49.7212 0.344447
1990 49.7227 0.348271
1991 49.7229 0.348847
1992 49.723 0.350256
1993 49.7244 0.352979
1994 49.7268 0.355931
1995 49.7291 0.358199
1996 49.7296 0.358319
1997 49.7291 0.358456
1998 49.7286 0.358305
1999 49.7283 0.358669
2000 49.7284 0.359005
2001 49.7285 0.359375
2002 49.7288 0.359669
2003 49.7292 0.359884
2004 49.7312 0.359688
2005 49.7333 0.35814
2006 49.7355 0.356056
2007 49.7375 0.353333
2008 49.7392 0.350388
2009 49.7616 0.31951
2010 49.7864 0.257204
2011 49.8109 0.192211
2012 49.8356 0.127243
2013 49.8605 0.0625074
2014 49.8858 -0.00200654
2015 49.8914 -0.031625
2016 49.8919 -0.0344174
2017 49.8919 -0.0340693
2018 49.8919 -0.0337564
2019 49.8919 -0.0334686
2020 49.8919 -0.0332223
2021 49.8919 -0.0330125
2022 49.8919 -0.032825
2023 49.892 -0.0326542
2024 49.892 -0.0324985
2025 49.892 -0.0323661
2026 49.892 -0.0322598
2027 49.892 -0.0321692
2028 49.892 -0.0320781
2029 49.892 -0.0319992
2030 49.892 -0.0319323
2031 49.892 -0.0318775
2032 49.892 -0.0318237
2033 49.892 -0.0317759
2034 49.892 -0.0317375
2035 49.892 -0.0317102
2036 49.892 -0.0316967
2037 49.892 -0.0316788
2038 49.892 -0.0316503
2039 49.892 -0.0316335
2040 49.892 -0.0316144
2041 49.8921 -0.0316143
2042 49.8921 -0.0316032
2043 49.8921 -0.031587
2044 49.8921 -0.0315781
2045 49.8921 -0.0315792
2046 49.8921 -0.0315742
2047 49.8921 -0.0315692
2048 49.8921 -0.0315782
2049 49.8921 -0.0315773
2050 49.8921 -0.0315767
2051 49.8921 -0.0315671
2052 49.8921 -0.0315611
2053 49.8921 -0.0315646
2054 49.8921 -0.0315588
2055 49.8921 -0.0315622
2056 49.8921 -0.0315723
2057 49.8921 -0.0315725
2058 49.8921 -0.0315834
2059 49.8921 -0.0315997
2060 49.8921 -0.0316042
2061 49.8921 -0.0316092
2062 49.8921 -0.0316116
2063 49.8921 -0.0316112
2064 49.8921 -0.0316247
2065 49.8921 -0.0316301
2066 49.8921 -0.0316454
2067 49.8921 -0.0316477
2068 49.8921 -0.0316582
2069 49.8921 -0.0316658
2070 49.8921 -0.0316592
2071 49.8921 -0.0316529
2072 49.8921 -0.0316623
2073 49.8921 -0.0316598
2074 49.8921 -0.0316514
2075 49.8921 -0.0316539
2076 49.8921 -0.0316528
2077 49.8921 -0.0316606
2078 49.8921 -0.0316604
2079 49.8921 -0.0316622
2080 49.8921 -0.0316625
2081 49.8921 -0.0316792
2082 49.8921 -0.0316844
2083 49.8921 -0.0316817
2084 49.8921 -0.0316819
2085 49.8921 -0.0316754
2086 49.8921 -0.0316804
2087 49.8921 -0.031698
2088 49.8921 -0.0316862
2089 49.8921 -0.0316946
2090 49.8921 -0.0316966
2091 49.8921 -0.0317043
2092 49.8921 -0.0317092
2093 49.8922 -0.0317174
2094 49.8922 -0.031719
2095 49.8922 -0.0317222
2096 49.8922 -0.031728
2097 49.8922 -0.0317306
2098 49.8922 -0.031744
2099 49.8922 -0.0317501
2100 49.8922 -0.031757
2101 49.8922 -0.0317549
2102 49.8922 -0.0317691
2103 49.8922 -0.0317664
2104 49.8922 -0.0317812
2105 49.8922 -0.0317798
2106 49.8922 -0.0317879
2107 49.8922 -0.0317786
2108 49.8922 -0.0317748
2109 49.8922 -0.0317746
2110 49.8922 -0.0317805
2111 49.8922 -0.0317835
2112 49.8922 -0.0317825
2113 49.8922 -0.0317868
2114 49.8922 -0.0317893
2115 49.8922 -0.0317905
2116 49.8922 -0.0317828
2117 49.8922 -0.0317835
2118 49.8922 -0.0317932
2119 49.8922 -0.0317943
2120 49.8922 -0.0317922
2121 49.8922 -0.0318009
2122 49.8922 -0.0318047
2123 49.8922 -0.0317992
2124 49.8922 -0.0317954
2125 49.8922 -0.0318052
2126 49.8922 -0.0317984
2127 49.8922 -0.0318014
2128 49.8922 -0.0317963
2129 49.8922 -0.0318005
2130 49.8922 -0.031804
2131 49.8922 -0.0318104
2132 49.8922 -0.031813
2133 49.8922 -0.0318217
2134 49.8922 -0.0318301
2135 49.8922 -0.0318305
2136 49.8922 -0.0318485
2137 49.8922 -0.0318482
2138 49.8922 -0.0318422
2139 49.8922 -0.0318382
2140 49.8922 -0.031836
2141 49.8922 -0.0318283
2142 49.8922 -0.0318315
2143 49.8922 -0.0318365
2144 49.8922 -0.0318406
2145 49.8922 -0.0318467
2146 49.8922 -0.0318418
2147 49.8922 -0.0318365
2148 49.8922 -0.0318418
2149 49.8922 -0.0318449
2150 49.8922 -0.0318406
2151 49.8922 -0.0318382
2152 49.8922 -0.0318399
2153 49.8922 -0.0318477
2154 49.8922 -0.0318663
2155 49.8922 -0.0318824
2156 49.8922 -0.0318726
2157 49.8922 -0.0318772
2158 49.8922 -0.0318766
2159 49.8922 -0.0318965
2160 49.8922 -0.0318993
2161 49.8922 -0.0318944
2162 49.8922 -0.0318964
2163 49.8922 -0.0319067
2164 49.8922 -0.0319091
2165 49.8922 -0.0319114
2166 49.8922 -0.0319275
2167 49.8922 -0.0319376
2168 49.8922 -0.0319427
2169 49.8922 -0.0319374
2170 49.8922 -0.0319359
2171 49.8922 -0.0319315
2172 49.8922 -0.0319347
2173 49.8922 -0.0319476
2174 49.8923 -0.0319678
2175 49.8923 -0.0319743
2176 49.8923 -0.0319938
2177 49.8923 -0.0319974
2178 49.8923 -0.0320036
2179 49.8923 -0.0320084
2180 49.8923 -0.0320138
2181 49.8923 -0.0320196
2182 49.8923 -0.0320286
2183 49.8923 -0.0320356
2184 49.8923 -0.0320374
2185 49.8923 -0.0320346
2186 49.8923 -0.0320454
2187 49.8923 -0.0320495
2188 49.8923 -0.0320369
2189 49.8923 -0.0320373
2190 49.8923 -0.0320465
2191 49.8923 -0.0320426
2192 49.8923 -0.032034
2193 49.8923 -0.0320365
2194 49.8923 -0.0320317
2195 49.8923 -0.0320474
2196 49.8923 -0.0320485
2197 49.8923 -0.0320501
2198 49.8923 -0.0320507
2199 49.8923 -0.032067
2200 49.8923 -0.0320719
2201 49.8923 -0.032069
2202 49.8923 -0.0320678
2203 49.8923 -0.032061
2204 49.8923 -0.0320785
2205 49.8923 -0.0320911
2206 49.8923 -0.0320996
2207 49.8923 -0.0321119
2208 49.8923 -0.0321115
2209 49.8923 -0.0321064
2210 49.8923 -0.0321114
2211 49.8923 -0.0321045
2212 49.8923 -0.0321069
2213 49.8923 -0.0321132
2214 49.8923 -0.032117
2215 49.8923 -0.0321218
2216 49.8923 -0.0321415
2217 49.8923 -0.0321371
2218 49.8923 -0.0321505
2219 49.8923 -0.0321529
2220 49.8923 -0.0321529
2221 49.8923 -0.0321475
2222 49.8923 -0.0321474
2223 49.8923 -0.0321419
2224 49.8923 -0.0321494
2225 49.8923 -0.0321399
2226 49.8923 -0.0321361
2227 49.8923 -0.0321358
2228 49.8923 -0.0321413
2229 49.8923 -0.0321374
2230 49.8923 -0.0321329
2231 49.8923 -0.0321365
2232 49.8923 -0.0321387
2233 49.8923 -0.0321465
2234 49.8923 -0.0321486
2235 49.8923 -0.0321503
2236 49.8923 -0.032169
2237 49.8923 -0.0321717
2238 49.8923 -0.0321761
2239 49.8923 -0.0321736
2240 49.8923 -0.0321639
2241 49.8923 -0.0321545
2242 49.8923 -0.0321592
2243 49.8923 -0.0321605
2244 49.8923 -0.0321689
2245 49.8923 -0.0321759
2246 49.8923 -0.0321826
2247 49.8923 -0.0321828
2248 49.8923 -0.0321872
2249 49.8923 -0.0321907
2250 49.8923 -0.0321955
2251 49.8923 -0.0321911
2252 49.8923 -0.0321861
2253 49.8923 -0.0321827
2254 49.8923 -0.0322
2255 49.8923 -0.0322017
2256 49.8924 -0.0322051
2257 49.8924 -0.0322055
2258 49.8923 -0.0322036
2259 49.8923 -0.032202
2260 49.8924 -0.0322069
2261 49.8924 -0.0322117
2262 49.8924 -0.0322155
2263 49.8924 -0.0322211
2264 49.8924 -0.0322207
2265 49.8924 -0.0322253
2266 49.8924 -0.0322319
2267 49.8924 -0.0322402
2268 49.8924 -0.0322392
2269 49.8924 -0.0322329
2270 49.8924 -0.0322333
2271 49.8924 -0.0322291
2272 49.8924 -0.0322376
2273 49.8924 -0.0322597
2274 49.8924 -0.0322711
2275 49.8924 -0.0322693
2276 49.8924 -0.032269
2277 49.8924 -0.0322889
2278 49.8924 -0.032294
2279 49.8924 -0.0322868
2280 49.8924 -0.0322902
2281 49.8924 -0.0322998
2282 49.8924 -0.032306
2283 49.8924 -0.0323109
2284 49.8924 -0.0323122
2285 49.8924 -0.0323281
2286 49.8924 -0.0323255
2287 49.8924 -0.0323237
2288 49.8924 -0.0323347
2289 49.8924 -0.032343
2290 49.8924 -0.0323477
2291 49.8924 -0.0323606
2292 49.8924 -0.0323802
2293 49.8924 -0.0323871
2294 49.8924 -0.0324041
2295 49.8924 -0.0324079
2296 49.8924 -0.0324136
2297 49.8924 -0.0324179
2298 49.8924 -0.0324228
2299 49.8924 -0.0324282
2300 49.8924 -0.0324353
2301 49.8924 -0.0324431
2302 49.8924 -0.0324437
2303 49.8924 -0.0324483
2304 49.8924 -0.0324468
2305 49.8925 -0.0324541
2306 49.8925 -0.0324625
2307 49.8925 -0.0324553
2308 49.8924 -0.0324467
2309 49.8924 -0.0324373
2310 49.8924 -0.0324347
2311 49.8924 -0.0324383
2312 49.8924 -0.0324384
2313 49.8925 -0.0324533
2314 49.8925 -0.0324559
2315 49.8925 -0.0324599
2316 49.8925 -0.0324603
2317 49.8925 -0.0324692
2318 49.8925 -0.0324747
2319 49.8925 -0.032475
2320 49.8925 -0.032472
2321 49.8925 -0.0324691
2322 49.8925 -0.0324853
2323 49.8925 -0.0324958
2324 49.8925 -0.0325039
2325 49.8925 -0.0325053
2326 49.8925 -0.0325075
2327 49.8925 -0.0325121
2328 49.8925 -0.0325183
2329 49.8925 -0.0325111
2330 49.8925 -0.0325134
2331 49.8925 -0.0325192
2332 49.8925 -0.0325228
2333 49.8925 -0.032527
2334 49.8925 -0.0325444
2335 49.8925 -0.0325389
2336 49.8925 -0.0325518
2337 49.8925 -0.032553
2338 49.8925 -0.0325517
2339 49.8925 -0.0325492
2340 49.8925 -0.0325482
2341 49.8925 -0.0325403
2342 49.8925 -0.0325358
2343 49.8925 -0.0325271
2344 49.8925 -0.0325256
2345 49.8925 -0.0325302
2346 49.8925 -0.032535
2347 49.8925 -0.0325298
2348 49.8925 -0.0325252
2349 49.8925 -0.0325279
2350 49.8925 -0.0325329
2351 49.8925 -0.0325411
2352 49.8925 -0.0325427
2353 49.8925 -0.0325467
2354 49.8925 -0.0325653
2355 49.8925 -0.0325762
2356 49.8925 -0.0325816
2357 49.8925 -0.0325888
2358 49.8925 -0.0325783
2359 49.8925 -0.0325684
2360 49.8925 -0.0325773
2361 49.8925 -0.0325757
2362 49.8925 -0.0325833
2363 49.8925 -0.0325898
2364 49.8925 -0.0326006
2365 49.8925 -0.032601
2366 49.8925 -0.0326049
2367 49.8925 -0.0326132
2368 49.8925 -0.0326203
2369 49.8925 -0.0326212
2370 49.8925 -0.0326156
2371 49.8925 -0.0326116
2372 49.8925 -0.0326202
2373 49.8925 -0.0326178
2374 49.8925 -0.0326204
2375 49.8925 -0.0326217
2376 49.8925 -0.032622
2377 49.8925 -0.0326262
2378 49.8925 -0.032643
2379 49.8925 -0.0326491
2380 49.8925 -0.0326558
2381 49.8925 -0.03266
2382 49.8925 -0.0326595
2383 49.8925 -0.0326745
2384 49.8925 -0.0326811
2385 49.8926 -0.0326975
2386 49.8926 -0.0326976
2387 49.8926 -0.0326986
2388 49.8926 -0.0327034
2389 49.8926 -0.0327092
2390 49.8926 -0.0327175
2391 49.8926 -0.032737
2392 49.8926 -0.032748
2393 49.8926 -0.0327446
2394 49.8926 -0.032744
2395 49.8926 -0.0327443
2396 49.8926 -0.0327423
2397 49.8926 -0.0327344
2398 49.8926 -0.0327373
2399 49.8926 -0.0327382
2400 49.8926 -0.0327491
2401 49.8926 -0.0327547
2402 49.8926 -0.0327545
2403 49.8926 -0.0327699
2404 49.8926 -0.032766
2405 49.8926 -0.0327617
2406 49.8926 -0.0327782
2407 49.8926 -0.032774
2408 49.8926 -0.0327789
2409 49.8926 -0.0327811
2410 49.8926 -0.0327908
2411 49.8926 -0.0327963
2412 49.8926 -0.0328063
2413 49.8926 -0.0328089
2414 49.8926 -0.0328127
2415 49.8926 -0.0328189
2416 49.8926 -0.0328219
2417 49.8926 -0.0328285
2418 49.8926 -0.0328239
2419 49.8926 -0.0328263
2420 49.8926 -0.032824
2421 49.8926 -0.0328396
2422 49.8926 -0.0328389
2423 49.8926 -0.0328542
2424 49.8926 -0.032864
2425 49.8926 -0.0328588
2426 49.8926 -0.0328585
2427 49.8926 -0.0328506
2428 49.8926 -0.0328474
2429 49.8926 -0.0328507
2430 49.8926 -0.0328535
2431 49.8926 -0.0328539
2432 49.8926 -0.0328538
2433 49.8926 -0.0328574
2434 49.8926 -0.032855
2435 49.8926 -0.0328614
2436 49.8926 -0.0328662
2437 49.8926 -0.0328659
2438 49.8926 -0.0328626
2439 49.8926 -0.0328603
2440 49.8926 -0.0328706
2441 49.8926 -0.032867
2442 49.8926 -0.0328619
2443 49.8926 -0.0328606
2444 49.8926 -0.0328708
2445 49.8926 -0.0328647
2446 49.8926 -0.0328673
2447 49.8926 -0.032863
2448 49.8926 -0.0328679
2449 49.8926 -0.0328718
2450 49.8926 -0.0328771
2451 49.8926 -0.0328798
2452 49.8926 -0.0328902
2453 49.8926 -0.032899
2454 49.8926 -0.0329008
2455 49.8926 -0.0329105
2456 49.8926 -0.0329087
2457 49.8926 -0.0329031
2458 49.8926 -0.0328994
2459 49.8926 -0.0328909
2460 49.8926 -0.0328848
2461 49.8926 -0.0328755
2462 49.8926 -0.0328739
2463 49.8926 -0.0328781
2464 49.8926 -0.0328825
2465 49.8926 -0.0328775
2466 49.8926 -0.0328748
2467 49.8926 -0.0328775
2468 49.8926 -0.0328839
2469 49.8926 -0.0328829
2470 49.8926 -0.0328824
2471 49.8926 -0.0328859
2472 49.8926 -0.0328955
2473 49.8926 -0.0329147
2474 49.8926 -0.0329243
2475 49.8926 -0.0329199
2476 49.8926 -0.0329258
2477 49.8926 -0.0329255
2478 49.8927 -0.0329434
2479 49.8927 -0.0329462
2480 49.8927 -0.032943
2481 49.8927 -0.0329456
2482 49.8927 -0.0329557
2483 49.8927 -0.0329595
2484 49.8927 -0.0329624
2485 49.8927 -0.0329788
2486 49.8927 -0.0329836
2487 49.8927 -0.0329879
2488 49.8927 -0.0329827
2489 49.8927 -0.0329811
2490 49.8927 -0.0329884
2491 49.8927 -0.0329856
2492 49.8927 -0.0329917
2493 49.8927 -0.0330044
2494 49.8927 -0.0330065
2495 49.8927 -0.0330195
2496 49.8927 -0.0330375
2497 49.8927 -0.0330433
2498 49.8927 -0.0330496
2499 49.8927 -0.0330533
2500 49.8927 -0.0330526
2501 49.8927 -0.0330672
2502 49.8927 -0.0330732
2503 49.8927 -0.0330894
2504 49.8927 -0.0330922
2505 49.8927 -0.0331033
2506 49.8927 -0.0331113
2507 49.8927 -0.033105
2508 49.8927 -0.0330992
2509 49.8927 -0.033109
2510 49.8927 -0.0331066
2511 49.8927 -0.0330984
2512 49.8927 -0.0331012
2513 49.8927 -0.0331004
2514 49.8927 -0.0331079
2515 49.8927 -0.0331078
2516 49.8927 -0.0331098
2517 49.8927 -0.0331102
2518 49.8927 -0.0331271
2519 49.8927 -0.0331323
2520 49.8927 -0.0331296
2521 49.8927 -0.0331299
2522 49.8927 -0.0331234
2523 49.8927 -0.0331285
2524 49.8927 -0.0331461
2525 49.8927 -0.0331343
2526 49.8927 -0.0331428
2527 49.8927 -0.0331446
2528 49.8927 -0.0331524
2529 49.8927 -0.0331573
2530 49.8927 -0.0331655
2531 49.8927 -0.033167
2532 49.8927 -0.0331703
2533 49.8927 -0.0331761
2534 49.8927 -0.0331787
2535 49.8928 -0.0331921
2536 49.8928 -0.0331981
2537 49.8928 -0.033205
2538 49.8928 -0.033203
2539 49.8928 -0.0332172
2540 49.8928 -0.0332145
2541 49.8928 -0.0332292
2542 49.8928 -0.0332278
2543 49.8928 -0.0332358
2544 49.8928 -0.0332266
2545 49.8928 -0.0332229
2546 49.8928 -0.0332226
2547 49.8928 -0.0332284
2548 49.8928 -0.0332314
2549 49.8928 -0.0332304
2550 49.8928 -0.0332346
2551 49.8928 -0.0332372
2552 49.8928 -0.0332384
2553 49.8928 -0.0332307
2554 49.8928 -0.0332312
2555 49.8928 -0.0332409
2556 49.8928 -0.033242
2557 49.8928 -0.03324
2558 49.8928 -0.0332486
2559 49.8928 -0.0332524
2560 49.8928 -0.0332472
2561 49.8928 -0.0332434
2562 49.8928 -0.0332537
2563 49.8928 -0.0332465
2564 49.8928 -0.0332486
2565 49.8928 -0.0332437
2566 49.8928 -0.033248
2567 49.8928 -0.0332514
2568 49.8928 -0.0332578
2569 49.8928 -0.0332604
2570 49.8928 -0.0332691
2571 49.8928 -0.0332775
2572 49.8928 -0.0332778
2573 49.8928 -0.0332959
2574 49.8928 -0.0332956
2575 49.8928 -0.0332896
2576 49.8928 -0.0332856
2577 49.8928 -0.0332834
2578 49.8928 -0.0332757
2579 49.8928 -0.0332789
2580 49.8928 -0.0332839
2581 49.8928 -0.0332879
2582 49.8928 -0.0332941
2583 49.8928 -0.0332893
2584 49.8928 -0.033284
2585 49.8928 -0.0332893
2586 49.8928 -0.0332923
2587 49.8928 -0.033288
2588 49.8928 -0.0332857
2589 49.8928 -0.0332872
2590 49.8928 -0.0332948
2591 49.8928 -0.0333133
2592 49.8928 -0.0333293
2593 49.8928 -0.0333195
2594 49.8928 -0.033324
2595 49.8928 -0.0333233
