15 0.0138533 -0.00489203
26 0.553744 0.0792217
45 1.55046 -0.0108624
60 2.48962 -0.134237
74 3.3848 -0.257641
87 4.21061 -0.369965
100 5.03672 -0.484095
112 5.79426 -0.589587
146 7.12083 0.39906
189 9.49479 0.822677
239 12.3477 0.227293
272 14.5085 -0.23711
335 17.6422 1.59575
380 20.4121 2.82433
407 22.0834 3.48587
442 21.79 4.06325
498 19.503 2.14023
553 22.0212 1.63948
621 21.5614 5.0495
708 16.9298 3.46074
937 27.1353 13.4031
1134 37.2005 5.6854
1227 40.1059 1.96561
1308 38.9936 6.07786
1457 45.1626 -0.244495
1472 45.851 -0.930173
1475 45.9495 -1.02826
1477 46.0486 -1.12711
1479 46.1019 -1.18072
1481 46.1531 -1.2325
1484 46.203 -1.2833
1486 46.3038 -1.38516
1488 46.355 -1.43708
1490 46.4032 -1.48614
1492 46.4997 -1.58415
1494 46.5488 -1.6337
1497 46.5939 -1.67901
1499 46.6942 -1.77978
1509 46.7813 -1.88278
1532 46.8157 -1.89861
1537 46.9443 -1.90992
1539 47.0815 -1.91657
1541 47.1582 -1.91973
1543 47.2311 -1.92321
1545 47.3008 -1.92696
1548 47.3638 -1.9293
1550 47.5042 -1.93938
1552 47.58 -1.9426
1554 47.6618 -1.94528
1557 47.7332 -1.9453
1559 47.8647 -1.94774
1561 47.9411 -1.94771
1563 48.0061 -1.94745
1565 48.0808 -1.94715
1567 48.1507 -1.94651
1570 48.2201 -1.94516
1572 48.3568 -1.94488
1574 48.4337 -1.94423
1576 48.5036 -1.94398
1578 48.5784 -1.94398
1580 48.6454 -1.94419
1583 48.7001 -1.94432
1585 48.8164 -1.94534
1587 48.9002 -1.9461
1589 49.0428 -1.94707
1591 49.0553 -1.94685
1594 49.1094 -1.94721
1596 49.2453 -1.94784
1598 49.3333 -1.94767
1600 49.4132 -1.94778
1602 49.4939 -1.94797
1604 49.5558 -1.94779
1606 49.6233 -1.94774
1608 49.6967 -1.94789
1610 49.7647 -1.94788
1612 49.8342 -1.9482
1614 49.9069 -1.94895
1616 49.9701 -1.94963
1618 50.0396 -1.95072
1649 49.8742 -1.70489
1660 49.6067 -1.75478
1691 50.2124 -1.71905
1720 49.8755 -1.76711
1744 49.9293 -1.47248
1749 49.9199 -1.34323
1751 49.9133 -1.20546
1753 49.9099 -1.12944
1755 49.906 -1.05562
1757 49.9016 -0.982517
1771 49.9213 -0.855894
1780 50.0175 -0.877853
1811 49.6537 -0.854652
1840 50.0632 -0.936328
1869 49.7846 -0.832898
1909 49.8517 1.10757
1960 49.8422 -0.743763
2006 49.4515 -0.17651
2035 49.7358 0.454733
2066 50.0187 -0.340304
2098 49.8163 0.321648
2131 50.1564 -0.379433
2162 49.7492 0.276207
2199 50.3816 -0.32782
2231 49.8893 0.232194
2232 49.8895 0.232015
2233 49.8897 0.231868
2234 49.8899 0.231764
2235 49.89 0.231688
2236 49.8901 0.231612
2237 49.8901 0.231544
2238 49.8902 0.231482
2239 49.8903 0.231435
2240 49.8903 0.231388
2241 49.8904 0.231346
2242 49.8904 0.231307
2243 49.8905 0.231275
2244 49.8905 0.231247
2245 49.8905 0.231233
2246 49.8905 0.231225
2247 49.8905 0.231218
2248 49.8906 0.231194
2249 49.8906 0.231169
2250 49.8906 0.231158
2251 49.8906 0.23115
2252 49.8906 0.231143
2253 49.8906 0.23114
2254 49.8907 0.231124
2255 49.8907 0.23112
2256 49.8907 0.231115
2257 49.8907 0.231115
2258 49.8907 0.231108
2259 49.8907 0.231105
2260 49.8907 0.231102
2261 49.8907 0.231113
2262 49.8907 0.231106
2263 49.8907 0.231101
2264 49.8907 0.231103
2265 49.8907 0.231097
2266 49.8907 0.231072
2267 49.8907 0.231078
2268 49.8907 0.231078
2269 49.8907 0.231088
2270 49.8907 0.231093
2271 49.8907 0.231095
2272 49.8907 0.231097
2273 49.8907 0.231101
2274 49.8907 0.231109
2275 49.8907 0.231105
2276 49.8907 0.231111
2277 49.8906 0.231126
2278 49.8906 0.231136
2279 49.8906 0.231138
2280 49.8906 0.23114
2281 49.8906 0.231146
2282 49.8906 0.231145
2283 49.8906 0.231142
2284 49.8906 0.231142
2285 49.8906 0.231139
2286 49.8906 0.231136
2287 49.8906 0.231133
2288 49.8906 0.231135
2289 49.8906 0.231151
2290 49.8906 0.231155
2291 49.8906 0.231151
2292 49.8906 0.231148
2293 49.8906 0.231143
2294 49.8906 0.231147
2295 49.8906 0.231143
2296 49.8906 0.231141
2297 49.8906 0.231145
2298 49.8906 0.231144
2299 49.8906 0.231144
2300 49.8906 0.231155
2301 49.8906 0.231156
2302 49.8906 0.231162
2303 49.8906 0.231169
2304 49.8906 0.231169
2305 49.8906 0.231176
2306 49.8906 0.231174
2307 49.8906 0.231179
2308 49.8906 0.231174
2309 49.8906 0.231168
2310 49.8906 0.231173
2311 49.8906 0.231169
2312 49.8906 0.231169
2313 49.8906 0.231175
2314 49.8906 0.231175
2315 49.8906 0.231171
2316 49.8906 0.231177
2317 49.8906 0.231178
2318 49.8906 0.231183
2319 49.8906 0.231184
2320 49.8905 0.231187
2321 49.8905 0.231192
2322 49.8905 0.231195
2323 49.8905 0.231189
2324 49.8905 0.231192
2325 49.8905 0.231197
2326 49.8905 0.231199
2327 49.8905 0.2312
2328 49.8905 0.231216
2329 49.8905 0.231217
2330 49.8905 0.231216
2331 49.8905 0.231219
2332 49.8905 0.231214
2333 49.8905 0.231212
2334 49.8905 0.23121
2335 49.8905 0.231221
2336 49.8905 0.231226
2337 49.8905 0.231234
2338 49.8905 0.231238
2339 49.8905 0.231229
2340 49.8905 0.231229
2341 49.8905 0.231235
2342 49.8905 0.231239
2343 49.8905 0.231239
2344 49.8905 0.23124
2345 49.8905 0.231238
2346 49.8905 0.23124
2347 49.8905 0.231235
2348 49.8905 0.23124
2349 49.8905 0.23125
2350 49.8905 0.231247
2351 49.8904 0.231259
2352 49.8904 0.231257
2353 49.8904 0.231253
2354 49.8904 0.231255
2355 49.8904 0.231257
2356 49.8904 0.231268
2357 49.8904 0.231268
2358 49.8904 0.231272
2359 49.8904 0.231276
2360 49.8904 0.231281
2361 49.8904 0.231293
2362 49.8904 0.231292
2363 49.8904 0.231286
2364 49.8904 0.231289
2365 49.8904 0.231294
2366 49.8904 0.231305
2367 49.8904 0.231311
2368 49.8904 0.231305
2369 49.8904 0.231312
2370 49.8904 0.231306
2371 49.8904 0.231304
2372 49.8904 0.231301
2373 49.8904 0.231298
2374 49.8904 0.231302
2375 49.8903 0.23132
2376 49.8903 0.231317
2377 49.8903 0.231326
2378 49.8903 0.231328
2379 49.8903 0.231329
2380 49.8903 0.231331
2381 49.8903 0.231326
2382 49.8903 0.231327
2383 49.8903 0.231323
2384 49.8903 0.231327
2385 49.8903 0.231331
2386 49.8903 0.231338
2387 49.8903 0.231333
2388 49.8903 0.231324
2389 49.8903 0.231323
2390 49.8903 0.23133
2391 49.8903 0.231329
2392 49.8903 0.23134
2393 49.8903 0.231341
2394 49.8903 0.231362
2395 49.8903 0.231365
2396 49.8903 0.231368
2397 49.8903 0.231372
2398 49.8903 0.231365
2399 49.8903 0.231362
2400 49.8903 0.231365
2401 49.8903 0.231371
2402 49.8903 0.231378
2403 49.8902 0.231381
2404 49.8902 0.231384
2405 49.8902 0.231384
2406 49.8902 0.231395
2407 49.8902 0.231394
2408 49.8902 0.231413
2409 49.8902 0.231411
2410 49.8902 0.231414
2411 49.8902 0.231414
2412 49.8902 0.231417
2413 49.8902 0.231421
2414 49.8902 0.23142
2415 49.8902 0.23142
2416 49.8902 0.231425
2417 49.8902 0.23144
2418 49.8902 0.231439
2419 49.8901 0.231443
2420 49.8901 0.231442
2421 49.8901 0.231441
2422 49.8901 0.231447
2423 49.8901 0.231449
2424 49.8901 0.23145
2425 49.8901 0.231454
2426 49.8901 0.231449
2427 49.8901 0.23145
2428 49.8901 0.231457
2429 49.8901 0.231451
2430 49.8901 0.231454
2431 49.8901 0.231453
2432 49.8901 0.231458
2433 49.8901 0.231456
2434 49.8901 0.231457
2435 49.8901 0.231469
2436 49.8901 0.231475
2437 49.8901 0.23147
2438 49.8901 0.231476
2439 49.8901 0.231463
2440 49.8901 0.231464
2441 49.8901 0.231459
2442 49.8901 0.23146
2443 49.8901 0.23146
2444 49.8901 0.231474
2445 49.8901 0.231467
2446 49.8901 0.231464
2447 49.8901 0.231464
2448 49.8901 0.231471
2449 49.8901 0.231483
2450 49.8901 0.231496
2451 49.8901 0.231491
2452 49.8901 0.231495
2453 49.8901 0.231491
2454 49.8901 0.231482
2455 49.8901 0.231483
2456 49.8901 0.23149
2457 49.8901 0.231494
2458 49.8901 0.231491
2459 49.8901 0.23149
2460 49.8901 0.231485
2461 49.8901 0.231489
2462 49.8901 0.231484
2463 49.8901 0.231486
2464 49.8901 0.231482
2465 49.8901 0.231487
2466 49.8901 0.231492
2467 49.8901 0.231503
2468 49.8901 0.231503
2469 49.89 0.231515
2470 49.89 0.231513
2471 49.89 0.231529
2472 49.89 0.23153
2473 49.89 0.231531
2474 49.89 0.231531
2475 49.89 0.231533
2476 49.89 0.231539
2477 49.89 0.23153
2478 49.89 0.231533
2479 49.89 0.231527
2480 49.89 0.231544
2481 49.89 0.231548
2482 49.89 0.231543
2483 49.89 0.231548
2484 49.89 0.231542
2485 49.89 0.23154
2486 49.89 0.231541
2487 49.89 0.231556
2488 49.89 0.23155
2489 49.89 0.231549
2490 49.89 0.231547
2491 49.89 0.231557
2492 49.89 0.231556
2493 49.89 0.231562
2494 49.89 0.231568
2495 49.8899 0.231574
2496 49.8899 0.231576
2497 49.8899 0.231576
2498 49.8899 0.231579
2499 49.8899 0.231585
2500 49.8899 0.231588
2501 49.8899 0.231589
2502 49.8899 0.231586
2503 49.8899 0.231581
2504 49.8899 0.231585
2505 49.8899 0.231581
2506 49.8899 0.231578
2507 49.8899 0.231585
2508 49.8899 0.231582
2509 49.8899 0.231585
2510 49.8899 0.231592
2511 49.8899 0.231587
2512 49.8899 0.231596
2513 49.8899 0.231601
2514 49.8899 0.231613
2515 49.8899 0.231601
2516 49.8899 0.231604
2517 49.8899 0.231611
2518 49.8899 0.231607
2519 49.8899 0.231616
2520 49.8899 0.231612
2521 49.8899 0.231618
2522 49.8899 0.23163
2523 49.8899 0.231632
2524 49.8898 0.231635
2525 49.8898 0.231637
2526 49.8899 0.231629
2527 49.8899 0.23163
2528 49.8899 0.231622
2529 49.8899 0.231616
2530 49.8899 0.23162
2531 49.8899 0.231622
2532 49.8899 0.231615
2533 49.8899 0.231615
2534 49.8899 0.231613
2535 49.8899 0.231615
2536 49.8899 0.231631
2537 49.8898 0.231635
2538 49.8898 0.231651
2539 49.8898 0.231654
2540 49.8898 0.231654
2541 49.8898 0.231657
2542 49.8898 0.231663
2543 49.8898 0.231663
2544 49.8898 0.231665
2545 49.8898 0.231678
2546 49.8898 0.231681
2547 49.8898 0.231678
2548 49.8898 0.231681
2549 49.8898 0.231681
2550 49.8898 0.231676
2551 49.8898 0.231679
2552 49.8898 0.231682
2553 49.8898 0.231681
2554 49.8898 0.231686
2555 49.8898 0.231689
2556 49.8898 0.231692
2557 49.8898 0.231695
2558 49.8897 0.231703
2559 49.8897 0.2317
2560 49.8897 0.231697
2561 49.8897 0.231702
2562 49.8897 0.231705
2563 49.8897 0.231723
2564 49.8897 0.231718
2565 49.8897 0.231728
2566 49.8897 0.231731
2567 49.8897 0.231733
2568 49.8897 0.231737
2569 49.8897 0.231743
2570 49.8897 0.231744
2571 49.8897 0.23174
2572 49.8897 0.231735
2573 49.8897 0.231733
2574 49.8897 0.231735
2575 49.8897 0.231751
2576 49.8896 0.231764
2577 49.8897 0.231758
2578 49.8896 0.231761
2579 49.8897 0.231756
2580 49.8897 0.231753
2581 49.8897 0.231756
2582 49.8897 0.231754
2583 49.8897 0.231746
2584 49.8897 0.231747
2585 49.8897 0.231757
2586 49.8896 0.231768
2587 49.8896 0.231775
2588 49.8896 0.23178
2589 49.8896 0.231785
2590 49.8896 0.231787
2591 49.8896 0.231787
2592 49.8896 0.231792
2593 49.8896 0.231791
2594 49.8896 0.231793
2595 49.8896 0.231789
