1 -4.86735e-06 -0.000419379
2 -4.86542e-06 -0.000407998
3 -4.85153e-06 -0.000324229
4 -4.94888e-06 -0.00027245
5 -6.13397e-06 -0.000160146
6 1.42333e-05 -0.000656313
7 -2.45276e-05 -0.000165788
8 -0.00019752 0.000625809
9 -0.000505946 0.00140888
10 -0.00107542 0.00239541
11 0.00100422 -0.000901318
12 0.00393311 -0.00292921
13 0.0070823 -0.0042067
14 0.0103898 -0.004836
15 0.0138533 -0.00489203
16 0.0171818 -0.00442334
17 0.0202239 -0.00371645
18 0.0203939 -0.00305001
19 0.0757023 -0.00103029
20 0.142828 0.0134085
21 0.21036 0.0282775
22 0.278561 0.0415053
23 0.34776 0.0531358
24 0.416578 0.0632765
25 0.48507 0.0719117
26 0.553744 0.0792217
27 0.622599 0.0855174
28 0.63338 0.0915456
29 0.632973 0.0923946
30 0.633067 0.0922529
31 0.63667 0.0920482
32 0.639949 0.0919541
33 0.702956 0.0859289
34 0.771201 0.0799582
35 0.840325 0.0731751
36 0.909298 0.0657915
37 0.977954 0.0580295
38 1.04635 0.0500487
39 1.11483 0.0418968
40 1.18326 0.0336568
41 1.25159 0.0253812
42 1.31998 0.0170952
43 1.38833 0.00879577
44 1.45671 0.00048379
45 1.55046 -0.0108624
46 1.59375 -0.0161815
47 1.66208 -0.0245255
48 1.66728 -0.0245866
49 1.73869 -0.034346
50 1.80712 -0.0436236
51 1.87539 -0.052816
52 1.94361 -0.0620066
53 2.01191 -0.0711728
54 2.08018 -0.0802886
55 2.14836 -0.0893608
56 2.21661 -0.0983718
57 2.28487 -0.107368
58 2.35311 -0.116332
59 2.42136 -0.125289
60 2.48962 -0.134237
61 2.55787 -0.143134
62 2.62613 -0.152023
63 2.63105 -0.152484
64 2.70292 -0.162612
65 2.77125 -0.172492
66 2.83939 -0.182288
67 2.90737 -0.192019
68 2.9756 -0.201676
69 3.04376 -0.21122
70 3.11176 -0.220643
71 3.17997 -0.229991
72 3.24823 -0.239279
73 3.31644 -0.248478
74 3.3848 -0.257641
75 3.4531 -0.266725
76 3.52127 -0.27575
77 3.52551 -0.276194
78 3.59684 -0.286053
79 3.6653 -0.295705
80 3.73333 -0.305223
81 3.8015 -0.314684
82 3.86969 -0.324036
83 3.93789 -0.333373
84 4.00592 -0.342579
85 4.07416 -0.351757
86 4.14238 -0.360888
87 4.21061 -0.369965
88 4.27884 -0.379053
89 4.34707 -0.388132
90 4.35194 -0.388723
91 4.42277 -0.398662
92 4.49111 -0.408511
93 4.55923 -0.418217
94 4.62737 -0.427909
95 4.69572 -0.43753
96 4.76394 -0.447029
97 4.83211 -0.456411
98 4.9003 -0.465717
99 4.96849 -0.474947
100 5.03672 -0.484095
101 5.105 -0.493208
102 5.17333 -0.502279
103 5.17762 -0.502774
104 5.24879 -0.512771
105 5.31707 -0.522675
106 5.38524 -0.532493
107 5.45337 -0.542244
108 5.52148 -0.551894
109 5.58969 -0.561466
110 5.65786 -0.570917
111 5.72605 -0.580288
112 5.79426 -0.589587
113 5.86252 -0.598831
114 5.93073 -0.607988
115 5.96326 -0.612223
116 5.99301 -0.615255
117 6.02083 -0.616477
118 6.04541 -0.615688
119 6.06396 -0.61322
120 6.07517 -0.610259
121 6.07823 -0.608586
122 6.07865 -0.60834
123 6.08021 -0.607942
124 6.08329 -0.606374
125 6.08582 -0.604564
126 6.13831 -0.565752
127 6.18638 -0.515869
128 6.23342 -0.465518
129 6.28077 -0.415307
130 6.32845 -0.365446
131 6.37626 -0.316118
132 6.42416 -0.26739
133 6.47278 -0.218641
134 6.52184 -0.170013
135 6.57091 -0.12178
136 6.62024 -0.0737709
137 6.66963 -0.0260344
138 6.71941 0.0216991
139 6.76928 0.0692541
140 6.81919 0.116592
141 6.86927 0.163855
142 6.91949 0.211046
143 6.96968 0.258098
144 7.02004 0.305169
145 7.07041 0.352129
146 7.12083 0.39906
147 7.17124 0.445864
148 7.22172 0.492675
149 7.22312 0.496459
150 7.22729 0.500141
151 7.23031 0.502367
152 7.23366 0.504403
153 7.23714 0.506108
154 7.2407 0.507448
155 7.24497 0.508683
156 7.24854 0.509377
157 7.31339 0.521462
158 7.38263 0.526127
159 7.45113 0.530222
160 7.54724 0.536887
161 7.58863 0.540225
162 7.65724 0.546418
163 7.72561 0.553313
164 7.79424 0.560917
165 7.8625 0.56905
166 7.93081 0.577711
167 7.99913 0.586808
168 8.06712 0.596243
169 8.13553 0.606052
170 8.2036 0.616042
171 8.27171 0.626259
172 8.33959 0.636592
173 8.40777 0.647123
174 8.47573 0.657747
175 8.54371 0.66845
176 8.61161 0.67925
177 8.67954 0.690097
178 8.74753 0.701037
179 8.81544 0.711984
180 8.88339 0.722967
181 8.95134 0.733998
182 9.01927 0.745058
183 9.08721 0.756117
184 9.15516 0.76718
185 9.2231 0.778273
186 9.29104 0.789358
187 9.35894 0.800458
188 9.42687 0.811561
189 9.49479 0.822677
190 9.56272 0.833807
191 9.63065 0.844955
192 9.63448 0.845158
193 9.64236 0.846399
194 9.64983 0.847304
195 9.65532 0.847653
196 9.6587 0.847642
197 9.66156 0.847506
198 9.66434 0.847241
199 9.66747 0.846787
200 9.73182 0.834746
201 9.79877 0.815431
202 9.86504 0.795783
203 9.93124 0.776563
204 9.99759 0.757776
205 10.0639 0.73959
206 10.1301 0.722016
207 10.1967 0.704853
208 10.2635 0.688075
209 10.3304 0.671687
210 10.3974 0.655584
211 10.4643 0.639791
212 10.5315 0.624156
213 10.5986 0.608743
214 10.6658 0.593506
215 10.733 0.578374
216 10.8001 0.563334
217 10.8673 0.54839
218 10.9346 0.533457
219 11.0019 0.518559
220 11.0692 0.503742
221 11.1364 0.48899
222 11.2037 0.474288
223 11.2709 0.459636
224 11.3383 0.444953
225 11.4056 0.430321
226 11.4728 0.415706
227 11.5401 0.401106
228 11.6074 0.386511
229 11.6747 0.371954
230 11.742 0.357413
231 11.8092 0.3429
232 11.8766 0.328403
233 11.9439 0.313934
234 12.0112 0.299482
235 12.0785 0.285034
236 12.1458 0.270595
237 12.2131 0.256156
238 12.2804 0.241719
239 12.3477 0.227293
240 12.415 0.212858
241 12.4823 0.198425
242 12.4863 0.197332
243 12.5564 0.182125
244 12.6239 0.166924
245 12.691 0.151844
246 12.7582 0.136814
247 12.8254 0.121883
248 12.8926 0.107022
249 12.9599 0.0922721
250 13.0271 0.0775757
251 13.0944 0.0629242
252 13.1617 0.0483037
253 13.2289 0.0336943
254 13.2962 0.0191375
255 13.3635 0.00463425
256 13.4308 -0.00980633
257 13.4981 -0.0242083
258 13.5654 -0.0385816
259 13.6327 -0.0528994
260 13.7001 -0.0671796
261 13.7674 -0.0814175
262 13.8347 -0.0956561
263 13.9291 -0.115495
264 13.9695 -0.124035
265 14.0369 -0.138182
266 14.1042 -0.152325
267 14.1716 -0.166488
268 14.239 -0.180642
269 14.3064 -0.194752
270 14.3737 -0.208876
271 14.4411 -0.223006
272 14.5085 -0.23711
273 14.5759 -0.251218
274 14.6432 -0.265329
275 14.6471 -0.266106
276 14.6579 -0.268311
277 14.6699 -0.270066
278 14.6828 -0.270987
279 14.6959 -0.270675
280 14.7038 -0.269292
281 14.7038 -0.268774
282 14.7043 -0.268933
283 14.7068 -0.268338
284 14.7097 -0.26704
285 14.7632 -0.240498
286 14.7963 -0.215254
287 14.851 -0.173491
288 14.9062 -0.13188
289 14.9615 -0.0908316
290 15.0175 -0.0502261
291 15.0737 -0.010312
292 15.1303 0.0290769
293 15.1872 0.0680116
294 15.2445 0.106602
295 15.3019 0.14484
296 15.3596 0.182742
297 15.4169 0.220115
298 15.4748 0.257494
299 15.5328 0.294715
300 15.5908 0.331785
301 15.6489 0.368744
302 15.7071 0.405575
303 15.7654 0.442325
304 15.8236 0.478968
305 15.8821 0.515589
306 15.9404 0.552018
307 15.9988 0.588456
308 16.0573 0.62484
309 16.1158 0.661152
310 16.1743 0.697383
311 16.2328 0.733589
312 16.2915 0.76976
313 16.35 0.805869
314 16.4087 0.841968
315 16.4673 0.878018
316 16.5259 0.914031
317 16.5846 0.95002
318 16.6433 0.986028
319 16.702 1.02201
320 16.7608 1.05796
321 16.8195 1.09389
322 16.8782 1.12979
323 16.9369 1.16567
324 16.9957 1.20156
325 17.0544 1.23743
326 17.1132 1.2733
327 17.1719 1.30917
328 17.2307 1.34504
329 17.2894 1.38087
330 17.3482 1.4167
331 17.407 1.45254
332 17.4658 1.48835
333 17.5246 1.52416
334 17.5834 1.55997
335 17.6422 1.59575
336 17.701 1.63155
337 17.7598 1.66734
338 17.7616 1.66871
339 17.8222 1.70539
340 17.8816 1.74119
341 17.9413 1.77582
342 18.0013 1.80927
343 18.0618 1.8418
344 18.1234 1.87371
345 18.1852 1.9047
346 18.2472 1.93486
347 18.3094 1.96426
348 18.3719 1.99307
349 18.4346 2.02138
350 18.4976 2.04929
351 18.5608 2.07681
352 18.624 2.10397
353 18.6875 2.13095
354 18.7508 2.15764
355 18.8143 2.18419
356 18.878 2.2106
357 18.9417 2.23682
358 19.0054 2.26296
359 19.0691 2.289
360 19.1329 2.31496
361 19.1967 2.34084
362 19.2603 2.3666
363 19.3242 2.39237
364 19.3881 2.41808
365 19.452 2.44376
366 19.5159 2.46938
367 19.5798 2.49496
368 19.6438 2.52052
369 19.7078 2.54604
370 19.7718 2.5715
371 19.8358 2.59693
372 19.8998 2.62228
373 19.9638 2.64763
374 20.0278 2.67292
375 20.0918 2.69819
376 20.1559 2.72344
377 20.2199 2.74867
378 20.284 2.7739
379 20.348 2.79912
380 20.4121 2.82433
381 20.4761 2.84954
382 20.5402 2.87473
383 20.5431 2.87558
384 20.6112 2.90283
385 20.6753 2.92846
386 20.7392 2.95398
387 20.8032 2.97948
388 20.8671 3.00497
389 20.931 3.03042
390 20.995 3.05586
391 21.059 3.08129
392 21.123 3.10668
393 21.187 3.13207
394 21.251 3.15742
395 21.315 3.18275
396 21.379 3.20807
397 21.4429 3.23334
398 21.507 3.25862
399 21.571 3.2839
400 21.6351 3.3092
401 21.6991 3.33445
402 21.7631 3.3597
403 21.8272 3.38494
404 21.8912 3.41019
405 21.9553 3.43543
406 22.0193 3.46067
407 22.0834 3.48587
408 22.1474 3.51107
409 22.2115 3.53628
410 22.2149 3.5376
411 22.2228 3.54099
412 22.2299 3.54485
413 22.234 3.54808
414 22.2361 3.5505
415 22.2378 3.55299
416 22.2384 3.5544
417 22.239 3.55714
418 22.2386 3.55915
419 22.2386 3.5593
420 22.2383 3.56073
421 22.2368 3.56228
422 22.2347 3.56372
423 22.2323 3.56501
424 22.186 3.59023
425 22.1517 3.59571
426 22.135 3.59931
427 22.1256 3.60247
428 22.121 3.60437
429 22.1188 3.60557
430 22.116 3.60797
431 22.1136 3.61003
432 22.1113 3.61244
433 22.1087 3.61534
434 22.1066 3.61794
435 22.0697 3.66961
436 22.0294 3.72561
437 21.9894 3.78168
438 21.9494 3.83808
439 21.9096 3.89445
440 21.8698 3.95077
441 21.8299 4.00705
442 21.79 4.06325
443 21.7499 4.11947
444 21.7098 4.17557
445 21.7055 4.18007
446 21.7008 4.18642
447 21.6956 4.19195
448 21.6909 4.19542
449 21.6855 4.19798
450 21.6802 4.19913
451 21.6755 4.19893
452 21.6744 4.19822
453 21.6743 4.19833
454 21.6746 4.19891
455 21.6364 4.16911
456 21.598 4.11592
457 21.5613 4.05731
458 21.5238 3.99857
459 21.4854 3.94095
460 21.4453 3.88457
461 21.4041 3.82988
462 21.3612 3.7766
463 21.3166 3.72406
464 21.271 3.67261
465 21.2241 3.62204
466 21.1765 3.57237
467 21.1284 3.52367
468 21.0595 3.45602
469 21.0293 3.42728
470 20.9791 3.3801
471 20.9286 3.33339
472 20.8778 3.28724
473 20.8265 3.24115
474 20.7749 3.19548
475 20.7231 3.15011
476 20.6711 3.10503
477 20.619 3.06022
478 20.5666 3.01554
479 20.5138 2.97097
480 20.4611 2.92662
481 20.4082 2.8824
482 20.3553 2.83833
483 20.3023 2.79435
484 20.2492 2.75044
485 20.1962 2.70669
486 20.143 2.66294
487 20.0898 2.61918
488 20.0366 2.57552
489 19.9833 2.53181
490 19.9299 2.48818
491 19.8766 2.4446
492 19.8233 2.40103
493 19.7699 2.35751
494 19.7165 2.31404
495 19.6632 2.27056
496 19.6098 2.2271
497 19.5564 2.18366
498 19.503 2.14023
499 19.4495 2.09683
500 19.3961 2.05341
501 19.3935 2.05099
502 19.3871 2.04554
503 19.3817 2.03994
504 19.3781 2.03453
505 19.3753 2.028
506 19.3744 2.02201
507 19.375 2.0203
508 19.3748 2.02013
509 19.3748 2.01881
510 19.3759 2.01696
511 19.3777 2.01559
512 19.3802 2.01425
513 19.3831 2.01347
514 19.3858 2.01306
515 19.4359 2.00479
516 19.5037 2.00708
517 19.5735 2.01009
518 19.6429 2.01205
519 19.7121 2.01233
520 19.7811 2.01068
521 19.8503 2.00713
522 19.9191 2.00203
523 19.9875 1.99557
524 20.0556 1.98794
525 20.1241 1.9794
526 20.1923 1.97022
527 20.2607 1.96036
528 20.3285 1.95011
529 20.3964 1.93934
530 20.4643 1.92818
531 20.5318 1.91682
532 20.5997 1.90514
533 20.6677 1.89319
534 20.7355 1.88112
535 20.8034 1.86884
536 20.8712 1.85644
537 20.9389 1.84396
538 21.0065 1.8314
539 21.0741 1.81877
540 21.1418 1.80606
541 21.2095 1.79335
542 21.2771 1.7806
543 21.3448 1.76782
544 21.4124 1.75503
545 21.4801 1.74223
546 21.5477 1.72942
547 21.6154 1.71661
548 21.683 1.70378
549 21.7507 1.69095
550 21.8183 1.67809
551 21.8859 1.66524
552 21.9536 1.65236
553 22.0212 1.63948
554 22.0888 1.62661
555 22.1564 1.6137
556 22.1614 1.6132
557 22.1719 1.61127
558 22.1832 1.60992
559 22.1942 1.60961
560 22.2049 1.61047
561 22.2148 1.6126
562 22.2231 1.61585
563 22.2269 1.61862
564 22.2291 1.62063
565 22.2308 1.62252
566 22.2323 1.62512
567 22.2329 1.62784
568 22.2329 1.63025
569 22.2326 1.63296
570 22.2323 1.6334
571 22.2194 1.68322
572 22.1884 1.74351
573 22.1565 1.80524
574 22.1262 1.86791
575 22.098 1.93157
576 22.0722 1.99614
577 22.0488 2.06145
578 22.0275 2.12733
579 22.0083 2.19354
580 21.9907 2.26026
581 21.9746 2.32708
582 21.9597 2.3941
583 21.9457 2.46161
584 21.9325 2.5293
585 21.9199 2.59711
586 21.9078 2.66501
587 21.8962 2.73292
588 21.885 2.80081
589 21.8741 2.86889
590 21.8635 2.93686
591 21.853 3.00497
592 21.8427 3.07316
593 21.8326 3.14114
594 21.8225 3.20929
595 21.8126 3.27745
596 21.8027 3.34549
597 21.7929 3.41363
598 21.7832 3.48179
599 21.7735 3.54996
600 21.7638 3.61811
601 21.7541 3.68628
602 21.7444 3.75443
603 21.7347 3.82256
604 21.7251 3.89072
605 21.7154 3.9589
606 21.7057 4.02706
607 21.6961 4.09522
608 21.6864 4.16337
609 21.6768 4.23153
610 21.6672 4.2997
611 21.6575 4.36787
612 21.6479 4.43604
613 21.6383 4.50422
614 21.6286 4.57237
615 21.619 4.64054
616 21.6094 4.7087
617 21.5998 4.77686
618 21.5902 4.84501
619 21.5806 4.91318
620 21.571 4.98133
621 21.5614 5.0495
622 21.5518 5.11767
623 21.5422 5.18583
624 21.5414 5.18957
625 21.5401 5.19752
626 21.5382 5.20508
627 21.5355 5.21211
628 21.5322 5.21801
629 21.5299 5.22049
630 21.5277 5.22257
631 21.5255 5.224
632 21.5241 5.22453
633 21.5215 5.22509
634 21.5196 5.2248
635 21.5183 5.2245
636 21.5174 5.22428
637 21.4705 5.20156
638 21.418 5.15825
639 21.3654 5.1139
640 21.3108 5.07082
641 21.2558 5.0297
642 21.199 4.99051
643 21.1418 4.95345
644 21.0827 4.91798
645 21.023 4.88423
646 20.9625 4.85208
647 20.9007 4.82111
648 20.8389 4.79154
649 20.7764 4.76303
650 20.7134 4.73553
651 20.6497 4.70882
652 20.5859 4.68295
653 20.5221 4.65784
654 20.4576 4.63313
655 20.393 4.60895
656 20.3285 4.58526
657 20.2635 4.56181
658 20.1986 4.5387
659 20.1335 4.51582
660 20.0682 4.49318
661 20.0031 4.47076
662 19.938 4.44852
663 19.8728 4.42641
664 19.8077 4.40442
665 19.7424 4.38249
666 19.677 4.36057
667 19.6118 4.33878
668 19.5464 4.31698
669 19.4811 4.29526
670 19.4159 4.27363
671 19.3506 4.25202
672 19.2853 4.23044
673 19.2199 4.20887
674 19.1546 4.18736
675 19.0892 4.16586
676 19.0238 4.14437
677 18.9584 4.12288
678 18.893 4.10142
679 18.8276 4.07996
680 18.7622 4.05852
681 18.6968 4.03713
682 18.6314 4.01572
683 18.5659 3.99432
684 18.5005 3.97291
685 18.4351 3.95153
686 18.3696 3.93014
687 18.3042 3.90877
688 18.2387 3.88739
689 18.1733 3.86604
690 18.1079 3.84468
691 18.0425 3.82332
692 17.977 3.80197
693 17.9116 3.78062
694 17.8461 3.75928
695 17.7807 3.73791
696 17.7152 3.71656
697 17.6498 3.69521
698 17.5843 3.67387
699 17.5189 3.65255
700 17.4534 3.63125
701 17.388 3.60992
702 17.3225 3.58859
703 17.2571 3.5673
704 17.1916 3.54597
705 17.1262 3.52465
706 17.0607 3.50334
707 16.9952 3.48204
708 16.9298 3.46074
709 16.8643 3.43943
710 16.7989 3.41814
711 16.7958 3.4171
712 16.7871 3.41443
713 16.7787 3.41254
714 16.7696 3.41147
715 16.76 3.41156
716 16.7504 3.41309
717 16.741 3.41632
718 16.7388 3.41849
719 16.7361 3.42042
720 16.7337 3.4232
721 16.7318 3.42693
722 16.7313 3.43066
723 16.7318 3.43311
724 16.7324 3.43448
725 16.7327 3.43502
726 16.7325 3.43505
727 16.7345 3.43684
728 16.7758 3.46196
729 16.8398 3.488
730 16.9041 3.51375
731 16.9665 3.54089
732 17.0531 3.58226
733 17.0897 3.60153
734 17.1502 3.63549
735 17.2324 3.68512
736 17.2674 3.70791
737 17.3245 3.74665
738 17.3807 3.78673
739 17.436 3.82783
740 17.4906 3.86995
741 17.5445 3.91284
742 17.5978 3.95647
743 17.6507 4.00077
744 17.7031 4.04576
745 17.7548 4.09101
746 17.8063 4.13677
747 17.8573 4.18287
748 17.9082 4.22935
749 17.9586 4.27596
750 18.0091 4.32304
751 18.0593 4.37027
752 18.1094 4.4177
753 18.1593 4.46526
754 18.209 4.51296
755 18.2586 4.5607
756 18.3081 4.60865
757 18.3575 4.65659
758 18.4069 4.70461
759 18.4562 4.7527
760 18.5054 4.80084
761 18.5547 4.8491
762 18.6038 4.8973
763 18.653 4.94555
764 18.7021 4.99381
765 18.7511 5.0421
766 18.8001 5.09043
767 18.8491 5.13878
768 18.8981 5.1872
769 18.9471 5.23561
770 18.996 5.28401
771 19.045 5.33241
772 19.0939 5.38085
773 19.1428 5.42929
774 19.1917 5.47775
775 19.2406 5.52627
776 19.2895 5.57476
777 19.3384 5.62324
778 19.3873 5.67171
779 19.4361 5.72021
780 19.485 5.7687
781 19.5338 5.8172
782 19.5827 5.86571
783 19.6315 5.91422
784 19.6804 5.96273
785 19.7292 6.01125
786 19.778 6.05977
787 19.8269 6.10829
788 19.8757 6.15683
789 19.9245 6.20535
790 19.9733 6.2539
791 20.0222 6.30242
792 20.071 6.35096
793 20.1198 6.39951
794 20.1686 6.44806
795 20.2174 6.49659
796 20.2662 6.54514
797 20.315 6.59369
798 20.3638 6.64223
799 20.4126 6.69079
800 20.4614 6.73933
801 20.5102 6.78788
802 20.559 6.83643
803 20.6078 6.88499
804 20.6566 6.93356
805 20.7053 6.98213
806 20.7541 7.03069
807 20.8029 7.07926
808 20.8517 7.12784
809 20.9005 7.17642
810 20.9492 7.22499
811 20.998 7.27356
812 21.0468 7.32212
813 21.0956 7.3707
814 21.1443 7.41927
815 21.1931 7.46788
816 21.2419 7.51645
817 21.2906 7.56503
818 21.3394 7.61362
819 21.3882 7.66221
820 21.4369 7.71078
821 21.4857 7.75936
822 21.5344 7.80797
823 21.5832 7.85657
824 21.6319 7.90516
825 21.6807 7.95376
826 21.7294 8.00235
827 21.7782 8.05095
828 21.8269 8.09955
829 21.8756 8.14816
830 21.9244 8.19677
831 21.9731 8.24537
832 22.0219 8.29401
833 22.0706 8.34262
834 22.1193 8.39127
835 22.168 8.4399
836 22.2168 8.48854
837 22.2655 8.53717
838 22.3142 8.58581
839 22.3629 8.63446
840 22.4116 8.68309
841 22.4603 8.73172
842 22.5091 8.78036
843 22.5578 8.82902
844 22.6065 8.87767
845 22.6552 8.92633
846 22.7039 8.97499
847 22.7526 9.02364
848 22.8013 9.07231
849 22.85 9.12096
850 22.8987 9.16963
851 22.9474 9.21829
852 22.9961 9.26693
853 23.0448 9.3156
854 23.0935 9.36425
855 23.1616 9.43242
856 23.1909 9.4616
857 23.2396 9.51025
858 23.2883 9.55892
859 23.3369 9.60759
860 23.3856 9.65627
861 23.4343 9.7049
862 23.483 9.75357
863 23.5317 9.80224
864 23.5804 9.85088
865 23.6291 9.89955
866 23.6778 9.94821
867 23.7265 9.99686
868 23.7752 10.0455
869 23.8239 10.0942
870 23.8726 10.1428
871 23.9213 10.1915
872 23.97 10.2402
873 24.0186 10.2888
874 24.0673 10.3375
875 24.116 10.3861
876 24.1647 10.4348
877 24.2134 10.4834
878 24.2621 10.5321
879 24.3108 10.5808
880 24.3595 10.6294
881 24.4082 10.6781
882 24.4569 10.7268
883 24.5056 10.7754
884 24.5543 10.8241
885 24.603 10.8727
886 24.6517 10.9214
887 24.7004 10.97
888 24.7491 11.0187
889 24.7978 11.0674
890 24.8465 11.116
891 24.8952 11.1647
892 24.9439 11.2133
893 24.9926 11.262
894 25.0413 11.3106
895 25.09 11.3593
896 25.1387 11.408
897 25.1874 11.4566
898 25.2361 11.5053
899 25.2848 11.5539
900 25.3335 11.6026
901 25.3822 11.6513
902 25.4309 11.6999
903 25.4796 11.7486
904 25.5283 11.7972
905 25.577 11.8459
906 25.6257 11.8946
907 25.6744 11.9432
908 25.7231 11.9919
909 25.7718 12.0405
910 25.8205 12.0892
911 25.8692 12.1379
912 25.9179 12.1865
913 25.9666 12.2352
914 26.0153 12.2838
915 26.064 12.3325
916 26.1127 12.3811
917 26.1614 12.4298
918 26.2101 12.4785
919 26.2588 12.5271
920 26.3075 12.5758
921 26.3562 12.6245
922 26.4049 12.6731
923 26.4535 12.7218
924 26.5023 12.7704
925 26.5509 12.8191
926 26.5997 12.8677
927 26.6484 12.9164
928 26.7146 12.9826
929 26.7457 13.0137
930 26.7944 13.0624
931 26.8431 13.1111
932 26.8918 13.1597
933 26.9405 13.2084
934 26.9892 13.2571
935 27.0379 13.3057
936 27.0866 13.3544
937 27.1353 13.4031
938 27.184 13.4517
939 27.2326 13.5004
940 27.2335 13.5013
941 27.2396 13.5071
942 27.2457 13.5119
943 27.2527 13.5157
944 27.2608 13.5184
945 27.2693 13.5193
946 27.2732 13.5182
947 27.2757 13.5174
948 27.2771 13.5169
949 27.2787 13.5163
950 27.2813 13.5145
951 27.3249 13.4772
952 27.3654 13.422
953 27.4058 13.3663
954 27.4473 13.3117
955 27.4905 13.258
956 27.5351 13.2055
957 27.5805 13.1544
958 27.6272 13.1044
959 27.6753 13.0549
960 27.7239 13.0065
961 27.7733 12.9589
962 27.8237 12.9118
963 27.8745 12.8654
964 27.9256 12.8196
965 27.9773 12.7742
966 28.0294 12.7292
967 28.0819 12.6845
968 28.1343 12.6404
969 28.1873 12.5963
970 28.2401 12.5527
971 28.2934 12.5092
972 28.3469 12.466
973 28.4006 12.4228
974 28.4542 12.3799
975 28.5081 12.3371
976 28.5621 12.2943
977 28.6161 12.2517
978 28.6702 12.2093
979 28.7244 12.1668
980 28.7787 12.1244
981 28.833 12.0821
982 28.8872 12.0398
983 28.9416 11.9976
984 28.996 11.9554
985 29.0504 11.9132
986 29.1048 11.8711
987 29.1593 11.829
988 29.2137 11.7869
989 29.2682 11.7448
990 29.3227 11.7028
991 29.3772 11.6608
992 29.4317 11.6187
993 29.4863 11.5767
994 29.5409 11.5347
995 29.5954 11.4927
996 29.65 11.4508
997 29.7046 11.4088
998 29.7592 11.3668
999 29.8138 11.3249
1000 29.8684 11.283
1001 29.923 11.2411
1002 29.9776 11.1992
1003 30.0322 11.1573
1004 30.0868 11.1154
1005 30.1414 11.0735
1006 30.1961 11.0316
1007 30.2507 10.9897
1008 30.3053 10.9478
1009 30.3599 10.9059
1010 30.4146 10.864
1011 30.4692 10.8222
1012 30.5239 10.7803
1013 30.5785 10.7384
1014 30.6332 10.6966
1015 30.6878 10.6547
1016 30.7425 10.6129
1017 30.7971 10.571
1018 30.8518 10.5292
1019 30.9065 10.4873
1020 30.9611 10.4455
1021 31.0158 10.4036
1022 31.0705 10.3618
1023 31.1252 10.32
1024 31.1798 10.2782
1025 31.2345 10.2363
1026 31.2892 10.1945
1027 31.3439 10.1527
1028 31.3985 10.1109
1029 31.4532 10.069
1030 31.5079 10.0272
1031 31.5626 9.98541
1032 31.6172 9.9436
1033 31.6719 9.90179
1034 31.7266 9.85999
1035 31.7813 9.81819
1036 31.836 9.77639
1037 31.8907 9.73459
1038 31.9454 9.6928
1039 32.0001 9.651
1040 32.0547 9.60919
1041 32.1094 9.56739
1042 32.1641 9.5256
1043 32.2188 9.4838
1044 32.2735 9.44202
1045 32.3282 9.40024
1046 32.383 9.35847
1047 32.4377 9.31669
1048 32.4924 9.27489
1049 32.547 9.23309
1050 32.6018 9.1913
1051 32.6564 9.14954
1052 32.7112 9.10777
1053 32.7659 9.066
1054 32.8206 9.02423
1055 32.8754 8.98247
1056 32.9301 8.94071
1057 32.9848 8.89894
1058 33.0396 8.85719
1059 33.0943 8.81544
1060 33.149 8.77369
1061 33.2038 8.73195
1062 33.2586 8.69021
1063 33.3133 8.64846
1064 33.368 8.60673
1065 33.4228 8.56498
1066 33.4775 8.52322
1067 33.5323 8.4815
1068 33.587 8.43977
1069 33.6418 8.39801
1070 33.6965 8.35627
1071 33.7512 8.31454
1072 33.806 8.27282
1073 33.8607 8.23109
1074 33.9155 8.18936
1075 33.9702 8.14762
1076 34.025 8.10588
1077 34.0797 8.06414
1078 34.1345 8.02242
1079 34.1892 7.98067
1080 34.244 7.93895
1081 34.2987 7.89722
1082 34.3535 7.85549
1083 34.4082 7.81377
1084 34.463 7.77203
1085 34.5177 7.7303
1086 34.5725 7.68856
1087 34.6272 7.64683
1088 34.682 7.60512
1089 34.7367 7.56338
1090 34.7915 7.52164
1091 34.8462 7.47992
1092 34.901 7.43818
1093 34.9557 7.39643
1094 35.0105 7.35467
1095 35.0652 7.31292
1096 35.1199 7.27118
1097 35.1747 7.22945
1098 35.2294 7.18772
1099 35.2842 7.146
1100 35.339 7.10427
1101 35.3937 7.06254
1102 35.4485 7.02081
1103 35.5032 6.97907
1104 35.5579 6.93734
1105 35.6127 6.89561
1106 35.6675 6.85389
1107 35.7222 6.81216
1108 35.777 6.77043
1109 35.8317 6.72871
1110 35.8865 6.68698
1111 35.9412 6.64522
1112 35.996 6.6035
1113 36.0507 6.56175
1114 36.1054 6.52002
1115 36.1602 6.47829
1116 36.2149 6.43656
1117 36.2697 6.39482
1118 36.3244 6.35307
1119 36.3792 6.31134
1120 36.434 6.26963
1121 36.4887 6.22789
1122 36.5435 6.18616
1123 36.5982 6.14445
1124 36.653 6.10272
1125 36.7077 6.06099
1126 36.7625 6.01927
1127 36.8172 5.97753
1128 36.872 5.93578
1129 36.9267 5.89406
1130 36.9815 5.85233
1131 37.0362 5.8106
1132 37.091 5.76887
1133 37.1457 5.72713
1134 37.2005 5.6854
1135 37.2552 5.64368
1136 37.31 5.60194
1137 37.3112 5.60103
1138 37.3135 5.59915
1139 37.3162 5.59682
1140 37.3186 5.5945
1141 37.3209 5.59204
1142 37.3234 5.58902
1143 37.3258 5.58591
1144 37.3666 5.52927
1145 37.402 5.46971
1146 37.4364 5.4103
1147 37.4707 5.35062
1148 37.505 5.29092
1149 37.5393 5.2313
1150 37.5737 5.17158
1151 37.6082 5.11202
1152 37.6427 5.05245
1153 37.6774 4.99291
1154 37.712 4.93344
1155 37.7467 4.87408
1156 37.7815 4.81466
1157 37.8163 4.75533
1158 37.8512 4.69593
1159 37.8861 4.63661
1160 37.921 4.57729
1161 37.9559 4.51804
1162 37.9909 4.45873
1163 38.0259 4.39944
1164 38.0609 4.34016
1165 38.0959 4.2809
1166 38.131 4.22164
1167 38.166 4.1624
1168 38.2011 4.10316
1169 38.2361 4.04391
1170 38.2712 3.98468
1171 38.3062 3.92545
1172 38.3413 3.86625
1173 38.3764 3.80704
1174 38.4115 3.74782
1175 38.4466 3.68861
1176 38.4817 3.62939
1177 38.5168 3.57018
1178 38.5519 3.51098
1179 38.587 3.45176
1180 38.6222 3.39255
1181 38.6573 3.33335
1182 38.6924 3.27415
1183 38.7276 3.21495
1184 38.7627 3.15575
1185 38.8102 3.07588
1186 38.833 3.03738
1187 38.8682 2.9782
1188 38.9034 2.919
1189 38.9385 2.85982
1190 38.9737 2.80065
1191 39.0088 2.74147
1192 39.044 2.68229
1193 39.0792 2.62311
1194 39.1143 2.56394
1195 39.1495 2.50477
1196 39.1847 2.44561
1197 39.2199 2.38643
1198 39.2551 2.32726
1199 39.2903 2.26809
1200 39.3254 2.20892
1201 39.3606 2.14976
1202 39.3958 2.09059
1203 39.431 2.03144
1204 39.4662 1.97234
1205 39.4656 1.97318
1206 39.4642 1.97539
1207 39.463 1.97686
1208 39.4631 1.97635
1209 39.4643 1.97482
1210 39.4671 1.97196
1211 39.4698 1.96977
1212 39.4727 1.96774
1213 39.4756 1.96597
1214 39.4787 1.96441
1215 39.482 1.96311
1216 39.4854 1.96215
1217 39.4889 1.96144
1218 39.4925 1.96101
1219 39.5545 1.95274
1220 39.6234 1.95477
1221 39.6923 1.95795
1222 39.7611 1.9609
1223 39.8576 1.96425
1224 39.8992 1.96499
1225 39.9679 1.96584
1226 40.0369 1.966
1227 40.1059 1.96561
1228 40.1743 1.96476
1229 40.2434 1.96337
1230 40.2504 1.96731
1231 40.2612 1.96702
1232 40.2736 1.96694
1233 40.2857 1.96761
1234 40.2974 1.96909
1235 40.3082 1.97149
1236 40.3186 1.975
1237 40.328 1.97983
1238 40.3327 1.98407
1239 40.3344 1.98655
1240 40.3357 1.98858
1241 40.3367 1.9912
1242 40.3369 1.9941
1243 40.3364 1.99621
1244 40.3359 1.99798
1245 40.3354 1.99878
1246 40.3142 2.04336
1247 40.273 2.09631
1248 40.2303 2.15089
1249 40.1892 2.20679
1250 40.1504 2.26358
1251 40.1139 2.32186
1252 40.0795 2.3814
1253 40.047 2.44309
1254 40.0167 2.5049
1255 39.9881 2.56811
1256 39.961 2.63242
1257 39.9355 2.69662
1258 39.9112 2.76139
1259 39.888 2.82619
1260 39.8657 2.89142
1261 39.8441 2.95693
1262 39.8232 3.02252
1263 39.8028 3.08823
1264 39.7829 3.1539
1265 39.7633 3.21989
1266 39.7441 3.28583
1267 39.7251 3.35177
1268 39.7063 3.41804
1269 39.6877 3.48429
1270 39.6693 3.55055
1271 39.6511 3.61679
1272 39.6329 3.68321
1273 39.6147 3.74974
1274 39.5967 3.81626
1275 39.5787 3.88273
1276 39.5608 3.94918
1277 39.5429 4.01566
1278 39.5251 4.08216
1279 39.5073 4.14866
1280 39.4895 4.21516
1281 39.4717 4.28168
1282 39.4539 4.34819
1283 39.4361 4.41471
1284 39.4184 4.48122
1285 39.4007 4.54775
1286 39.3829 4.61427
1287 39.3652 4.68079
1288 39.3475 4.74731
1289 39.3298 4.81383
1290 39.312 4.88035
1291 39.2943 4.94688
1292 39.2766 5.0134
1293 39.2589 5.07992
1294 39.2412 5.14645
1295 39.2235 5.21297
1296 39.2058 5.27949
1297 39.1881 5.34602
1298 39.1704 5.41254
1299 39.1527 5.47907
1300 39.135 5.5456
1301 39.1173 5.61213
1302 39.0997 5.67866
1303 39.082 5.74519
1304 39.0643 5.81172
1305 39.0466 5.87826
1306 39.029 5.94479
1307 39.0113 6.01132
1308 38.9936 6.07786
1309 38.976 6.14439
1310 38.9583 6.21093
1311 38.9576 6.21332
1312 38.9556 6.22157
1313 38.9541 6.23086
1314 38.9536 6.24086
1315 38.9546 6.25091
1316 38.9575 6.26085
1317 38.9579 6.25911
1318 38.9592 6.26243
1319 38.9618 6.26486
1320 38.9651 6.26675
1321 38.9686 6.26757
1322 38.9718 6.26743
1323 38.9742 6.26658
1324 38.9756 6.26571
1325 38.9764 6.26515
1326 38.9781 6.26342
1327 39.0079 6.22368
1328 39.038 6.16223
1329 39.0676 6.09948
1330 39.0982 6.03808
1331 39.1307 5.97751
1332 39.1652 5.91783
1333 39.2015 5.85945
1334 39.2396 5.80186
1335 39.2792 5.74506
1336 39.3196 5.68977
1337 39.3616 5.63487
1338 39.4045 5.58073
1339 39.4479 5.52746
1340 39.4921 5.47474
1341 39.537 5.42239
1342 39.5823 5.37055
1343 39.6281 5.31906
1344 39.6742 5.26798
1345 39.7208 5.2171
1346 39.7675 5.16652
1347 39.8144 5.11646
1348 39.8616 5.06645
1349 39.909 5.01662
1350 39.9568 4.96671
1351 40.0045 4.91718
1352 40.0524 4.86777
1353 40.1003 4.81841
1354 40.1484 4.76915
1355 40.1966 4.7199
1356 40.2448 4.67075
1357 40.2932 4.62162
1358 40.3415 4.57259
1359 40.3898 4.5236
1360 40.4383 4.47461
1361 40.4867 4.42567
1362 40.5352 4.37679
1363 40.5837 4.32792
1364 40.6322 4.27909
1365 40.6807 4.23026
1366 40.7293 4.18143
1367 40.7779 4.13264
1368 40.8264 4.08384
1369 40.875 4.03506
1370 40.9236 3.98631
1371 40.9721 3.93754
1372 41.0207 3.88878
1373 41.0693 3.84004
1374 41.1179 3.7913
1375 41.1665 3.74257
1376 41.2152 3.69385
1377 41.2638 3.64512
1378 41.3124 3.59642
1379 41.3611 3.54771
1380 41.4097 3.49903
1381 41.4584 3.45034
1382 41.507 3.40163
1383 41.5557 3.35294
1384 41.6043 3.30424
1385 41.653 3.25555
1386 41.7017 3.20687
1387 41.7503 3.1582
1388 41.799 3.10954
1389 41.8477 3.06086
1390 41.8964 3.01219
1391 41.9451 2.96352
1392 41.9938 2.91485
1393 42.0424 2.86619
1394 42.0912 2.81752
1395 42.1398 2.76887
1396 42.1885 2.72022
1397 42.2372 2.67157
1398 42.2859 2.62292
1399 42.3346 2.57426
1400 42.3833 2.5256
1401 42.432 2.47693
1402 42.4807 2.42829
1403 42.5294 2.37964
1404 42.5781 2.33099
1405 42.6269 2.28236
1406 42.6756 2.23372
1407 42.7243 2.18508
1408 42.773 2.13645
1409 42.8217 2.08782
1410 42.8704 2.03917
1411 42.9191 1.99052
1412 42.9678 1.94189
1413 43.0165 1.89327
1414 43.0653 1.84464
1415 43.114 1.796
1416 43.1627 1.7474
1417 43.2114 1.69879
1418 43.2602 1.65019
1419 43.3089 1.60158
1420 43.3577 1.55295
1421 43.4064 1.50435
1422 43.4552 1.45574
1423 43.5039 1.40714
1424 43.5527 1.35855
1425 43.6015 1.30996
1426 43.6502 1.26139
1427 43.699 1.21281
1428 43.7478 1.16421
1429 43.7966 1.11563
1430 43.8453 1.06705
1431 43.8941 1.01845
1432 43.9429 0.96988
1433 43.9917 0.921318
1434 44.0405 0.872726
1435 44.0893 0.824138
1436 44.1381 0.775555
1437 44.1869 0.726987
1438 44.2356 0.678402
1439 44.2844 0.629833
1440 44.3332 0.581251
1441 44.382 0.532681
1442 44.4308 0.484117
1443 44.4795 0.435545
1444 44.5283 0.38696
1445 44.5771 0.338382
1446 44.6259 0.28979
1447 44.6747 0.24122
1448 44.7235 0.192643
1449 44.7723 0.144075
1450 44.821 0.0955176
1451 44.8698 0.0469417
1452 44.9186 -0.00160072
1453 44.9674 -0.0501795
1454 45.0162 -0.0987442
1455 45.065 -0.147329
1456 45.1138 -0.195912
1457 45.1626 -0.244495
1458 45.2114 -0.293065
1459 45.2601 -0.341635
1460 45.2618 -0.343304
1461 45.3144 -0.395709
1462 45.3632 -0.444363
1463 45.412 -0.492949
1464 45.4608 -0.541533
1465 45.5095 -0.590109
1466 45.5583 -0.638687
1467 45.6071 -0.687276
1468 45.6558 -0.735851
1469 45.7046 -0.784437
1470 45.7534 -0.83301
1471 45.8022 -0.881592
1472 45.851 -0.930173
1473 45.8997 -0.978745
1474 45.9485 -1.02732
1475 45.9495 -1.02826
1476 45.9995 -1.07815
1477 46.0486 -1.12711
1478 46.0497 -1.12823
1479 46.1019 -1.18072
1480 46.1026 -1.18151
1481 46.1531 -1.2325
1482 46.1524 -1.232
1483 46.2021 -1.28223
1484 46.203 -1.2833
1485 46.2553 -1.33614
1486 46.3038 -1.38516
1487 46.3054 -1.38689
1488 46.355 -1.43708
1489 46.3558 -1.43797
1490 46.4032 -1.48614
1491 46.4512 -1.53499
1492 46.4997 -1.58415
1493 46.5 -1.58443
1494 46.5488 -1.6337
1495 46.5477 -1.63259
1496 46.592 -1.67717
1497 46.5939 -1.67901
1498 46.6442 -1.72956
1499 46.6942 -1.77978
1500 46.7016 -1.78707
1501 46.7503 -1.83587
1502 46.7563 -1.84196
1503 46.7649 -1.85088
1504 46.7727 -1.8601
1505 46.7786 -1.869
1506 46.7796 -1.87202
1507 46.78 -1.87342
1508 46.7808 -1.87641
1509 46.7813 -1.88278
1510 46.7806 -1.88442
1511 46.7806 -1.88511
1512 46.7807 -1.88582
1513 46.7808 -1.8864
1514 46.781 -1.8858
1515 46.7814 -1.89138
1516 46.7813 -1.89251
1517 46.7828 -1.89772
1518 46.7822 -1.89636
1519 46.7838 -1.89872
1520 46.787 -1.90132
1521 46.787 -1.90075
1522 46.7915 -1.90238
1523 46.7936 -1.90175
1524 46.7958 -1.90143
1525 46.7965 -1.90104
1526 46.7964 -1.90108
1527 46.7987 -1.90089
1528 46.8024 -1.90013
1529 46.8056 -1.89937
1530 46.809 -1.89891
1531 46.8123 -1.89866
1532 46.8157 -1.89861
1533 46.8152 -1.89835
1534 46.8151 -1.89839
1535 46.815 -1.89843
1536 46.8748 -1.90527
1537 46.9443 -1.90992
1538 47.0129 -1.91343
1539 47.0815 -1.91657
1540 47.0889 -1.91407
1541 47.1582 -1.91973
1542 47.1641 -1.91766
1543 47.2311 -1.92321
1544 47.2355 -1.92148
1545 47.3008 -1.92696
1546 47.2985 -1.92506
1547 47.3595 -1.93028
1548 47.3638 -1.9293
1549 47.434 -1.93511
1550 47.5042 -1.93938
1551 47.5123 -1.93844
1552 47.58 -1.9426
1553 47.5899 -1.94179
1554 47.6618 -1.94528
1555 47.6614 -1.94377
1556 47.7283 -1.94647
1557 47.7332 -1.9453
1558 47.7956 -1.94705
1559 47.8647 -1.94774
1560 47.8736 -1.94658
1561 47.9411 -1.94771
1562 47.9423 -1.94655
1563 48.0061 -1.94745
1564 48.011 -1.94649
1565 48.0808 -1.94715
1566 48.0867 -1.94619
1567 48.1507 -1.94651
1568 48.1473 -1.94565
1569 48.2182 -1.94598
1570 48.2201 -1.94516
1571 48.2868 -1.9453
1572 48.3568 -1.94488
1573 48.3656 -1.94421
1574 48.4337 -1.94423
1575 48.4385 -1.94369
1576 48.5036 -1.94398
1577 48.5104 -1.94363
1578 48.5784 -1.94398
1579 48.5818 -1.94367
1580 48.6454 -1.94419
1581 48.6413 -1.94391
1582 48.7004 -1.94447
1583 48.7001 -1.94432
1584 48.7687 -1.94507
1585 48.8164 -1.94534
1586 48.8286 -1.94544
1587 48.9002 -1.9461
1588 48.9704 -1.94666
1589 49.0428 -1.94707
1590 49.0589 -1.94693
1591 49.0553 -1.94685
1592 49.0502 -1.94683
1593 49.1113 -1.94731
1594 49.1094 -1.94721
1595 49.1697 -1.94763
1596 49.2453 -1.94784
1597 49.2626 -1.94766
1598 49.3333 -1.94767
1599 49.3433 -1.94752
1600 49.4132 -1.94778
1601 49.4234 -1.94774
1602 49.4939 -1.94797
1603 49.4946 -1.94783
1604 49.5558 -1.94779
1605 49.5563 -1.94765
1606 49.6233 -1.94774
1607 49.6296 -1.9477
1608 49.6967 -1.94789
1609 49.7005 -1.94782
1610 49.7647 -1.94788
1611 49.7683 -1.94782
1612 49.8342 -1.9482
1613 49.8401 -1.9483
1614 49.9069 -1.94895
1615 49.9081 -1.94903
1616 49.9701 -1.94963
1617 49.9711 -1.94972
1618 50.0396 -1.95072
1619 50.0476 -1.95102
1620 50.1169 -1.95217
1621 50.1164 -1.95228
1622 50.1216 -1.95244
1623 50.1259 -1.95282
1624 50.1304 -1.95369
1625 50.1357 -1.95552
1626 50.1442 -1.96019
1627 50.152 -1.96794
1628 50.1525 -1.97143
1629 50.1519 -1.97114
1630 50.1522 -1.96819
1631 50.1525 -1.97166
1632 50.1477 -1.97756
1633 50.1427 -1.97944
1634 50.1414 -1.97938
1635 50.1445 -1.97964
1636 50.1448 -1.97998
1637 50.1403 -1.97725
1638 50.1132 -1.95466
1639 50.0779 -1.91774
1640 50.0389 -1.87176
1641 49.9991 -1.82397
1642 49.9566 -1.77647
1643 49.9078 -1.72922
1644 49.8864 -1.71232
1645 49.8783 -1.70713
1646 49.8732 -1.70467
1647 49.874 -1.70503
1648 49.8744 -1.70497
1649 49.8742 -1.70489
1650 49.8751 -1.70477
1651 49.8749 -1.70467
1652 49.8752 -1.70459
1653 49.8209 -1.71337
1654 49.7539 -1.72731
1655 49.6862 -1.74025
1656 49.6182 -1.75126
1657 49.6084 -1.75442
1658 49.6065 -1.75479
1659 49.6066 -1.75479
1660 49.6067 -1.75478
1661 49.6069 -1.75477
1662 49.6071 -1.75478
1663 49.6071 -1.75478
1664 49.6061 -1.75475
1665 49.6044 -1.75464
1666 49.6026 -1.75443
1667 49.6009 -1.75409
1668 49.599 -1.7535
1669 49.5962 -1.75225
1670 49.5932 -1.75018
1671 49.5907 -1.74758
1672 49.5889 -1.74439
1673 49.5876 -1.74026
1674 49.5878 -1.73672
1675 49.5888 -1.73432
1676 49.5894 -1.73374
1677 49.5912 -1.73137
1678 49.5942 -1.72945
1679 49.5976 -1.72812
1680 49.6017 -1.72724
1681 49.6053 -1.72703
1682 49.6085 -1.72705
1683 49.6596 -1.72476
1684 49.7278 -1.72895
1685 49.7975 -1.73273
1686 49.867 -1.73496
1687 49.9363 -1.73533
1688 50.0057 -1.73371
1689 50.0751 -1.73027
1690 50.1441 -1.72531
1691 50.2124 -1.71905
1692 50.2811 -1.71162
1693 50.2947 -1.712
1694 50.2948 -1.71229
1695 50.2943 -1.7123
1696 50.2941 -1.71233
1697 50.2942 -1.7123
1698 50.2947 -1.71212
1699 50.296 -1.71125
1700 50.2981 -1.70902
1701 50.2992 -1.707
1702 50.2995 -1.70552
1703 50.2997 -1.70258
1704 50.2988 -1.70026
1705 50.2983 -1.69977
1706 50.2966 -1.69761
1707 50.294 -1.69606
1708 50.2911 -1.69505
1709 50.288 -1.69468
1710 50.2852 -1.6948
1711 50.2824 -1.69508
1712 50.2317 -1.69954
1713 50.1652 -1.71399
1714 50.0976 -1.72847
1715 50.0295 -1.74136
1716 49.9609 -1.75247
1717 49.8922 -1.76158
1718 49.8776 -1.76652
1719 49.8754 -1.7671
1720 49.8755 -1.76711
1721 49.8758 -1.76705
1722 49.8761 -1.76701
1723 49.8763 -1.76698
1724 49.8757 -1.76689
1725 49.8766 -1.76699
1726 49.8772 -1.76709
1727 49.8774 -1.76716
1728 49.8769 -1.76699
1729 49.8755 -1.76629
1730 49.8733 -1.76457
1731 49.871 -1.76181
1732 49.8693 -1.75849
1733 49.8683 -1.75494
1734 49.8681 -1.75152
1735 49.8682 -1.74814
1736 49.8687 -1.74507
1737 49.8728 -1.68742
1738 49.8888 -1.62036
1739 49.905 -1.55287
1740 49.9195 -1.48502
1741 49.9282 -1.47541
1742 49.9293 -1.4726
1743 49.9294 -1.47259
1744 49.9293 -1.47248
1745 49.9293 -1.4726
1746 49.9292 -1.4728
1747 49.9292 -1.47288
1748 49.9238 -1.41255
1749 49.9199 -1.34323
1750 49.9166 -1.27436
1751 49.9133 -1.20546
1752 49.9151 -1.19887
1753 49.9099 -1.12944
1754 49.9113 -1.12464
1755 49.906 -1.05562
1756 49.9072 -1.05218
1757 49.9016 -0.982517
1758 49.9025 -0.978477
1759 49.8968 -0.909062
1760 49.8975 -0.906175
1761 49.897 -0.899157
1762 49.897 -0.892166
1763 49.8975 -0.88466
1764 49.8991 -0.876741
1765 49.9017 -0.869381
1766 49.9056 -0.862836
1767 49.9083 -0.860699
1768 49.911 -0.858518
1769 49.9143 -0.856902
1770 49.9179 -0.856045
1771 49.9213 -0.855894
1772 49.9244 -0.856209
1773 49.927 -0.856682
1774 49.9698 -0.857329
1775 50.0041 -0.865704
1776 50.0137 -0.876402
1777 50.0164 -0.877714
1778 50.0172 -0.877979
1779 50.0172 -0.877956
1780 50.0175 -0.877853
1781 50.0174 -0.877797
1782 50.0171 -0.877745
1783 50.017 -0.877667
1784 50.0179 -0.877533
1785 50.0184 -0.877484
1786 50.0179 -0.877564
1787 50.0174 -0.877625
1788 50.017 -0.877772
1789 50.0168 -0.877854
1790 50.0171 -0.877703
1791 50.0197 -0.875507
1792 50.0213 -0.872997
1793 50.0219 -0.870937
1794 50.0219 -0.869584
1795 50.0215 -0.866939
1796 50.0206 -0.865782
1797 50.0188 -0.863387
1798 50.0162 -0.861538
1799 50.0131 -0.860072
1800 50.0096 -0.859181
1801 50.006 -0.858655
1802 50.0023 -0.858472
1803 49.9503 -0.852356
1804 49.8819 -0.853276
1805 49.8121 -0.854065
1806 49.7425 -0.853363
1807 49.6731 -0.850858
1808 49.6557 -0.854181
1809 49.653 -0.854558
1810 49.6534 -0.854677
1811 49.6537 -0.854652
1812 49.6541 -0.854679
1813 49.6542 -0.854658
1814 49.6544 -0.854648
1815 49.6539 -0.85447
1816 49.6524 -0.853913
1817 49.6506 -0.852926
1818 49.6484 -0.851263
1819 49.6459 -0.848404
1820 49.644 -0.844794
1821 49.6433 -0.841201
1822 49.6435 -0.837825
1823 49.6446 -0.835412
1824 49.6451 -0.83523
1825 49.6471 -0.832689
1826 49.6508 -0.830523
1827 49.6545 -0.82954
1828 49.658 -0.829284
1829 49.6612 -0.829579
1830 49.6641 -0.830169
1831 49.7137 -0.838268
1832 49.7788 -0.858215
1833 49.8452 -0.878516
1834 49.9118 -0.89737
1835 49.9793 -0.914393
1836 50.047 -0.929264
1837 50.061 -0.935584
1838 50.0637 -0.936386
1839 50.0633 -0.93641
1840 50.0632 -0.936328
1841 50.0631 -0.936283
1842 50.0632 -0.936246
1843 50.0631 -0.936227
1844 50.0628 -0.936214
1845 50.0618 -0.936255
1846 50.0601 -0.936411
1847 50.0583 -0.936708
1848 50.0566 -0.937163
1849 50.0555 -0.937661
1850 50.0547 -0.938212
1851 50.0563 -0.937188
1852 50.0585 -0.93462
1853 50.0597 -0.931852
1854 50.0598 -0.930215
1855 50.0597 -0.927394
1856 50.0586 -0.925387
1857 50.0578 -0.924566
1858 50.0561 -0.922768
1859 50.0539 -0.92144
1860 50.0512 -0.920046
1861 50.0483 -0.91898
1862 50.0003 -0.8963
1863 49.9348 -0.875778
1864 49.8686 -0.854981
1865 49.8029 -0.833241
1866 49.7861 -0.832818
1867 49.7847 -0.83301
1868 49.7845 -0.83286
1869 49.7846 -0.832898
1870 49.7848 -0.832935
1871 49.7851 -0.833048
1872 49.7853 -0.83306
1873 49.7847 -0.832671
1874 49.7832 -0.831468
1875 49.7806 -0.828839
1876 49.7785 -0.825678
1877 49.777 -0.822136
1878 49.7761 -0.818495
1879 49.776 -0.815137
1880 49.7762 -0.811995
1881 49.7766 -0.809025
1882 49.7817 -0.748493
1883 49.796 -0.680922
1884 49.8101 -0.613019
1885 49.8227 -0.544631
1886 49.8334 -0.475998
1887 49.8422 -0.407831
1888 49.8492 -0.339014
1889 49.8547 -0.270234
1890 49.8588 -0.201121
1891 49.8619 -0.132191
1892 49.864 -0.0630358
1893 49.8655 0.00589824
1894 49.8664 0.0744443
1895 49.8667 0.14371
1896 49.8668 0.212685
1897 49.8665 0.281288
1898 49.8659 0.350149
1899 49.8651 0.419002
1900 49.8642 0.487954
1901 49.8631 0.556865
1902 49.8619 0.625701
1903 49.8606 0.694555
1904 49.8593 0.763398
1905 49.8579 0.832261
1906 49.8564 0.901087
1907 49.8549 0.969917
1908 49.8533 1.03875
1909 49.8517 1.10757
1910 49.8501 1.1764
1911 49.8485 1.24522
1912 49.8487 1.24962
1913 49.8483 1.25956
1914 49.8475 1.27012
1915 49.8459 1.28015
1916 49.8435 1.28894
1917 49.8402 1.29667
1918 49.8359 1.30368
1919 49.8336 1.30538
1920 49.8317 1.30698
1921 49.8296 1.30818
1922 49.8283 1.30853
1923 49.8258 1.30877
1924 49.8244 1.30822
1925 49.8232 1.30765
1926 49.8214 1.30613
1927 49.8199 1.30358
1928 49.8191 1.30066
1929 49.8188 1.29777
1930 49.8189 1.29505
1931 49.8229 1.24753
1932 49.8382 1.18201
1933 49.8542 1.11465
1934 49.8688 1.0463
1935 49.8815 0.977811
1936 49.8917 0.909089
1937 49.8994 0.840276
1938 49.905 0.771242
1939 49.9086 0.702073
1940 49.9105 0.632788
1941 49.9111 0.563737
1942 49.9106 0.494698
1943 49.9093 0.425666
1944 49.9073 0.356731
1945 49.9047 0.287851
1946 49.9017 0.218889
1947 49.8984 0.150023
1948 49.8948 0.0814543
1949 49.8909 0.0124291
1950 49.887 -0.0564862
1951 49.8829 -0.125209
1952 49.8786 -0.193999
1953 49.8743 -0.262813
1954 49.8698 -0.331403
1955 49.8653 -0.400087
1956 49.8608 -0.468888
1957 49.8562 -0.53759
1958 49.8515 -0.606381
1959 49.8469 -0.675058
1960 49.8422 -0.743763
1961 49.8375 -0.812463
1962 49.8328 -0.881161
1963 49.8327 -0.886029
1964 49.8318 -0.895655
1965 49.8302 -0.905757
1966 49.8278 -0.915652
1967 49.8241 -0.925422
1968 49.8189 -0.934492
1969 49.8161 -0.937001
1970 49.8134 -0.939426
1971 49.8096 -0.94164
1972 49.8055 -0.942739
1973 49.8014 -0.942689
1974 49.7997 -0.941906
1975 49.7995 -0.941899
1976 49.7973 -0.940629
1977 49.7955 -0.937895
1978 49.7944 -0.934774
1979 49.794 -0.931667
1980 49.794 -0.927827
1981 49.7943 -0.926184
1982 49.8008 -0.875059
1983 49.8168 -0.808796
1984 49.8325 -0.740897
1985 49.8461 -0.672885
1986 49.8534 -0.64723
1987 49.8556 -0.632794
1988 49.8564 -0.624817
1989 49.8564 -0.621701
1990 49.8562 -0.620092
1991 49.8557 -0.618169
1992 49.8552 -0.616638
1993 49.8543 -0.614652
1994 49.8532 -0.612628
1995 49.8516 -0.610053
1996 49.8497 -0.6074
1997 49.8476 -0.604746
1998 49.8135 -0.562413
1999 49.7819 -0.528832
2000 49.7344 -0.478691
2001 49.6869 -0.428619
2002 49.6396 -0.378533
2003 49.5923 -0.328251
2004 49.5451 -0.277682
2005 49.4983 -0.227169
2006 49.4515 -0.17651
2007 49.405 -0.125753
2008 49.3584 -0.0748448
2009 49.354 -0.0720051
2010 49.3491 -0.0663615
2011 49.3449 -0.060115
2012 49.3414 -0.0526122
2013 49.3394 -0.0439742
2014 49.3396 -0.035104
2015 49.3408 -0.0339866
2016 49.3408 -0.0338623
2017 49.34 -0.0344872
2018 49.3398 -0.0338654
2019 49.3415 -0.0317711
2020 49.3834 0.00908697
2021 49.4412 0.0467299
2022 49.4991 0.0845763
2023 49.556 0.124066
2024 49.5761 0.130082
2025 49.5796 0.130773
2026 49.5817 0.133181
2027 49.5835 0.135342
2028 49.5855 0.138218
2029 49.5875 0.141342
2030 49.5893 0.144695
2031 49.6187 0.204723
2032 49.6482 0.267127
2033 49.6775 0.329643
2034 49.7066 0.392142
2035 49.7358 0.454733
2036 49.7651 0.516925
2037 49.7946 0.579227
2038 49.7971 0.582889
2039 49.801 0.590467
2040 49.8058 0.597824
2041 49.8082 0.599914
2042 49.8111 0.602035
2043 49.8145 0.603557
2044 49.8183 0.604204
2045 49.8212 0.60378
2046 49.8226 0.603134
2047 49.8238 0.602495
2048 49.8259 0.600733
2049 49.8275 0.5981
2050 49.8288 0.594946
2051 49.8295 0.59203
2052 49.8301 0.588945
2053 49.8426 0.538194
2054 49.8489 0.469698
2055 49.8555 0.400473
2056 49.8636 0.331485
2057 49.8735 0.263046
2058 49.8852 0.194919
2059 49.8984 0.127269
2060 49.9131 0.0598519
2061 49.9347 -0.0318359
2062 49.9457 -0.0749408
2063 49.9632 -0.141663
2064 49.9812 -0.207853
2065 49.9997 -0.274027
2066 50.0187 -0.340304
2067 50.038 -0.406461
2068 50.0576 -0.47253
2069 50.0581 -0.481425
2070 50.0603 -0.489011
2071 50.0618 -0.496384
2072 50.0624 -0.504451
2073 50.0618 -0.513096
2074 50.0596 -0.521601
2075 50.0588 -0.521282
2076 50.0575 -0.523863
2077 50.055 -0.526083
2078 50.0518 -0.527784
2079 50.0482 -0.528595
2080 50.0449 -0.528328
2081 50.0433 -0.527594
2082 50.043 -0.527444
2083 50.0415 -0.526303
2084 50.04 -0.524076
2085 50.0389 -0.521461
2086 50.0226 -0.477245
2087 50.0097 -0.411622
2088 49.9976 -0.343223
2089 49.9852 -0.274983
2090 49.9716 -0.207024
2091 49.9567 -0.140035
2092 49.9401 -0.07309
2093 49.9221 -0.00659384
2094 49.9031 0.0589017
2095 49.8826 0.124755
2096 49.8612 0.190707
2097 49.8391 0.2561
2098 49.8163 0.321648
2099 49.793 0.386844
2100 49.7693 0.451629
2101 49.7673 0.460422
2102 49.7644 0.467394
2103 49.761 0.473514
2104 49.7576 0.477883
2105 49.7553 0.479679
2106 49.7532 0.480954
2107 49.7514 0.481548
2108 49.7507 0.481644
2109 49.7487 0.481529
2110 49.7479 0.48111
2111 49.7457 0.479682
2112 49.7442 0.477547
2113 49.743 0.4746
2114 49.7428 0.471538
2115 49.7432 0.46922
2116 49.744 0.467007
2117 49.7445 0.466043
2118 49.767 0.423624
2119 49.8061 0.368886
2120 49.8464 0.312351
2121 49.885 0.254438
2122 49.9214 0.195671
2123 49.9553 0.13553
2124 49.9872 0.073524
2125 50.0168 0.010922
2126 50.0443 -0.0528657
2127 50.0698 -0.117378
2128 50.0935 -0.182556
2129 50.1157 -0.247737
2130 50.1366 -0.313437
2131 50.1564 -0.379433
2132 50.1753 -0.445755
2133 50.1782 -0.454021
2134 50.1801 -0.462204
2135 50.1815 -0.471528
2136 50.1817 -0.481561
2137 50.1803 -0.491938
2138 50.1769 -0.501861
2139 50.1764 -0.500742
2140 50.1747 -0.503578
2141 50.1719 -0.50571
2142 50.1687 -0.507141
2143 50.165 -0.507696
2144 50.1624 -0.507246
2145 50.1612 -0.506658
2146 50.1608 -0.506515
2147 50.16 -0.505933
2148 50.159 -0.504656
2149 50.1574 -0.502025
2150 50.1315 -0.455461
2151 50.1065 -0.391274
2152 50.0811 -0.327308
2153 50.0542 -0.263919
2154 50.0256 -0.20119
2155 49.9951 -0.139063
2156 49.9631 -0.0778261
2157 49.9297 -0.0172178
2158 49.8953 0.0426061
2159 49.8601 0.101469
2160 49.8241 0.159832
2161 49.7869 0.218174
2162 49.7492 0.276207
2163 49.711 0.33367
2164 49.6723 0.390825
2165 49.6687 0.398617
2166 49.664 0.40488
2167 49.6588 0.41033
2168 49.6546 0.413375
2169 49.6498 0.415588
2170 49.6449 0.416576
2171 49.6414 0.416341
2172 49.6403 0.415886
2173 49.6409 0.416347
2174 49.6386 0.415207
2175 49.6372 0.413126
2176 49.6364 0.410838
2177 49.6362 0.408083
2178 49.6368 0.406207
2179 49.6373 0.405321
2180 49.6372 0.405332
2181 49.6672 0.375536
2182 49.7237 0.337086
2183 49.804 0.288639
2184 49.8437 0.263512
2185 49.9004 0.224237
2186 49.9545 0.182591
2187 50.006 0.138552
2188 50.0558 0.0915149
2189 50.1035 0.0422478
2190 50.1492 -0.00899544
2191 50.193 -0.0615737
2192 50.2353 -0.115668
2193 50.2762 -0.171264
2194 50.3157 -0.227686
2195 50.3538 -0.284678
2196 50.3795 -0.324385
2197 50.3821 -0.328611
2198 50.3817 -0.327998
2199 50.3816 -0.32782
2200 50.3816 -0.327581
2201 50.3815 -0.327384
2202 50.3815 -0.327265
2203 50.3812 -0.326459
2204 50.3812 -0.326162
2205 50.3812 -0.325726
2206 50.3815 -0.325902
2207 50.3816 -0.326617
2208 50.3806 -0.330185
2209 50.3787 -0.332483
2210 50.3762 -0.334869
2211 50.3728 -0.33672
2212 50.3691 -0.33755
2213 50.3655 -0.337395
2214 50.3629 -0.336427
2215 50.3612 -0.335383
2216 50.3603 -0.334547
2217 50.329 -0.304697
2218 50.291 -0.249998
2219 50.2542 -0.190878
2220 50.2159 -0.133011
2221 50.1758 -0.0768151
2222 50.1344 -0.0232843
2223 50.0901 0.0289764
2224 50.0437 0.0798357
2225 49.9955 0.12918
2226 49.9464 0.176743
2227 49.8959 0.223198
2228 49.8888 0.232423
2229 49.8885 0.232947
2230 49.8891 0.232423
2231 49.8893 0.232194
2232 49.8895 0.232015
2233 49.8897 0.231868
2234 49.8899 0.231764
2235 49.89 0.231688
2236 49.8901 0.231612
2237 49.8901 0.231544
2238 49.8902 0.231482
2239 49.8903 0.231435
2240 49.8903 0.231388
2241 49.8904 0.231346
2242 49.8904 0.231307
2243 49.8905 0.231275
2244 49.8905 0.231247
2245 49.8905 0.231233
2246 49.8905 0.231225
2247 49.8905 0.231218
2248 49.8906 0.231194
2249 49.8906 0.231169
2250 49.8906 0.231158
2251 49.8906 0.23115
2252 49.8906 0.231143
2253 49.8906 0.23114
2254 49.8907 0.231124
2255 49.8907 0.23112
2256 49.8907 0.231115
2257 49.8907 0.231115
2258 49.8907 0.231108
2259 49.8907 0.231105
2260 49.8907 0.231102
2261 49.8907 0.231113
2262 49.8907 0.231106
2263 49.8907 0.231101
2264 49.8907 0.231103
2265 49.8907 0.231097
2266 49.8907 0.231072
2267 49.8907 0.231078
2268 49.8907 0.231078
2269 49.8907 0.231088
2270 49.8907 0.231093
2271 49.8907 0.231095
2272 49.8907 0.231097
2273 49.8907 0.231101
2274 49.8907 0.231109
2275 49.8907 0.231105
2276 49.8907 0.231111
2277 49.8906 0.231126
2278 49.8906 0.231136
2279 49.8906 0.231138
2280 49.8906 0.23114
2281 49.8906 0.231146
2282 49.8906 0.231145
2283 49.8906 0.231142
2284 49.8906 0.231142
2285 49.8906 0.231139
2286 49.8906 0.231136
2287 49.8906 0.231133
2288 49.8906 0.231135
2289 49.8906 0.231151
2290 49.8906 0.231155
2291 49.8906 0.231151
2292 49.8906 0.231148
2293 49.8906 0.231143
2294 49.8906 0.231147
2295 49.8906 0.231143
2296 49.8906 0.231141
2297 49.8906 0.231145
2298 49.8906 0.231144
2299 49.8906 0.231144
2300 49.8906 0.231155
2301 49.8906 0.231156
2302 49.8906 0.231162
2303 49.8906 0.231169
2304 49.8906 0.231169
2305 49.8906 0.231176
2306 49.8906 0.231174
2307 49.8906 0.231179
2308 49.8906 0.231174
2309 49.8906 0.231168
2310 49.8906 0.231173
2311 49.8906 0.231169
2312 49.8906 0.231169
2313 49.8906 0.231175
2314 49.8906 0.231175
2315 49.8906 0.231171
2316 49.8906 0.231177
2317 49.8906 0.231178
2318 49.8906 0.231183
2319 49.8906 0.231184
2320 49.8905 0.231187
2321 49.8905 0.231192
2322 49.8905 0.231195
2323 49.8905 0.231189
2324 49.8905 0.231192
2325 49.8905 0.231197
2326 49.8905 0.231199
2327 49.8905 0.2312
2328 49.8905 0.231216
2329 49.8905 0.231217
2330 49.8905 0.231216
2331 49.8905 0.231219
2332 49.8905 0.231214
2333 49.8905 0.231212
2334 49.8905 0.23121
2335 49.8905 0.231221
2336 49.8905 0.231226
2337 49.8905 0.231234
2338 49.8905 0.231238
2339 49.8905 0.231229
2340 49.8905 0.231229
2341 49.8905 0.231235
2342 49.8905 0.231239
2343 49.8905 0.231239
2344 49.8905 0.23124
2345 49.8905 0.231238
2346 49.8905 0.23124
2347 49.8905 0.231235
2348 49.8905 0.23124
2349 49.8905 0.23125
2350 49.8905 0.231247
2351 49.8904 0.231259
2352 49.8904 0.231257
2353 49.8904 0.231253
2354 49.8904 0.231255
2355 49.8904 0.231257
2356 49.8904 0.231268
2357 49.8904 0.231268
2358 49.8904 0.231272
2359 49.8904 0.231276
2360 49.8904 0.231281
2361 49.8904 0.231293
2362 49.8904 0.231292
2363 49.8904 0.231286
2364 49.8904 0.231289
2365 49.8904 0.231294
2366 49.8904 0.231305
2367 49.8904 0.231311
2368 49.8904 0.231305
2369 49.8904 0.231312
2370 49.8904 0.231306
2371 49.8904 0.231304
2372 49.8904 0.231301
2373 49.8904 0.231298
2374 49.8904 0.231302
2375 49.8903 0.23132
2376 49.8903 0.231317
2377 49.8903 0.231326
2378 49.8903 0.231328
2379 49.8903 0.231329
2380 49.8903 0.231331
2381 49.8903 0.231326
2382 49.8903 0.231327
2383 49.8903 0.231323
2384 49.8903 0.231327
2385 49.8903 0.231331
2386 49.8903 0.231338
2387 49.8903 0.231333
2388 49.8903 0.231324
2389 49.8903 0.231323
2390 49.8903 0.23133
2391 49.8903 0.231329
2392 49.8903 0.23134
2393 49.8903 0.231341
2394 49.8903 0.231362
2395 49.8903 0.231365
2396 49.8903 0.231368
2397 49.8903 0.231372
2398 49.8903 0.231365
2399 49.8903 0.231362
2400 49.8903 0.231365
2401 49.8903 0.231371
2402 49.8903 0.231378
2403 49.8902 0.231381
2404 49.8902 0.231384
2405 49.8902 0.231384
2406 49.8902 0.231395
2407 49.8902 0.231394
2408 49.8902 0.231413
2409 49.8902 0.231411
2410 49.8902 0.231414
2411 49.8902 0.231414
2412 49.8902 0.231417
2413 49.8902 0.231421
2414 49.8902 0.23142
2415 49.8902 0.23142
2416 49.8902 0.231425
2417 49.8902 0.23144
2418 49.8902 0.231439
2419 49.8901 0.231443
2420 49.8901 0.231442
2421 49.8901 0.231441
2422 49.8901 0.231447
2423 49.8901 0.231449
2424 49.8901 0.23145
2425 49.8901 0.231454
2426 49.8901 0.231449
2427 49.8901 0.23145
2428 49.8901 0.231457
2429 49.8901 0.231451
2430 49.8901 0.231454
2431 49.8901 0.231453
2432 49.8901 0.231458
2433 49.8901 0.231456
2434 49.8901 0.231457
2435 49.8901 0.231469
2436 49.8901 0.231475
2437 49.8901 0.23147
2438 49.8901 0.231476
2439 49.8901 0.231463
2440 49.8901 0.231464
2441 49.8901 0.231459
2442 49.8901 0.23146
2443 49.8901 0.23146
2444 49.8901 0.231474
2445 49.8901 0.231467
2446 49.8901 0.231464
2447 49.8901 0.231464
2448 49.8901 0.231471
2449 49.8901 0.231483
2450 49.8901 0.231496
2451 49.8901 0.231491
2452 49.8901 0.231495
2453 49.8901 0.231491
2454 49.8901 0.231482
2455 49.8901 0.231483
2456 49.8901 0.23149
2457 49.8901 0.231494
2458 49.8901 0.231491
2459 49.8901 0.23149
2460 49.8901 0.231485
2461 49.8901 0.231489
2462 49.8901 0.231484
2463 49.8901 0.231486
2464 49.8901 0.231482
2465 49.8901 0.231487
2466 49.8901 0.231492
2467 49.8901 0.231503
2468 49.8901 0.231503
2469 49.89 0.231515
2470 49.89 0.231513
2471 49.89 0.231529
2472 49.89 0.23153
2473 49.89 0.231531
2474 49.89 0.231531
2475 49.89 0.231533
2476 49.89 0.231539
2477 49.89 0.23153
2478 49.89 0.231533
2479 49.89 0.231527
2480 49.89 0.231544
2481 49.89 0.231548
2482 49.89 0.231543
2483 49.89 0.231548
2484 49.89 0.231542
2485 49.89 0.23154
2486 49.89 0.231541
2487 49.89 0.231556
2488 49.89 0.23155
2489 49.89 0.231549
2490 49.89 0.231547
2491 49.89 0.231557
2492 49.89 0.231556
2493 49.89 0.231562
2494 49.89 0.231568
2495 49.8899 0.231574
2496 49.8899 0.231576
2497 49.8899 0.231576
2498 49.8899 0.231579
2499 49.8899 0.231585
2500 49.8899 0.231588
2501 49.8899 0.231589
2502 49.8899 0.231586
2503 49.8899 0.231581
2504 49.8899 0.231585
2505 49.8899 0.231581
2506 49.8899 0.231578
2507 49.8899 0.231585
2508 49.8899 0.231582
2509 49.8899 0.231585
2510 49.8899 0.231592
2511 49.8899 0.231587
2512 49.8899 0.231596
2513 49.8899 0.231601
2514 49.8899 0.231613
2515 49.8899 0.231601
2516 49.8899 0.231604
2517 49.8899 0.231611
2518 49.8899 0.231607
2519 49.8899 0.231616
2520 49.8899 0.231612
2521 49.8899 0.231618
2522 49.8899 0.23163
2523 49.8899 0.231632
2524 49.8898 0.231635
2525 49.8898 0.231637
2526 49.8899 0.231629
2527 49.8899 0.23163
2528 49.8899 0.231622
2529 49.8899 0.231616
2530 49.8899 0.23162
2531 49.8899 0.231622
2532 49.8899 0.231615
2533 49.8899 0.231615
2534 49.8899 0.231613
2535 49.8899 0.231615
2536 49.8899 0.231631
2537 49.8898 0.231635
2538 49.8898 0.231651
2539 49.8898 0.231654
2540 49.8898 0.231654
2541 49.8898 0.231657
2542 49.8898 0.231663
2543 49.8898 0.231663
2544 49.8898 0.231665
2545 49.8898 0.231678
2546 49.8898 0.231681
2547 49.8898 0.231678
2548 49.8898 0.231681
2549 49.8898 0.231681
2550 49.8898 0.231676
2551 49.8898 0.231679
2552 49.8898 0.231682
2553 49.8898 0.231681
2554 49.8898 0.231686
2555 49.8898 0.231689
2556 49.8898 0.231692
2557 49.8898 0.231695
2558 49.8897 0.231703
2559 49.8897 0.2317
2560 49.8897 0.231697
2561 49.8897 0.231702
2562 49.8897 0.231705
2563 49.8897 0.231723
2564 49.8897 0.231718
2565 49.8897 0.231728
2566 49.8897 0.231731
2567 49.8897 0.231733
2568 49.8897 0.231737
2569 49.8897 0.231743
2570 49.8897 0.231744
2571 49.8897 0.23174
2572 49.8897 0.231735
2573 49.8897 0.231733
2574 49.8897 0.231735
2575 49.8897 0.231751
2576 49.8896 0.231764
2577 49.8897 0.231758
2578 49.8896 0.231761
2579 49.8897 0.231756
2580 49.8897 0.231753
2581 49.8897 0.231756
2582 49.8897 0.231754
2583 49.8897 0.231746
2584 49.8897 0.231747
2585 49.8897 0.231757
2586 49.8896 0.231768
2587 49.8896 0.231775
2588 49.8896 0.23178
2589 49.8896 0.231785
2590 49.8896 0.231787
2591 49.8896 0.231787
2592 49.8896 0.231792
2593 49.8896 0.231791
2594 49.8896 0.231793
2595 49.8896 0.231789
