1224 11.9933 -6.06937
1291 9.92222 -3.13625
1449 11.5604 -4.24157
1740 14.444 -1.96341
1979 14.308 0.3539
1984 14.5025 0.54972
2618
1632 11.872 -1.09652
1639 12.0647 -1.32088
1641 12.1335 -1.406
1643 12.1806 -1.46386
1645 12.2273 -1.52198
1647 12.2802 -1.58881
1649 12.3218 -1.64205
1651 12.3663 -1.69907
1653 12.4102 -1.75589
1655 12.4568 -1.81671
1657 12.5013 -1.87476
1693 12.2551 -1.15694
1741 13.1564 -1.96108
2551 15.0149 0.00578348
2.8461
379 4.44103 -2.48786
858 6.68939 -5.85453
958 7.69287 -6.30752
998 8.5535 -6.78662
1048 9.39178 -6.82094
1106 10.0776 -6.78336
1148 10.9036 -6.37366
1194 11.2614 -5.73889
1252 11.1336 -5.04906
1291 10.6303 -4.30775
2234 15.5065 -0.404184
2251 15.1399 -0.312596
2255 15.0626 -0.269559
2257 14.9732 -0.202009
2258 14.942 -0.187263
2259 14.9107 -0.160417
2260 14.9075 -0.157655
