17 0.0463388 0.00720153
45 2.55088 0.0843488
86 3.15556 -0.280123
123 2.9122 -2.17402
167 2.99691 -2.78467
211 3.0696 -3.52258
241 2.20255 -3.22764
293 2.27214 -3.41024
332 1.49109 -3.34515
367 0.689281 -3.48727
401 0.00499036 -4.0833
463 -0.169066 -5.51162
497 0.645553 -6.03512
536 -0.0543274 -5.45028
580 -1.76156 -8.09583
674 0.66512 -6.01639
728 1.1936 -6.13999
770 1.82524 -6.12488
813 2.71339 -6.16028
853 3.51306 -6.19085
887 4.3707 -5.7299
930 4.67059 -5.10521
977 4.82269 -4.38781
1021 4.81499 -3.85721
1083 5.28665 -3.60172
1148 5.82359 -4.30017
1201 6.01766 -4.49995
1249 6.69857 -5.15078
1285 7.5355 -5.69827
1332 8.59575 -5.61822
1369 9.6736 -5.36998
1421 8.82992 -5.57869
1469 11.5808 -7.6983
1555 7.92337 -5.70813
1587 9.36811 -7.05269
1642 11.2698 -3.70335
1659 11.8753 -2.9402
1662 12.0153 -2.78328
1664 12.1043 -2.6829
1666 12.1552 -2.62592
1668 12.2206 -2.55495
1670 12.2864 -2.47955
1672 12.3437 -2.41571
1674 12.4122 -2.34098
1676 12.4781 -2.2668
1678 12.5327 -2.20643
1680 12.5857 -2.14741
1682 12.641 -2.08603
1684 12.7197 -1.99888
1686 12.8199 -1.88776
1688 12.9191 -1.77817
1690 12.9803 -1.71
1692 13.0516 -1.63134
1694 13.1185 -1.55689
1700 13.2095 -1.45792
1717 13.2154 -1.40641
1740 13.2874 -1.39641
1748 13.3585 -1.40825
1750 13.3587 -1.40825
1753 13.4182 -1.40404
1755 13.5534 -1.39342
1757 13.6989 -1.38322
1759 13.7368 -1.38082
1761 13.8247 -1.37443
1763 13.964 -1.36323
1765 14.0027 -1.36042
1767 14.0916 -1.35269
1799 13.6147 -1.68877
1860 16.4929 0.22298
1927 13.2726 -2.71987
1998 16.579 0.207557
2067 13.2489 -2.70327
2131 16.6467 0.00916483
2185 15.068 0.0989536
2186 15.0329 0.15863
2187 14.9976 0.217982
2188 14.984 0.253028
2219 15.9157 -0.426471
2283 13.0337 2.86426
2354 16.5105 0.0586253
2397 14.7567 -0.414044
2420 15.2289 -0.107677
2421 15.2288 -0.10787
2422 15.2288 -0.108387
2429 15.2284 -0.110634
2430 15.2284 -0.110609
2431 15.2285 -0.110431
2432 15.2284 -0.110548
2433 15.2284 -0.110615
2434 15.2284 -0.11065
2435 15.2284 -0.110672
2436 15.2283 -0.110689
2437 15.2283 -0.11071
2438 15.2283 -0.11072
2439 15.2283 -0.110727
2440 15.2283 -0.110734
2441 15.2283 -0.110738
2442 15.2283 -0.110752
2443 15.2283 -0.110754
2444 15.2283 -0.110764
2445 15.2283 -0.110767
2446 15.2283 -0.110768
2447 15.2283 -0.110767
2448 15.2283 -0.110763
2449 15.2283 -0.110766
2450 15.2283 -0.110772
2451 15.2283 -0.110794
2452 15.2283 -0.110803
2453 15.2283 -0.110804
2454 15.2283 -0.110805
2455 15.2283 -0.110789
2456 15.2283 -0.110793
2457 15.2283 -0.110797
2458 15.2283 -0.11079
2459 15.2283 -0.110783
2460 15.2283 -0.110781
2461 15.2283 -0.110785
2462 15.2283 -0.11078
2463 15.2283 -0.110775
2464 15.2283 -0.110764
2465 15.2283 -0.110756
2466 15.2283 -0.110756
2467 15.2283 -0.110752
2468 15.2283 -0.11075
2469 15.2283 -0.110745
2470 15.2283 -0.110736
2471 15.2283 -0.110728
2472 15.2283 -0.110728
2473 15.2283 -0.110724
2474 15.2283 -0.110722
2475 15.2283 -0.110715
2476 15.2283 -0.110698
2477 15.2283 -0.110697
2478 15.2283 -0.110691
2479 15.2283 -0.110679
2480 15.2283 -0.110671
2481 15.2283 -0.110671
2482 15.2283 -0.110667
2483 15.2283 -0.110665
2484 15.2283 -0.110655
2485 15.2283 -0.110647
2486 15.2284 -0.110642
2487 15.2284 -0.110639
2488 15.2284 -0.110635
2489 15.2284 -0.110628
2490 15.2284 -0.11062
2491 15.2284 -0.110619
2492 15.2284 -0.110616
2493 15.2284 -0.110614
2494 15.2284 -0.110599
2495 15.2284 -0.11059
2496 15.2284 -0.110589
2497 15.2284 -0.110585
2498 15.2284 -0.110583
2499 15.2284 -0.110579
2500 15.2284 -0.110563
2501 15.2284 -0.110564
2502 15.2284 -0.110563
2503 15.2284 -0.110558
2504 15.2284 -0.110552
2505 15.2284 -0.110534
2506 15.2284 -0.110533
2507 15.2284 -0.11053
2508 15.2284 -0.110528
2509 15.2284 -0.110514
2510 15.2284 -0.110506
2511 15.2284 -0.110505
2512 15.2284 -0.110501
2513 15.2284 -0.110499
2514 15.2284 -0.110495
2515 15.2284 -0.110487
2516 15.2284 -0.110478
2517 15.2284 -0.110479
2518 15.2284 -0.110478
2519 15.2284 -0.110474
2520 15.2284 -0.110472
2521 15.2284 -0.110466
2522 15.2284 -0.110457
2523 15.2285 -0.110449
2524 15.2285 -0.110445
2525 15.2285 -0.110439
2526 15.2285 -0.110431
2527 15.2285 -0.110423
2528 15.2285 -0.110419
2529 15.2285 -0.110416
2530 15.2285 -0.11041
2531 15.2285 -0.110402
2532 15.2285 -0.110393
2533 15.2285 -0.110394
2534 15.2285 -0.110389
2535 15.2285 -0.110387
2536 15.2285 -0.110383
2537 15.2285 -0.110375
2538 15.2285 -0.110367
2539 15.2285 -0.110362
2540 15.2285 -0.11036
2541 15.2285 -0.110354
2542 15.2285 -0.110345
2543 15.2285 -0.110336
2544 15.2285 -0.110337
2545 15.2285 -0.110336
2546 15.2285 -0.110329
2547 15.2285 -0.110323
2548 15.2285 -0.110315
2549 15.2285 -0.110306
2550 15.2285 -0.110302
2551 15.2285 -0.1103
2552 15.2285 -0.110295
2553 15.2285 -0.110287
2554 15.2285 -0.110279
2555 15.2285 -0.110278
2556 15.2285 -0.110272
2557 15.2285 -0.110269
2558 15.2286 -0.110263
2559 15.2286 -0.110254
2560 15.2286 -0.110253
2561 15.2286 -0.110248
2562 15.2286 -0.110241
2563 15.2286 -0.110224
2564 15.2286 -0.110224
2565 15.2286 -0.11022
2566 15.2286 -0.110218
2567 15.2286 -0.110212
2568 15.2286 -0.110204
2569 15.2286 -0.110195
2570 15.2286 -0.110195
2571 15.2286 -0.110194
2572 15.2286 -0.110189
2573 15.2286 -0.110183
2574 15.2286 -0.110166
2575 15.2286 -0.110166
2576 15.2286 -0.110164
2577 15.2286 -0.110161
2578 15.2286 -0.110154
2579 15.2286 -0.110147
2580 15.2286 -0.110139
2581 15.2286 -0.110138
2582 15.2286 -0.110134
2583 15.2286 -0.110132
2584 15.2286 -0.11012
2585 15.2286 -0.110112
2586 15.2286 -0.110111
2587 15.2286 -0.110108
2588 15.2286 -0.110101
2589 15.2286 -0.110085
2590 15.2286 -0.110085
2591 15.2286 -0.110084
2592 15.2286 -0.110081
2593 15.2287 -0.110073
2594 15.2287 -0.110064
2595 15.2287 -0.110056
2596 15.2287 -0.110055
2597 15.2287 -0.11005
2598 15.2287 -0.110045
2599 15.2287 -0.110038
2600 15.2287 -0.110029
2601 15.2287 -0.110028
2602 15.2287 -0.110023
2603 15.2287 -0.110012
2604 15.2287 -0.110003
2605 15.2287 -0.110003
2606 15.2287 -0.110002
2607 15.2287 -0.109999
2608 15.2287 -0.109993
2609 15.2287 -0.109986
2610 15.2287 -0.109977
2611 15.2287 -0.109976
2612 15.2287 -0.109972
2613 15.2287 -0.109965
2614 15.2287 -0.109948
2615 15.2287 -0.109948
2616 15.2287 -0.109947
2617 15.2287 -0.109944
2618 15.2287 -0.109941
2619 15.2287 -0.109929
2620 15.2287 -0.109921
2621 15.2287 -0.10992
2622 15.2287 -0.109914
2623 15.2287 -0.109908
2624 15.2287 -0.1099
2625 15.2287 -0.109891
2626 15.2287 -0.109891
2627 15.2288 -0.10989
2628 15.2288 -0.109884
2629 15.2288 -0.109869
2630 15.2288 -0.109861
2631 15.2288 -0.109861
2632 15.2288 -0.109857
2633 15.2288 -0.109849
2634 15.2288 -0.109841
2635 15.2288 -0.109832
2636 15.2288 -0.109832
2637 15.2288 -0.109827
2638 15.2288 -0.109821
2639 15.2288 -0.109812
2640 15.2288 -0.109804
2641 15.2288 -0.109804
2642 15.2288 -0.109799
2643 15.2288 -0.109791
2644 15.2288 -0.109773
2645 15.2288 -0.109773
2646 15.2288 -0.109772
2647 15.2288 -0.109767
2648 15.2288 -0.109755
2649 15.2288 -0.109746
2650 15.2288 -0.109747
2651 15.2288 -0.109746
2652 15.2288 -0.109742
2653 15.2288 -0.109735
2654 15.2288 -0.109719
2655 15.2288 -0.10972
2656 15.2288 -0.109719
2657 15.2288 -0.109715
2658 15.2288 -0.109707
2659 15.2289 -0.109698
2660 15.2289 -0.10969
2661 15.2289 -0.109689
2662 15.2289 -0.109683
2663 15.2289 -0.109677
2664 15.2289 -0.109668
2665 15.2289 -0.10966
2666 15.2289 -0.109658
2667 15.2289 -0.109655
2668 15.2289 -0.109652
2669 15.2289 -0.109646
2670 15.2289 -0.109638
2671 15.2289 -0.109629
2672 15.2289 -0.109624
2673 15.2289 -0.109618
2674 15.2289 -0.109611
2675 15.2289 -0.109603
2676 15.2289 -0.109602
2677 15.2289 -0.109599
2678 15.2289 -0.109592
2679 15.2289 -0.109584
2680 15.2289 -0.109576
2681 15.2289 -0.109574
2682 15.2289 -0.109571
2683 15.2289 -0.109568
2684 15.2289 -0.109563
2685 15.2289 -0.109546
2686 15.2289 -0.109544
2687 15.2289 -0.109541
2688 15.2289 -0.109538
2689 15.2289 -0.109534
2690 15.2289 -0.109527
2691 15.2289 -0.109518
2692 15.2289 -0.109519
2693 15.2289 -0.109514
2694 15.2289 -0.109511
2695 15.229 -0.1095
2696 15.229 -0.109491
2697 15.229 -0.10949
2698 15.229 -0.109484
2699 15.229 -0.109477
2700 15.229 -0.10946
2701 15.229 -0.10946
2702 15.229 -0.109456
2703 15.229 -0.109453
2704 15.229 -0.109448
2705 15.229 -0.10943
2706 15.229 -0.109429
2707 15.229 -0.109426
2708 15.229 -0.109423
2709 15.229 -0.109408
2710 15.229 -0.1094
2711 15.229 -0.109399
2712 15.229 -0.109396
2713 15.229 -0.109389
2714 15.229 -0.109382
2715 15.229 -0.109373
2716 15.229 -0.109372
2717 15.229 -0.109367
2718 15.229 -0.109362
2719 15.229 -0.109354
2720 15.229 -0.109346
2721 15.229 -0.109345
2722 15.229 -0.109339
2723 15.229 -0.109334
2724 15.229 -0.109325
2725 15.2291 -0.109317
2726 15.2291 -0.109316
2727 15.2291 -0.109312
2728 15.2291 -0.10931
2729 15.2291 -0.109303
2730 15.2291 -0.109286
2731 15.2291 -0.109285
2732 15.2291 -0.109279
2733 15.2291 -0.109264
2734 15.2291 -0.109256
2735 15.2291 -0.109255
2736 15.2291 -0.109251
2737 15.2291 -0.109249
2738 15.2291 -0.109243
2739 15.2291 -0.109234
2740 15.2291 -0.109226
2741 15.2291 -0.109224
2742 15.2291 -0.109221
2743 15.2291 -0.109212
2744 15.2291 -0.109195
2745 15.2291 -0.109195
2746 15.2291 -0.10919
2747 15.2291 -0.109188
2748 15.2291 -0.109175
2749 15.2291 -0.109167
2750 15.2291 -0.109167
2751 15.2291 -0.109166
2752 15.2291 -0.109162
2753 15.2291 -0.109156
2754 15.2291 -0.109139
2755 15.2291 -0.109138
2756 15.2291 -0.109135
2757 15.2291 -0.109132
2758 15.2292 -0.109126
2759 15.2292 -0.109109
2760 15.2292 -0.109109
2761 15.2292 -0.109104
2762 15.2292 -0.109096
2763 15.2292 -0.109087
2764 15.2292 -0.109079
2765 15.2292 -0.109079
2766 15.2292 -0.109078
2767 15.2292 -0.109074
2768 15.2292 -0.109072
2769 15.2292 -0.109066
2770 15.2292 -0.109057
2771 15.2292 -0.109049
2772 15.2292 -0.109049
2773 15.2292 -0.109044
2774 15.2292 -0.109035
2775 15.2292 -0.109018
2776 15.2292 -0.109017
2777 15.2292 -0.109011
2778 15.2292 -0.108999
2779 15.2292 -0.10899
2780 15.2292 -0.10899
2781 15.2292 -0.108989
2782 15.2292 -0.108986
2783 15.2292 -0.108979
2784 15.2292 -0.108962
2785 15.2292 -0.108962
2786 15.2292 -0.108955
2787 15.2292 -0.108941
2788 15.2293 -0.108933
2789 15.2293 -0.108928
2790 15.2293 -0.108925
2791 15.2293 -0.108919
2792 15.2293 -0.108911
2793 15.2293 -0.108902
2794 15.2293 -0.108898
2795 15.2293 -0.108889
2796 15.2293 -0.108881
2797 15.2293 -0.108872
2798 15.2293 -0.108872
2799 15.2293 -0.108871
2800 15.2293 -0.108867
2801 15.2293 -0.108864
2802 15.2293 -0.10885
2803 15.2293 -0.108842
2804 15.2293 -0.108841
2805 15.2293 -0.108837
2806 15.2293 -0.108835
2807 15.2293 -0.108829
2808 15.2293 -0.10882
2809 15.2293 -0.108812
2810 15.2293 -0.108812
2811 15.2293 -0.10881
2812 15.2293 -0.108807
2813 15.2293 -0.108804
2814 15.2293 -0.108793
2815 15.2293 -0.108784
2816 15.2293 -0.108779
2817 15.2293 -0.108773
2818 15.2293 -0.108758
2819 15.2293 -0.108757
2820 15.2293 -0.108753
2821 15.2293 -0.108751
2822 15.2294 -0.108745
2823 15.2294 -0.108736
2824 15.2294 -0.108728
2825 15.2294 -0.108728
2826 15.2294 -0.108727
2827 15.2294 -0.108724
2828 15.2294 -0.108715
2829 15.2294 -0.108697
2830 15.2294 -0.108698
2831 15.2294 -0.108696
2832 15.2294 -0.108693
2833 15.2294 -0.108691
2834 15.2294 -0.108685
2835 15.2294 -0.108677
2836 15.2294 -0.108668
2837 15.2294 -0.108668
2838 15.2294 -0.108667
2839 15.2294 -0.108664
2840 15.2294 -0.108661
2841 15.2294 -0.10865
2842 15.2294 -0.108642
2843 15.2294 -0.108637
2844 15.2294 -0.108635
2845 15.2294 -0.108632
2846 15.2294 -0.108617
2847 15.2294 -0.108615
2848 15.2294 -0.108612
2849 15.2294 -0.108609
2850 15.2294 -0.108603
2851 15.2294 -0.108595
2852 15.2294 -0.108586
2853 15.2294 -0.108585
2854 15.2294 -0.10858
2855 15.2294 -0.108576
2856 15.2294 -0.108568
2857 15.2294 -0.10856
2858 15.2294 -0.10856
2859 15.2294 -0.108558
2860 15.2295 -0.108553
2861 15.2295 -0.108539
2862 15.2295 -0.108531
2863 15.2295 -0.10853
2864 15.2295 -0.108526
2865 15.2295 -0.108523
2866 15.2295 -0.10852
2867 15.2295 -0.108505
2868 15.2295 -0.108504
2869 15.2295 -0.108501
2870 15.2295 -0.108498
2871 15.2295 -0.108492
2872 15.2295 -0.108483
2873 15.2295 -0.108475
2874 15.2295 -0.108475
2875 15.2295 -0.108474
2876 15.2295 -0.10847
2877 15.2295 -0.108468
2878 15.2295 -0.108464
2879 15.2295 -0.108456
2880 15.2295 -0.108448
2881 15.2295 -0.108448
2882 15.2295 -0.108444
2883 15.2295 -0.108441
2884 15.2295 -0.108435
2885 15.2295 -0.108427
2886 15.2295 -0.108418
2887 15.2295 -0.108419
2888 15.2295 -0.108414
2889 15.2295 -0.108408
2890 15.2295 -0.108402
2891 15.2295 -0.108393
2892 15.2295 -0.108391
2893 15.2295 -0.108388
2894 15.2295 -0.108385
2895 15.2295 -0.108381
2896 15.2295 -0.108365
2897 15.2295 -0.108366
2898 15.2295 -0.108365
2899 15.2296 -0.10836
2900 15.2296 -0.108355
2901 15.2296 -0.108348
2902 15.2296 -0.108339
2903 15.2296 -0.108339
2904 15.2296 -0.108338
2905 15.2296 -0.108335
2906 15.2296 -0.108333
2907 15.2296 -0.108318
2908 15.2296 -0.108311
2909 15.2296 -0.108309
2910 15.2296 -0.108303
2911 15.2296 -0.108288
2912 15.2296 -0.10828
2913 15.2296 -0.108278
2914 15.2296 -0.108275
2915 15.2296 -0.108273
2916 15.2296 -0.108258
2917 15.2296 -0.10825
2918 15.2296 -0.108249
2919 15.2296 -0.108245
2920 15.2296 -0.108239
2921 15.2296 -0.108223
2922 15.2296 -0.108223
2923 15.2296 -0.108222
2924 15.2296 -0.108219
2925 15.2296 -0.108212
2926 15.2296 -0.108196
2927 15.2296 -0.108197
2928 15.2296 -0.108192
2929 15.2296 -0.10819
2930 15.2296 -0.108184
2931 15.2296 -0.108175
2932 15.2297 -0.108166
2933 15.2297 -0.108165
2934 15.2297 -0.108161
2935 15.2297 -0.108159
2936 15.2297 -0.108155
2937 15.2297 -0.108139
2938 15.2297 -0.108137
2939 15.2297 -0.108134
2940 15.2297 -0.108132
2941 15.2297 -0.10812
2942 15.2297 -0.108113
2943 15.2297 -0.108111
2944 15.2297 -0.108108
2945 15.2297 -0.108099
2946 15.2297 -0.108082
2947 15.2297 -0.108083
2948 15.2297 -0.108078
2949 15.2297 -0.108075
2950 15.2297 -0.10806
2951 15.2297 -0.108051
2952 15.2297 -0.108052
2953 15.2297 -0.10805
2954 15.2297 -0.108047
2955 15.2297 -0.10804
2956 15.2297 -0.108023
2957 15.2297 -0.108022
2958 15.2297 -0.108018
2959 15.2297 -0.108012
2960 15.2297 -0.108004
2961 15.2297 -0.107995
2962 15.2297 -0.107991
2963 15.2297 -0.107988
2964 15.2297 -0.107984
2965 15.2297 -0.107976
2966 15.2298 -0.107968
2967 15.2298 -0.107967
2968 15.2298 -0.107961
2969 15.2298 -0.107955
2970 15.2298 -0.107946
2971 15.2298 -0.107937
2972 15.2298 -0.107938
2973 15.2298 -0.107936
2974 15.2298 -0.107933
2975 15.2298 -0.107927
2976 15.2298 -0.107919
2977 15.2298 -0.10791
2978 15.2298 -0.10791
2979 15.2298 -0.107909
2980 15.2298 -0.107903
2981 15.2298 -0.107898
2982 15.2298 -0.107891
2983 15.2298 -0.107882
2984 15.2298 -0.107883
2985 15.2298 -0.107882
2986 15.2298 -0.107879
2987 15.2298 -0.107871
2988 15.2298 -0.107854
2989 15.2298 -0.107853
2990 15.2298 -0.107847
2991 15.2298 -0.107833
2992 15.2298 -0.107824
2993 15.2298 -0.107824
2994 15.2298 -0.107823
2995 15.2298 -0.107818
2996 15.2298 -0.107803
2997 15.2298 -0.107795
2998 15.2298 -0.10779
2999 15.2298 -0.107787
3000 15.2298 -0.107781
3001 15.2299 -0.107773
3002 15.2299 -0.107764
3003 15.2299 -0.107765
3004 15.2299 -0.10776
3005 15.2299 -0.107758
3006 15.2299 -0.107752
3007 15.2299 -0.107744
3008 15.2299 -0.107735
3009 15.2299 -0.107734
3010 15.2299 -0.107728
3011 15.2299 -0.107724
3012 15.2299 -0.107707
3013 15.2299 -0.107708
3014 15.2299 -0.107703
3015 15.2299 -0.107701
3016 15.2299 -0.107695
3017 15.2299 -0.107678
3018 15.2299 -0.107678
3019 15.2299 -0.107676
3020 15.2299 -0.10767
3021 15.2299 -0.107666
3022 15.2299 -0.107659
3023 15.2299 -0.107651
3024 15.2299 -0.10765
3025 15.2299 -0.107647
3026 15.2299 -0.107645
3027 15.2299 -0.107642
3028 15.2299 -0.107635
3029 15.2299 -0.107627
3030 15.2299 -0.107625
3031 15.2299 -0.107619
3032 15.2299 -0.107615
3033 15.2299 -0.107607
3034 15.2299 -0.107599
3035 15.2299 -0.107599
3036 15.2299 -0.107598
3037 15.2299 -0.107595
3038 15.2299 -0.107593
3039 15.23 -0.107578
3040 15.23 -0.10757
3041 15.23 -0.10757
3042 15.23 -0.107565
3043 15.23 -0.107563
3044 15.23 -0.107557
3045 15.23 -0.107548
3046 15.23 -0.10754
3047 15.23 -0.107539
3048 15.23 -0.107535
3049 15.23 -0.107527
3050 15.23 -0.10751
3051 15.23 -0.107508
3052 15.23 -0.107505
3053 15.23 -0.107503
3054 15.23 -0.107499
3055 15.23 -0.107482
3056 15.23 -0.107481
3057 15.23 -0.107475
3058 15.23 -0.107469
3059 15.23 -0.10746
3060 15.23 -0.107452
3061 15.23 -0.107452
3062 15.23 -0.107448
3063 15.23 -0.107441
3064 15.23 -0.107433
3065 15.23 -0.107425
3066 15.23 -0.107423
3067 15.23 -0.107419
3068 15.23 -0.107413
3069 15.23 -0.107405
3070 15.23 -0.107397
3071 15.23 -0.107397
3072 15.23 -0.107392
3073 15.2301 -0.107384
3074 15.2301 -0.107367
3075 15.2301 -0.107367
3076 15.2301 -0.107363
3077 15.2301 -0.107361
3078 15.2301 -0.107358
3079 15.2301 -0.107351
3080 15.2301 -0.107343
3081 15.2301 -0.107343
3082 15.2301 -0.107338
3083 15.2301 -0.107329
3084 15.2301 -0.10732
3085 15.2301 -0.107311
3086 15.2301 -0.107311
3087 15.2301 -0.10731
3088 15.2301 -0.107307
3089 15.2301 -0.107305
3090 15.2301 -0.107293
3091 15.2301 -0.107285
3092 15.2301 -0.107285
3093 15.2301 -0.107283
3094 15.2301 -0.107278
3095 15.2301 -0.107267
3096 15.2301 -0.107258
