2399 0.997872
2403 0.837225
2405 0.765116
2407 0.719827
2409 0.676866
2411 0.641267
2413 0.616946
2415 0.598439
2426 0.575213
2441 0.546336
2515 0.408607
2523 0.353542
2727 0.303104
.77533
1670 3.67581
1672 3.59046
1674 3.48953
1676 3.3909
1678 3.30997
1680 3.23112
1682 3.14905
1684 3.03238
1686 2.88382
1688 2.73718
1690 2.6464
1692 2.54114
1694 2.44213
1700 2.30898
1717 2.27219
1740 2.20971
1748 2.16277
1750 2.16266
1753 2.11507
1755 2.00854
1757 1.89896
1759 1.87142
1761 1.80842
1763 1.71221
1765 1.68682
2185 0.120043
2186 0.161999
9587
3183 0.00891026
3184 0.0088622
3185 0.00883805
3186 0.00881757
3187 0.00878902
3188 0.00876167
3189 0.00873862
3190 0.00871721
3191 0.00870435
3192 0.00869684
3193 0.00868561
3194 0.00867696
3195 0.00866649
3196 0.00865545
3197 0.00863605
3198 0.00861698
3199 0.00861132
3200 0.00860435
3201 0.0085969
3202 0.00858763
3203 0.00857007
3204 0.00855482
3205 0.00854913
3206 0.00854581
3207 0.00854431
3208 0.00854444
3209 0.00853389
3210 0.0085205
3211 0.00852869
3219 0.00850955
3220 0.00850789
3221 0.00850666
3222 0.00850767
