0 0.00112748 3.53824e-06
2 0.0463286 0.000222181
4 0.136519 0.000669026
6 0.213093 0.00107482
8 0.288029 0.00150595
10 0.361557 0.00200812
12 0.423474 0.0025316
14 0.496317 0.00327126
16 0.567705 0.00405423
18 0.640297 0.00487515
20 0.711932 0.0056719
22 0.78325 0.00644535
24 0.854552 0.00718242
26 0.933824 0.00789498
28 1.01318 0.00868358
30 1.08943 0.00953384
32 1.1594 0.0103153
34 1.22888 0.0111485
36 1.29608 0.0120145
38 1.36604 0.0129974
40 1.43563 0.0140585
42 1.50433 0.0152177
44 1.57301 0.0165048
46 1.64089 0.0178771
48 1.71059 0.0194164
50 1.77261 0.0209143
58 1.98889 0.0282115
69 2.58385 -0.00867442
84 3.5466 0.0266904
98 4.44919 0.0912854
112 5.35023 0.163769
145 7.55899 0.2575
185 10.2526 0.262649
217 12.3955 0.246392
242 14.0563 0.229575
260 15.2362 0.217979
274 16.1394 0.208726
284 16.7679 0.202082
291 17.1909 0.197319
297 17.5447 0.192603
301 17.7605 0.18936
306 17.9646 0.185892
308 18.0578 0.184195
310 18.1342 0.182614
314 18.2474 0.180002
316 18.3397 0.177712
318 18.4169 0.175734
320 18.4917 0.173459
322 18.5634 0.17086
324 18.6326 0.167872
326 18.7004 0.164357
328 18.7624 0.16075
330 18.8231 0.157047
332 18.8934 0.152511
334 18.9641 0.14801
336 19.0265 0.143981
338 19.0894 0.140145
340 19.1518 0.136515
342 19.2222 0.132598
344 19.2918 0.12891
346 19.3584 0.125605
348 19.429 0.122287
350 19.4968 0.119271
352 19.5658 0.116422
354 19.6345 0.113748
356 19.7043 0.111128
358 19.7741 0.108549
360 19.8432 0.106063
362 19.9128 0.103653
364 19.9802 0.101408
366 20.0982 0.0976345
368 20.1981 0.0952236
370 20.2821 0.0936827
372 20.3595 0.0926271
374 20.4813 0.0909975
376 20.5713 0.0905261
378 20.6496 0.089832
380 20.7212 0.089283
382 20.791 0.088669
384 20.8562 0.0880495
386 20.8564 0.088052
388 20.9073 0.0875533
390 20.968 0.0869932
392 21.0372 0.0863723
394 21.1046 0.0858019
396 21.1661 0.0852676
398 21.2331 0.0846599
400 21.3002 0.083996
427 21.5952 -0.520448
439 21.6309 -0.654165
441 21.6312 -0.654121
443 21.6897 -0.651637
445 21.7558 -0.647567
447 21.8226 -0.642645
453 21.967 -0.62846
456 22.0135 -0.631929
533 24.6862 -4.44747
613 29.0026 -7.04711
692 34.0031 -8.99939
717 35.5618 -9.56939
725 36.0185 -9.73847
729 36.2166 -9.81242
731 36.3019 -9.84475
733 36.3712 -9.87129
735 36.4386 -9.89884
737 36.5029 -9.92708
744 36.6318 -9.99032
748 36.7269 -10.0269
750 36.8111 -10.0577
752 36.8741 -10.081
754 36.9307 -10.1018
756 37.0003 -10.127
758 37.0704 -10.1521
760 37.1344 -10.1746
762 37.1981 -10.1966
764 37.2592 -10.2174
766 37.3251 -10.2396
768 37.3894 -10.2609
770 37.4536 -10.2817
772 37.5182 -10.3023
774 37.5819 -10.3222
776 37.6477 -10.3426
778 37.7111 -10.3619
785 37.7938 -10.3852
789 37.844 -10.3828
791 37.8995 -10.3796
793 37.968 -10.3755
795 38.0411 -10.3713
797 38.106 -10.3671
799 38.1708 -10.3635
801 38.2849 -10.3593
803 38.3867 -10.353
805 38.4624 -10.3505
807 38.5282 -10.3491
809 38.5877 -10.3486
811 38.6421 -10.3485
813 38.7528 -10.3495
815 38.8499 -10.3498
817 38.8528 -10.3498
819 38.9025 -10.3502
821 38.9577 -10.3504
823 39.0367 -10.3511
825 39.1105 -10.3516
827 39.1744 -10.352
829 39.2269 -10.3523
831 39.2786 -10.3527
833 39.3325 -10.3531
835 39.3949 -10.3535
837 39.4629 -10.354
839 39.5263 -10.3543
841 39.5892 -10.3547
843 39.6522 -10.3551
845 39.7223 -10.3556
847 39.7925 -10.356
849 39.8624 -10.3563
851 39.9328 -10.3566
853 40.0009 -10.3568
855 40.0697 -10.3569
857 40.1392 -10.3568
859 40.2072 -10.3568
861 40.2744 -10.3568
863 40.342 -10.3569
865 40.4109 -10.3571
867 40.479 -10.3575
869 40.5471 -10.3578
871 40.6162 -10.3582
873 40.7337 -10.3586
875 40.8345 -10.3589
877 40.9173 -10.3591
879 40.9989 -10.3592
881 41.0834 -10.3593
883 41.1656 -10.3593
885 41.235 -10.3594
887 41.3077 -10.3596
889 41.3745 -10.3598
891 41.4483 -10.3603
893 41.5214 -10.3609
895 41.5897 -10.3617
897 41.6571 -10.3624
899 41.7247 -10.3632
901 41.7946 -10.3641
903 41.8641 -10.3651
905 41.9336 -10.3663
907 42.0037 -10.3675
909 42.072 -10.3689
911 42.1419 -10.3705
913 42.2101 -10.372
915 42.2803 -10.3735
917 42.3493 -10.375
919 42.4176 -10.3764
921 42.4881 -10.3777
923 42.5559 -10.3789
925 42.6256 -10.3802
927 42.6957 -10.3815
929 42.7645 -10.3827
931 42.8334 -10.3839
933 42.9025 -10.3852
935 42.9724 -10.3864
937 43.0398 -10.3876
939 43.1083 -10.3889
941 43.1775 -10.3902
943 43.2474 -10.3916
945 43.318 -10.3929
947 43.388 -10.3941
949 43.4566 -10.3953
951 43.5244 -10.3963
953 43.595 -10.3972
955 43.6642 -10.3981
957 43.7345 -10.3991
959 43.8047 -10.4001
961 43.8724 -10.4011
963 43.9412 -10.4022
965 44.0105 -10.4033
967 44.0811 -10.4043
969 44.15 -10.4054
971 44.2178 -10.4065
973 44.2844 -10.4076
975 44.3531 -10.4088
977 44.4209 -10.4099
979 44.4908 -10.4109
981 44.5581 -10.4119
983 44.6263 -10.4128
985 44.6941 -10.4137
987 44.7604 -10.4146
989 44.8284 -10.4155
991 44.8958 -10.4163
993 44.9642 -10.417
995 45.0329 -10.4177
997 45.1012 -10.4183
999 45.1695 -10.419
1001 45.2384 -10.4196
1003 45.3068 -10.4203
1005 45.3773 -10.421
1007 45.4462 -10.4219
1009 45.516 -10.4227
1011 45.5861 -10.4234
1013 45.6562 -10.424
1015 45.7281 -10.4245
1017 45.7978 -10.425
1019 45.8675 -10.4255
1021 45.9346 -10.426
1023 46.002 -10.4266
1025 46.0684 -10.4271
1027 46.1361 -10.4276
1029 46.2045 -10.4282
1031 46.2726 -10.4289
1033 46.3432 -10.4295
1035 46.4125 -10.4302
1037 46.4798 -10.4309
1039 46.5482 -10.4317
1041 46.616 -10.4325
1043 46.6843 -10.4335
1045 46.7521 -10.4345
1047 46.8211 -10.4356
1049 46.8895 -10.4367
1051 46.9594 -10.4379
1053 47.0297 -10.4391
1055 47.0966 -10.4403
1057 47.165 -10.4415
1059 47.234 -10.4429
1061 47.3021 -10.4443
1063 47.3698 -10.4458
1065 47.4369 -10.4473
1067 47.5051 -10.4489
1069 47.573 -10.4507
1071 47.6398 -10.4526
1073 47.7084 -10.4545
1075 47.7757 -10.4563
1077 47.8449 -10.4581
1079 47.9135 -10.4598
1081 47.9818 -10.4615
1083 48.0501 -10.4633
1129 48.211 -9.85039
1166 48.4864 -9.15446
1227 48.7637 -8.33905
1265 48.3763 -7.72567
1275 48.2936 -7.63504
1277 48.2928 -7.63517
1301 48.3756 -7.58103
1303 48.4843 -7.57877
1305 48.561 -7.57049
1307 48.6341 -7.56122
1309 48.7053 -7.55058
1311 48.7732 -7.53896
1313 48.8397 -7.52592
1320 48.9224 -7.50839
1345 48.6183 -7.41395
1379 46.8147 -6.50384
1418 48.3127 -6.14287
1460 51.0981 -5.6403
1507 49.2627 -5.68022
1532 48.9159 -5.04265
1555 49.656 -4.70537
1557 49.7507 -4.68333
1559 49.8623 -4.64537
1561 49.9943 -4.60553
1563 50.0868 -4.58063
1603 48.6265 -4.49335
1636 49.4288 -4.01261
1670 50.68 -2.61162
1672 50.7382 -2.54129
1674 50.7864 -2.48396
1676 50.8333 -2.42868
1678 50.8836 -2.36968
1680 50.9307 -2.31428
1682 50.9723 -2.26532
1684 51.021 -2.20802
1686 51.0703 -2.14966
1695 51.125 -2.07684
1709 51.1465 -2.066
1742 50.2736 -1.70657
1764 50.4691 -1.19856
1787 50.044 -0.426858
1789 50.0008 -0.344421
1791 49.9682 -0.276145
1793 49.9361 -0.209251
1794 49.9145 -0.160787
1795 49.9022 -0.138579
1796 49.9007 -0.136122
1797 49.902 -0.138816
1798 49.9029 -0.140419
1799 49.9022 -0.138787
1800 49.9015 -0.137176
1801 49.9021 -0.138459
1802 49.9028 -0.139898
1803 49.9022 -0.138507
1804 49.9018 -0.137683
1805 49.9027 -0.13953
1806 49.9027 -0.139365
1807 49.9023 -0.138617
1808 49.903 -0.139921
1809 49.9026 -0.139148
1810 49.9027 -0.139391
1811 49.9027 -0.139346
1812 49.9028 -0.139458
1813 49.9027 -0.139134
1814 49.903 -0.139785
1815 49.9028 -0.139412
1816 49.9025 -0.138812
1817 49.9023 -0.138394
1818 49.9022 -0.138171
1819 49.9022 -0.138127
1820 49.9022 -0.138121
1821 49.9022 -0.138116
1822 49.9022 -0.138112
1823 49.9022 -0.138107
1824 49.9022 -0.138102
1825 49.9022 -0.138096
1826 49.9022 -0.138091
1827 49.9022 -0.138087
1828 49.9022 -0.138083
1829 49.9022 -0.138078
1830 49.9022 -0.138074
1831 49.9022 -0.13807
1832 49.9022 -0.138066
1833 49.9022 -0.138062
1834 49.9022 -0.138057
1835 49.9022 -0.138053
1836 49.9022 -0.138048
1837 49.9022 -0.138042
1838 49.9022 -0.138037
1839 49.9022 -0.138031
1840 49.9022 -0.138026
1841 49.9022 -0.138021
1842 49.9022 -0.138017
1843 49.9022 -0.138013
1844 49.9022 -0.138009
1845 49.9022 -0.138004
1846 49.9022 -0.137998
1847 49.9022 -0.137992
1848 49.9022 -0.137986
1849 49.9022 -0.137982
1850 49.9022 -0.137978
1851 49.9022 -0.137974
1852 49.9022 -0.137969
1853 49.9022 -0.137965
1854 49.9022 -0.137961
1855 49.9022 -0.137956
1856 49.9022 -0.137952
1857 49.9022 -0.137947
1858 49.9022 -0.137942
1859 49.9022 -0.137937
1860 49.9022 -0.137933
1861 49.9021 -0.137929
1862 49.9021 -0.137924
1863 49.9021 -0.13792
1864 49.9021 -0.137915
1865 49.9021 -0.13791
1866 49.9021 -0.137906
1867 49.9021 -0.137902
1868 49.9021 -0.137897
1869 49.9021 -0.137892
1870 49.9021 -0.137887
1871 49.9021 -0.137882
1872 49.9021 -0.137878
1873 49.9021 -0.137874
1874 49.9021 -0.13787
1875 49.9021 -0.137866
1876 49.9021 -0.137862
1877 49.9021 -0.137858
1878 49.9021 -0.137853
1879 49.9021 -0.137847
1880 49.9021 -0.137841
1881 49.9021 -0.137835
1882 49.9021 -0.137831
1883 49.9021 -0.137827
1884 49.9021 -0.137822
1885 49.9021 -0.137818
1886 49.9021 -0.137814
1887 49.9021 -0.137809
1888 49.9021 -0.137804
1889 49.9021 -0.137798
1890 49.9021 -0.137793
1891 49.9021 -0.137788
1892 49.9021 -0.137784
1893 49.9021 -0.13778
1894 49.9021 -0.137776
1895 49.9021 -0.137771
1896 49.9021 -0.137767
1897 49.9021 -0.137761
1898 49.9021 -0.137756
1899 49.9021 -0.137751
1900 49.9021 -0.137747
1901 49.9021 -0.137743
1902 49.9021 -0.137739
1903 49.9021 -0.137734
1904 49.9021 -0.13773
1905 49.9021 -0.137726
1906 49.9021 -0.137722
1907 49.902 -0.137717
1908 49.902 -0.137713
1909 49.902 -0.137708
1910 49.902 -0.137704
1911 49.902 -0.137699
1912 49.902 -0.137694
1913 49.902 -0.13769
1914 49.902 -0.137686
1915 49.902 -0.137682
1916 49.902 -0.137678
1917 49.902 -0.137673
1918 49.902 -0.137668
1919 49.902 -0.137663
1920 49.902 -0.137657
1921 49.902 -0.137652
1922 49.902 -0.137646
1923 49.902 -0.137642
1924 49.902 -0.137638
1925 49.902 -0.137634
1926 49.902 -0.13763
1927 49.902 -0.137624
1928 49.902 -0.137618
1929 49.902 -0.137613
1930 49.902 -0.137607
1931 49.902 -0.137603
1932 49.902 -0.137599
1933 49.902 -0.137595
1934 49.902 -0.13759
1935 49.902 -0.137586
1936 49.902 -0.137582
1937 49.902 -0.137577
1938 49.902 -0.137573
1939 49.902 -0.137568
1940 49.902 -0.137564
1941 49.902 -0.137559
1942 49.902 -0.137554
1943 49.902 -0.13755
1944 49.902 -0.137546
1945 49.902 -0.137541
1946 49.902 -0.137536
1947 49.902 -0.137532
1948 49.902 -0.137528
1949 49.902 -0.137524
1950 49.902 -0.137519
1951 49.902 -0.137514
1952 49.9019 -0.137509
1953 49.9019 -0.137504
1954 49.9019 -0.1375
1955 49.9019 -0.137496
1956 49.9019 -0.137492
1957 49.9019 -0.137488
1958 49.9019 -0.137484
1959 49.9019 -0.13748
1960 49.9019 -0.137474
1961 49.9019 -0.137469
1962 49.9019 -0.137463
1963 49.9019 -0.137457
1964 49.9019 -0.137453
1965 49.9019 -0.137448
1966 49.9019 -0.137444
1967 49.9019 -0.13744
1968 49.9019 -0.137436
1969 49.9019 -0.137431
1970 49.9019 -0.137426
1971 49.9019 -0.13742
1972 49.9019 -0.137415
1973 49.9019 -0.13741
1974 49.9019 -0.137406
1975 49.9019 -0.137402
1976 49.9019 -0.137398
1977 49.9019 -0.137393
1978 49.9019 -0.137389
1979 49.9019 -0.137383
1980 49.9019 -0.137378
1981 49.9019 -0.137373
1982 49.9019 -0.137369
1983 49.9019 -0.137365
1984 49.9019 -0.137361
1985 49.9019 -0.137356
1986 49.9019 -0.137352
1987 49.9019 -0.137347
1988 49.9019 -0.137343
1989 49.9019 -0.137339
1990 49.9019 -0.137335
1991 49.9019 -0.137331
1992 49.9019 -0.137327
1993 49.9019 -0.137322
1994 49.9019 -0.137317
1995 49.9019 -0.137313
1996 49.9019 -0.137308
1997 49.9018 -0.137303
1998 49.9018 -0.137299
1999 49.9018 -0.137294
2000 49.9018 -0.13729
2001 49.9018 -0.137286
2002 49.9018 -0.137282
2003 49.9018 -0.137278
2004 49.9018 -0.137274
2005 49.9018 -0.137269
2006 49.9018 -0.137263
2007 49.9018 -0.137257
2008 49.9018 -0.137252
2009 49.9018 -0.137246
2010 49.9018 -0.137241
2011 49.9018 -0.137235
2012 49.9018 -0.137231
2013 49.9018 -0.137227
2014 49.9018 -0.137223
2015 49.9018 -0.137219
2016 49.9018 -0.137215
2017 49.9018 -0.137209
2018 49.9018 -0.137203
2019 49.9018 -0.137197
2020 49.9018 -0.137192
2021 49.9018 -0.137186
2022 49.9018 -0.137182
2023 49.9018 -0.137178
2024 49.9018 -0.137174
2025 49.9018 -0.137169
2026 49.9018 -0.137165
2027 49.9018 -0.137161
2028 49.9018 -0.137157
2029 49.9018 -0.137153
2030 49.9018 -0.137148
2031 49.9018 -0.137144
2032 49.9018 -0.137139
2033 49.9018 -0.137134
2034 49.9018 -0.13713
2035 49.9018 -0.137125
2036 49.9018 -0.13712
2037 49.9018 -0.137116
2038 49.9018 -0.137112
2039 49.9018 -0.137108
2040 49.9018 -0.137103
2041 49.9017 -0.137098
2042 49.9017 -0.137094
2043 49.9017 -0.137089
2044 49.9017 -0.137085
2045 49.9017 -0.137081
2046 49.9017 -0.137077
2047 49.9017 -0.137073
2048 49.9017 -0.137067
2049 49.9017 -0.137062
2050 49.9017 -0.137057
2051 49.9017 -0.137052
2052 49.9017 -0.137048
2053 49.9017 -0.137044
2054 49.9017 -0.13704
2055 49.9017 -0.137036
2056 49.9017 -0.137032
2057 49.9017 -0.137028
2058 49.9017 -0.137024
2059 49.9017 -0.13702
2060 49.9017 -0.137015
2061 49.9017 -0.137009
2062 49.9017 -0.137003
2063 49.9017 -0.136997
2064 49.9017 -0.136991
2065 49.9017 -0.136987
2066 49.9017 -0.136983
2067 49.9017 -0.136979
2068 49.9017 -0.136975
2069 49.9017 -0.136971
2070 49.9017 -0.136966
2071 49.9017 -0.136962
2072 49.9017 -0.136957
2073 49.9017 -0.136952
2074 49.9017 -0.136946
2075 49.9017 -0.136941
2076 49.9017 -0.136936
2077 49.9017 -0.136932
2078 49.9017 -0.136927
2079 49.9017 -0.136923
2080 49.9017 -0.136919
2081 49.9017 -0.136915
2082 49.9017 -0.136911
2083 49.9017 -0.136906
2084 49.9017 -0.136901
2085 49.9016 -0.136896
2086 49.9016 -0.136891
2087 49.9016 -0.136886
2088 49.9016 -0.136881
2089 49.9016 -0.136877
2090 49.9016 -0.136873
2091 49.9016 -0.136869
2092 49.9016 -0.136864
2093 49.9016 -0.13686
2094 49.9016 -0.136855
2095 49.9016 -0.136851
2096 49.9016 -0.136847
2097 49.9016 -0.136843
2098 49.9016 -0.136839
2099 49.9016 -0.136835
2100 49.9016 -0.13683
2101 49.9016 -0.136826
2102 49.9016 -0.136821
2103 49.9016 -0.136816
2104 49.9016 -0.136812
2105 49.9016 -0.136807
2106 49.9016 -0.136802
2107 49.9016 -0.136798
2108 49.9016 -0.136794
2109 49.9016 -0.13679
2110 49.9016 -0.136786
2111 49.9016 -0.136782
2112 49.9016 -0.136777
2113 49.9016 -0.136771
2114 49.9016 -0.136766
2115 49.9016 -0.13676
2116 49.9016 -0.136755
2117 49.9016 -0.13675
2118 49.9016 -0.136744
2119 49.9016 -0.13674
2120 49.9016 -0.136736
2121 49.9016 -0.136732
2122 49.9016 -0.136728
2123 49.9016 -0.136724
2124 49.9016 -0.13672
2125 49.9016 -0.136716
2126 49.9016 -0.136712
2127 49.9016 -0.136706
2128 49.9016 -0.136701
2129 49.9016 -0.136695
2130 49.9015 -0.136689
2131 49.9015 -0.136684
2132 49.9015 -0.136678
2133 49.9015 -0.136674
2134 49.9015 -0.13667
2135 49.9015 -0.136666
2136 49.9015 -0.136661
2137 49.9015 -0.136657
2138 49.9015 -0.136653
2139 49.9015 -0.136649
2140 49.9015 -0.136645
2141 49.9015 -0.13664
2142 49.9015 -0.136636
2143 49.9015 -0.13663
2144 49.9015 -0.136625
2145 49.9015 -0.13662
2146 49.9015 -0.136615
2147 49.9015 -0.13661
2148 49.9015 -0.136606
2149 49.9015 -0.136601
2150 49.9015 -0.136597
2151 49.9015 -0.136592
2152 49.9015 -0.136588
2153 49.9015 -0.136584
2154 49.9015 -0.13658
2155 49.9015 -0.136575
2156 49.9015 -0.13657
2157 49.9015 -0.136566
2158 49.9015 -0.136562
2159 49.9015 -0.136557
2160 49.9015 -0.136553
2161 49.9015 -0.136548
2162 49.9015 -0.136544
2163 49.9015 -0.13654
2164 49.9015 -0.136535
2165 49.9015 -0.136529
2166 49.9015 -0.136525
2167 49.9015 -0.136521
2168 49.9015 -0.136516
2169 49.9015 -0.136512
2170 49.9015 -0.136508
2171 49.9015 -0.136504
2172 49.9015 -0.1365
2173 49.9015 -0.136496
2174 49.9015 -0.136492
2175 49.9014 -0.136488
2176 49.9014 -0.136484
2177 49.9014 -0.13648
2178 49.9014 -0.136475
2179 49.9014 -0.136469
2180 49.9014 -0.136463
2181 49.9014 -0.136458
2182 49.9014 -0.136453
2183 49.9014 -0.136448
2184 49.9014 -0.136442
2185 49.9014 -0.136438
2186 49.9014 -0.136434
2187 49.9014 -0.13643
2188 49.9014 -0.136426
2189 49.9014 -0.136422
2190 49.9014 -0.136418
2191 49.9014 -0.136414
2192 49.9014 -0.136409
2193 49.9014 -0.136404
2194 49.9014 -0.136398
2195 49.9014 -0.136393
2196 49.9014 -0.136387
2197 49.9014 -0.136381
2198 49.9014 -0.136376
2199 49.9014 -0.136371
2200 49.9014 -0.136367
2201 49.9014 -0.136363
2202 49.9014 -0.136359
2203 49.9014 -0.136355
2204 49.9014 -0.136351
2205 49.9014 -0.136347
2206 49.9014 -0.136343
2207 49.9014 -0.136338
2208 49.9014 -0.136334
2209 49.9014 -0.136328
2210 49.9014 -0.136323
2211 49.9014 -0.136318
2212 49.9014 -0.136313
2213 49.9014 -0.136308
2214 49.9014 -0.136304
2215 49.9014 -0.136299
2216 49.9014 -0.136294
2217 49.9014 -0.13629
2218 49.9014 -0.136286
2219 49.9013 -0.136282
2220 49.9013 -0.136277
2221 49.9013 -0.136273
2222 49.9013 -0.136268
2223 49.9013 -0.136264
2224 49.9013 -0.13626
2225 49.9013 -0.136255
2226 49.9013 -0.136251
2227 49.9013 -0.136246
2228 49.9013 -0.136242
2229 49.9013 -0.136238
2230 49.9013 -0.136233
2231 49.9013 -0.136227
2232 49.9013 -0.136223
2233 49.9013 -0.136219
2234 49.9013 -0.136214
2235 49.9013 -0.13621
2236 49.9013 -0.136206
2237 49.9013 -0.136202
2238 49.9013 -0.136197
2239 49.9013 -0.136193
2240 49.9013 -0.136189
2241 49.9013 -0.136185
2242 49.9013 -0.136181
2243 49.9013 -0.136177
2244 49.9013 -0.136173
2245 49.9013 -0.136168
2246 49.9013 -0.136164
2247 49.9013 -0.136159
2248 49.9013 -0.136155
2249 49.9013 -0.136151
2250 49.9013 -0.136146
2251 49.9013 -0.136141
2252 49.9013 -0.136135
2253 49.9013 -0.136129
2254 49.9013 -0.136124
2255 49.9013 -0.13612
2256 49.9013 -0.136115
2257 49.9013 -0.136111
2258 49.9013 -0.136105
2259 49.9013 -0.136101
2260 49.9013 -0.136097
2261 49.9013 -0.136091
2262 49.9013 -0.136086
2263 49.9012 -0.136082
2264 49.9012 -0.136078
2265 49.9012 -0.136074
2266 49.9012 -0.136069
2267 49.9012 -0.136065
2268 49.9012 -0.136061
2269 49.9012 -0.136056
2270 49.9012 -0.136052
2271 49.9012 -0.136048
2272 49.9012 -0.136044
2273 49.9012 -0.13604
2274 49.9012 -0.136036
2275 49.9012 -0.136032
2276 49.9012 -0.136028
2277 49.9012 -0.136023
2278 49.9012 -0.136017
2279 49.9012 -0.136012
2280 49.9012 -0.136008
2281 49.9012 -0.136003
2282 49.9012 -0.135999
2283 49.9012 -0.135994
2284 49.9012 -0.135988
2285 49.9012 -0.135983
2286 49.9012 -0.135979
2287 49.9012 -0.135975
2288 49.9012 -0.13597
2289 49.9012 -0.135966
2290 49.9012 -0.135962
2291 49.9012 -0.135958
2292 49.9012 -0.135954
2293 49.9012 -0.13595
2294 49.9012 -0.135946
2295 49.9012 -0.135942
2296 49.9012 -0.135937
2297 49.9012 -0.135932
2298 49.9012 -0.135928
2299 49.9012 -0.135923
2300 49.9012 -0.135918
2301 49.9012 -0.135912
2302 49.9012 -0.135907
2303 49.9012 -0.135903
2304 49.9012 -0.135898
2305 49.9012 -0.135892
2306 49.9012 -0.135887
2307 49.9012 -0.135883
2308 49.9011 -0.135879
2309 49.9011 -0.135874
2310 49.9011 -0.13587
2311 49.9011 -0.135866
2312 49.9011 -0.135862
2313 49.9011 -0.135858
2314 49.9011 -0.135854
2315 49.9011 -0.13585
2316 49.9011 -0.135846
2317 49.9011 -0.135841
2318 49.9011 -0.135836
2319 49.9011 -0.135832
2320 49.9011 -0.135827
2321 49.9011 -0.135822
2322 49.9011 -0.135816
2323 49.9011 -0.135811
2324 49.9011 -0.135807
2325 49.9011 -0.135802
2326 49.9011 -0.135796
2327 49.9011 -0.135791
2328 49.9011 -0.135787
2329 49.9011 -0.135783
2330 49.9011 -0.135778
2331 49.9011 -0.135774
2332 49.9011 -0.13577
2333 49.9011 -0.135766
2334 49.9011 -0.135762
2335 49.9011 -0.135758
2336 49.9011 -0.135754
2337 49.9011 -0.135749
2338 49.9011 -0.135745
2339 49.9011 -0.13574
2340 49.9011 -0.135736
2341 49.9011 -0.135731
2342 49.9011 -0.135726
2343 49.9011 -0.13572
2344 49.9011 -0.135715
2345 49.9011 -0.135711
2346 49.9011 -0.135706
2347 49.9011 -0.1357
2348 49.9011 -0.135695
2349 49.9011 -0.135691
2350 49.9011 -0.135687
2351 49.9011 -0.135682
2352 49.901 -0.135678
2353 49.901 -0.135674
2354 49.901 -0.13567
2355 49.901 -0.135666
2356 49.901 -0.135662
2357 49.901 -0.135658
2358 49.901 -0.135653
2359 49.901 -0.135649
2360 49.901 -0.135644
2361 49.901 -0.13564
2362 49.901 -0.135635
2363 49.901 -0.13563
2364 49.901 -0.135624
2365 49.901 -0.135619
2366 49.901 -0.135615
2367 49.901 -0.13561
2368 49.901 -0.135604
2369 49.901 -0.135599
2370 49.901 -0.135595
2371 49.901 -0.135591
2372 49.901 -0.135586
2373 49.901 -0.135582
2374 49.901 -0.135578
2375 49.901 -0.135574
2376 49.901 -0.13557
2377 49.901 -0.135566
2378 49.901 -0.135562
2379 49.901 -0.135557
2380 49.901 -0.135553
2381 49.901 -0.135548
2382 49.901 -0.135544
2383 49.901 -0.135539
2384 49.901 -0.135534
2385 49.901 -0.135528
2386 49.901 -0.135523
2387 49.901 -0.135519
2388 49.901 -0.135514
2389 49.901 -0.135508
2390 49.901 -0.135503
2391 49.901 -0.135499
2392 49.901 -0.135495
2393 49.901 -0.13549
2394 49.901 -0.135486
2395 49.901 -0.135482
2396 49.9009 -0.135478
2397 49.9009 -0.135474
2398 49.9009 -0.13547
2399 49.9009 -0.135466
2400 49.9009 -0.135461
2401 49.9009 -0.135457
2402 49.9009 -0.135452
2403 49.9009 -0.135448
2404 49.9009 -0.135443
2405 49.9009 -0.135438
2406 49.9009 -0.135432
2407 49.9009 -0.135427
2408 49.9009 -0.135423
2409 49.9009 -0.135418
2410 49.9009 -0.135412
2411 49.9009 -0.135407
2412 49.9009 -0.135403
2413 49.9009 -0.135399
2414 49.9009 -0.135394
2415 49.9009 -0.13539
2416 49.9009 -0.135386
2417 49.9009 -0.135382
2418 49.9009 -0.135378
2419 49.9009 -0.135374
2420 49.9009 -0.13537
2421 49.9009 -0.135366
2422 49.9009 -0.135361
2423 49.9009 -0.135356
2424 49.9009 -0.135352
2425 49.9009 -0.135347
2426 49.9009 -0.135342
2427 49.9009 -0.135336
2428 49.9009 -0.135331
2429 49.9009 -0.135327
2430 49.9009 -0.135322
2431 49.9009 -0.135316
2432 49.9009 -0.135311
2433 49.9009 -0.135307
2434 49.9009 -0.135303
2435 49.9009 -0.135298
2436 49.9009 -0.135294
2437 49.9009 -0.13529
2438 49.9009 -0.135286
2439 49.9009 -0.135282
2440 49.9008 -0.135278
2441 49.9008 -0.135274
2442 49.9008 -0.13527
2443 49.9008 -0.135265
2444 49.9008 -0.13526
2445 49.9008 -0.135256
2446 49.9008 -0.135251
2447 49.9008 -0.135246
2448 49.9008 -0.13524
2449 49.9008 -0.135235
2450 49.9008 -0.135231
2451 49.9008 -0.135226
2452 49.9008 -0.13522
2453 49.9008 -0.135215
2454 49.9008 -0.135211
2455 49.9008 -0.135207
2456 49.9008 -0.135202
2457 49.9008 -0.135198
2458 49.9008 -0.135194
2459 49.9008 -0.13519
2460 49.9008 -0.135186
2461 49.9008 -0.135182
2462 49.9008 -0.135178
2463 49.9008 -0.135174
2464 49.9008 -0.13517
2465 49.9008 -0.135164
2466 49.9008 -0.13516
2467 49.9008 -0.135155
2468 49.9008 -0.13515
2469 49.9008 -0.135144
2470 49.9008 -0.135139
2471 49.9008 -0.135135
2472 49.9008 -0.13513
2473 49.9008 -0.135124
2474 49.9008 -0.135119
2475 49.9008 -0.135115
2476 49.9008 -0.135111
2477 49.9008 -0.135107
2478 49.9008 -0.135103
2479 49.9008 -0.135099
2480 49.9008 -0.135095
2481 49.9008 -0.13509
2482 49.9008 -0.135086
2483 49.9007 -0.135082
2484 49.9007 -0.135078
2485 49.9007 -0.135074
2486 49.9007 -0.135069
2487 49.9007 -0.135064
2488 49.9007 -0.135059
2489 49.9007 -0.135054
2490 49.9007 -0.135048
2491 49.9007 -0.135043
2492 49.9007 -0.135039
2493 49.9007 -0.135034
2494 49.9007 -0.135028
2495 49.9007 -0.135023
2496 49.9007 -0.135019
2497 49.9007 -0.135015
2498 49.9007 -0.135011
2499 49.9007 -0.135007
2500 49.9007 -0.135003
2501 49.9007 -0.134999
2502 49.9007 -0.134994
2503 49.9007 -0.13499
2504 49.9007 -0.134986
2505 49.9007 -0.134982
2506 49.9007 -0.134978
2507 49.9007 -0.134973
2508 49.9007 -0.134968
2509 49.9007 -0.134963
2510 49.9007 -0.134958
2511 49.9007 -0.134952
2512 49.9007 -0.134947
2513 49.9007 -0.134943
2514 49.9007 -0.134938
2515 49.9007 -0.134932
2516 49.9007 -0.134928
2517 49.9007 -0.134923
2518 49.9007 -0.134919
2519 49.9007 -0.134915
2520 49.9007 -0.134911
2521 49.9007 -0.134907
2522 49.9007 -0.134903
2523 49.9007 -0.134898
2524 49.9007 -0.134894
2525 49.9007 -0.13489
2526 49.9007 -0.134886
2527 49.9006 -0.134882
2528 49.9006 -0.134877
2529 49.9006 -0.134873
2530 49.9006 -0.134868
2531 49.9006 -0.134863
2532 49.9006 -0.134857
2533 49.9006 -0.134852
2534 49.9006 -0.134848
2535 49.9006 -0.134842
2536 49.9006 -0.134837
2537 49.9006 -0.134832
2538 49.9006 -0.134828
2539 49.9006 -0.134824
2540 49.9006 -0.134819
2541 49.9006 -0.134815
2542 49.9006 -0.134811
2543 49.9006 -0.134807
2544 49.9006 -0.134803
2545 49.9006 -0.134799
2546 49.9006 -0.134795
2547 49.9006 -0.13479
2548 49.9006 -0.134786
2549 49.9006 -0.134781
2550 49.9006 -0.134777
2551 49.9006 -0.134772
2552 49.9006 -0.134767
2553 49.9006 -0.134761
2554 49.9006 -0.134756
2555 49.9006 -0.134752
2556 49.9006 -0.134747
2557 49.9006 -0.134741
2558 49.9006 -0.134736
2559 49.9006 -0.134732
2560 49.9006 -0.134728
2561 49.9006 -0.134723
2562 49.9006 -0.134719
2563 49.9006 -0.134715
2564 49.9006 -0.134711
2565 49.9006 -0.134707
2566 49.9006 -0.134703
2567 49.9006 -0.134699
2568 49.9006 -0.134695
2569 49.9006 -0.134691
2570 49.9005 -0.134685
2571 49.9005 -0.134681
2572 49.9005 -0.134676
2573 49.9005 -0.134671
2574 49.9005 -0.134666
2575 49.9005 -0.134661
2576 49.9005 -0.134656
2577 49.9005 -0.134651
2578 49.9005 -0.134645
2579 49.9005 -0.13464
2580 49.9005 -0.134636
2581 49.9005 -0.134632
2582 49.9005 -0.134628
2583 49.9005 -0.134624
2584 49.9005 -0.13462
2585 49.9005 -0.134616
2586 49.9005 -0.134611
2587 49.9005 -0.134607
2588 49.9005 -0.134603
2589 49.9005 -0.134599
2590 49.9005 -0.134595
2591 49.9005 -0.13459
2592 49.9005 -0.134585
2593 49.9005 -0.134581
2594 49.9005 -0.134576
2595 49.9005 -0.13457
2596 49.9005 -0.134565
2597 49.9005 -0.134561
2598 49.9005 -0.134555
2599 49.9005 -0.13455
2600 49.9005 -0.134545
2601 49.9005 -0.134541
2602 49.9005 -0.134537
2603 49.9005 -0.134532
2604 49.9005 -0.134528
2605 49.9005 -0.134524
2606 49.9005 -0.13452
2607 49.9005 -0.134516
2608 49.9005 -0.134511
2609 49.9005 -0.134507
2610 49.9005 -0.134503
2611 49.9005 -0.134499
2612 49.9005 -0.134494
2613 49.9005 -0.13449
2614 49.9004 -0.134485
2615 49.9004 -0.13448
2616 49.9004 -0.134474
2617 49.9004 -0.134469
2618 49.9004 -0.134465
2619 49.9004 -0.13446
2620 49.9004 -0.134454
2621 49.9004 -0.134449
2622 49.9004 -0.134445
2623 49.9004 -0.134441
2624 49.9004 -0.134436
2625 49.9004 -0.134432
2626 49.9004 -0.134428
2627 49.9004 -0.134424
2628 49.9004 -0.13442
2629 49.9004 -0.134416
2630 49.9004 -0.134412
2631 49.9004 -0.134408
2632 49.9004 -0.134403
2633 49.9004 -0.134398
2634 49.9004 -0.134394
2635 49.9004 -0.134389
2636 49.9004 -0.134384
2637 49.9004 -0.134378
2638 49.9004 -0.134373
2639 49.9004 -0.134369
2640 49.9004 -0.134364
2641 49.9004 -0.134358
2642 49.9004 -0.134353
2643 49.9004 -0.134349
2644 49.9004 -0.134345
2645 49.9004 -0.134341
2646 49.9004 -0.134336
2647 49.9004 -0.134332
2648 49.9004 -0.134328
2649 49.9004 -0.134324
2650 49.9004 -0.13432
2651 49.9004 -0.134316
2652 49.9004 -0.134312
2653 49.9004 -0.134308
2654 49.9004 -0.134303
2655 49.9004 -0.134298
2656 49.9004 -0.134293
2657 49.9003 -0.134288
2658 49.9003 -0.134282
2659 49.9003 -0.134277
2660 49.9003 -0.134273
2661 49.9003 -0.134268
2662 49.9003 -0.134262
2663 49.9003 -0.134258
2664 49.9003 -0.134253
2665 49.9003 -0.134249
2666 49.9003 -0.134245
2667 49.9003 -0.134241
2668 49.9003 -0.134237
2669 49.9003 -0.134233
2670 49.9003 -0.134228
2671 49.9003 -0.134224
2672 49.9003 -0.13422
2673 49.9003 -0.134216
2674 49.9003 -0.134212
2675 49.9003 -0.134207
2676 49.9003 -0.134202
2677 49.9003 -0.134198
2678 49.9003 -0.134192
2679 49.9003 -0.134187
2680 49.9003 -0.134182
2681 49.9003 -0.134178
2682 49.9003 -0.134172
2683 49.9003 -0.134166
2684 49.9003 -0.134162
2685 49.9003 -0.134158
2686 49.9003 -0.134153
2687 49.9003 -0.134149
2688 49.9003 -0.134145
2689 49.9003 -0.134141
2690 49.9003 -0.134137
2691 49.9003 -0.134133
2692 49.9003 -0.134128
2693 49.9003 -0.134124
2694 49.9003 -0.13412
2695 49.9003 -0.134116
2696 49.9003 -0.134111
2697 49.9003 -0.134107
2698 49.9003 -0.134102
2699 49.9002 -0.134097
2700 49.9002 -0.134091
2701 49.9002 -0.134086
2702 49.9002 -0.134082
2703 49.9002 -0.134077
2704 49.9002 -0.134071
2705 49.9002 -0.134066
2706 49.9002 -0.134062
2707 49.9002 -0.134058
2708 49.9002 -0.134053
2709 49.9002 -0.134049
2710 49.9002 -0.134045
2711 49.9002 -0.134041
2712 49.9002 -0.134037
2713 49.9002 -0.134033
2714 49.9002 -0.134029
2715 49.9002 -0.134025
2716 49.9002 -0.13402
2717 49.9002 -0.134015
2718 49.9002 -0.134011
2719 49.9002 -0.134006
2720 49.9002 -0.134001
2721 49.9002 -0.133995
2722 49.9002 -0.13399
2723 49.9002 -0.133986
2724 49.9002 -0.133981
2725 49.9002 -0.133975
2726 49.9002 -0.13397
2727 49.9002 -0.133966
2728 49.9002 -0.133962
2729 49.9002 -0.133957
2730 49.9002 -0.133953
2731 49.9002 -0.133949
2732 49.9002 -0.133945
2733 49.9002 -0.133941
2734 49.9002 -0.133937
2735 49.9002 -0.133933
2736 49.9002 -0.133929
2737 49.9002 -0.133924
2738 49.9002 -0.133919
2739 49.9002 -0.133915
2740 49.9002 -0.13391
2741 49.9002 -0.133905
2742 49.9001 -0.133899
2743 49.9001 -0.133894
2744 49.9001 -0.13389
2745 49.9001 -0.133885
2746 49.9001 -0.133879
2747 49.9001 -0.133874
2748 49.9001 -0.13387
2749 49.9001 -0.133866
2750 49.9001 -0.133862
2751 49.9001 -0.133857
2752 49.9001 -0.133853
2753 49.9001 -0.133849
2754 49.9001 -0.133845
2755 49.9001 -0.133841
2756 49.9001 -0.133837
2757 49.9001 -0.133833
2758 49.9001 -0.133828
2759 49.9001 -0.133823
2760 49.9001 -0.133819
2761 49.9001 -0.133814
2762 49.9001 -0.133809
2763 49.9001 -0.133803
2764 49.9001 -0.133798
2765 49.9001 -0.133794
2766 49.9001 -0.133789
2767 49.9001 -0.133783
2768 49.9001 -0.133778
2769 49.9001 -0.133774
2770 49.9001 -0.13377
2771 49.9001 -0.133766
2772 49.9001 -0.133762
2773 49.9001 -0.133758
2774 49.9001 -0.133754
2775 49.9001 -0.133749
2776 49.9001 -0.133745
2777 49.9001 -0.133741
2778 49.9001 -0.133737
2779 49.9001 -0.133733
2780 49.9001 -0.133727
2781 49.9001 -0.133723
2782 49.9001 -0.133718
2783 49.9001 -0.133713
2784 49.9 -0.133707
2785 49.9 -0.133702
2786 49.9 -0.133698
2787 49.9 -0.133693
2788 49.9 -0.133687
2789 49.9 -0.133682
2790 49.9 -0.133678
2791 49.9 -0.133674
2792 49.9 -0.13367
2793 49.9 -0.133666
2794 49.9 -0.133662
2795 49.9 -0.133658
2796 49.9 -0.133653
2797 49.9 -0.133649
2798 49.9 -0.133645
2799 49.9 -0.133641
2800 49.9 -0.133637
2801 49.9 -0.133632
2802 49.9 -0.133627
2803 49.9 -0.133622
2804 49.9 -0.133617
2805 49.9 -0.133612
2806 49.9 -0.133606
2807 49.9 -0.133602
2808 49.9 -0.133597
2809 49.9 -0.133591
2810 49.9 -0.133587
2811 49.9 -0.133583
2812 49.9 -0.133579
2813 49.9 -0.133574
2814 49.9 -0.13357
2815 49.9 -0.133566
2816 49.9 -0.133562
2817 49.9 -0.133558
2818 49.9 -0.133553
2819 49.9 -0.133549
2820 49.9 -0.133545
2821 49.9 -0.133541
2822 49.9 -0.133536
2823 49.9 -0.133532
2824 49.9 -0.133527
2825 49.9 -0.133521
2826 49.9 -0.133516
2827 49.8999 -0.133511
2828 49.8999 -0.133506
2829 49.8999 -0.133501
2830 49.8999 -0.133496
2831 49.8999 -0.133491
2832 49.8999 -0.133487
2833 49.8999 -0.133483
2834 49.8999 -0.133478
2835 49.8999 -0.133474
2836 49.8999 -0.13347
2837 49.8999 -0.133466
2838 49.8999 -0.133462
2839 49.8999 -0.133458
2840 49.8999 -0.133454
2841 49.8999 -0.13345
2842 49.8999 -0.133445
2843 49.8999 -0.13344
2844 49.8999 -0.133436
2845 49.8999 -0.133431
2846 49.8999 -0.133426
2847 49.8999 -0.13342
2848 49.8999 -0.133415
2849 49.8999 -0.133411
2850 49.8999 -0.133406
2851 49.8999 -0.1334
2852 49.8999 -0.133395
2853 49.8999 -0.133391
2854 49.8999 -0.133387
