20 0.0172074 -0.0176197
31 0.582036 0.0419136
52 1.9672 0.069973
74 3.42293 0.035776
100 5.15292 0.0289006
128 7.01686 0.126324
154 8.71855 0.414617
176 10.1355 0.737042
194 11.2832 1.00548
208 12.1612 1.21383
219 12.8379 1.37782
228 13.3803 1.509
235 13.789 1.60886
241 14.1308 1.69365
246 14.4036 1.76147
250 14.6127 1.81352
253 14.7541 1.8492
255 14.8581 1.87619
258 14.9658 1.90417
260 15.0685 1.93278
262 15.1416 1.95291
295 14.8814 1.80858
353 17.0869 0.814762
404 17.9506 0.342045
430 17.9875 -0.370909
483 18.6556 -1.20529
604 25.871 -2.5286
755 33.534 -7.32169
885 37.9997 -9.5319
932 38.9222 -10.681
958 39.7237 -10.9509
1015 40.1422 -10.4256
1128 45.2401 -9.79555
1166 45.6418 -9.1321
1212 45.5153 -8.41488
1254 45.978 -9.00399
1275 46.668 -9.1279
1347 49.8465 -6.34653
1349 49.926 -6.27355
1351 49.9815 -6.22273
1353 50.0353 -6.17332
1355 50.0831 -6.12914
1357 50.1276 -6.08799
1359 50.1798 -6.03973
1361 50.231 -5.99265
1370 50.2952 -5.94048
1378 50.3697 -5.95052
1407 50.014 -5.93274
1411 49.9329 -5.92139
1413 49.8163 -5.91181
1415 49.7391 -5.90289
1417 49.6656 -5.89327
1419 49.5981 -5.88344
1448 49.7632 -6.01436
1493 49.497 -5.27524
1505 49.4919 -5.10588
1507 49.4906 -5.10497
1509 49.4431 -5.0673
1511 49.3917 -5.02614
1513 49.3318 -4.97809
1515 49.276 -4.93448
1541 49.5412 -4.97659
1570 49.0299 -4.93006
1610 49.9246 -3.54521
1612 49.9794 -3.44975
1614 50.0165 -3.38459
1616 50.0533 -3.32102
1618 50.0903 -3.2582
1620 50.1253 -3.20032
1628 50.176 -3.10855
1642 50.1971 -3.08597
1650 50.2635 -3.09458
1679 49.9661 -3.08117
1708 50.6352 -2.72213
1741 50.2975 -1.21061
1743 50.2798 -1.10184
1745 50.2679 -1.02622
1747 50.2551 -0.947941
1749 50.2435 -0.880309
1751 50.2317 -0.811109
1753 50.2199 -0.742002
1761 50.194 -0.589942
1773 50.2123 -0.578977
1783 50.2896 -0.603459
1807 50.0796 -0.533741
1821 50.0006 -0.369879
1823 49.961 -0.264339
1830 49.8081 0.0814742
1831 49.7793 0.144703
1832 49.7634 0.182382
1833 49.7618 0.186238
1834 49.7618 0.186155
1835 49.7618 0.186083
1836 49.7618 0.186016
1837 49.7618 0.185955
1838 49.7618 0.185904
1839 49.7618 0.185867
1840 49.7618 0.185832
1841 49.7618 0.185796
1842 49.7618 0.185773
1843 49.7618 0.185753
1844 49.7618 0.185735
1845 49.7618 0.185719
1846 49.7618 0.185706
1847 49.7617 0.185698
1848 49.7618 0.185677
1849 49.7617 0.185666
1850 49.7617 0.185664
1851 49.7617 0.18566
1852 49.7617 0.185662
1853 49.7617 0.185658
1854 49.7617 0.185649
1855 49.7617 0.185643
1856 49.7617 0.185635
1857 49.7617 0.185628
1858 49.7617 0.185623
1859 49.7617 0.18563
1860 49.7617 0.185643
1861 49.7617 0.185641
1862 49.7617 0.185623
1863 49.7617 0.185607
1864 49.7617 0.185608
1865 49.7617 0.185606
1866 49.7617 0.185605
1867 49.7617 0.185604
1868 49.7617 0.185599
1869 49.7617 0.1856
1870 49.7617 0.185612
1871 49.7617 0.185617
1872 49.7617 0.185624
1873 49.7617 0.185632
1874 49.7617 0.185624
1875 49.7617 0.185625
1876 49.7617 0.185635
1877 49.7617 0.185635
1878 49.7617 0.18563
1879 49.7617 0.185626
1880 49.7617 0.185622
1881 49.7617 0.185632
1882 49.7617 0.185636
1883 49.7617 0.185631
1884 49.7617 0.185633
1885 49.7617 0.185634
1886 49.7617 0.185639
1887 49.7617 0.185646
1888 49.7617 0.185656
1889 49.7617 0.185667
1890 49.7617 0.185666
1891 49.7617 0.185663
1892 49.7617 0.185663
1893 49.7617 0.185668
1894 49.7617 0.18567
1895 49.7617 0.185672
1896 49.7617 0.185676
1897 49.7617 0.185673
1898 49.7617 0.185675
1899 49.7617 0.185678
1900 49.7617 0.185678
1901 49.7617 0.185679
1902 49.7617 0.185679
1903 49.7617 0.185683
1904 49.7617 0.185687
1905 49.7617 0.185688
1906 49.7617 0.185688
1907 49.7617 0.185689
1908 49.7617 0.185692
1909 49.7617 0.185693
1910 49.7617 0.185687
1911 49.7617 0.185681
1912 49.7617 0.185681
1913 49.7617 0.185681
1914 49.7617 0.185681
1915 49.7617 0.185681
1916 49.7617 0.185682
1917 49.7617 0.185685
1918 49.7617 0.185691
1919 49.7617 0.185692
1920 49.7617 0.185692
1921 49.7617 0.185702
1922 49.7617 0.185709
1923 49.7617 0.185709
1924 49.7617 0.185704
1925 49.7617 0.185699
1926 49.7617 0.185698
1927 49.7617 0.185699
1928 49.7617 0.185701
1929 49.7617 0.185703
1930 49.7617 0.185715
1931 49.7617 0.185725
1932 49.7617 0.185725
1933 49.7617 0.185736
1934 49.7617 0.185741
1935 49.7617 0.185732
1936 49.7617 0.18573
1937 49.7617 0.185729
1938 49.7617 0.185728
1939 49.7617 0.185726
1940 49.7617 0.185729
1941 49.7617 0.185734
1942 49.7617 0.185729
1943 49.7617 0.185723
1944 49.7617 0.185721
1945 49.7617 0.185723
1946 49.7617 0.185725
1947 49.7617 0.185727
1948 49.7617 0.185731
1949 49.7617 0.185731
1950 49.7617 0.185729
1951 49.7617 0.18573
1952 49.7617 0.185733
1953 49.7617 0.185735
1954 49.7617 0.185738
1955 49.7617 0.18574
1956 49.7617 0.185737
1957 49.7617 0.185735
1958 49.7617 0.185738
1959 49.7617 0.185738
1960 49.7617 0.185737
1961 49.7617 0.18574
1962 49.7617 0.185741
1963 49.7617 0.185743
1964 49.7617 0.18575
1965 49.7617 0.185758
1966 49.7617 0.185763
1967 49.7617 0.18577
1968 49.7617 0.18579
1969 49.7616 0.185803
1970 49.7616 0.185803
1971 49.7616 0.185799
1972 49.7616 0.185794
1973 49.7616 0.185795
1974 49.7616 0.185797
1975 49.7616 0.185793
1976 49.7617 0.18579
1977 49.7616 0.185802
1978 49.7616 0.185826
1979 49.7616 0.185839
1980 49.7616 0.18584
1981 49.7616 0.185843
1982 49.7616 0.185847
1983 49.7616 0.185851
1984 49.7616 0.185855
1985 49.7616 0.185859
1986 49.7616 0.185866
1987 49.7616 0.185875
1988 49.7616 0.185884
1989 49.7616 0.185892
1990 49.7616 0.185898
1991 49.7616 0.185901
1992 49.7616 0.185912
1993 49.7616 0.185924
1994 49.7616 0.185933
1995 49.7616 0.185938
1996 49.7616 0.185938
1997 49.7616 0.185944
1998 49.7616 0.185951
1999 49.7616 0.185952
2000 49.7616 0.185961
2001 49.7616 0.185971
2002 49.7616 0.185979
2003 49.7616 0.185988
2004 49.7616 0.186
2005 49.7615 0.186008
2006 49.7616 0.186003
2007 49.7615 0.186006
2008 49.7616 0.185995
2009 49.7616 0.185981
2010 49.7616 0.185978
2011 49.7616 0.185976
2012 49.7616 0.185984
2013 49.7616 0.186
2014 49.7615 0.186014
2015 49.7615 0.186017
2016 49.7615 0.186022
2017 49.7615 0.186026
2018 49.7615 0.186028
2019 49.7615 0.186037
2020 49.7615 0.186046
2021 49.7615 0.186047
2022 49.7615 0.186059
2023 49.7615 0.186073
2024 49.7615 0.186082
2025 49.7615 0.186103
2026 49.7615 0.186109
2027 49.7615 0.186105
2028 49.7615 0.186105
2029 49.7615 0.186104
2030 49.7615 0.186102
2031 49.7615 0.186099
2032 49.7615 0.186102
2033 49.7615 0.186108
2034 49.7615 0.186105
2035 49.7615 0.186098
2036 49.7615 0.186096
2037 49.7615 0.1861
2038 49.7615 0.186111
2039 49.7615 0.186125
2040 49.7615 0.186138
2041 49.7615 0.186142
2042 49.7615 0.186141
2043 49.7615 0.186138
2044 49.7615 0.186142
2045 49.7615 0.186145
2046 49.7615 0.186146
2047 49.7615 0.186147
2048 49.7615 0.186148
2049 49.7615 0.186146
2050 49.7615 0.186141
2051 49.7615 0.186148
2052 49.7615 0.186156
2053 49.7615 0.18616
2054 49.7615 0.18618
2055 49.7615 0.186205
2056 49.7615 0.186215
2057 49.7614 0.186224
2058 49.7614 0.186244
2059 49.7614 0.186251
2060 49.7614 0.186253
2061 49.7614 0.186255
2062 49.7614 0.186263
2063 49.7614 0.186272
2064 49.7614 0.186271
2065 49.7614 0.186273
2066 49.7614 0.186278
2067 49.7614 0.186275
2068 49.7614 0.186273
2069 49.7614 0.186273
2070 49.7614 0.186266
2071 49.7614 0.186263
2072 49.7614 0.186266
2073 49.7614 0.186271
2074 49.7614 0.186274
2075 49.7614 0.18628
2076 49.7614 0.186287
2077 49.7614 0.186292
2078 49.7614 0.186297
2079 49.7614 0.186299
2080 49.7614 0.186296
2081 49.7614 0.186295
2082 49.7614 0.186295
2083 49.7614 0.186292
2084 49.7614 0.186292
2085 49.7614 0.186294
2086 49.7614 0.186294
2087 49.7614 0.186297
2088 49.7614 0.186287
2089 49.7614 0.186272
2090 49.7614 0.186272
2091 49.7614 0.186265
2092 49.7614 0.186258
2093 49.7614 0.186257
2094 49.7614 0.186267
2095 49.7614 0.186269
2096 49.7614 0.18626
2097 49.7614 0.186267
2098 49.7614 0.186276
2099 49.7614 0.186281
2100 49.7614 0.186291
2101 49.7614 0.186302
2102 49.7614 0.18631
2103 49.7614 0.18631
2104 49.7614 0.18631
2105 49.7614 0.186316
2106 49.7614 0.186328
2107 49.7614 0.186336
2108 49.7614 0.186339
2109 49.7614 0.186348
2110 49.7614 0.18635
2111 49.7614 0.186343
2112 49.7614 0.18634
2113 49.7614 0.186342
2114 49.7614 0.186344
2115 49.7614 0.186339
2116 49.7614 0.18633
2117 49.7614 0.18633
2118 49.7614 0.186333
2119 49.7614 0.186328
2120 49.7614 0.186323
2121 49.7614 0.186324
2122 49.7614 0.186331
2123 49.7614 0.186335
2124 49.7614 0.186334
2125 49.7614 0.186331
2126 49.7614 0.186338
2127 49.7614 0.186358
2128 49.7614 0.186368
2129 49.7614 0.186372
2130 49.7614 0.186375
2131 49.7614 0.186376
2132 49.7614 0.186381
2133 49.7614 0.186387
2134 49.7614 0.186393
2135 49.7614 0.186397
2136 49.7614 0.186402
2137 49.7614 0.186406
2138 49.7614 0.186418
2139 49.7613 0.186436
2140 49.7613 0.186445
2141 49.7613 0.186446
2142 49.7613 0.186456
2143 49.7613 0.186478
2144 49.7613 0.186489
2145 49.7613 0.186488
2146 49.7613 0.186491
2147 49.7613 0.186506
2148 49.7613 0.186517
2149 49.7613 0.18652
2150 49.7613 0.186526
2151 49.7613 0.18653
2152 49.7613 0.186529
2153 49.7613 0.186531
2154 49.7613 0.186528
2155 49.7613 0.186523
2156 49.7613 0.186522
2157 49.7613 0.186528
2158 49.7613 0.18653
2159 49.7613 0.186524
2160 49.7613 0.186523
2161 49.7613 0.186535
2162 49.7613 0.186544
2163 49.7613 0.186543
2164 49.7613 0.186558
2165 49.7613 0.186572
2166 49.7613 0.186577
2167 49.7613 0.186581
2168 49.7613 0.186586
2169 49.7613 0.186592
2170 49.7613 0.18659
2171 49.7613 0.186586
2172 49.7613 0.186588
2173 49.7613 0.186585
2174 49.7613 0.186577
2175 49.7613 0.186582
2176 49.7613 0.186592
2177 49.7613 0.186606
2178 49.7613 0.186621
2179 49.7613 0.186628
2180 49.7613 0.186629
2181 49.7613 0.186627
2182 49.7613 0.186624
2183 49.7613 0.186625
2184 49.7613 0.186622
2185 49.7613 0.186614
2186 49.7613 0.186611
2187 49.7613 0.186621
2188 49.7613 0.186633
2189 49.7613 0.186635
2190 49.7612 0.186639
2191 49.7612 0.186644
2192 49.7612 0.186655
2193 49.7612 0.186659
2194 49.7612 0.186655
2195 49.7612 0.186661
2196 49.7612 0.186663
2197 49.7612 0.186673
2198 49.7612 0.186682
2199 49.7612 0.186678
2200 49.7612 0.186677
2201 49.7612 0.186677
2202 49.7612 0.186677
2203 49.7612 0.186677
2204 49.7612 0.186677
2205 49.7612 0.186674
2206 49.7612 0.186669
2207 49.7612 0.18667
2208 49.7612 0.18667
2209 49.7612 0.186672
2210 49.7612 0.186677
2211 49.7612 0.186683
2212 49.7612 0.186694
2213 49.7612 0.1867
2214 49.7612 0.186696
2215 49.7612 0.186694
2216 49.7612 0.186694
2217 49.7612 0.186695
2218 49.7612 0.186699
2219 49.7612 0.186698
2220 49.7612 0.186695
2221 49.7612 0.186701
2222 49.7612 0.186709
2223 49.7612 0.186712
2224 49.7612 0.186723
2225 49.7612 0.186729
2226 49.7612 0.186728
2227 49.7612 0.186733
2228 49.7612 0.186745
2229 49.7612 0.186755
2230 49.7612 0.186762
2231 49.7612 0.186774
2232 49.7612 0.186784
2233 49.7612 0.186784
2234 49.7612 0.186784
2235 49.7612 0.186783
2236 49.7612 0.186787
2237 49.7612 0.18679
2238 49.7612 0.186787
2239 49.7612 0.186779
2240 49.7612 0.186776
2241 49.7612 0.18678
2242 49.7612 0.18678
2243 49.7612 0.186782
2244 49.7612 0.186783
2245 49.7612 0.186787
2246 49.7612 0.186794
2247 49.7612 0.186795
2248 49.7612 0.186805
2249 49.7612 0.186816
2250 49.7612 0.186819
2251 49.7612 0.186829
2252 49.7612 0.186836
2253 49.7612 0.186841
2254 49.7611 0.186848
2255 49.7611 0.186851
2256 49.7611 0.186847
2257 49.7611 0.186848
2258 49.7611 0.186853
2259 49.7611 0.186856
2260 49.7611 0.186859
2261 49.7611 0.18686
2262 49.7611 0.186866
2263 49.7611 0.186875
2264 49.7611 0.186889
2265 49.7611 0.186898
2266 49.7611 0.186897
2267 49.7611 0.186896
2268 49.7611 0.1869
2269 49.7611 0.186904
2270 49.7611 0.186906
2271 49.7611 0.186911
2272 49.7611 0.186913
2273 49.7611 0.186919
2274 49.7611 0.186925
2275 49.7611 0.186928
2276 49.7611 0.186927
2277 49.7611 0.186924
2278 49.7611 0.186917
2279 49.7611 0.186909
2280 49.7611 0.186911
2281 49.7611 0.186916
2282 49.7611 0.186918
2283 49.7611 0.186924
2284 49.7611 0.186933
2285 49.7611 0.186947
2286 49.7611 0.186956
2287 49.7611 0.186955
2288 49.7611 0.186953
2289 49.7611 0.186957
2290 49.7611 0.186968
2291 49.7611 0.186979
2292 49.7611 0.18698
2293 49.7611 0.186981
2294 49.7611 0.186982
2295 49.7611 0.186989
2296 49.7611 0.186992
2297 49.7611 0.186986
2298 49.7611 0.186985
2299 49.7611 0.186992
2300 49.7611 0.187001
2301 49.7611 0.187003
2302 49.7611 0.18701
2303 49.7611 0.187017
2304 49.7611 0.187016
2305 49.7611 0.187016
2306 49.7611 0.187018
2307 49.7611 0.187021
2308 49.7611 0.18703
2309 49.7611 0.187031
2310 49.7611 0.187026
2311 49.7611 0.187026
2312 49.7611 0.187025
2313 49.7611 0.187021
2314 49.7611 0.18702
2315 49.7611 0.187018
2316 49.7611 0.187017
2317 49.7611 0.187018
2318 49.7611 0.187021
2319 49.7611 0.187022
2320 49.7611 0.187018
2321 49.7611 0.187017
2322 49.7611 0.187015
2323 49.7611 0.187014
2324 49.7611 0.187021
2325 49.7611 0.187029
2326 49.7611 0.187041
2327 49.7611 0.187049
2328 49.761 0.18705
2329 49.761 0.187051
2330 49.761 0.187053
2331 49.761 0.187057
2332 49.761 0.187063
2333 49.761 0.187064
2334 49.761 0.187064
2335 49.761 0.187067
2336 49.761 0.187076
2337 49.761 0.187086
2338 49.761 0.187087
2339 49.761 0.18709
2340 49.761 0.187091
2341 49.761 0.18709
2342 49.761 0.187098
2343 49.761 0.187108
2344 49.761 0.18711
2345 49.761 0.187107
2346 49.761 0.187104
2347 49.761 0.187103
2348 49.761 0.1871
2349 49.761 0.187083
2350 49.761 0.187069
2351 49.761 0.187076
2352 49.761 0.18708
2353 49.761 0.18708
2354 49.761 0.187075
2355 49.761 0.18707
2356 49.761 0.187073
2357 49.761 0.187079
2358 49.761 0.187085
2359 49.761 0.187088
2360 49.761 0.187088
2361 49.761 0.187087
2362 49.761 0.187088
2363 49.761 0.187089
2364 49.761 0.187094
2365 49.761 0.187104
2366 49.761 0.187113
2367 49.761 0.187113
2368 49.761 0.187115
2369 49.761 0.187119
2370 49.761 0.187125
2371 49.761 0.18714
2372 49.761 0.187156
2373 49.761 0.187163
2374 49.761 0.187163
2375 49.761 0.187172
2376 49.761 0.187183
2377 49.761 0.187184
2378 49.761 0.187182
2379 49.761 0.187176
2380 49.761 0.187173
2381 49.761 0.187174
2382 49.761 0.187174
2383 49.761 0.187175
2384 49.761 0.187169
2385 49.761 0.187164
2386 49.761 0.187166
2387 49.761 0.187182
2388 49.761 0.187198
2389 49.761 0.187196
2390 49.761 0.187193
2391 49.761 0.187193
2392 49.761 0.187201
2393 49.761 0.187223
2394 49.761 0.187237
2395 49.761 0.187237
2396 49.761 0.187229
2397 49.761 0.187229
2398 49.761 0.187237
2399 49.761 0.187249
2400 49.761 0.187251
2401 49.761 0.187245
2402 49.761 0.187246
2403 49.761 0.187241
2404 49.761 0.187242
2405 49.761 0.187245
2406 49.761 0.187245
2407 49.761 0.187249
2408 49.761 0.187249
2409 49.761 0.187248
2410 49.761 0.187247
2411 49.761 0.187245
2412 49.761 0.187247
2413 49.761 0.187248
2414 49.761 0.18725
2415 49.761 0.187253
2416 49.761 0.187254
2417 49.7609 0.187256
2418 49.7609 0.187264
2419 49.7609 0.187281
2420 49.7609 0.187292
2421 49.7609 0.18728
2422 49.7609 0.187267
2423 49.7609 0.187266
2424 49.7609 0.187264
2425 49.7609 0.187267
2426 49.7609 0.187272
2427 49.7609 0.187274
2428 49.7609 0.18727
2429 49.7609 0.187274
2430 49.7609 0.187285
2431 49.7609 0.187285
2432 49.7609 0.187282
2433 49.7609 0.187278
2434 49.7609 0.18728
2435 49.7609 0.187286
2436 49.7609 0.187286
2437 49.7609 0.187281
2438 49.7609 0.187276
2439 49.7609 0.187286
2440 49.7609 0.187294
2441 49.7609 0.187306
2442 49.7609 0.187316
2443 49.7609 0.187322
2444 49.7609 0.18733
2445 49.7609 0.187335
2446 49.7609 0.187343
2447 49.7609 0.187356
2448 49.7609 0.187366
2449 49.7609 0.187363
2450 49.7609 0.187356
2451 49.7609 0.18735
2452 49.7609 0.187347
2453 49.7609 0.187351
2454 49.7609 0.187353
2455 49.7609 0.18735
2456 49.7609 0.187351
2457 49.7609 0.187351
2458 49.7609 0.187358
2459 49.7609 0.187374
2460 49.7609 0.187382
2461 49.7609 0.187383
2462 49.7609 0.187383
2463 49.7609 0.187381
2464 49.7609 0.187385
2465 49.7609 0.187395
2466 49.7609 0.187397
2467 49.7609 0.187404
2468 49.7609 0.187416
2469 49.7609 0.187415
2470 49.7609 0.187403
2471 49.7609 0.187392
2472 49.7609 0.187391
2473 49.7609 0.187391
2474 49.7609 0.187395
2475 49.7609 0.187401
2476 49.7609 0.187409
2477 49.7609 0.187413
2478 49.7609 0.187415
2479 49.7609 0.187418
2480 49.7609 0.187418
2481 49.7609 0.187419
2482 49.7609 0.187419
2483 49.7609 0.18742
2484 49.7609 0.18742
2485 49.7609 0.187421
2486 49.7609 0.187419
2487 49.7609 0.187417
2488 49.7609 0.187413
2489 49.7609 0.187416
2490 49.7609 0.187422
2491 49.7609 0.187417
2492 49.7609 0.187413
2493 49.7609 0.187418
2494 49.7609 0.187423
2495 49.7609 0.187418
2496 49.7609 0.187419
2497 49.7609 0.187426
2498 49.7609 0.187426
2499 49.7609 0.187422
2500 49.7609 0.18742
2501 49.7609 0.187422
2502 49.7609 0.187423
2503 49.7609 0.187425
2504 49.7609 0.187438
2505 49.7609 0.187446
2506 49.7609 0.18744
2507 49.7609 0.187431
2508 49.7609 0.187429
2509 49.7609 0.187431
2510 49.7609 0.187431
2511 49.7609 0.187426
2512 49.7609 0.187422
2513 49.7609 0.18742
2514 49.7609 0.187418
2515 49.7609 0.187417
2516 49.7609 0.187413
2517 49.7609 0.187418
2518 49.7609 0.187428
2519 49.7609 0.187432
2520 49.7609 0.18744
2521 49.7609 0.187448
2522 49.7609 0.187438
2523 49.7609 0.187426
2524 49.7609 0.187433
2525 49.7609 0.187444
2526 49.7609 0.187449
2527 49.7609 0.187458
2528 49.7608 0.187478
2529 49.7608 0.187498
2530 49.7608 0.187513
2531 49.7608 0.187517
2532 49.7608 0.187517
2533 49.7608 0.187518
2534 49.7608 0.187528
2535 49.7608 0.187538
2536 49.7608 0.18754
2537 49.7608 0.187538
2538 49.7608 0.187537
2539 49.7608 0.18754
2540 49.7608 0.187544
2541 49.7608 0.187542
2542 49.7608 0.187543
2543 49.7608 0.18755
2544 49.7608 0.187552
2545 49.7608 0.187547
2546 49.7608 0.187545
2547 49.7608 0.187544
2548 49.7608 0.187549
2549 49.7608 0.187559
2550 49.7608 0.187562
2551 49.7608 0.187567
2552 49.7608 0.187577
2553 49.7608 0.187583
2554 49.7608 0.187586
2555 49.7608 0.187588
2556 49.7608 0.187598
2557 49.7608 0.187616
2558 49.7608 0.187629
2559 49.7608 0.187638
2560 49.7608 0.187641
2561 49.7608 0.187644
2562 49.7608 0.187645
2563 49.7608 0.187644
2564 49.7608 0.18765
2565 49.7608 0.187654
2566 49.7608 0.187652
2567 49.7608 0.187652
2568 49.7608 0.187652
2569 49.7608 0.187652
2570 49.7607 0.187661
2571 49.7607 0.187675
2572 49.7607 0.187692
2573 49.7607 0.187706
2574 49.7607 0.187716
2575 49.7607 0.187727
2576 49.7607 0.187732
2577 49.7607 0.187742
2578 49.7607 0.187751
2579 49.7607 0.187761
2580 49.7607 0.187773
2581 49.7607 0.187775
2582 49.7607 0.187781
2583 49.7607 0.187786
2584 49.7607 0.187787
2585 49.7607 0.187795
2586 49.7607 0.187809
2587 49.7607 0.187821
2588 49.7607 0.187834
2589 49.7607 0.18784
2590 49.7607 0.187839
2591 49.7607 0.187839
2592 49.7607 0.187833
2593 49.7607 0.187829
2594 49.7607 0.187831
2595 49.7607 0.18784
2596 49.7607 0.187858
2597 49.7606 0.18787
2598 49.7606 0.187875
2599 49.7606 0.18788
2600 49.7606 0.187879
2601 49.7606 0.187887
2602 49.7606 0.187892
2603 49.7606 0.18789
2604 49.7606 0.187893
2605 49.7606 0.187897
2606 49.7606 0.187899
2607 49.7606 0.1879
2608 49.7606 0.1879
2609 49.7606 0.187908
2610 49.7606 0.187914
2611 49.7606 0.187922
2612 49.7606 0.187934
2613 49.7606 0.187936
2614 49.7606 0.187935
2615 49.7606 0.187942
2616 49.7606 0.187951
2617 49.7606 0.187952
2618 49.7606 0.187948
2619 49.7606 0.187944
2620 49.7606 0.187951
2621 49.7606 0.187968
2622 49.7606 0.187979
2623 49.7606 0.187977
2624 49.7606 0.187977
2625 49.7606 0.187978
2626 49.7606 0.187959
2627 49.7606 0.187942
2628 49.7606 0.187946
2629 49.7606 0.187959
2630 49.7606 0.187966
2631 49.7606 0.187965
2632 49.7606 0.187971
2633 49.7606 0.187974
2634 49.7606 0.187975
2635 49.7606 0.18799
2636 49.7606 0.188013
2637 49.7606 0.188033
2638 49.7606 0.188048
2639 49.7606 0.188057
2640 49.7606 0.188056
2641 49.7606 0.188052
2642 49.7606 0.188051
2643 49.7606 0.188057
2644 49.7605 0.188063
2645 49.7606 0.188061
2646 49.7606 0.188061
2647 49.7605 0.188063
2648 49.7606 0.188058
2649 49.7606 0.188057
2650 49.7606 0.188055
2651 49.7606 0.188061
2652 49.7605 0.188071
2653 49.7605 0.188071
2654 49.7605 0.188072
2655 49.7605 0.188072
2656 49.7605 0.188071
2657 49.7605 0.188071
2658 49.7605 0.188083
2659 49.7605 0.188099
2660 49.7605 0.188099
2661 49.7605 0.188094
2662 49.7605 0.188092
2663 49.7605 0.188093
2664 49.7605 0.188095
2665 49.7605 0.188109
2666 49.7605 0.188119
2667 49.7605 0.188121
2668 49.7605 0.188129
2669 49.7605 0.188133
2670 49.7605 0.188143
2671 49.7605 0.188151
2672 49.7605 0.188148
2673 49.7605 0.188149
2674 49.7605 0.188148
2675 49.7605 0.188144
2676 49.7605 0.188143
2677 49.7605 0.188149
2678 49.7605 0.188153
2679 49.7605 0.188158
2680 49.7605 0.188163
2681 49.7605 0.188167
2682 49.7605 0.188168
2683 49.7605 0.188168
2684 49.7605 0.188178
2685 49.7605 0.188186
2686 49.7605 0.188186
2687 49.7605 0.188196
2688 49.7605 0.188204
2689 49.7605 0.188201
2690 49.7605 0.188202
2691 49.7605 0.188203
2692 49.7605 0.188202
2693 49.7605 0.188201
2694 49.7605 0.188201
2695 49.7605 0.188204
2696 49.7605 0.188203
2697 49.7605 0.188207
2698 49.7605 0.188208
2699 49.7605 0.188201
2700 49.7605 0.188192
2701 49.7605 0.188185
2702 49.7605 0.188195
2703 49.7605 0.188214
2704 49.7605 0.188231
2705 49.7605 0.188251
2706 49.7605 0.188261
2707 49.7605 0.188261
2708 49.7604 0.188262
2709 49.7605 0.188261
2710 49.7605 0.188258
2711 49.7605 0.188257
2712 49.7605 0.188257
2713 49.7605 0.188255
2714 49.7605 0.188253
2715 49.7604 0.188264
2716 49.7604 0.188274
2717 49.7604 0.188278
2718 49.7604 0.188279
2719 49.7604 0.188281
2720 49.7604 0.188288
2721 49.7604 0.188284
2722 49.7604 0.188277
2723 49.7604 0.188277
2724 49.7604 0.18828
2725 49.7604 0.18828
2726 49.7604 0.188281
2727 49.7604 0.188283
2728 49.7604 0.188285
2729 49.7604 0.188283
2730 49.7604 0.188285
2731 49.7604 0.188296
2732 49.7604 0.188299
2733 49.7604 0.188298
2734 49.7604 0.188301
2735 49.7604 0.188303
2736 49.7604 0.188307
2737 49.7604 0.188307
2738 49.7604 0.188311
2739 49.7604 0.188317
2740 49.7604 0.188319
2741 49.7604 0.188318
2742 49.7604 0.188317
2743 49.7604 0.188318
2744 49.7604 0.188323
2745 49.7604 0.188328
2746 49.7604 0.188325
2747 49.7604 0.188328
2748 49.7604 0.188335
2749 49.7604 0.188335
2750 49.7604 0.188338
2751 49.7604 0.188342
2752 49.7604 0.188345
2753 49.7604 0.188358
2754 49.7604 0.188366
2755 49.7604 0.188365
2756 49.7604 0.188364
2757 49.7604 0.188354
2758 49.7604 0.188344
2759 49.7604 0.188345
2760 49.7604 0.188345
2761 49.7604 0.188343
2762 49.7604 0.188343
2763 49.7604 0.188342
2764 49.7604 0.188329
2765 49.7604 0.188318
2766 49.7604 0.188317
2767 49.7604 0.188321
2768 49.7604 0.188335
2769 49.7604 0.188347
2770 49.7604 0.18836
2771 49.7604 0.188367
2772 49.7604 0.188363
2773 49.7604 0.188361
2774 49.7604 0.188352
2775 49.7604 0.188344
2776 49.7604 0.188358
2777 49.7604 0.188372
2778 49.7604 0.188374
2779 49.7604 0.188376
2780 49.7604 0.188372
2781 49.7604 0.188359
2782 49.7604 0.188353
2783 49.7604 0.188368
2784 49.7604 0.18838
2785 49.7604 0.188389
2786 49.7604 0.188403
2787 49.7604 0.188415
2788 49.7604 0.188418
2789 49.7604 0.188415
2790 49.7604 0.188414
2791 49.7604 0.188396
2792 49.7604 0.18838
2793 49.7604 0.188395
2794 49.7604 0.188411
2795 49.7604 0.188417
2796 49.7604 0.188419
2797 49.7604 0.188413
2798 49.7604 0.188403
2799 49.7604 0.188403
2800 49.7604 0.188419
2801 49.7604 0.188431
2802 49.7604 0.188439
2803 49.7604 0.188452
2804 49.7604 0.18846
2805 49.7604 0.18846
2806 49.7604 0.188457
2807 49.7604 0.188456
2808 49.7604 0.188448
2809 49.7604 0.18845
2810 49.7603 0.188471
2811 49.7603 0.188485
2812 49.7603 0.188493
2813 49.7603 0.188498
2814 49.7603 0.188492
2815 49.7603 0.188489
2816 49.7603 0.1885
2817 49.7603 0.188515
2818 49.7603 0.188521
2819 49.7603 0.188526
2820 49.7603 0.188521
2821 49.7603 0.188515
2822 49.7603 0.188518
2823 49.7603 0.188516
2824 49.7603 0.188524
2825 49.7603 0.188528
2826 49.7603 0.188534
2827 49.7603 0.188549
2828 49.7603 0.188555
2829 49.7603 0.188562
2830 49.7603 0.188569
2831 49.7603 0.188571
2832 49.7603 0.188578
2833 49.7603 0.188591
2834 49.7603 0.188601
2835 49.7603 0.1886
2836 49.7603 0.188603
2837 49.7603 0.188598
2838 49.7603 0.188589
2839 49.7603 0.188593
2840 49.7603 0.188599
2841 49.7603 0.188601
2842 49.7603 0.188601
2843 49.7603 0.188604
2844 49.7603 0.188606
2845 49.7603 0.188606
2846 49.7603 0.188613
2847 49.7603 0.188619
2848 49.7603 0.18861
2849 49.7603 0.188603
2850 49.7603 0.188602
2851 49.7603 0.188609
2852 49.7603 0.188619
2853 49.7603 0.188625
