1 -6.89583e-06 -0.00065628
2 -6.92958e-06 -0.000625886
3 -2.02493e-05 0.000457353
4 -7.34413e-05 0.00126389
5 -0.000248532 0.00258183
6 -0.000657098 0.0042402
7 -0.00130735 0.00575849
8 -0.00228499 0.00727873
9 0.000255389 0.00291349
10 0.00334319 0.000704033
11 0.0066149 -0.000795215
12 0.00940747 -0.00142598
13 0.0130625 -0.00231584
14 0.0168308 -0.00270138
15 0.0199554 -0.00259115
16 0.019799 -0.00174731
17 0.0197646 -0.00170339
18 0.0864975 -0.0142785
19 0.157956 -0.0146616
20 0.227521 -0.0124458
21 0.296821 -0.0103127
22 0.366092 -0.00835095
23 0.435348 -0.00650504
24 0.504551 -0.00475517
25 0.573695 -0.00307626
26 0.571694 0.00564807
27 0.653162 -0.000636949
28 0.72256 0.000854239
29 0.791602 0.00254464
30 0.860486 0.00425342
31 0.929422 0.00594391
32 0.998382 0.00762208
33 1.06731 0.00932985
34 1.13623 0.0110382
35 1.20513 0.0127549
36 1.27401 0.0144732
37 1.34289 0.0161887
38 1.41176 0.0179063
39 1.48062 0.0196116
40 1.47334 0.0230597
41 1.55738 0.0218528
42 1.62703 0.0236092
43 1.69587 0.0254727
44 1.76471 0.0273246
45 1.83354 0.0291746
46 1.90237 0.0310243
47 1.9712 0.0328591
48 2.04002 0.0346935
49 2.10884 0.0365302
50 2.17766 0.0383699
51 2.24648 0.0402013
52 2.3153 0.0420266
53 2.38411 0.0438658
54 2.37517 0.0451388
55 2.4614 0.046162
56 2.53094 0.0481649
57 2.59974 0.0501881
58 2.66858 0.0522097
59 2.73736 0.0542176
60 2.80618 0.0562039
61 2.87497 0.0581792
62 2.94378 0.0601451
63 3.01257 0.06211
64 3.08139 0.0640585
65 3.15017 0.0659968
66 3.219 0.0679353
67 3.28782 0.0698649
68 3.35662 0.071794
69 3.4254 0.073701
70 3.49421 0.0756089
71 3.56301 0.0775224
72 3.63181 0.0794161
73 3.70064 0.081311
74 3.76945 0.0832068
75 3.83826 0.0851016
76 3.90709 0.0869838
77 3.97592 0.0888513
78 4.04472 0.0907385
79 4.03561 0.0908008
80 4.12282 0.0930682
81 4.1923 0.0951549
82 4.26113 0.0972218
83 4.32992 0.0992691
84 4.39873 0.10131
85 4.46753 0.103349
86 4.53634 0.105379
87 4.60515 0.107413
88 4.67395 0.10944
89 4.74276 0.111471
90 4.81156 0.113516
91 4.80082 0.113385
92 4.88787 0.116087
93 4.95754 0.118463
94 5.02633 0.120805
95 5.09511 0.123124
96 5.16378 0.125413
97 5.2326 0.127701
98 5.30141 0.129966
99 5.37021 0.132215
100 5.43901 0.134425
101 5.50781 0.136619
102 5.49717 0.136391
103 5.58476 0.139316
104 5.65433 0.141762
105 5.72311 0.14414
106 5.79188 0.146478
107 5.86063 0.148791
108 5.92944 0.151067
109 5.99824 0.153317
110 6.06714 0.155535
111 6.13592 0.157718
112 6.12497 0.157417
113 6.21179 0.160344
114 6.28154 0.162795
115 6.35029 0.165183
116 6.41905 0.167515
117 6.48786 0.169824
118 6.55668 0.172134
119 6.6253 0.174401
120 6.69402 0.176658
121 6.68364 0.17636
122 6.77089 0.179587
123 6.84046 0.182297
124 6.90921 0.184915
125 6.97789 0.187476
126 7.04673 0.18997
127 7.11538 0.192408
128 7.18428 0.194795
129 7.25301 0.197113
130 7.32182 0.19941
131 7.39061 0.201664
132 7.45941 0.203889
133 7.52831 0.206097
134 7.5971 0.208265
135 7.6659 0.210426
136 7.65607 0.210094
137 7.65196 0.209958
138 7.7316 0.21264
139 7.80433 0.215168
140 7.87311 0.217533
141 7.9419 0.219882
142 8.0107 0.22222
143 8.07943 0.224541
144 8.14823 0.226861
145 8.13805 0.226535
146 8.22555 0.229699
147 8.29504 0.232274
148 8.36373 0.234765
149 8.43256 0.237206
150 8.42248 0.236887
151 8.50937 0.240144
152 8.57907 0.242843
153 8.64785 0.245447
154 8.71666 0.247996
155 8.70704 0.247685
156 8.79344 0.251003
157 8.86313 0.253763
158 8.93182 0.256412
159 9.00054 0.259032
160 8.99048 0.258699
161 9.07755 0.262191
162 9.14715 0.265096
163 9.21589 0.267882
164 9.20594 0.267561
165 9.29234 0.271186
166 9.36217 0.274192
167 9.43091 0.277071
168 9.42047 0.276723
169 9.50821 0.28053
170 9.57762 0.283639
171 9.64637 0.286606
172 9.637 0.286274
173 9.72307 0.289951
174 9.79296 0.292951
175 9.86171 0.295827
176 9.85145 0.295438
177 9.93812 0.299242
178 9.92903 0.298955
179 10.0134 0.303014
180 10.0037 0.302753
181 10.0143 0.303553
182 10.0254 0.30518
183 10.0292 0.306494
184 10.0313 0.307476
185 10.0377 0.310679
186 10.0402 0.313156
187 10.0412 0.31443
188 10.0436 0.316934
189 10.0877 0.373955
190 10.1153 0.436611
191 10.1418 0.502493
192 10.1673 0.567066
193 10.1939 0.631187
194 10.2215 0.694862
195 10.2495 0.757633
196 10.2782 0.820294
197 10.3072 0.88252
198 10.3368 0.944709
199 10.3667 1.00672
200 10.3973 1.06902
201 10.4277 1.13073
202 10.4171 1.12436
203 10.4208 1.13065
204 10.4242 1.13517
205 10.4261 1.13709
206 10.429 1.13952
207 10.4326 1.14208
208 10.436 1.14397
209 10.4394 1.14558
210 10.4431 1.14714
211 10.4463 1.14824
212 10.5219 1.17523
213 10.591 1.19078
214 10.6585 1.20492
215 10.7258 1.21906
216 10.7932 1.23329
217 10.8606 1.24759
218 10.9279 1.26191
219 10.9952 1.27624
220 11.0626 1.29067
221 11.1299 1.30509
222 11.1972 1.31957
223 11.2645 1.33406
224 11.3318 1.34859
225 11.3991 1.36315
226 11.4664 1.37772
227 11.5337 1.39231
228 11.6009 1.40693
229 11.6682 1.42155
230 11.7355 1.43617
231 11.8028 1.45082
232 11.8699 1.46548
233 11.9372 1.48016
234 12.0044 1.49484
235 12.0716 1.50952
236 12.1389 1.52424
237 12.2061 1.53896
238 12.2734 1.55369
239 12.3406 1.56843
240 12.4078 1.58317
241 12.398 1.5796
242 12.4819 1.59986
243 12.5494 1.61505
244 12.6169 1.62958
245 12.6842 1.6435
246 12.7521 1.65704
247 12.8196 1.66999
248 12.8868 1.68249
249 12.9543 1.69472
250 13.0221 1.70671
251 13.0901 1.71844
252 13.158 1.72989
253 13.226 1.74117
254 13.2941 1.75226
255 13.3622 1.76313
256 13.4305 1.77389
257 13.4981 1.78443
258 13.5663 1.79496
259 13.6343 1.80535
260 13.7026 1.81572
261 13.7706 1.82599
262 13.8387 1.83622
263 13.9067 1.84641
264 13.9748 1.85654
265 14.0429 1.86665
266 14.111 1.87672
267 14.1791 1.88677
268 14.2471 1.8968
269 14.3154 1.90681
270 14.3835 1.91678
271 14.4516 1.92676
272 14.5197 1.93674
273 14.5878 1.9467
274 14.6559 1.95667
275 14.7241 1.96663
276 14.7922 1.97658
277 14.8603 1.98655
278 14.9284 1.99652
279 14.9176 1.99453
280 14.9295 1.99611
281 14.941 1.99703
282 14.9529 1.99715
283 14.9652 1.99617
284 14.9683 1.99498
285 14.9675 1.99496
286 14.9698 1.99471
287 14.973 1.99375
288 14.9764 1.99232
289 14.9794 1.99076
290 15.0508 1.95241
291 15.1073 1.90975
292 15.1616 1.86735
293 15.216 1.82499
294 15.2705 1.78277
295 15.325 1.74061
296 15.3796 1.69854
297 15.4343 1.6565
298 15.4889 1.61458
299 15.5435 1.57272
300 15.5983 1.53086
301 15.653 1.48906
302 15.7077 1.44733
303 15.7626 1.40557
304 15.8174 1.36387
305 15.8723 1.32218
306 15.9271 1.28058
307 15.9821 1.23892
308 16.037 1.19734
309 16.0919 1.1558
310 16.1467 1.11426
311 16.2016 1.07274
312 16.2026 1.06905
313 16.2045 1.06731
314 16.207 1.06584
315 16.2109 1.06389
316 16.2147 1.0623
317 16.2185 1.06102
318 16.2227 1.05993
319 16.2257 1.05948
320 16.2289 1.05919
321 16.2315 1.05916
322 16.2341 1.05929
323 16.2378 1.05965
324 16.3152 1.07031
325 16.3837 1.09068
326 16.449 1.11196
327 16.5146 1.13321
328 16.5802 1.15444
329 16.6458 1.17563
330 16.7116 1.19685
331 16.7771 1.218
332 16.8427 1.23911
333 16.9082 1.26017
334 16.9303 1.27096
335 16.9503 1.27712
336 16.9695 1.28068
337 16.988 1.28214
338 16.9993 1.28163
339 16.9981 1.2812
340 16.998 1.28128
341 16.9986 1.28138
342 17.0023 1.28026
343 17.0053 1.27887
344 17.0773 1.24358
345 17.1365 1.20407
346 17.1932 1.16508
347 17.2502 1.12627
348 17.3072 1.08773
349 17.3644 1.04942
350 17.4218 1.01129
351 17.4794 0.973353
352 17.5368 0.935756
353 17.5946 0.898168
354 17.6524 0.860732
355 17.7103 0.823374
356 17.7682 0.786164
357 17.8262 0.749037
358 17.8842 0.712045
359 17.9423 0.675136
360 18.0005 0.638262
361 18.0587 0.601503
362 18.1169 0.564781
363 18.1752 0.52813
364 18.2335 0.49152
365 18.2918 0.454957
366 18.3502 0.418408
367 18.4085 0.381924
368 18.4669 0.345478
369 18.5253 0.30906
370 18.5838 0.272622
371 18.6423 0.236267
372 18.7007 0.199943
373 18.7591 0.163664
374 18.8176 0.127367
375 18.8761 0.0910984
376 18.9346 0.0548327
377 18.9931 0.0185926
378 19.0517 -0.0176835
379 19.1102 -0.0539183
380 19.1687 -0.0901593
381 19.2273 -0.126397
382 19.2859 -0.162611
383 19.3444 -0.198829
384 19.403 -0.235006
385 19.4615 -0.271189
386 19.5201 -0.307367
387 19.5787 -0.343552
388 19.6372 -0.379709
389 19.6958 -0.415851
390 19.7543 -0.451989
391 19.813 -0.488154
392 19.8715 -0.52428
393 19.9301 -0.560419
394 19.9887 -0.596548
395 20.0473 -0.632657
396 20.1059 -0.668768
397 20.1645 -0.704873
398 20.2231 -0.740985
399 20.2818 -0.777081
400 20.3404 -0.813182
401 20.399 -0.849276
402 20.4576 -0.885369
403 20.5162 -0.921467
404 20.5749 -0.957563
405 20.6335 -0.993645
406 20.6921 -1.02972
407 20.7507 -1.06578
408 20.8094 -1.10186
409 20.868 -1.13793
410 20.9267 -1.17401
411 20.9853 -1.21008
412 21.0439 -1.24613
413 21.1026 -1.28221
414 21.1612 -1.31827
415 21.2198 -1.35432
416 21.2784 -1.39037
417 21.3371 -1.42643
418 21.3957 -1.46248
419 21.4544 -1.49851
420 21.513 -1.53455
421 21.5717 -1.57059
422 21.6303 -1.60662
423 21.689 -1.64267
424 21.7476 -1.6787
425 21.8063 -1.71474
426 21.8649 -1.75077
427 21.9236 -1.7868
428 21.9822 -1.82283
429 22.0409 -1.85887
430 22.0995 -1.89489
431 22.1582 -1.93091
432 22.2169 -1.96694
433 22.2755 -2.00296
434 22.3342 -2.03898
435 22.3929 -2.075
436 22.4515 -2.11101
437 22.5102 -2.14704
438 22.5689 -2.18306
439 22.6276 -2.21906
440 22.6862 -2.25507
441 22.7449 -2.29107
442 22.8036 -2.32705
443 22.8623 -2.36305
444 22.9209 -2.39905
445 22.9796 -2.43503
446 23.0383 -2.47101
447 23.097 -2.50698
448 23.1557 -2.54297
449 23.2144 -2.57894
450 23.2731 -2.61492
451 23.3318 -2.6509
452 23.3905 -2.68687
453 23.4492 -2.72283
454 23.5079 -2.7588
455 23.5666 -2.79476
456 23.6253 -2.83074
457 23.6132 -2.82335
458 23.6887 -2.87008
459 23.7477 -2.90685
460 23.8061 -2.94321
461 23.8646 -2.97957
462 23.9231 -3.01587
463 23.9816 -3.05216
464 24.0401 -3.08844
465 24.0986 -3.12474
466 24.1571 -3.16101
467 24.2156 -3.19726
468 24.2741 -3.2335
469 24.3327 -3.26973
470 24.3912 -3.30596
471 24.4498 -3.34218
472 24.5083 -3.37838
473 24.5668 -3.41458
474 24.6254 -3.45077
475 24.684 -3.48697
476 24.7425 -3.52314
477 24.8011 -3.5593
478 24.8597 -3.59547
479 24.9182 -3.63163
480 24.9768 -3.66778
481 25.0354 -3.70392
482 25.094 -3.74005
483 25.1525 -3.77618
484 25.2111 -3.81232
485 25.2697 -3.84843
486 25.3283 -3.88455
487 25.3869 -3.92067
488 25.4455 -3.95677
489 25.5041 -3.99288
490 25.5627 -4.02898
491 25.6213 -4.06508
492 25.68 -4.10118
493 25.7386 -4.13727
494 25.7972 -4.17336
495 25.8558 -4.20945
496 25.9144 -4.24553
497 25.973 -4.28161
498 26.0317 -4.3177
499 26.0903 -4.35377
500 26.1489 -4.38984
501 26.2076 -4.42591
502 26.2662 -4.46198
503 26.3248 -4.49804
504 26.3835 -4.53409
505 26.4421 -4.57015
506 26.5008 -4.6062
507 26.5594 -4.64226
508 26.618 -4.6783
509 26.6767 -4.71435
510 26.7353 -4.75041
511 26.794 -4.78646
512 26.8526 -4.82252
513 26.9113 -4.85855
514 26.9699 -4.89459
515 27.0286 -4.93064
516 27.0872 -4.96667
517 27.0756 -4.95954
518 27.151 -5.00639
519 27.2099 -5.04323
520 27.2683 -5.0797
521 27.3267 -5.1161
522 27.3852 -5.15253
523 27.4437 -5.18891
524 27.5021 -5.22527
525 27.5606 -5.26157
526 27.6191 -5.2979
527 27.6776 -5.33418
528 27.7361 -5.37044
529 27.7946 -5.40668
530 27.8531 -5.44293
531 27.9117 -5.47916
532 27.9702 -5.51538
533 28.0287 -5.5516
534 28.0873 -5.5878
535 28.1458 -5.624
536 28.2044 -5.6602
537 28.2629 -5.69636
538 28.3215 -5.73253
539 28.3801 -5.76869
540 28.4387 -5.80485
541 28.4972 -5.84101
542 28.5558 -5.87715
543 28.6144 -5.91331
544 28.673 -5.94944
545 28.7316 -5.98558
546 28.7205 -5.97872
547 28.7954 -6.02541
548 28.8544 -6.06234
549 28.9127 -6.09883
550 28.971 -6.13525
551 29.0295 -6.17175
552 29.0878 -6.20808
553 29.1463 -6.24447
554 29.2047 -6.28083
555 29.2632 -6.31714
556 29.3216 -6.35347
557 29.3801 -6.38976
558 29.4387 -6.42608
559 29.4292 -6.42021
560 29.5051 -6.46768
561 29.5636 -6.50439
562 29.622 -6.54096
563 29.6804 -6.57746
564 29.7387 -6.6139
565 29.7971 -6.65034
566 29.7869 -6.64399
567 29.7839 -6.6421
568 29.8547 -6.6865
569 29.9155 -6.72463
570 29.9737 -6.76119
571 29.9625 -6.75421
572 30.0372 -6.80161
573 30.025 -6.79415
574 30.099 -6.84211
575 30.0881 -6.83552
576 30.1607 -6.88367
577 30.149 -6.8766
578 30.22 -6.92469
579 30.2109 -6.91931
580 30.2823 -6.96841
581 30.277 -6.96556
582 30.3436 -7.01142
583 30.3296 -7.00243
584 30.4011 -7.05159
585 30.3897 -7.04435
586 30.4545 -7.0887
587 30.4471 -7.08402
588 30.5187 -7.13281
589 30.5102 -7.12731
590 30.5792 -7.17409
591 30.5742 -7.17082
592 30.6397 -7.21467
593 30.6269 -7.20609
594 30.6235 -7.20388
595 30.6244 -7.20448
596 30.6866 -7.24577
597 30.749 -7.28693
598 30.8065 -7.32444
599 30.7957 -7.31711
600 30.8689 -7.36494
601 30.8577 -7.35737
602 30.9309 -7.40582
603 30.9191 -7.39798
604 30.9907 -7.44628
605 30.9774 -7.43761
606 31.0484 -7.48695
607 31.0341 -7.47756
608 31.0325 -7.47644
609 31.0325 -7.47645
610 31.1 -7.52434
611 31.1585 -7.56606
612 31.2148 -7.60576
613 31.2037 -7.59824
614 31.2763 -7.64828
615 31.2644 -7.64015
616 31.3365 -7.68972
617 31.325 -7.68188
618 31.3227 -7.68029
619 31.3228 -7.68032
620 31.3905 -7.72714
621 31.4499 -7.76813
622 31.5067 -7.80685
623 31.4952 -7.79884
624 31.5687 -7.84851
625 31.5591 -7.84181
626 31.6306 -7.88976
627 31.6892 -7.92849
628 31.7467 -7.96615
629 31.7357 -7.95844
630 31.7331 -7.95666
631 31.7331 -7.9567
632 31.733 -7.95667
633 31.8014 -8.0018
634 31.8619 -8.04122
635 31.9193 -8.07829
636 31.9078 -8.07042
637 31.9824 -8.11912
638 31.9705 -8.11106
639 32.043 -8.15912
640 32.032 -8.15184
641 32.1047 -8.20115
642 32.0919 -8.19271
643 32.0895 -8.19108
644 32.0896 -8.19114
645 32.0899 -8.19142
646 32.0895 -8.19123
647 32.0905 -8.19184
648 32.092 -8.19271
649 32.0945 -8.19387
650 32.0977 -8.19504
651 32.101 -8.19589
652 32.1036 -8.19632
653 32.1073 -8.19685
654 32.1063 -8.19646
655 32.1063 -8.19661
656 32.1821 -8.20694
657 32.2548 -8.21037
658 32.3237 -8.2119
659 32.3149 -8.20466
660 32.3113 -8.2035
661 32.3113 -8.20364
662 32.3889 -8.21132
663 32.4615 -8.21395
664 32.5304 -8.21527
665 32.5212 -8.21022
666 32.6071 -8.21647
667 32.5993 -8.21227
668 32.6795 -8.21767
669 32.6647 -8.21368
670 32.7423 -8.21882
671 32.7361 -8.216
672 32.8172 -8.22085
673 32.8043 -8.21779
674 32.8781 -8.22203
675 32.8645 -8.21948
676 32.9518 -8.22431
677 32.9401 -8.22185
678 33.0216 -8.226
679 33.0175 -8.22427
680 33.0135 -8.22381
681 33.0091 -8.22364
682 33.0843 -8.22742
683 33.1582 -8.22993
684 33.2322 -8.2318
685 33.2276 -8.2302
686 33.31 -8.2325
687 33.3064 -8.23116
688 33.295 -8.23062
689 33.2912 -8.23062
690 33.3557 -8.23269
691 33.433 -8.23443
692 33.5073 -8.2355
693 33.5067 -8.23444
694 33.5921 -8.23556
695 33.5914 -8.23459
696 33.608 -8.23495
697 33.624 -8.23645
698 33.6357 -8.23911
699 33.6506 -8.24456
700 33.6574 -8.24978
701 33.6613 -8.25422
702 33.6636 -8.2576
703 33.6626 -8.2573
704 33.7004 -8.30817
705 33.72 -8.3626
706 33.741 -8.4264
707 33.7638 -8.49664
708 33.7894 -8.56906
709 33.8151 -8.63685
710 33.8414 -8.69968
711 33.8362 -8.70816
712 33.8292 -8.70095
713 33.8258 -8.69491
714 33.8258 -8.69356
715 33.8278 -8.69568
716 33.867 -8.75035
717 33.9102 -8.81664
718 33.9455 -8.87434
719 33.9786 -8.92883
720 34.0143 -8.9872
721 34.0521 -9.04935
722 34.0886 -9.10969
723 34.1222 -9.16595
724 34.1568 -9.22366
725 34.194 -9.28554
726 34.2296 -9.34518
727 34.2626 -9.40084
728 34.2545 -9.39246
729 34.2517 -9.3883
730 34.2519 -9.38839
731 34.2525 -9.38919
732 34.255 -9.3921
733 34.2584 -9.39522
734 34.2615 -9.39722
735 34.2647 -9.39883
736 34.2679 -9.40002
737 34.341 -9.428
738 34.4114 -9.44194
739 34.4792 -9.4536
740 34.5465 -9.46571
741 34.6156 -9.47914
742 34.6828 -9.49266
743 34.7496 -9.50695
744 34.8174 -9.5222
745 34.8845 -9.53766
746 34.9515 -9.55347
747 35.0184 -9.56945
748 35.0854 -9.58572
749 35.1523 -9.60209
750 35.2192 -9.61865
751 35.286 -9.6354
752 35.3526 -9.6522
753 35.4191 -9.66911
754 35.4856 -9.68617
755 35.5525 -9.7034
756 35.619 -9.7206
757 35.6857 -9.73792
758 35.7523 -9.75525
759 35.8189 -9.77262
760 35.8856 -9.79005
761 35.9522 -9.80747
762 36.0187 -9.82491
763 36.0853 -9.84242
764 36.1519 -9.85994
765 36.2185 -9.87749
766 36.2849 -9.89502
767 36.3515 -9.91262
768 36.418 -9.9302
769 36.4846 -9.94783
770 36.5511 -9.96546
771 36.6176 -9.9831
772 36.6841 -10.0008
773 36.7507 -10.0185
774 36.8172 -10.0362
775 36.8837 -10.0539
776 36.9502 -10.0716
777 37.0167 -10.0893
778 37.0832 -10.1071
779 37.1497 -10.1248
780 37.2162 -10.1426
781 37.2058 -10.1393
782 37.2022 -10.1383
783 37.2805 -10.16
784 37.3501 -10.1792
785 37.4162 -10.1976
786 37.4824 -10.2162
787 37.5485 -10.2349
788 37.6147 -10.2538
789 37.6809 -10.2728
790 37.747 -10.2919
791 37.8129 -10.3111
792 37.8788 -10.3303
793 37.945 -10.3497
794 38.0111 -10.3691
795 38.077 -10.3885
796 38.1431 -10.408
797 38.1323 -10.4049
798 38.2173 -10.4303
799 38.2836 -10.4505
800 38.3495 -10.4705
801 38.4153 -10.4905
802 38.4031 -10.4871
803 38.4856 -10.5123
804 38.4733 -10.5089
805 38.5491 -10.5328
806 38.5364 -10.5292
807 38.5431 -10.5313
808 38.5478 -10.5325
809 38.5519 -10.5332
810 38.5628 -10.5339
811 38.5645 -10.5331
812 38.5762 -10.5302
813 38.5727 -10.53
814 38.577 -10.5278
815 38.575 -10.5296
816 38.5784 -10.5253
817 38.5778 -10.5235
818 38.5776 -10.5207
819 38.5773 -10.521
820 38.5617 -10.4746
821 38.5237 -10.4195
822 38.4812 -10.3643
823 38.4391 -10.3089
824 38.425 -10.3084
825 38.4246 -10.3102
826 38.4252 -10.3104
827 38.4257 -10.3107
828 38.4263 -10.3114
829 38.4266 -10.3115
830 38.4269 -10.3117
831 38.4273 -10.312
832 38.4275 -10.3123
833 38.4276 -10.3127
834 38.4276 -10.3125
835 38.4278 -10.3109
836 38.4292 -10.3072
837 38.4309 -10.3052
838 38.4338 -10.3025
839 38.437 -10.3008
840 38.4405 -10.2995
841 38.4438 -10.299
842 38.4473 -10.2986
843 38.4505 -10.2986
844 38.5182 -10.2908
845 38.5886 -10.2954
846 38.6577 -10.3018
847 38.7268 -10.3081
848 38.7959 -10.3141
849 38.8653 -10.3199
850 38.9345 -10.3255
851 39.0034 -10.3309
852 39.0721 -10.3361
853 39.1412 -10.3411
854 39.2101 -10.3461
855 39.279 -10.3509
856 39.3479 -10.3556
857 39.4167 -10.3602
858 39.4855 -10.3647
859 39.5544 -10.3692
860 39.6231 -10.3736
861 39.6919 -10.378
862 39.7605 -10.3824
863 39.8292 -10.3867
864 39.8229 -10.3896
865 39.9056 -10.3921
866 39.9751 -10.3966
867 40.0441 -10.4008
868 40.1127 -10.4045
869 40.1811 -10.4079
870 40.25 -10.4109
871 40.3191 -10.4137
872 40.3115 -10.415
873 40.3946 -10.4169
874 40.4644 -10.4191
875 40.5332 -10.4199
876 40.6019 -10.4194
877 40.6705 -10.4179
878 40.7392 -10.4153
879 40.7309 -10.4153
880 40.727 -10.4154
881 40.7281 -10.4154
882 40.7311 -10.4152
883 40.7351 -10.4148
884 40.8136 -10.4031
885 40.8842 -10.3883
886 40.9504 -10.3727
887 41.0174 -10.3563
888 41.0843 -10.3395
889 41.151 -10.3224
890 41.2175 -10.3052
891 41.2844 -10.2876
892 41.273 -10.2876
893 41.2831 -10.2853
894 41.2916 -10.2837
895 41.2973 -10.2831
896 41.2994 -10.2831
897 41.3018 -10.2831
898 41.305 -10.2832
899 41.3842 -10.2908
900 41.4548 -10.3034
901 41.5225 -10.3166
902 41.5901 -10.33
903 41.5785 -10.3328
904 41.6638 -10.3454
905 41.7319 -10.3596
906 41.7992 -10.3739
907 41.8664 -10.3883
908 41.9338 -10.4028
909 41.9226 -10.4042
910 42.0055 -10.4193
911 41.9928 -10.4199
912 41.992 -10.42
913 41.9917 -10.4199
914 41.9916 -10.4198
915 41.9909 -10.4197
916 41.991 -10.4197
917 41.9911 -10.4197
918 41.9904 -10.4197
919 41.9903 -10.4197
920 41.9935 -10.4198
921 41.9974 -10.4197
922 42.0011 -10.4194
923 42.0049 -10.4188
924 42.0847 -10.4072
925 42.1546 -10.3914
926 42.2216 -10.3756
927 42.2885 -10.3599
928 42.3555 -10.3443
929 42.4227 -10.3289
930 42.4898 -10.3135
931 42.4785 -10.3123
932 42.4874 -10.3104
933 42.4957 -10.3091
934 42.5 -10.3087
935 42.5035 -10.3086
936 42.5063 -10.3087
937 42.5865 -10.3132
938 42.6579 -10.322
939 42.7262 -10.3315
940 42.7942 -10.3412
941 42.8622 -10.351
942 42.9303 -10.361
943 43.0082 -10.3725
944 43.0667 -10.3811
945 43.1347 -10.3913
946 43.2028 -10.4016
947 43.1925 -10.4026
948 43.2774 -10.4136
949 43.3462 -10.4241
950 43.4144 -10.4339
951 43.4826 -10.4428
952 43.5513 -10.451
953 43.6195 -10.4585
954 43.608 -10.458
955 43.6162 -10.4587
956 43.6246 -10.4589
957 43.6326 -10.4585
958 43.6403 -10.4574
959 43.6466 -10.4557
960 43.6532 -10.4531
961 43.6603 -10.449
962 43.6612 -10.4472
963 43.6634 -10.4448
964 43.6652 -10.4421
965 43.6664 -10.4392
966 43.6669 -10.4364
967 43.6671 -10.4336
968 43.667 -10.4309
969 43.6676 -10.367
970 43.6506 -10.2991
971 43.6321 -10.232
972 43.6151 -10.1649
973 43.5996 -10.0973
974 43.5875 -10.0986
975 43.5864 -10.1007
976 43.5867 -10.101
977 43.5871 -10.1012
978 43.5874 -10.1014
979 43.5876 -10.1043
980 43.5879 -10.1061
981 43.588 -10.1073
982 43.588 -10.1076
983 43.588 -10.1073
984 43.5908 -10.1026
985 43.5933 -10.1003
986 43.5965 -10.0982
987 43.6001 -10.0969
988 43.6037 -10.0966
989 43.6067 -10.097
990 43.609 -10.0976
991 43.6111 -10.0983
992 43.6766 -10.1121
993 43.7402 -10.1414
994 43.8028 -10.172
995 43.8652 -10.2025
996 43.9277 -10.2326
997 43.9904 -10.2625
998 44.0529 -10.2922
999 44.1154 -10.3217
1000 44.178 -10.351
1001 44.2406 -10.3801
1002 44.3034 -10.409
1003 44.3661 -10.4378
1004 44.4289 -10.4666
1005 44.4916 -10.4952
1006 44.5545 -10.5237
1007 44.6175 -10.5522
1008 44.6803 -10.5805
1009 44.7432 -10.6088
1010 44.8062 -10.637
1011 44.7989 -10.6383
1012 44.7958 -10.6375
1013 44.797 -10.6378
1014 44.7974 -10.6378
1015 44.7975 -10.6379
1016 44.8021 -10.6386
1017 44.8052 -10.6387
1018 44.8084 -10.6386
1019 44.8114 -10.6383
1020 44.8884 -10.6298
1021 44.9585 -10.615
1022 45.0256 -10.5994
1023 45.0927 -10.5838
1024 45.1598 -10.5682
1025 45.2269 -10.5526
1026 45.294 -10.5371
1027 45.3612 -10.5216
1028 45.4283 -10.5062
1029 45.4954 -10.4908
1030 45.5625 -10.4754
1031 45.6296 -10.46
1032 45.6967 -10.4447
1033 45.7639 -10.4294
1034 45.831 -10.4141
1035 45.8981 -10.3988
1036 45.9653 -10.3835
1037 46.0324 -10.3683
1038 46.0995 -10.353
1039 46.1667 -10.3378
1040 46.2338 -10.3225
1041 46.3009 -10.3073
1042 46.29 -10.3079
1043 46.3011 -10.3057
1044 46.3124 -10.304
1045 46.3202 -10.3034
1046 46.3234 -10.3035
1047 46.3257 -10.3036
1048 46.3279 -10.3038
1049 46.4049 -10.3162
1050 46.4745 -10.3358
1051 46.5404 -10.3558
1052 46.6063 -10.3757
1053 46.6726 -10.3956
1054 46.7384 -10.4153
1055 46.8047 -10.4349
1056 46.8705 -10.4543
1057 46.9367 -10.4737
1058 47.0026 -10.493
1059 46.9907 -10.4939
1060 46.9874 -10.4934
1061 46.9875 -10.4933
1062 46.9876 -10.4932
1063 46.9907 -10.4936
1064 46.9946 -10.4939
1065 46.9984 -10.4939
1066 47.0017 -10.4937
1067 47.0818 -10.4875
1068 47.1528 -10.4768
1069 47.2211 -10.4657
1070 47.2888 -10.4546
1071 47.3566 -10.4435
1072 47.3458 -10.4411
1073 47.4299 -10.4307
1074 47.499 -10.4195
1075 47.5666 -10.4095
1076 47.635 -10.4004
1077 47.7034 -10.3924
1078 47.7719 -10.3851
1079 47.84 -10.3787
1080 47.9084 -10.3728
1081 47.977 -10.3676
1082 48.0458 -10.3628
1083 48.0367 -10.3629
1084 48.1232 -10.3576
1085 48.1115 -10.3579
1086 48.197 -10.352
1087 48.2671 -10.347
1088 48.3356 -10.3423
1089 48.3251 -10.3428
1090 48.4111 -10.3373
1091 48.4013 -10.3377
1092 48.4856 -10.3319
1093 48.4776 -10.3321
1094 48.5618 -10.326
1095 48.5509 -10.3264
1096 48.627 -10.3205
1097 48.6106 -10.3215
1098 48.6987 -10.3146
1099 48.6859 -10.3152
1100 48.7664 -10.3088
1101 48.7606 -10.309
1102 48.844 -10.3023
1103 48.8309 -10.3031
1104 48.9118 -10.2966
1105 48.9012 -10.2973
1106 48.8975 -10.2975
1107 48.8926 -10.298
1108 48.9568 -10.2929
1109 49.0348 -10.2869
1110 49.1091 -10.2819
1111 49.0996 -10.2827
1112 49.1791 -10.2781
1113 49.2433 -10.2754
1114 49.3081 -10.2735
1115 49.3052 -10.2744
1116 49.3888 -10.272
1117 49.3784 -10.2731
1118 49.456 -10.2713
1119 49.4463 -10.2724
1120 49.5211 -10.2716
1121 49.5104 -10.2726
1122 49.5129 -10.2726
1123 49.5115 -10.2726
1124 49.5793 -10.2723
1125 49.6504 -10.2727
1126 49.6976 -10.2728
1127 49.7458 -10.27
1128 49.7809 -10.2639
1129 49.8066 -10.2551
1130 49.8197 -10.2464
1131 49.8234 -10.2408
1132 49.8281 -10.2345
1133 49.8322 -10.2258
1134 49.8318 -10.2197
1135 49.8303 -10.2178
1136 49.8308 -10.2197
1137 49.8315 -10.2188
1138 49.8263 -10.2152
1139 49.8145 -10.213
1140 49.8099 -10.2144
1141 49.7734 -10.2195
1142 49.7223 -10.2368
1143 49.667 -10.2606
1144 49.6063 -10.2888
1145 49.545 -10.3167
1146 49.485 -10.3407
1147 49.4205 -10.3613
1148 49.3515 -10.3786
1149 49.3423 -10.3821
1150 49.343 -10.3823
1151 49.3471 -10.3821
1152 49.3538 -10.3822
1153 49.3552 -10.3823
1154 49.3548 -10.3823
1155 49.347 -10.3813
1156 49.3434 -10.3806
1157 49.3439 -10.3806
1158 49.3435 -10.3806
1159 49.2876 -10.3592
1160 49.2211 -10.3273
1161 49.154 -10.2928
1162 49.0911 -10.2603
1163 49.0842 -10.2537
1164 49.0171 -10.2223
1165 48.9587 -10.1929
1166 48.8961 -10.1618
1167 48.83 -10.1292
1168 48.7634 -10.0969
1169 48.7015 -10.0671
1170 48.6431 -10.0391
1171 48.585 -10.0113
1172 48.5222 -9.98141
1173 48.4558 -9.94991
1174 48.3911 -9.91939
1175 48.3307 -9.89093
1176 48.2734 -9.86385
1177 48.2103 -9.83411
1178 48.1439 -9.80281
1179 48.0811 -9.77334
1180 48.0223 -9.74569
1181 47.9608 -9.71674
1182 47.895 -9.68586
1183 47.8325 -9.65655
1184 47.774 -9.62909
1185 47.7104 -9.59921
1186 47.7175 -9.60194
1187 47.7213 -9.60363
1188 47.7218 -9.60396
1189 47.7221 -9.60425
1190 47.7215 -9.60419
1191 47.7196 -9.60298
1192 47.7212 -9.6052
1193 47.7198 -9.6046
1194 47.7177 -9.5995
1195 47.7183 -9.58211
1196 47.7226 -9.58296
1197 47.722 -9.58378
1198 47.7249 -9.58041
1199 47.7313 -9.57865
1200 47.736 -9.57897
1201 47.7814 -9.57814
1202 47.8382 -9.59227
1203 47.9027 -9.61286
1204 47.9672 -9.63623
1205 48.0313 -9.65828
1206 48.099 -9.67787
1207 48.1671 -9.69412
1208 48.232 -9.70687
1209 48.3017 -9.71726
1210 48.3714 -9.72582
1211 48.4362 -9.73233
1212 48.5074 -9.73709
1213 48.5755 -9.74085
1214 48.6441 -9.74356
1215 48.7137 -9.74542
1216 48.782 -9.74668
1217 48.8516 -9.74732
1218 48.9206 -9.74755
1219 48.9884 -9.7474
1220 49.0578 -9.74687
1221 49.127 -9.74611
1222 49.1955 -9.74516
1223 49.2644 -9.74401
1224 49.3333 -9.74277
1225 49.4024 -9.74144
1226 49.4711 -9.74005
1227 49.54 -9.73857
1228 49.6089 -9.73703
1229 49.6778 -9.73545
1230 49.7466 -9.73384
1231 49.8155 -9.73219
1232 49.8844 -9.73051
1233 49.9532 -9.7288
1234 50.022 -9.72706
1235 50.0908 -9.72531
1236 50.1596 -9.72355
1237 50.2284 -9.72179
1238 50.2971 -9.72003
1239 50.3659 -9.71824
1240 50.4347 -9.71646
1241 50.5035 -9.71466
1242 50.4955 -9.71511
1243 50.5072 -9.71465
1244 50.5187 -9.71386
1245 50.529 -9.71262
1246 50.5397 -9.71061
1247 50.549 -9.70783
1248 50.5579 -9.70393
1249 50.5652 -9.6991
1250 50.5657 -9.69749
1251 50.5674 -9.69562
1252 50.5685 -9.69402
1253 50.5689 -9.69322
1254 50.5693 -9.69136
1255 50.5692 -9.69039
1256 50.5694 -9.69034
1257 50.5685 -9.68823
1258 50.5667 -9.68649
1259 50.525 -9.64831
1260 50.4654 -9.61412
1261 50.4047 -9.58004
1262 50.3449 -9.54479
1263 50.2862 -9.50845
1264 50.228 -9.47065
1265 50.1706 -9.43207
1266 50.1137 -9.39236
1267 50.0577 -9.35207
1268 50.002 -9.31072
1269 49.9468 -9.26886
1270 49.8922 -9.22648
1271 49.8378 -9.18344
1272 49.7843 -9.14041
1273 49.7307 -9.09644
1274 49.7313 -9.1022
1275 49.7328 -9.104
1276 49.6782 -9.05351
1277 49.6243 -9.00734
1278 49.572 -8.96237
1279 49.5203 -8.91718
1280 49.4685 -8.87122
1281 49.4172 -8.82509
1282 49.3663 -8.77886
1283 49.3159 -8.73249
1284 49.2652 -8.68538
1285 49.2149 -8.63835
1286 49.165 -8.59134
1287 49.115 -8.54389
1288 49.0649 -8.49607
1289 49.0153 -8.44849
1290 48.9657 -8.40065
1291 48.9161 -8.35279
1292 48.8667 -8.30488
1293 48.8174 -8.25685
1294 48.7681 -8.20874
1295 48.7188 -8.16054
1296 48.6696 -8.11229
1297 48.6204 -8.06406
1298 48.5715 -8.01591
1299 48.5224 -7.96749
1300 48.4735 -7.91915
1301 48.4245 -7.87071
1302 48.3756 -7.82232
1303 48.3267 -7.77385
1304 48.2778 -7.72539
1305 48.2289 -7.67686
1306 48.1801 -7.62836
1307 48.1313 -7.57982
1308 48.0825 -7.53128
1309 48.0337 -7.48272
1310 47.9849 -7.43417
1311 47.9362 -7.38559
1312 47.8874 -7.33697
1313 47.8386 -7.2884
1314 47.8478 -7.29761
1315 47.85 -7.29975
1316 47.7916 -7.2416
1317 47.7407 -7.19096
1318 47.6919 -7.14238
1319 47.7011 -7.15152
1320 47.7033 -7.15371
1321 47.7032 -7.15368
1322 47.6454 -7.09602
1323 47.5944 -7.04515
1324 47.5456 -6.99654
1325 47.5557 -7.00655
1326 47.4938 -6.94432
1327 47.4448 -6.89478
1328 47.3964 -6.84585
1329 47.4058 -6.85525
1330 47.3443 -6.79319
1331 47.3502 -6.7991
1332 47.287 -6.73535
1333 47.2889 -6.73718
1334 47.2301 -6.67766
1335 47.2404 -6.68797
1336 47.1859 -6.6328
1337 47.1916 -6.63845
1338 47.1301 -6.57615
1339 47.142 -6.58805
1340 47.1389 -6.58485
1341 47.1362 -6.58158
1342 47.1334 -6.57759
1343 47.1297 -6.57071
1344 47.1295 -6.56885
1345 47.1279 -6.5634
1346 47.1275 -6.55982
1347 47.1278 -6.55987
1348 47.1277 -6.56066
1349 47.1275 -6.56247
1350 47.1269 -6.56213
1351 47.1265 -6.56136
1352 47.1265 -6.56014
1353 47.1269 -6.5583
1354 47.1286 -6.5553
1355 47.1311 -6.5529
1356 47.1342 -6.55094
1357 47.1375 -6.54958
1358 47.1408 -6.54874
1359 47.1443 -6.54807
1360 47.1476 -6.5478
1361 47.1473 -6.54845
1362 47.1471 -6.5483
1363 47.209 -6.53493
1364 47.2796 -6.53148
1365 47.3492 -6.5294
1366 47.3535 -6.53956
1367 47.3527 -6.5412
1368 47.352 -6.54124
1369 47.3519 -6.54106
1370 47.4199 -6.52712
1371 47.4905 -6.51887
1372 47.5595 -6.51137
1373 47.6284 -6.50326
1374 47.6968 -6.49466
1375 47.7654 -6.48546
1376 47.8341 -6.47579
1377 47.9025 -6.46581
1378 47.9707 -6.45551
1379 48.0386 -6.44501
1380 48.1067 -6.43419
1381 48.1748 -6.42318
1382 48.2428 -6.41198
1383 48.3109 -6.40059
1384 48.3784 -6.38913
1385 48.4464 -6.37742
1386 48.514 -6.36568
1387 48.5821 -6.35373
1388 48.6499 -6.34178
1389 48.7177 -6.32975
1390 48.7854 -6.31767
1391 48.8532 -6.3055
1392 48.921 -6.29327
1393 48.9888 -6.28101
1394 49.0564 -6.26873
1395 49.1242 -6.25638
1396 49.1919 -6.24404
1397 49.2596 -6.23167
1398 49.3273 -6.21929
1399 49.395 -6.20692
1400 49.4627 -6.19449
1401 49.4527 -6.19703
1402 49.5367 -6.18036
1403 49.6054 -6.16643
1404 49.6726 -6.15214
1405 49.7401 -6.13713
1406 49.807 -6.12166
1407 49.8744 -6.10561
1408 49.9411 -6.08927
1409 50.0083 -6.0725
1410 50.0745 -6.05564
1411 50.1415 -6.03835
1412 50.2082 -6.02092
1413 50.2746 -6.00332
1414 50.3411 -5.98554
1415 50.3293 -5.9879
1416 50.3369 -5.98558
1417 50.3438 -5.98277
1418 50.3501 -5.97906
1419 50.3517 -5.97731
1420 50.3537 -5.97533
1421 50.355 -5.97347
1422 50.3556 -5.97249
1423 50.3563 -5.96992
1424 50.356 -5.96845
1425 50.3559 -5.96771
1426 50.3551 -5.96584
1427 50.3532 -5.96406
1428 50.3506 -5.96238
1429 50.3481 -5.9612
1430 50.2953 -5.93274
1431 50.2283 -5.91311
1432 50.1609 -5.89518
1433 50.0937 -5.87749
1434 50.0263 -5.8598
1435 49.9592 -5.8423
1436 49.8921 -5.82483
1437 49.8249 -5.80739
1438 49.7579 -5.79007
1439 49.6909 -5.77279
1440 49.624 -5.75562
1441 49.5569 -5.73843
1442 49.49 -5.72133
1443 49.4899 -5.72662
1444 49.4162 -5.70215
1445 49.4161 -5.70645
1446 49.3471 -5.68319
1447 49.356 -5.68958
1448 49.2908 -5.66713
1449 49.302 -5.67352
1450 49.2362 -5.65102
1451 49.2418 -5.65507
1452 49.1641 -5.6293
1453 49.1751 -5.63526
1454 49.1007 -5.61111
1455 49.1056 -5.61466
1456 49.0978 -5.61217
1457 49.0898 -5.60906
1458 49.0836 -5.60575
1459 49.0806 -5.60335
1460 49.0791 -5.60162
1461 49.0781 -5.60009
1462 49.0744 -5.59126
1463 49.0759 -5.5908
1464 49.0739 -5.60226
1465 49.0733 -5.59551
1466 49.0759 -5.59432
1467 49.0781 -5.5936
1468 49.0822 -5.59283
1469 49.0866 -5.59326
1470 49.09 -5.59408
1471 49.1429 -5.60365
1472 49.2044 -5.62541
1473 49.2697 -5.64853
1474 49.3359 -5.66973
1475 49.4033 -5.68828
1476 49.4109 -5.69543
1477 49.4121 -5.69629
1478 49.4113 -5.69622
1479 49.4109 -5.69607
1480 49.4103 -5.69595
1481 49.4102 -5.69587
1482 49.4099 -5.69581
1483 49.4097 -5.69576
1484 49.4094 -5.69573
1485 49.4099 -5.69567
1486 49.4107 -5.69559
1487 49.4112 -5.69551
1488 49.4108 -5.69563
1489 49.4116 -5.69541
1490 49.4128 -5.69487
1491 49.4149 -5.69338
1492 49.417 -5.69099
1493 49.4183 -5.68842
1494 49.4186 -5.68615
1495 49.4185 -5.68307
1496 49.4175 -5.68107
1497 49.4165 -5.68003
1498 49.4145 -5.67777
1499 49.4121 -5.67633
1500 49.4091 -5.67502
1501 49.4058 -5.6739
1502 49.3486 -5.65023
1503 49.2803 -5.63479
1504 49.2119 -5.6203
1505 49.1436 -5.6057
1506 49.0755 -5.59093
1507 49.0074 -5.57588
1508 48.9398 -5.56069
1509 48.8721 -5.54522
1510 48.8046 -5.52957
1511 48.8018 -5.53431
1512 48.7926 -5.53153
1513 48.7843 -5.52802
1514 48.7763 -5.52304
1515 48.7734 -5.5203
1516 48.7717 -5.51778
1517 48.7701 -5.51429
1518 48.7693 -5.50998
1519 48.7699 -5.50727
1520 48.7707 -5.50558
1521 48.7713 -5.5048
1522 48.7715 -5.50451
1523 48.7734 -5.50249
1524 48.8228 -5.46502
1525 48.8865 -5.43564
1526 48.9509 -5.40711
1527 49.0142 -5.37811
1528 49.0768 -5.34797
1529 49.1385 -5.3169
1530 49.1996 -5.28485
1531 49.2605 -5.25164
1532 49.3213 -5.21754
1533 49.3812 -5.18302
1534 49.4407 -5.1479
1535 49.4999 -5.11226
1536 49.5587 -5.07606
1537 49.6172 -5.03944
1538 49.6755 -5.00236
1539 49.7336 -4.96487
1540 49.7307 -4.97084
1541 49.7354 -4.96753
1542 49.74 -4.96322
1543 49.7425 -4.95983
1544 49.7442 -4.95617
1545 49.745 -4.95254
1546 49.7449 -4.95033
1547 49.7446 -4.9492
1548 49.745 -4.94955
1549 49.7444 -4.94764
1550 49.7428 -4.94604
1551 49.7409 -4.94476
1552 49.7389 -4.94376
1553 49.7362 -4.94262
1554 49.6778 -4.92058
1555 49.6086 -4.9108
1556 49.5394 -4.90306
1557 49.4704 -4.89501
1558 49.4016 -4.88656
1559 49.3328 -4.8777
1560 49.2644 -4.86857
1561 49.2609 -4.87619
1562 49.2523 -4.87454
1563 49.2427 -4.87146
1564 49.2335 -4.86735
1565 49.2252 -4.86192
1566 49.2233 -4.85997
1567 49.2215 -4.85732
1568 49.22 -4.85393
1569 49.2194 -4.84981
1570 49.22 -4.84721
1571 49.2208 -4.84563
1572 49.2213 -4.84495
1573 49.2233 -4.8424
1574 49.2257 -4.84085
1575 49.2284 -4.83936
1576 49.2835 -4.80495
1577 49.3489 -4.78026
1578 49.4146 -4.75637
1579 49.4795 -4.73231
1580 49.5446 -4.7073
1581 49.6092 -4.68206
1582 49.6736 -4.65634
1583 49.7382 -4.63006
1584 49.8021 -4.6038
1585 49.8659 -4.57706
1586 49.8665 -4.58362
1587 49.8736 -4.58014
1588 49.8798 -4.57606
1589 49.8817 -4.57425
1590 49.8834 -4.57182
1591 49.8845 -4.56933
1592 49.8849 -4.56725
1593 49.8848 -4.56492
1594 49.8845 -4.56332
1595 49.8842 -4.56239
1596 49.8837 -4.56104
1597 49.8528 -4.49991
1598 49.8091 -4.44452
1599 49.7651 -4.39084
1600 49.7217 -4.33669
1601 49.6789 -4.28209
1602 49.6366 -4.2272
1603 49.595 -4.17225
1604 49.5538 -4.11688
1605 49.513 -4.06123
1606 49.4723 -4.00507
1607 49.432 -3.94896
1608 49.3919 -3.89266
1609 49.352 -3.83626
1610 49.3123 -3.77965
1611 49.2728 -3.72297
1612 49.2335 -3.66626
1613 49.1944 -3.60951
1614 49.1554 -3.55261
1615 49.1166 -3.49566
1616 49.1195 -3.50611
1617 49.1156 -3.49965
1618 49.1123 -3.49267
1619 49.11 -3.48456
1620 49.109 -3.47528
1621 49.1102 -3.46636
1622 49.111 -3.4682
1623 49.1103 -3.46831
1624 49.1111 -3.46598
1625 49.1129 -3.4641
1626 49.1154 -3.4622
1627 49.1179 -3.46101
1628 49.1207 -3.45979
1629 49.183 -3.43211
1630 49.2521 -3.41886
1631 49.3206 -3.40784
1632 49.389 -3.39693
1633 49.4574 -3.38601
1634 49.5257 -3.37518
1635 49.594 -3.36432
1636 49.6624 -3.35343
1637 49.7308 -3.34262
1638 49.799 -3.33182
1639 49.7981 -3.34009
1640 49.8067 -3.33835
1641 49.8131 -3.3369
1642 49.8169 -3.33587
1643 49.8187 -3.33525
1644 49.8214 -3.33406
1645 49.8245 -3.33262
1646 49.8938 -3.29731
1647 49.9576 -3.26445
1648 50.0188 -3.23284
1649 50.0801 -3.2012
1650 50.1412 -3.16955
1651 50.2024 -3.13787
1652 50.2636 -3.10619
1653 50.3247 -3.07453
1654 50.3859 -3.04281
1655 50.447 -3.01109
1656 50.5081 -2.97939
1657 50.4983 -2.98493
1658 50.5744 -2.94457
1659 50.5646 -2.94992
1660 50.6394 -2.90911
1661 50.628 -2.91523
1662 50.7013 -2.87385
1663 50.7623 -2.83882
1664 50.8221 -2.80466
1665 50.882 -2.77063
1666 50.9419 -2.73677
1667 50.9308 -2.74281
1668 51.0074 -2.69983
1669 50.9961 -2.706
1670 51.071 -2.66349
1671 51.0602 -2.66932
1672 51.0668 -2.66515
1673 51.0694 -2.663
1674 51.0713 -2.66099
1675 51.0735 -2.65832
1676 51.0752 -2.65535
1677 51.0765 -2.65227
1678 51.0776 -2.64866
1679 51.0783 -2.64536
1680 51.0777 -2.64658
1681 51.0782 -2.64674
1682 51.0786 -2.64674
1683 51.079 -2.64636
1684 51.0793 -2.64597
1685 51.0793 -2.64131
1686 51.0783 -2.63784
1687 51.0769 -2.63431
1688 51.0754 -2.63116
1689 51.0494 -2.56289
1690 51.0113 -2.50325
1691 50.9719 -2.4455
1692 50.9327 -2.3887
1693 50.8935 -2.33171
1694 50.8542 -2.27476
1695 50.8149 -2.21787
1696 50.7756 -2.1611
1697 50.7362 -2.10432
1698 50.6969 -2.04764
1699 50.6945 -2.05895
1700 50.6539 -1.98678
1701 50.6509 -1.99422
1702 50.652 -1.99768
1703 50.6185 -1.93923
1704 50.5778 -1.87763
1705 50.5384 -1.82108
1706 50.5396 -1.83227
1707 50.4955 -1.76022
1708 50.4933 -1.76421
1709 50.4524 -1.69942
1710 50.453 -1.7065
1711 50.4082 -1.63595
1712 50.3669 -1.57663
1713 50.3681 -1.5843
1714 50.3696 -1.58743
1715 50.3698 -1.58758
1716 50.3701 -1.58802
1717 50.3689 -1.58543
1718 50.3661 -1.57706
1719 50.3649 -1.57063
1720 50.3651 -1.56903
1721 50.358 -1.49886
1722 50.3647 -1.503
1723 50.366 -1.49276
1724 50.3683 -1.48499
1725 50.3709 -1.48065
1726 50.3738 -1.47683
1727 50.3802 -1.47017
1728 50.3847 -1.4692
1729 50.3857 -1.46988
1730 50.3844 -1.47017
1731 50.3856 -1.46926
1732 50.389 -1.46895
1733 50.4486 -1.46731
1734 50.4588 -1.4807
1735 50.4669 -1.48383
1736 50.4706 -1.48554
1737 50.4688 -1.48604
1738 50.4724 -1.48565
1739 50.4731 -1.48589
1740 50.4695 -1.48628
1741 50.4703 -1.48577
1742 50.4704 -1.4857
1743 50.4737 -1.48484
1744 50.4727 -1.48528
1745 50.4791 -1.48188
1746 50.4812 -1.47989
1747 50.483 -1.47732
1748 50.482 -1.47836
1749 50.483 -1.47583
1750 50.4825 -1.4635
1751 50.483 -1.47445
1752 50.4813 -1.4674
1753 50.4798 -1.4681
1754 50.4781 -1.46717
1755 50.4754 -1.46661
1756 50.4239 -1.4549
1757 50.3591 -1.45476
1758 50.2896 -1.45667
1759 50.2754 -1.46509
1760 50.2752 -1.46678
1761 50.2764 -1.4669
1762 50.277 -1.46679
1763 50.2772 -1.46669
1764 50.2779 -1.46676
1765 50.279 -1.46693
1766 50.2797 -1.46704
1767 50.2793 -1.46682
1768 50.2783 -1.46624
1769 50.2762 -1.46449
1770 50.2738 -1.46175
1771 50.2718 -1.45863
1772 50.2704 -1.45532
1773 50.2693 -1.45194
1774 50.2685 -1.44819
1775 50.2679 -1.44464
1776 50.2521 -1.37236
1777 50.2461 -1.30207
1778 50.2413 -1.23306
1779 50.2364 -1.16397
1780 50.2315 -1.09492
1781 50.2266 -1.02596
1782 50.2216 -0.957008
1783 50.2165 -0.888121
1784 50.2115 -0.819263
1785 50.2063 -0.75044
1786 50.2012 -0.681641
1787 50.196 -0.612863
1788 50.1909 -0.544104
1789 50.1857 -0.475363
1790 50.1805 -0.406637
1791 50.1845 -0.414005
1792 50.1835 -0.405163
1793 50.1821 -0.397427
1794 50.18 -0.390365
1795 50.1775 -0.384434
1796 50.176 -0.3824
1797 50.175 -0.381219
1798 50.1727 -0.378475
1799 50.1702 -0.376223
1800 50.1671 -0.373765
1801 50.1639 -0.371654
1802 50.1606 -0.369739
1803 50.1615 -0.370686
1804 50.1617 -0.370488
1805 50.159 -0.368446
1806 50.1563 -0.366749
1807 50.1537 -0.365019
1808 50.1504 -0.362561
1809 50.0873 -0.310308
1810 50.0316 -0.266914
1811 49.9773 -0.224257
1812 49.9235 -0.181291
1813 49.87 -0.138057
1814 49.8167 -0.0943613
1815 49.8241 -0.103523
1816 49.8262 -0.105556
1817 49.8262 -0.105521
1818 49.8263 -0.105489
1819 49.8263 -0.105459
1820 49.8264 -0.105431
1821 49.8264 -0.105405
1822 49.8264 -0.105381
1823 49.8264 -0.105358
1824 49.8264 -0.105338
1825 49.8264 -0.105318
1826 49.8265 -0.1053
1827 49.8265 -0.105285
1828 49.8265 -0.105268
1829 49.8265 -0.105253
1830 49.8265 -0.105238
1831 49.8265 -0.105225
1832 49.8265 -0.105212
1833 49.8265 -0.1052
1834 49.8265 -0.105189
1835 49.8265 -0.105178
1836 49.8265 -0.105168
1837 49.8265 -0.105158
1838 49.8264 -0.10515
1839 49.8264 -0.105141
1840 49.8264 -0.105133
1841 49.8264 -0.105124
1842 49.8264 -0.105117
1843 49.8264 -0.10511
1844 49.8264 -0.105103
1845 49.8264 -0.105097
1846 49.8264 -0.10509
1847 49.8264 -0.105084
1848 49.8264 -0.105078
1849 49.8264 -0.105072
1850 49.8264 -0.105067
1851 49.8264 -0.105062
1852 49.8264 -0.105057
1853 49.8264 -0.105053
1854 49.8264 -0.105048
1855 49.8264 -0.105044
1856 49.8264 -0.105039
1857 49.8264 -0.105036
1858 49.8264 -0.105032
1859 49.8263 -0.105027
1860 49.8263 -0.105023
1861 49.8263 -0.10502
1862 49.8263 -0.105016
1863 49.8263 -0.105012
1864 49.8263 -0.105008
1865 49.8263 -0.105005
1866 49.8263 -0.105002
1867 49.8263 -0.104998
1868 49.8263 -0.104996
1869 49.8263 -0.104992
1870 49.8263 -0.104989
1871 49.8263 -0.104986
1872 49.8263 -0.104984
1873 49.8263 -0.10498
1874 49.8263 -0.104977
1875 49.8263 -0.104974
1876 49.8263 -0.104971
1877 49.8263 -0.104969
1878 49.8263 -0.104966
1879 49.8263 -0.104963
1880 49.8263 -0.10496
1881 49.8263 -0.104957
1882 49.8263 -0.104954
1883 49.8263 -0.104952
1884 49.8263 -0.10495
1885 49.8263 -0.104947
1886 49.8262 -0.104944
1887 49.8262 -0.104942
1888 49.8262 -0.104939
1889 49.8262 -0.104937
1890 49.8262 -0.104934
1891 49.8262 -0.104931
1892 49.8262 -0.104929
1893 49.8262 -0.104926
1894 49.8262 -0.104923
1895 49.8262 -0.104921
1896 49.8262 -0.104918
1897 49.8262 -0.104916
1898 49.8262 -0.104916
1899 49.8262 -0.104913
1900 49.8262 -0.10491
1901 49.8262 -0.104908
1902 49.8262 -0.104907
1903 49.8262 -0.104904
1904 49.8262 -0.104901
1905 49.8262 -0.104899
1906 49.8262 -0.104896
1907 49.8262 -0.104894
1908 49.8262 -0.104891
1909 49.8262 -0.104889
1910 49.8262 -0.104886
1911 49.8262 -0.104884
1912 49.8262 -0.104881
1913 49.8262 -0.10488
1914 49.8262 -0.104877
1915 49.8262 -0.104875
1916 49.8262 -0.104872
1917 49.8262 -0.104873
1918 49.8262 -0.10487
1919 49.8262 -0.104867
1920 49.8262 -0.104864
1921 49.8262 -0.104862
1922 49.8261 -0.10486
1923 49.8261 -0.104857
1924 49.8261 -0.104854
1925 49.8261 -0.104852
1926 49.8261 -0.10485
1927 49.8261 -0.104847
1928 49.8261 -0.104846
1929 49.8261 -0.104844
1930 49.8261 -0.104841
1931 49.8261 -0.104838
1932 49.8261 -0.104837
1933 49.8261 -0.104835
1934 49.8261 -0.104832
1935 49.8261 -0.104829
1936 49.8261 -0.104827
1937 49.8261 -0.104825
1938 49.8261 -0.104822
1939 49.8261 -0.10482
1940 49.8261 -0.104818
1941 49.8261 -0.104816
1942 49.8261 -0.104813
1943 49.8261 -0.104812
1944 49.8261 -0.104809
1945 49.8261 -0.104807
1946 49.8261 -0.104804
1947 49.8261 -0.104802
1948 49.8261 -0.1048
1949 49.8261 -0.104797
1950 49.8261 -0.104796
1951 49.8261 -0.104793
1952 49.8261 -0.104791
1953 49.8261 -0.104788
1954 49.8261 -0.104786
1955 49.8261 -0.104784
1956 49.8261 -0.104781
1957 49.8261 -0.104779
1958 49.826 -0.104777
1959 49.826 -0.104774
1960 49.826 -0.104772
1961 49.826 -0.10477
1962 49.826 -0.104768
1963 49.826 -0.104765
1964 49.826 -0.104762
1965 49.826 -0.10476
1966 49.826 -0.104758
1967 49.826 -0.104755
1968 49.826 -0.104754
1969 49.826 -0.104751
1970 49.826 -0.104749
1971 49.826 -0.104746
1972 49.826 -0.104744
1973 49.826 -0.104742
1974 49.826 -0.104739
1975 49.826 -0.104738
1976 49.826 -0.104735
1977 49.826 -0.104733
1978 49.826 -0.10473
1979 49.826 -0.104728
1980 49.826 -0.104726
1981 49.826 -0.104723
1982 49.826 -0.104722
1983 49.826 -0.104719
1984 49.826 -0.104717
1985 49.826 -0.104714
1986 49.826 -0.104713
1987 49.826 -0.104711
1988 49.826 -0.104708
1989 49.826 -0.104705
1990 49.826 -0.104703
1991 49.826 -0.104701
1992 49.826 -0.104698
1993 49.826 -0.104697
1994 49.826 -0.104695
1995 49.8259 -0.104692
1996 49.8259 -0.10469
1997 49.8259 -0.104688
1998 49.8259 -0.104685
1999 49.8259 -0.104683
2000 49.8259 -0.104681
2001 49.8259 -0.104679
2002 49.8259 -0.104676
2003 49.8259 -0.104673
2004 49.8259 -0.104671
2005 49.8259 -0.104669
2006 49.8259 -0.104667
2007 49.8259 -0.104667
2008 49.8259 -0.104664
2009 49.8259 -0.104662
2010 49.8259 -0.104659
2011 49.8259 -0.104657
2012 49.8259 -0.104655
2013 49.8259 -0.104652
2014 49.8259 -0.10465
2015 49.8259 -0.104648
2016 49.8259 -0.104645
2017 49.8259 -0.104643
2018 49.8259 -0.104641
2019 49.8259 -0.104639
2020 49.8259 -0.104636
2021 49.8259 -0.104634
2022 49.8259 -0.104632
2023 49.8259 -0.104629
2024 49.8259 -0.104626
2025 49.8259 -0.104627
2026 49.8259 -0.104624
2027 49.8259 -0.104621
2028 49.8259 -0.104619
2029 49.8259 -0.104617
2030 49.8259 -0.104615
2031 49.8259 -0.104612
2032 49.8259 -0.104611
2033 49.8258 -0.104608
2034 49.8258 -0.104606
2035 49.8258 -0.104603
2036 49.8258 -0.104601
2037 49.8258 -0.104599
2038 49.8258 -0.104596
2039 49.8258 -0.104595
2040 49.8258 -0.104592
2041 49.8258 -0.10459
2042 49.8258 -0.104587
2043 49.8258 -0.104585
2044 49.8258 -0.104583
2045 49.8258 -0.10458
2046 49.8258 -0.104578
2047 49.8258 -0.104576
2048 49.8258 -0.104573
2049 49.8258 -0.104571
2050 49.8258 -0.104569
2051 49.8258 -0.104567
2052 49.8258 -0.104564
2053 49.8258 -0.104561
2054 49.8258 -0.104559
2055 49.8258 -0.104557
2056 49.8258 -0.104554
2057 49.8258 -0.104553
2058 49.8258 -0.104551
2059 49.8258 -0.104548
2060 49.8258 -0.104545
2061 49.8258 -0.104543
2062 49.8258 -0.104541
2063 49.8258 -0.104538
2064 49.8258 -0.104537
2065 49.8258 -0.104534
2066 49.8258 -0.104532
2067 49.8258 -0.104529
2068 49.8258 -0.104527
2069 49.8257 -0.104525
2070 49.8257 -0.104522
2071 49.8257 -0.104521
2072 49.8257 -0.104519
2073 49.8257 -0.104516
2074 49.8257 -0.104513
2075 49.8257 -0.104512
2076 49.8257 -0.10451
2077 49.8257 -0.104507
2078 49.8257 -0.104504
2079 49.8257 -0.104502
2080 49.8257 -0.1045
2081 49.8257 -0.104497
2082 49.8257 -0.104496
2083 49.8257 -0.104494
2084 49.8257 -0.104492
2085 49.8257 -0.104489
2086 49.8257 -0.104487
2087 49.8257 -0.104484
2088 49.8257 -0.104482
2089 49.8257 -0.10448
2090 49.8257 -0.104478
2091 49.8257 -0.104475
2092 49.8257 -0.104473
2093 49.8257 -0.104471
2094 49.8257 -0.104468
2095 49.8257 -0.104466
2096 49.8257 -0.104467
2097 49.8257 -0.104464
2098 49.8257 -0.104461
2099 49.8257 -0.104458
2100 49.8257 -0.104456
2101 49.8257 -0.104454
2102 49.8257 -0.104451
2103 49.8257 -0.104449
2104 49.8257 -0.104447
2105 49.8257 -0.104444
2106 49.8256 -0.104442
2107 49.8256 -0.10444
2108 49.8256 -0.104438
2109 49.8256 -0.104435
2110 49.8256 -0.104433
2111 49.8256 -0.104431
2112 49.8256 -0.104428
2113 49.8256 -0.104426
2114 49.8256 -0.104426
2115 49.8256 -0.104423
2116 49.8256 -0.10442
2117 49.8256 -0.104418
2118 49.8256 -0.104416
2119 49.8256 -0.104414
2120 49.8256 -0.104411
2121 49.8256 -0.10441
2122 49.8256 -0.104407
2123 49.8256 -0.104405
2124 49.8256 -0.104402
2125 49.8256 -0.1044
2126 49.8256 -0.104398
2127 49.8256 -0.104395
2128 49.8256 -0.104394
2129 49.8256 -0.104391
2130 49.8256 -0.104389
2131 49.8256 -0.104386
2132 49.8256 -0.104384
2133 49.8256 -0.104382
2134 49.8256 -0.104379
2135 49.8256 -0.104377
2136 49.8256 -0.104375
2137 49.8256 -0.104372
2138 49.8256 -0.10437
2139 49.8256 -0.104368
2140 49.8256 -0.104366
2141 49.8256 -0.104363
2142 49.8256 -0.104361
2143 49.8255 -0.104359
2144 49.8255 -0.104356
2145 49.8255 -0.104353
2146 49.8255 -0.104352
2147 49.8255 -0.10435
2148 49.8255 -0.104348
2149 49.8255 -0.104345
2150 49.8255 -0.104343
2151 49.8255 -0.10434
2152 49.8255 -0.104338
2153 49.8255 -0.104339
2154 49.8255 -0.104336
2155 49.8255 -0.104333
2156 49.8255 -0.104331
2157 49.8255 -0.104329
2158 49.8255 -0.104326
2159 49.8255 -0.104324
2160 49.8255 -0.104322
2161 49.8255 -0.104319
2162 49.8255 -0.104317
2163 49.8255 -0.104314
2164 49.8255 -0.104313
2165 49.8255 -0.104311
2166 49.8255 -0.104309
2167 49.8255 -0.104306
2168 49.8255 -0.104304
2169 49.8255 -0.104301
2170 49.8255 -0.104299
2171 49.8255 -0.104297
2172 49.8255 -0.104295
2173 49.8255 -0.104292
2174 49.8255 -0.10429
2175 49.8255 -0.104288
2176 49.8255 -0.104285
2177 49.8255 -0.104283
2178 49.8255 -0.104282
2179 49.8255 -0.104279
2180 49.8255 -0.104277
2181 49.8254 -0.104274
2182 49.8254 -0.104272
2183 49.8254 -0.10427
2184 49.8254 -0.104267
2185 49.8254 -0.104265
2186 49.8254 -0.104263
2187 49.8254 -0.10426
2188 49.8254 -0.104257
2189 49.8254 -0.104258
2190 49.8254 -0.104255
2191 49.8254 -0.104252
2192 49.8254 -0.10425
2193 49.8254 -0.104248
2194 49.8254 -0.104245
2195 49.8254 -0.104243
2196 49.8254 -0.104241
2197 49.8254 -0.104239
2198 49.8254 -0.104236
2199 49.8254 -0.104234
2200 49.8254 -0.104232
2201 49.8254 -0.104229
2202 49.8254 -0.104227
2203 49.8254 -0.104224
2204 49.8254 -0.104222
2205 49.8254 -0.104219
2206 49.8254 -0.104217
2207 49.8254 -0.104215
2208 49.8254 -0.104213
2209 49.8254 -0.10421
2210 49.8254 -0.104207
2211 49.8254 -0.104205
2212 49.8254 -0.104203
2213 49.8254 -0.1042
2214 49.8254 -0.104199
2215 49.8254 -0.104196
2216 49.8254 -0.104194
2217 49.8253 -0.104191
2218 49.8253 -0.104189
2219 49.8253 -0.104187
2220 49.8253 -0.104184
2221 49.8253 -0.104183
2222 49.8253 -0.10418
2223 49.8253 -0.104178
2224 49.8253 -0.104175
2225 49.8253 -0.104173
2226 49.8253 -0.104171
2227 49.8253 -0.104168
2228 49.8253 -0.104166
2229 49.8253 -0.104164
2230 49.8253 -0.104161
2231 49.8253 -0.104159
2232 49.8253 -0.104157
2233 49.8253 -0.104155
2234 49.8253 -0.104152
2235 49.8253 -0.10415
2236 49.8253 -0.104148
2237 49.8253 -0.104146
2238 49.8253 -0.104143
2239 49.8253 -0.104142
2240 49.8253 -0.104139
2241 49.8253 -0.104137
2242 49.8253 -0.104134
2243 49.8253 -0.104132
2244 49.8253 -0.10413
2245 49.8253 -0.104127
2246 49.8253 -0.104126
2247 49.8253 -0.104123
2248 49.8253 -0.104121
2249 49.8253 -0.104119
2250 49.8253 -0.104117
2251 49.8253 -0.104114
2252 49.8253 -0.104112
2253 49.8253 -0.104109
2254 49.8252 -0.104107
2255 49.8252 -0.104105
2256 49.8252 -0.104102
2257 49.8252 -0.104101
2258 49.8252 -0.104098
2259 49.8252 -0.104096
2260 49.8252 -0.104093
2261 49.8252 -0.104091
2262 49.8252 -0.104089
2263 49.8252 -0.104087
2264 49.8252 -0.104087
2265 49.8252 -0.104084
2266 49.8252 -0.104082
2267 49.8252 -0.104079
2268 49.8252 -0.104077
2269 49.8252 -0.104075
2270 49.8252 -0.104072
2271 49.8252 -0.10407
2272 49.8252 -0.104068
2273 49.8252 -0.104065
2274 49.8252 -0.104063
2275 49.8252 -0.104061
2276 49.8252 -0.104059
2277 49.8252 -0.104057
2278 49.8252 -0.104054
2279 49.8252 -0.104052
2280 49.8252 -0.104049
2281 49.8252 -0.104047
2282 49.8252 -0.104045
2283 49.8252 -0.104043
2284 49.8252 -0.10404
2285 49.8252 -0.104037
2286 49.8252 -0.104035
2287 49.8252 -0.104033
2288 49.8252 -0.10403
2289 49.8252 -0.104029
2290 49.8252 -0.104027
2291 49.8252 -0.104024
2292 49.8251 -0.104021
2293 49.8251 -0.10402
2294 49.8251 -0.104018
2295 49.8251 -0.104015
2296 49.8251 -0.104012
2297 49.8251 -0.10401
2298 49.8251 -0.104008
2299 49.8251 -0.104005
2300 49.8251 -0.104006
2301 49.8251 -0.104003
2302 49.8251 -0.104
2303 49.8251 -0.103998
2304 49.8251 -0.103996
2305 49.8251 -0.103994
2306 49.8251 -0.103991
2307 49.8251 -0.103989
2308 49.8251 -0.103987
2309 49.8251 -0.103984
2310 49.8251 -0.103982
2311 49.8251 -0.10398
2312 49.8251 -0.103977
2313 49.8251 -0.103975
2314 49.8251 -0.103973
2315 49.8251 -0.10397
2316 49.8251 -0.103968
2317 49.8251 -0.103965
2318 49.8251 -0.103964
2319 49.8251 -0.103962
2320 49.8251 -0.103959
2321 49.8251 -0.103957
2322 49.8251 -0.103955
2323 49.8251 -0.103952
2324 49.8251 -0.10395
2325 49.8251 -0.103948
2326 49.8251 -0.103946
2327 49.8251 -0.103943
2328 49.8251 -0.103941
2329 49.825 -0.103939
2330 49.825 -0.103936
2331 49.825 -0.103934
2332 49.825 -0.103932
2333 49.825 -0.103929
2334 49.825 -0.103927
2335 49.825 -0.103924
2336 49.825 -0.103923
2337 49.825 -0.103921
2338 49.825 -0.103918
2339 49.825 -0.103916
2340 49.825 -0.103914
2341 49.825 -0.103911
2342 49.825 -0.103909
2343 49.825 -0.103907
2344 49.825 -0.103905
2345 49.825 -0.103902
2346 49.825 -0.1039
2347 49.825 -0.103898
2348 49.825 -0.103895
2349 49.825 -0.103893
2350 49.825 -0.10389
2351 49.825 -0.103888
2352 49.825 -0.103886
2353 49.825 -0.103883
2354 49.825 -0.103882
2355 49.825 -0.103879
2356 49.825 -0.103877
2357 49.825 -0.103875
2358 49.825 -0.103873
2359 49.825 -0.10387
2360 49.825 -0.103868
2361 49.825 -0.103866
2362 49.825 -0.103864
2363 49.825 -0.103861
2364 49.825 -0.103858
2365 49.825 -0.103857
2366 49.8249 -0.103854
2367 49.8249 -0.103852
2368 49.8249 -0.103849
2369 49.8249 -0.103847
2370 49.8249 -0.103845
2371 49.8249 -0.103842
2372 49.8249 -0.103841
2373 49.8249 -0.103838
2374 49.8249 -0.103836
2375 49.8249 -0.103834
2376 49.8249 -0.103832
2377 49.8249 -0.103829
2378 49.8249 -0.103826
2379 49.8249 -0.103825
2380 49.8249 -0.103823
2381 49.8249 -0.10382
2382 49.8249 -0.103817
2383 49.8249 -0.103815
2384 49.8249 -0.103813
2385 49.8249 -0.10381
2386 49.8249 -0.103808
2387 49.8249 -0.103806
2388 49.8249 -0.103804
2389 49.8249 -0.103801
2390 49.8249 -0.1038
2391 49.8249 -0.103797
2392 49.8249 -0.103795
2393 49.8249 -0.103793
2394 49.8249 -0.10379
2395 49.8249 -0.103788
2396 49.8249 -0.103785
2397 49.8249 -0.103784
2398 49.8249 -0.103781
2399 49.8249 -0.103779
2400 49.8249 -0.103776
2401 49.8249 -0.103774
2402 49.8248 -0.103772
2403 49.8248 -0.103769
2404 49.8248 -0.103767
2405 49.8248 -0.103765
2406 49.8248 -0.103762
2407 49.8248 -0.10376
2408 49.8248 -0.103759
2409 49.8248 -0.103756
2410 49.8248 -0.103754
2411 49.8248 -0.103751
2412 49.8248 -0.103749
2413 49.8248 -0.103747
2414 49.8248 -0.103744
2415 49.8248 -0.103743
2416 49.8248 -0.10374
2417 49.8248 -0.103738
2418 49.8248 -0.103735
2419 49.8248 -0.103733
2420 49.8248 -0.103731
2421 49.8248 -0.103728
2422 49.8248 -0.103726
2423 49.8248 -0.103724
2424 49.8248 -0.103721
2425 49.8248 -0.103719
2426 49.8248 -0.103718
2427 49.8248 -0.103715
2428 49.8248 -0.103712
2429 49.8248 -0.10371
2430 49.8248 -0.103708
2431 49.8248 -0.103706
2432 49.8248 -0.103703
2433 49.8248 -0.103702
2434 49.8248 -0.103699
2435 49.8248 -0.103697
2436 49.8248 -0.103694
2437 49.8248 -0.103692
2438 49.8248 -0.10369
2439 49.8247 -0.103687
2440 49.8247 -0.103685
2441 49.8247 -0.103683
2442 49.8247 -0.10368
2443 49.8247 -0.103678
2444 49.8247 -0.103676
2445 49.8247 -0.103674
2446 49.8247 -0.103671
2447 49.8247 -0.103669
2448 49.8247 -0.103667
2449 49.8247 -0.103665
2450 49.8247 -0.103662
2451 49.8247 -0.10366
2452 49.8247 -0.103658
2453 49.8247 -0.103655
2454 49.8247 -0.103653
2455 49.8247 -0.103651
2456 49.8247 -0.103648
2457 49.8247 -0.103646
2458 49.8247 -0.103644
2459 49.8247 -0.103641
2460 49.8247 -0.103639
2461 49.8247 -0.103636
2462 49.8247 -0.103635
2463 49.8247 -0.103633
2464 49.8247 -0.10363
2465 49.8247 -0.103628
2466 49.8247 -0.103626
2467 49.8247 -0.103623
2468 49.8247 -0.103621
2469 49.8247 -0.103619
2470 49.8247 -0.103617
2471 49.8247 -0.103614
2472 49.8247 -0.103612
2473 49.8247 -0.10361
2474 49.8247 -0.103607
2475 49.8247 -0.103605
2476 49.8246 -0.103603
2477 49.8246 -0.1036
2478 49.8246 -0.103598
2479 49.8246 -0.103595
2480 49.8246 -0.103594
2481 49.8246 -0.103592
2482 49.8246 -0.103589
2483 49.8246 -0.103587
2484 49.8246 -0.103585
2485 49.8246 -0.103582
2486 49.8246 -0.10358
2487 49.8246 -0.103578
2488 49.8246 -0.103576
2489 49.8246 -0.103573
2490 49.8246 -0.103571
2491 49.8246 -0.103569
2492 49.8246 -0.103566
2493 49.8246 -0.103564
2494 49.8246 -0.103561
2495 49.8246 -0.103559
2496 49.8246 -0.103557
2497 49.8246 -0.103554
2498 49.8246 -0.103553
2499 49.8246 -0.10355
2500 49.8246 -0.103548
2501 49.8246 -0.103546
2502 49.8246 -0.103544
2503 49.8246 -0.103541
2504 49.8246 -0.103539
2505 49.8246 -0.103537
2506 49.8246 -0.103535
2507 49.8246 -0.103532
2508 49.8246 -0.103529
2509 49.8246 -0.103527
2510 49.8246 -0.103525
2511 49.8246 -0.103523
2512 49.8246 -0.10352
2513 49.8245 -0.103518
2514 49.8245 -0.103516
2515 49.8245 -0.103513
2516 49.8245 -0.103512
2517 49.8245 -0.103509
2518 49.8245 -0.103507
2519 49.8245 -0.103505
2520 49.8245 -0.103503
2521 49.8245 -0.1035
2522 49.8245 -0.103497
2523 49.8245 -0.103496
2524 49.8245 -0.103493
2525 49.8245 -0.103491
2526 49.8245 -0.103488
2527 49.8245 -0.103486
2528 49.8245 -0.103484
2529 49.8245 -0.103481
2530 49.8245 -0.103479
2531 49.8245 -0.103477
2532 49.8245 -0.103474
2533 49.8245 -0.103472
2534 49.8245 -0.103471
2535 49.8245 -0.103468
2536 49.8245 -0.103466
2537 49.8245 -0.103463
2538 49.8245 -0.103461
2539 49.8245 -0.103459
2540 49.8245 -0.103456
2541 49.8245 -0.103455
2542 49.8245 -0.103452
2543 49.8245 -0.10345
2544 49.8245 -0.103447
2545 49.8245 -0.103445
2546 49.8245 -0.103443
2547 49.8245 -0.10344
2548 49.8245 -0.103438
2549 49.8244 -0.103436
2550 49.8244 -0.103433
2551 49.8244 -0.103431
2552 49.8244 -0.10343
2553 49.8244 -0.103427
2554 49.8244 -0.103425
2555 49.8244 -0.103422
2556 49.8244 -0.10342
2557 49.8244 -0.103418
2558 49.8244 -0.103415
2559 49.8244 -0.103414
2560 49.8244 -0.103411
2561 49.8244 -0.103409
2562 49.8244 -0.103406
2563 49.8244 -0.103404
2564 49.8244 -0.103402
2565 49.8244 -0.103399
2566 49.8244 -0.103397
2567 49.8244 -0.103395
2568 49.8244 -0.103392
2569 49.8244 -0.10339
2570 49.8244 -0.103389
2571 49.8244 -0.103386
2572 49.8244 -0.103383
2573 49.8244 -0.103381
2574 49.8244 -0.103379
2575 49.8244 -0.103377
2576 49.8244 -0.103374
2577 49.8244 -0.103372
2578 49.8244 -0.10337
2579 49.8244 -0.103368
2580 49.8244 -0.103365
2581 49.8244 -0.103363
2582 49.8244 -0.103361
2583 49.8244 -0.103358
2584 49.8244 -0.103356
2585 49.8244 -0.103354
2586 49.8243 -0.103351
2587 49.8243 -0.103348
2588 49.8243 -0.103347
2589 49.8243 -0.103345
2590 49.8243 -0.103342
2591 49.8243 -0.10334
2592 49.8243 -0.103338
2593 49.8243 -0.103336
2594 49.8243 -0.103333
2595 49.8243 -0.103331
2596 49.8243 -0.103329
2597 49.8243 -0.103326
2598 49.8243 -0.103324
2599 49.8243 -0.103322
2600 49.8243 -0.103319
2601 49.8243 -0.103317
2602 49.8243 -0.103315
2603 49.8243 -0.103312
2604 49.8243 -0.10331
2605 49.8243 -0.103307
2606 49.8243 -0.103306
2607 49.8243 -0.103304
2608 49.8243 -0.103301
2609 49.8243 -0.103299
2610 49.8243 -0.103297
2611 49.8243 -0.103294
2612 49.8243 -0.103292
2613 49.8243 -0.10329
2614 49.8243 -0.103288
2615 49.8243 -0.103285
2616 49.8243 -0.103283
2617 49.8243 -0.103281
2618 49.8243 -0.103278
2619 49.8243 -0.103276
2620 49.8243 -0.103273
2621 49.8243 -0.103271
2622 49.8243 -0.103269
2623 49.8242 -0.103266
2624 49.8242 -0.103265
2625 49.8242 -0.103262
2626 49.8242 -0.10326
2627 49.8242 -0.103258
2628 49.8242 -0.103256
2629 49.8242 -0.103253
2630 49.8242 -0.103251
2631 49.8242 -0.103249
2632 49.8242 -0.103247
2633 49.8242 -0.103244
2634 49.8242 -0.103241
2635 49.8242 -0.103239
2636 49.8242 -0.103237
2637 49.8242 -0.103235
2638 49.8242 -0.103232
2639 49.8242 -0.10323
2640 49.8242 -0.103228
2641 49.8242 -0.103225
2642 49.8242 -0.103224
2643 49.8242 -0.103221
2644 49.8242 -0.103219
2645 49.8242 -0.103217
2646 49.8242 -0.103215
2647 49.8242 -0.103212
2648 49.8242 -0.103209
2649 49.8242 -0.103208
2650 49.8242 -0.103205
2651 49.8242 -0.103203
2652 49.8242 -0.1032
2653 49.8242 -0.103198
2654 49.8242 -0.103196
2655 49.8242 -0.103193
2656 49.8242 -0.103191
2657 49.8242 -0.103189
2658 49.8242 -0.103186
2659 49.8242 -0.103184
2660 49.8241 -0.103183
2661 49.8241 -0.10318
2662 49.8241 -0.103178
2663 49.8241 -0.103175
2664 49.8241 -0.103173
2665 49.8241 -0.103171
2666 49.8241 -0.103168
2667 49.8241 -0.103167
2668 49.8241 -0.103164
2669 49.8241 -0.103162
2670 49.8241 -0.103159
2671 49.8241 -0.103157
2672 49.8241 -0.103155
2673 49.8241 -0.103152
2674 49.8241 -0.10315
2675 49.8241 -0.103148
2676 49.8241 -0.103145
2677 49.8241 -0.103143
2678 49.8241 -0.103142
2679 49.8241 -0.103139
2680 49.8241 -0.103136
2681 49.8241 -0.103134
2682 49.8241 -0.103132
2683 49.8241 -0.103129
2684 49.8241 -0.103127
2685 49.8241 -0.103125
2686 49.8241 -0.103122
2687 49.8241 -0.10312
2688 49.8241 -0.103117
2689 49.8241 -0.103116
2690 49.8241 -0.103113
2691 49.8241 -0.103111
2692 49.8241 -0.103108
2693 49.8241 -0.103106
2694 49.8241 -0.103104
2695 49.8241 -0.103101
2696 49.824 -0.103099
2697 49.824 -0.103097
2698 49.824 -0.103094
2699 49.824 -0.103092
2700 49.824 -0.10309
2701 49.824 -0.103088
2702 49.824 -0.103085
2703 49.824 -0.103082
2704 49.824 -0.10308
2705 49.824 -0.103078
2706 49.824 -0.103075
2707 49.824 -0.103073
2708 49.824 -0.103071
2709 49.824 -0.103068
2710 49.824 -0.103065
2711 49.824 -0.103064
2712 49.824 -0.103062
2713 49.824 -0.103059
2714 49.824 -0.103056
2715 49.824 -0.103055
2716 49.824 -0.103052
2717 49.824 -0.10305
2718 49.824 -0.103047
2719 49.824 -0.103045
2720 49.824 -0.103042
2721 49.824 -0.10304
2722 49.824 -0.103038
2723 49.824 -0.103036
2724 49.824 -0.103033
2725 49.824 -0.103031
2726 49.824 -0.103029
2727 49.824 -0.103027
2728 49.824 -0.103025
2729 49.824 -0.103022
2730 49.824 -0.10302
2731 49.824 -0.103017
2732 49.824 -0.103015
2733 49.824 -0.103016
2734 49.8239 -0.103013
2735 49.8239 -0.10301
2736 49.8239 -0.103008
2737 49.8239 -0.103006
2738 49.8239 -0.103004
2739 49.8239 -0.103001
2740 49.8239 -0.102999
2741 49.8239 -0.102997
2742 49.8239 -0.102995
2743 49.8239 -0.102992
2744 49.8239 -0.102991
2745 49.8239 -0.102988
2746 49.8239 -0.102986
2747 49.8239 -0.102983
2748 49.8239 -0.102982
2749 49.8239 -0.102979
2750 49.8239 -0.102977
2751 49.8239 -0.102974
2752 49.8239 -0.102972
2753 49.8239 -0.102969
2754 49.8239 -0.102967
2755 49.8239 -0.102966
2756 49.8239 -0.102963
2757 49.8239 -0.102961
2758 49.8239 -0.102958
2759 49.8239 -0.102957
2760 49.8239 -0.102954
2761 49.8239 -0.102952
2762 49.8239 -0.102949
2763 49.8239 -0.102947
2764 49.8239 -0.102945
2765 49.8239 -0.102942
2766 49.8239 -0.102939
2767 49.8239 -0.102937
2768 49.8239 -0.102935
2769 49.8239 -0.102932
2770 49.8239 -0.102933
2771 49.8238 -0.10293
2772 49.8238 -0.102927
2773 49.8238 -0.102925
2774 49.8238 -0.102923
2775 49.8238 -0.10292
2776 49.8238 -0.102918
2777 49.8238 -0.102915
2778 49.8238 -0.102913
2779 49.8238 -0.102911
2780 49.8238 -0.102908
2781 49.8238 -0.102907
2782 49.8238 -0.102904
2783 49.8238 -0.102902
2784 49.8238 -0.102899
2785 49.8238 -0.102897
2786 49.8238 -0.102895
2787 49.8238 -0.102892
2788 49.8238 -0.102889
2789 49.8238 -0.102887
2790 49.8238 -0.102885
2791 49.8238 -0.102882
2792 49.8238 -0.102881
2793 49.8238 -0.102878
2794 49.8238 -0.102876
2795 49.8238 -0.102873
2796 49.8238 -0.102871
2797 49.8238 -0.102869
2798 49.8238 -0.102866
2799 49.8238 -0.102863
2800 49.8238 -0.102861
2801 49.8238 -0.102859
2802 49.8238 -0.102856
2803 49.8238 -0.102855
2804 49.8238 -0.102852
2805 49.8238 -0.10285
2806 49.8238 -0.102847
2807 49.8237 -0.102845
2808 49.8237 -0.102843
2809 49.8237 -0.10284
2810 49.8237 -0.102837
2811 49.8237 -0.102835
2812 49.8237 -0.102833
2813 49.8237 -0.10283
2814 49.8237 -0.102829
2815 49.8237 -0.102826
2816 49.8237 -0.102824
2817 49.8237 -0.102821
2818 49.8237 -0.10282
2819 49.8237 -0.102817
2820 49.8237 -0.102815
2821 49.8237 -0.102812
2822 49.8237 -0.10281
2823 49.8237 -0.102808
2824 49.8237 -0.102806
2825 49.8237 -0.102807
2826 49.8237 -0.102804
2827 49.8237 -0.102801
2828 49.8237 -0.102799
2829 49.8237 -0.102797
2830 49.8237 -0.102795
2831 49.8237 -0.102792
2832 49.8237 -0.10279
2833 49.8237 -0.102788
2834 49.8237 -0.102785
2835 49.8237 -0.102783
2836 49.8237 -0.102781
2837 49.8237 -0.102779
2838 49.8237 -0.102776
2839 49.8237 -0.102774
2840 49.8237 -0.102772
2841 49.8237 -0.10277
2842 49.8237 -0.102767
2843 49.8237 -0.102765
2844 49.8237 -0.102763
2845 49.8236 -0.10276
2846 49.8236 -0.102758
2847 49.8236 -0.102756
2848 49.8236 -0.102754
2849 49.8236 -0.102751
2850 49.8236 -0.102749
2851 49.8236 -0.102749
2852 49.8236 -0.102746
2853 49.8236 -0.102744
2854 49.8236 -0.102741
