38 48.5882
52 47.6847
65 46.8499
77 46.0242
89 45.2574
100 44.5612
110 43.9331
119 43.375
127 42.885
134 42.4034
142 41.9899
148 41.6369
153 41.3529
158 41.069
162 40.8537
166 40.6388
170 40.4234
174 40.2081
454 26.6354
515 23.4946
544 22.1413
557 21.5872
564 21.3134
569 21.1804
571 21.1452
573 21.0988
575 21.0525
577 21.0083
579 20.9639
581 20.9169
583 20.8797
585 20.8371
587 20.7966
589 20.7522
591 20.7071
593 20.6699
597 20.584
599 20.551
601 20.5076
603 20.4649
605 20.4249
607 20.3868
611 20.3039
613 20.274
615 20.2335
617 20.1932
621 20.1109
623 20.0811
625 20.039
627 19.9536
629 19.9229
634 19.8406
636 19.8105
638 19.77
645 19.6944
653 19.6809
657 19.5525
659 19.4956
663 19.3667
665 19.3111
667 19.2413
669 19.1827
671 19.1192
673 19.0584
675 19.0048
677 18.9377
679 18.8691
683 18.7451
685 18.6829
687 18.6126
691 18.5006
795 15.8139
800 15.6642
802 15.6354
1081 10.5631
1083 10.5473
1085 10.5287
1087 10.4911
1089 10.4775
1091 10.4606
1093 10.4437
1095 10.4276
1097 10.4146
1099 10.3986
1101 10.3832
1103 10.3692
1105 10.3557
1109 10.3321
1111 10.3221
1113 10.3032
1115 10.2978
1117 10.2919
1119 10.2873
1121 10.2842
1312 7.63508
1317 7.53752
1319 7.51195
1323 7.44455
1325 7.42068
1327 7.35304
1329 7.32968
1331 7.29719
1333 7.26218
1335 7.23494
1337 7.20806
1346 7.16117
1441 5.75551
1443 5.7493
1445 5.73625
1447 5.7259
1449 5.7163
1451 5.70568
1453 5.69531
1655 3.04409
1657 3.02625
1659 3.00347
1661 2.9821
1663 2.93938
1665 2.90763
1667 2.89645
1669 2.8835
1697 2.2294
1699 2.17293
1701 2.09774
1704 1.96453
1706 1.91008
1708 1.83187
1710 1.7656
1712 1.61876
1720 1.61095
1730 1.5196
37 14.7728
839 14.7279
841 14.6835
843 14.6392
845 14.59
847 14.5409
849 14.4922
851 14.4432
853 14.396
855 14.3484
857 14.3003
859 14.2535
861 14.2074
863 14.1613
865 14.1146
867 14.0686
869 14.0229
871 13.9767
873 13.8984
875 13.8316
877 13.777
879 13.7234
881 13.6683
883 13.6148
885 13.5699
887 13.5232
889 13.4805
891 13.4338
893 13.3879
895 13.3453
897 13.3035
899 13.2618
901 13.2191
903 13.1768
905 13.135
907 13.093
909 13.0525
911 13.0114
913 12.9716
915 12.9307
917 12.8909
919 12.8516
921 12.8112
923 12.7725
925 12.733
927 12.6936
929 12.6551
931 12.6169
933 12.5788
935 12.5405
937 12.5039
939 12.4669
941 12.4299
943 12.3928
945 12.3556
947 12.3189
949 12.2832
951 12.2481
953 12.2117
955 12.1763
957 12.1407
959 12.1055
961 12.0719
963 12.0381
965 12.0043
967 11.9701
969 11.9371
971 11.905
973 11.8737
975 11.8419
977 11.8107
979 11.7787
981 11.7482
983 11.7176
985 11.6875
987 11.6583
989 11.6287
991 11.5997
993 11.5703
995 11.5412
997 11.5126
999 11.4843
1001 11.4561
1003 11.4284
1005 11.4003
1007 11.3733
1009 11.3463
1011 11.3194
1013 11.2928
1015 11.2659
1017 11.2401
1019 11.2147
1021 11.1906
1023 11.1668
1025 11.1437
1027 11.1205
1029 11.0975
1031 11.075
1033 11.052
1035 11.03
1037 11.0089
1039 10.9879
1041 10.9676
1043 10.9476
1045 10.9283
1047 10.909
1049 10.8903
1051 10.8717
1053 10.8534
1055 10.8365
1057 10.8196
1059 10.803
1061 10.7872
1063 10.7718
1065 10.7571
1067 10.7426
1069 10.7288
1071 10.7157
1073 10.7027
1075 10.6903
1077 10.6778
1079 10.6658
1081 10.6544
1129 10.0115
1166 9.27874
1227 8.4302
1265 7.89444
1275 7.8234
1301 7.75312
1303 7.72885
1305 7.70604
1307 7.6836
1309 7.66078
1311 7.63812
1313 7.61484
1555 4.71792
1557 4.68996
1559 4.64741
1561 4.60553
1670 2.69871
1672 2.64633
1674 2.60548
1676 2.56768
1678 2.52905
1680 2.49441
1682 2.46518
1684 2.43264
1686 2.40138
1695 2.36198
1787 0.429125
1789 0.344422
1791 0.277973
1793 0.218802
1794 0.182084
1795 0.169638
1796 0.168485
