13 0.0207515 0.0166692
20 0.30669 -0.00579573
28 0.797761 -0.0511949
37 1.35726 -0.070303
45 1.8481 -0.0707087
52 2.26942 -0.0660317
59 2.6915 -0.0591026
65 3.04499 -0.0523489
70 3.32974 -0.0463914
114 3.21881 -0.497201
158 3.08277 -1.37887
208 3.12154 -2.21821
266 3.17812 -2.90443
340 2.6357 -3.44289
388 1.71783 -3.40076
442 0.927414 -3.4707
487 0.217901 -4.11584
534 0.0882905 -4.85944
578 0.484961 -5.72959
628 1.23496 -5.98431
672 2.10274 -6.04622
730 2.77817 -5.99481
790 3.3673 -6.03894
832 4.35308 -5.82897
872 4.83224 -4.9029
924 4.86015 -4.12559
980 4.82438 -3.39094
1010 5.46565 -3.56142
1090 6.00431 -4.12721
1161 6.57673 -5.16124
1195 7.48693 -5.59884
1258 8.00961 -5.55736
1304 8.82874 -5.67461
1350 9.70937 -5.20005
1394 10.0552 -4.45822
1444 9.92042 -3.64099
1452 9.97975 -3.51175
1454 9.97973 -3.51025
1456 9.97557 -3.45105
1458 9.97078 -3.38785
1460 9.9645 -3.32219
1462 9.95911 -3.26572
1464 9.95191 -3.19414
1466 9.94437 -3.12055
1468 9.93693 -3.05062
1470 9.93036 -2.98605
1472 9.92434 -2.92538
1474 9.91763 -2.85771
1476 9.91114 -2.79016
1478 9.90464 -2.72148
1480 9.89839 -2.65247
1482 9.89243 -2.58405
1484 9.88652 -2.51407
1486 9.88082 -2.44402
1488 9.87531 -2.37303
1490 9.87009 -2.30274
1492 9.86502 -2.23279
1494 9.86017 -2.16378
1496 9.85556 -2.09423
1498 9.85124 -2.02524
1500 9.84718 -1.95645
1521 9.88333 -1.83126
1525 9.96378 -1.81924
1527 10.0812 -1.82174
1529 10.1589 -1.81881
1531 10.2356 -1.8154
1533 10.3094 -1.81169
1535 10.3812 -1.80753
1537 10.4512 -1.80282
1539 10.5168 -1.79811
1541 10.5868 -1.79258
1543 10.6598 -1.78749
1545 10.7242 -1.7826
1547 10.7858 -1.77841
1549 10.8504 -1.77401
1551 10.9146 -1.76986
1553 10.9841 -1.76569
1555 11.0539 -1.76159
1557 11.1229 -1.75796
1559 11.1931 -1.75428
1561 11.2637 -1.75094
1563 11.3347 -1.74792
1565 11.404 -1.7453
1567 11.4743 -1.74284
1569 11.5452 -1.74054
1571 11.615 -1.73859
1573 11.6853 -1.73682
1575 11.7554 -1.73526
1577 11.8261 -1.73382
1579 11.8958 -1.73258
1581 11.9656 -1.73143
1583 12.0346 -1.73034
1585 12.1044 -1.72933
1587 12.1704 -1.72847
1589 12.2346 -1.7278
1591 12.3018 -1.72725
1593 12.3697 -1.72689
1595 12.4388 -1.72672
1597 12.5071 -1.72673
1599 12.5774 -1.72679
1601 12.6486 -1.72691
1603 12.7191 -1.72708
1605 12.79 -1.72739
1607 12.8603 -1.72773
1609 12.9305 -1.72815
1611 13.0016 -1.72866
1613 13.0714 -1.7293
1615 13.1417 -1.72995
1617 13.2127 -1.73073
1619 13.2839 -1.73158
1621 13.3523 -1.73245
1623 13.4195 -1.73346
1625 13.4871 -1.73467
1627 13.5554 -1.73605
1629 13.6237 -1.73758
1631 13.6923 -1.73921
1633 13.7607 -1.7409
1635 13.8307 -1.74265
1637 13.9013 -1.74431
1639 13.9697 -1.74594
1641 14.039 -1.74753
1643 14.1075 -1.7491
1645 14.1765 -1.75058
1647 14.2443 -1.75202
1649 14.312 -1.75355
1651 14.3797 -1.75518
1653 14.448 -1.75682
1655 14.5169 -1.75845
1657 14.585 -1.76013
1659 14.6539 -1.76187
1661 14.7225 -1.76364
1663 14.7908 -1.76536
1665 14.8582 -1.76711
1667 14.9281 -1.76894
1669 14.997 -1.77081
1706 14.7275 -1.80234
1735 15.0113 -1.77062
1762 14.7224 -1.79285
1792 15.0055 -1.77909
1805 15.0406 -1.75271
1828 14.7541 -1.62305
1832 14.6777 -1.60858
1834 14.5584 -1.6002
1862 14.85 -1.64991
1890 14.4395 -1.57779
1908 14.2896 -1.21617
1918 14.2488 -1.05995
1940 14.7445 -1.32089
1955 15.0113 -1.17449
1957 15.107 -1.1122
1985 14.8242 -1.25836
2014 15.1443 -1.01149
2018 15.2194 -0.978594
2020 15.3247 -0.927185
2022 15.3925 -0.8953
2024 15.4573 -0.863942
2026 15.5204 -0.831969
2055 15.3392 -1.00655
2085 15.7624 -0.771466
2106 15.5607 -0.682068
2110 15.4969 -0.62726
2112 15.4009 -0.561788
2114 15.3413 -0.516566
2116 15.2837 -0.47119
2118 15.2218 -0.421636
2120 15.1665 -0.377062
2122 15.1102 -0.330824
2132 15.0248 -0.247162
2138 15.024 -0.245781
2139 15.0237 -0.246572
2140 15.0235 -0.246598
2141 15.0235 -0.246489
2142 15.0234 -0.246742
2143 15.0233 -0.247095
2144 15.0233 -0.247153
2145 15.0232 -0.247183
2146 15.0232 -0.24721
2147 15.0231 -0.247233
2148 15.0231 -0.247253
2149 15.0231 -0.247269
2150 15.0231 -0.247284
2151 15.023 -0.247296
2152 15.023 -0.247305
2153 15.023 -0.247314
2154 15.023 -0.247321
2155 15.023 -0.247325
2156 15.023 -0.247328
2157 15.0229 -0.247331
2158 15.0229 -0.247334
2159 15.0229 -0.247335
2160 15.0229 -0.247336
2161 15.0229 -0.247337
2162 15.0229 -0.247336
2163 15.0229 -0.247335
2164 15.0229 -0.247334
2165 15.0229 -0.247333
2166 15.0229 -0.247331
2167 15.0229 -0.247328
2168 15.0229 -0.247326
2169 15.0229 -0.247323
2170 15.0229 -0.24732
2171 15.0229 -0.247317
2172 15.0229 -0.247313
2173 15.0229 -0.24731
2174 15.0229 -0.247306
2175 15.0229 -0.247302
2176 15.0229 -0.247298
2177 15.0229 -0.247294
2178 15.0229 -0.24729
2179 15.0229 -0.247286
2180 15.0229 -0.247282
2181 15.0229 -0.247277
2182 15.0229 -0.247273
2183 15.0229 -0.247268
2184 15.0229 -0.247264
2185 15.0229 -0.24726
2186 15.0229 -0.247255
2187 15.0229 -0.247251
2188 15.0229 -0.247246
2189 15.0229 -0.247242
2190 15.0229 -0.247237
2191 15.0229 -0.247233
2192 15.0229 -0.247228
2193 15.0229 -0.247223
2194 15.0229 -0.247218
2195 15.0229 -0.247214
2196 15.0229 -0.247209
2197 15.0229 -0.247205
2198 15.0229 -0.2472
2199 15.0229 -0.247195
2200 15.0229 -0.24719
2201 15.0229 -0.247186
2202 15.0229 -0.247181
2203 15.0229 -0.247176
2204 15.0229 -0.247172
2205 15.0229 -0.247167
2206 15.0229 -0.247162
2207 15.0229 -0.247157
2208 15.0229 -0.247153
2209 15.0229 -0.247148
2210 15.0229 -0.247143
2211 15.0229 -0.247138
2212 15.0229 -0.247134
2213 15.0229 -0.247129
2214 15.0229 -0.247124
2215 15.0229 -0.247119
2216 15.0229 -0.247115
2217 15.0229 -0.24711
2218 15.0229 -0.247105
2219 15.0229 -0.2471
2220 15.0229 -0.247096
2221 15.0229 -0.247091
2222 15.0229 -0.247086
2223 15.0229 -0.247081
2224 15.0229 -0.247076
2225 15.0229 -0.247072
2226 15.0229 -0.247067
2227 15.0229 -0.247062
2228 15.0229 -0.247057
2229 15.0229 -0.247053
2230 15.0229 -0.247048
2231 15.0229 -0.247043
2232 15.0229 -0.247038
2233 15.0229 -0.247034
2234 15.0229 -0.247029
2235 15.0229 -0.247024
2236 15.0229 -0.247019
2237 15.0229 -0.247014
2238 15.0229 -0.24701
2239 15.0229 -0.247005
2240 15.0229 -0.247
2241 15.0229 -0.246995
2242 15.0229 -0.24699
2243 15.0229 -0.246986
2244 15.0229 -0.246981
2245 15.0229 -0.246976
2246 15.0229 -0.246971
2247 15.0229 -0.246967
2248 15.0229 -0.246962
2249 15.0229 -0.246957
2250 15.0229 -0.246952
2251 15.0229 -0.246948
2252 15.0229 -0.246943
2253 15.0229 -0.246938
2254 15.0229 -0.246933
2255 15.0229 -0.246928
2256 15.0229 -0.246924
2257 15.0229 -0.246919
2258 15.0229 -0.246914
2259 15.0229 -0.246909
2260 15.0229 -0.246904
2261 15.0229 -0.2469
2262 15.0229 -0.246895
2263 15.0229 -0.24689
2264 15.0229 -0.246885
2265 15.0229 -0.246881
2266 15.0229 -0.246876
2267 15.0229 -0.246871
2268 15.0229 -0.246866
2269 15.0229 -0.246862
2270 15.0229 -0.246857
2271 15.0229 -0.246852
2272 15.0229 -0.246847
2273 15.0229 -0.246842
2274 15.0229 -0.246838
2275 15.0229 -0.246833
2276 15.0229 -0.246828
2277 15.0229 -0.246823
2278 15.0229 -0.246818
2279 15.0229 -0.246814
2280 15.0229 -0.246809
2281 15.0229 -0.246804
2282 15.0229 -0.246799
2283 15.0229 -0.246794
2284 15.0229 -0.24679
2285 15.0229 -0.246785
2286 15.0229 -0.24678
2287 15.0229 -0.246775
2288 15.0229 -0.246771
2289 15.0229 -0.246766
2290 15.0229 -0.246761
2291 15.0229 -0.246756
2292 15.0229 -0.246752
2293 15.0229 -0.246747
2294 15.0229 -0.246742
2295 15.0229 -0.246737
2296 15.0229 -0.246732
2297 15.0229 -0.246728
2298 15.0229 -0.246723
2299 15.0229 -0.246718
2300 15.0229 -0.246713
2301 15.0229 -0.246708
2302 15.0229 -0.246704
2303 15.0229 -0.246699
2304 15.0229 -0.246694
2305 15.0229 -0.246689
2306 15.0229 -0.246685
2307 15.0229 -0.24668
2308 15.0229 -0.246675
2309 15.0229 -0.24667
2310 15.0229 -0.246666
2311 15.0229 -0.246661
2312 15.0229 -0.246656
2313 15.0229 -0.246651
2314 15.0229 -0.246646
2315 15.0229 -0.246641
2316 15.0229 -0.246637
2317 15.0229 -0.246632
2318 15.0229 -0.246627
2319 15.0229 -0.246622
2320 15.0229 -0.246617
2321 15.0229 -0.246613
2322 15.0229 -0.246608
2323 15.0229 -0.246603
2324 15.0229 -0.246598
2325 15.0229 -0.246594
2326 15.0229 -0.246589
2327 15.0229 -0.246584
2328 15.0229 -0.246579
2329 15.0229 -0.246575
2330 15.0229 -0.24657
2331 15.0229 -0.246565
2332 15.0229 -0.24656
2333 15.0229 -0.246555
2334 15.0229 -0.246551
2335 15.0229 -0.246546
2336 15.0229 -0.246541
2337 15.0229 -0.246536
2338 15.0229 -0.246531
2339 15.0229 -0.246527
2340 15.0229 -0.246522
2341 15.0229 -0.246517
2342 15.0229 -0.246512
2343 15.0229 -0.246508
2344 15.0229 -0.246503
2345 15.0229 -0.246498
2346 15.0229 -0.246493
2347 15.0229 -0.246489
2348 15.0229 -0.246484
2349 15.0229 -0.246479
2350 15.0229 -0.246474
2351 15.0229 -0.246469
2352 15.0229 -0.246465
2353 15.0229 -0.24646
2354 15.0229 -0.246455
2355 15.0229 -0.24645
2356 15.0229 -0.246445
2357 15.0229 -0.246441
2358 15.0229 -0.246436
2359 15.0229 -0.246431
2360 15.0229 -0.246426
2361 15.0229 -0.246421
2362 15.0229 -0.246417
2363 15.0229 -0.246412
2364 15.0229 -0.246407
2365 15.0229 -0.246402
2366 15.0229 -0.246398
2367 15.0228 -0.246393
2368 15.0228 -0.246388
2369 15.0228 -0.246383
2370 15.0228 -0.246379
2371 15.0228 -0.246374
2372 15.0228 -0.246369
2373 15.0228 -0.246364
2374 15.0228 -0.246359
2375 15.0228 -0.246355
2376 15.0228 -0.24635
2377 15.0228 -0.246345
2378 15.0228 -0.24634
2379 15.0228 -0.246335
2380 15.0228 -0.246331
2381 15.0228 -0.246326
2382 15.0228 -0.246321
2383 15.0228 -0.246316
2384 15.0228 -0.246312
2385 15.0228 -0.246307
2386 15.0228 -0.246302
2387 15.0228 -0.246297
2388 15.0228 -0.246293
2389 15.0228 -0.246288
2390 15.0228 -0.246283
2391 15.0228 -0.246278
2392 15.0228 -0.246273
2393 15.0228 -0.246269
2394 15.0228 -0.246264
2395 15.0228 -0.246259
2396 15.0228 -0.246254
2397 15.0228 -0.246249
2398 15.0228 -0.246245
2399 15.0228 -0.24624
2400 15.0228 -0.246235
2401 15.0228 -0.24623
2402 15.0228 -0.246225
2403 15.0228 -0.246221
2404 15.0228 -0.246216
2405 15.0228 -0.246211
2406 15.0228 -0.246206
2407 15.0228 -0.246202
2408 15.0228 -0.246197
2409 15.0228 -0.246192
2410 15.0228 -0.246187
2411 15.0228 -0.246182
2412 15.0228 -0.246178
2413 15.0228 -0.246173
2414 15.0228 -0.246168
2415 15.0228 -0.246163
2416 15.0228 -0.246158
2417 15.0228 -0.246154
2418 15.0228 -0.246149
2419 15.0228 -0.246144
2420 15.0228 -0.246139
2421 15.0228 -0.246135
2422 15.0228 -0.24613
2423 15.0228 -0.246125
2424 15.0228 -0.24612
2425 15.0228 -0.246116
2426 15.0228 -0.246111
2427 15.0228 -0.246106
2428 15.0228 -0.246101
2429 15.0228 -0.246096
2430 15.0228 -0.246092
2431 15.0228 -0.246087
2432 15.0228 -0.246082
2433 15.0228 -0.246077
2434 15.0228 -0.246072
2435 15.0228 -0.246068
2436 15.0228 -0.246063
2437 15.0228 -0.246058
2438 15.0228 -0.246053
2439 15.0228 -0.246048
2440 15.0228 -0.246044
2441 15.0228 -0.246039
2442 15.0228 -0.246034
2443 15.0228 -0.246029
2444 15.0228 -0.246025
2445 15.0228 -0.24602
2446 15.0228 -0.246015
2447 15.0228 -0.24601
2448 15.0228 -0.246006
2449 15.0228 -0.246001
2450 15.0228 -0.245996
2451 15.0228 -0.245991
2452 15.0228 -0.245986
2453 15.0228 -0.245982
2454 15.0228 -0.245977
2455 15.0228 -0.245972
2456 15.0228 -0.245967
2457 15.0228 -0.245962
2458 15.0228 -0.245958
2459 15.0228 -0.245953
2460 15.0228 -0.245948
2461 15.0228 -0.245943
2462 15.0228 -0.245939
2463 15.0228 -0.245934
2464 15.0228 -0.245929
2465 15.0228 -0.245924
2466 15.0228 -0.24592
2467 15.0228 -0.245915
2468 15.0228 -0.24591
2469 15.0228 -0.245905
2470 15.0228 -0.2459
2471 15.0228 -0.245896
2472 15.0228 -0.245891
2473 15.0228 -0.245886
2474 15.0228 -0.245881
2475 15.0228 -0.245876
2476 15.0228 -0.245872
2477 15.0228 -0.245867
2478 15.0228 -0.245862
2479 15.0228 -0.245857
2480 15.0228 -0.245853
2481 15.0228 -0.245848
2482 15.0228 -0.245843
2483 15.0228 -0.245838
2484 15.0228 -0.245834
2485 15.0228 -0.245829
2486 15.0228 -0.245824
2487 15.0228 -0.245819
2488 15.0228 -0.245814
2489 15.0228 -0.24581
2490 15.0228 -0.245805
2491 15.0228 -0.2458
2492 15.0228 -0.245795
2493 15.0228 -0.24579
2494 15.0228 -0.245785
2495 15.0228 -0.245781
2496 15.0228 -0.245776
2497 15.0228 -0.245771
2498 15.0228 -0.245766
2499 15.0228 -0.245762
2500 15.0228 -0.245757
2501 15.0228 -0.245752
2502 15.0228 -0.245747
2503 15.0228 -0.245743
2504 15.0228 -0.245738
2505 15.0228 -0.245733
2506 15.0228 -0.245728
2507 15.0228 -0.245723
2508 15.0228 -0.245719
2509 15.0228 -0.245714
2510 15.0228 -0.245709
2511 15.0228 -0.245704
2512 15.0228 -0.245699
2513 15.0228 -0.245695
2514 15.0228 -0.24569
2515 15.0228 -0.245685
2516 15.0228 -0.24568
2517 15.0228 -0.245676
2518 15.0228 -0.245671
2519 15.0228 -0.245666
2520 15.0228 -0.245661
2521 15.0228 -0.245657
2522 15.0228 -0.245652
2523 15.0228 -0.245647
2524 15.0228 -0.245642
2525 15.0228 -0.245637
2526 15.0228 -0.245633
2527 15.0228 -0.245628
2528 15.0228 -0.245623
2529 15.0228 -0.245618
2530 15.0228 -0.245613
2531 15.0228 -0.245609
2532 15.0228 -0.245604
2533 15.0228 -0.245599
2534 15.0228 -0.245594
2535 15.0228 -0.24559
2536 15.0228 -0.245585
2537 15.0228 -0.24558
2538 15.0228 -0.245575
2539 15.0228 -0.245571
2540 15.0228 -0.245566
2541 15.0228 -0.245561
2542 15.0228 -0.245556
2543 15.0228 -0.245551
2544 15.0228 -0.245547
