1 -0.000302909 -2.45906e-07
2 -0.000281316 -2.18749e-07
3 -0.000287472 -2.2211e-07
4 -0.000133655 3.77084e-07
5 0.000166953 6.38926e-06
6 0.000270995 1.83522e-05
7 0.000411797 2.51174e-05
8 4.07737e-05 1.07506e-05
9 -0.000275603 -0.000144802
10 -0.00194423 -0.000869853
11 -0.0039317 -0.00247563
12 -0.00525949 -0.0049842
13 -0.00583755 -0.00721704
14 -0.00517288 -0.0124028
15 -0.00372692 -0.0139054
16 -0.00338947 -0.01524
17 -0.000514145 -0.0169555
18 0.00204481 -0.0179838
19 0.0051342 -0.0184372
20 0.0085219 -0.0181382
21 0.0145334 -0.0161368
22 0.0144112 -0.0162028
23 0.0143917 -0.0162188
24 0.0150834 -0.0161505
25 0.0177376 -0.0151772
26 0.0203391 -0.0143434
27 0.0233624 -0.0136521
28 0.0271722 -0.0129457
29 0.0306503 -0.0126188
30 0.0341614 -0.0125373
31 0.0361183 -0.0125531
32 0.0358661 -0.0125349
33 0.0609275 -0.0152351
34 0.19336 -0.0287085
35 0.262523 -0.0348567
36 0.331704 -0.0402172
37 0.469998 -0.0484711
38 0.539071 -0.0514481
39 0.608061 -0.0537971
40 0.677092 -0.0555254
41 0.716331 -0.0552579
42 0.757351 -0.0567281
43 0.825466 -0.0575642
44 0.894514 -0.0582809
45 0.963505 -0.0589691
46 1.03248 -0.0596532
47 1.10144 -0.0603396
48 1.1704 -0.0610324
49 1.23934 -0.0617262
50 1.30826 -0.0624196
51 1.37718 -0.0631109
52 1.44609 -0.0637997
53 1.51498 -0.0644862
54 1.65275 -0.0658595
55 1.72163 -0.0665454
56 1.79051 -0.0672299
57 1.85937 -0.0679114
58 1.89366 -0.0678937
59 1.93794 -0.0686901
60 2.00599 -0.0694412
61 2.1437 -0.0708872
62 2.2814 -0.0722773
63 2.32226 -0.072503
64 2.34299 -0.072799
65 2.36107 -0.073408
66 2.37624 -0.0744575
67 2.39698 -0.0775873
68 2.4023 -0.0790558
69 2.40437 -0.0795726
70 2.40759 -0.0808488
71 2.41068 -0.0828385
72 2.41366 -0.0848686
73 2.4164 -0.0872067
74 2.41844 -0.0893103
75 2.42274 -0.0940432
76 2.4247 -0.0968845
77 2.42642 -0.100049
78 2.42779 -0.103338
79 2.4288 -0.106655
80 2.42979 -0.113428
81 2.42971 -0.116728
82 2.42936 -0.119812
83 2.42806 -0.124441
84 2.42741 -0.126782
85 2.42603 -0.129677
86 2.42415 -0.132541
87 2.42219 -0.134949
88 2.42029 -0.13732
89 2.41787 -0.139635
90 2.40175 -0.167195
91 2.34773 -0.204769
92 2.28913 -0.24249
93 2.23047 -0.279687
94 2.17167 -0.316663
95 2.05472 -0.391177
96 1.93878 -0.466759
97 1.88119 -0.504977
98 1.82382 -0.543536
99 1.76664 -0.582369
100 1.73169 -0.59915
101 1.71989 -0.6082
102 1.71592 -0.612516
103 1.71337 -0.616728
104 1.71192 -0.621077
105 1.7122 -0.62613
106 1.71237 -0.626732
107 1.71217 -0.628094
108 1.71404 -0.630013
109 1.7299 -0.651855
110 1.7888 -0.67316
111 1.85642 -0.692976
112 1.92301 -0.713447
113 1.9875 -0.735211
114 2.0502 -0.759466
115 2.11216 -0.78629
116 2.21468 -0.830419
117 2.22239 -0.834077
118 2.22492 -0.836033
119 2.22709 -0.838083
120 2.22924 -0.840341
121 2.23259 -0.844583
122 2.23427 -0.847196
123 2.23587 -0.85012
124 2.23731 -0.853285
125 2.23844 -0.856549
126 2.23935 -0.859931
127 2.24009 -0.867065
128 2.23959 -0.87328
129 2.23892 -0.876213
130 2.23799 -0.878702
131 2.23705 -0.881158
132 2.23554 -0.88412
133 2.23338 -0.887253
134 2.23107 -0.890035
135 2.21957 -0.921437
136 2.17397 -0.969725
137 2.12539 -1.01911
138 2.07701 -1.06873
139 2.02897 -1.11865
140 1.93475 -1.2196
141 1.84269 -1.32228
142 1.79716 -1.37441
143 1.75218 -1.42678
144 1.70774 -1.47937
145 1.68118 -1.50292
146 1.67666 -1.50859
147 1.67 -1.51959
148 1.66808 -1.52569
149 1.66844 -1.53414
150 1.66856 -1.53443
151 1.66993 -1.53787
152 1.67207 -1.53931
153 1.6776 -1.5411
154 1.75424 -1.54728
155 1.82112 -1.53434
156 1.88942 -1.52149
157 1.95776 -1.5095
158 2.02519 -1.50022
159 2.09279 -1.4948
160 2.16126 -1.49381
161 2.27408 -1.49661
162 2.28916 -1.4993
163 2.29159 -1.50009
164 2.29311 -1.50085
165 2.29821 -1.50404
166 2.30101 -1.50622
167 2.30369 -1.50857
168 2.30631 -1.51122
169 2.3086 -1.51397
170 2.31047 -1.51659
171 2.31209 -1.51915
172 2.31375 -1.52216
173 2.31512 -1.52561
174 2.31618 -1.52904
175 2.3168 -1.53232
176 2.31718 -1.53542
177 2.3173 -1.53878
178 2.31697 -1.54235
179 2.31553 -1.54753
180 2.31486 -1.54933
181 2.31417 -1.55134
182 2.31291 -1.55362
183 2.31137 -1.55607
184 2.30933 -1.55858
185 2.2942 -1.59047
186 2.24425 -1.63425
187 2.19082 -1.67857
188 2.13695 -1.7225
189 2.02994 -1.81004
190 1.9769 -1.85416
191 1.87175 -1.94388
192 1.81939 -1.98941
193 1.76752 -2.03507
194 1.716 -2.08103
195 1.68458 -2.10145
196 1.67398 -2.11203
197 1.67038 -2.1172
198 1.66798 -2.12255
199 1.66693 -2.12776
200 1.66743 -2.131
201 1.66768 -2.13201
202 1.66748 -2.13226
203 1.66713 -2.13298
204 1.6678 -2.13403
205 1.67895 -2.15727
206 1.73595 -2.18432
207 1.80134 -2.20919
208 1.86562 -2.23473
209 1.92853 -2.26161
210 1.99049 -2.29096
211 2.05182 -2.3223
212 2.11108 -2.35565
213 2.20774 -2.40802
214 2.2151 -2.41195
215 2.21715 -2.41399
216 2.21934 -2.41634
217 2.22157 -2.41908
218 2.22373 -2.42207
219 2.22757 -2.42878
220 2.23027 -2.43569
221 2.23122 -2.43945
222 2.23165 -2.44305
223 2.23173 -2.4463
224 2.23095 -2.45156
225 2.22959 -2.456
226 2.22721 -2.46066
227 2.22567 -2.46312
228 2.22362 -2.4654
229 2.21115 -2.49579
230 2.16257 -2.54067
231 2.11041 -2.5863
232 2.00817 -2.6794
233 1.95847 -2.72716
234 1.9098 -2.77572
235 1.86217 -2.8252
236 1.81537 -2.87553
237 1.7691 -2.92704
238 1.72324 -2.97927
239 1.69564 -3.00346
240 1.69282 -3.0062
241 1.69329 -3.00558
242 1.69361 -3.00423
243 1.69356 -3.00247
244 1.69253 -3.00344
245 1.69362 -3.00646
246 1.69527 -3.00901
247 1.69719 -3.01107
248 1.69934 -3.01303
249 1.76786 -3.06627
250 1.82977 -3.09607
251 1.89114 -3.12725
252 2.00965 -3.19591
253 2.06677 -3.23379
254 2.15921 -3.294
255 2.16657 -3.29904
256 2.16883 -3.30148
257 2.17073 -3.30393
258 2.17256 -3.30661
259 2.17574 -3.31248
260 2.17711 -3.31586
261 2.17818 -3.31929
262 2.17897 -3.32276
263 2.17948 -3.32982
264 2.17911 -3.333
265 2.17869 -3.3358
266 2.17798 -3.33819
267 2.17729 -3.34046
268 2.17619 -3.34316
269 2.16633 -3.38006
270 2.12805 -3.43419
271 2.08681 -3.48972
272 2.04555 -3.5452
273 2.00458 -3.60082
274 1.96432 -3.65686
275 1.92473 -3.71339
276 1.88587 -3.77031
277 1.8101 -3.88538
278 1.77294 -3.94353
279 1.73631 -4.002
280 1.71396 -4.02887
281 1.70992 -4.03589
282 1.70642 -4.04286
283 1.70264 -4.05707
284 1.70424 -4.06634
285 1.70403 -4.0674
286 1.70451 -4.06815
287 1.70464 -4.06944
288 1.71675 -4.09551
289 1.7696 -4.12766
290 1.8301 -4.15883
291 1.88981 -4.19202
292 1.94838 -4.22723
293 2.0048 -4.26516
294 2.05948 -4.30597
295 2.11218 -4.34953
296 2.14679 -4.37116
297 2.15579 -4.37955
298 2.15987 -4.3859
299 2.16161 -4.3894
300 2.16314 -4.3933
301 2.16469 -4.40012
302 2.165 -4.40631
303 2.16424 -4.41095
304 2.16391 -4.41239
305 2.16345 -4.41416
306 2.16081 -4.41921
307 2.15014 -4.4515
308 2.0557 -4.54844
309 2.00612 -4.59691
310 1.95699 -4.64576
311 1.86005 -4.74464
312 1.81275 -4.79466
313 1.76631 -4.84542
314 1.72022 -4.89704
315 1.64647 -4.97297
316 1.6367 -4.9859
317 1.63407 -4.99094
318 1.6327 -4.99463
319 1.63184 -4.99748
320 1.63094 -5.00037
321 1.63012 -5.00294
322 1.62903 -5.00558
323 1.62736 -5.00884
324 1.62513 -5.01242
325 1.62284 -5.01533
326 1.61845 -5.02016
327 1.61595 -5.02249
328 1.61292 -5.02496
329 1.60957 -5.02715
330 1.60623 -5.02901
331 1.60286 -5.03053
332 1.59952 -5.03169
333 1.59616 -5.03259
334 1.58896 -5.03331
335 1.58318 -5.0326
336 1.5812 -5.03196
337 1.57947 -5.03143
338 1.54592 -5.02779
339 1.49238 -4.99024
340 1.43691 -4.94839
341 1.38128 -4.90685
342 1.3252 -4.86619
343 1.26839 -4.82696
344 1.15187 -4.75278
345 1.09216 -4.71749
346 1.03189 -4.6835
347 0.97119 -4.65088
348 0.941058 -4.62856
349 0.937937 -4.62651
350 0.937857 -4.62664
351 0.937668 -4.6267
352 0.937611 -4.62675
353 0.938435 -4.62709
354 0.939425 -4.6275
355 0.940399 -4.62769
356 0.943849 -4.62746
357 0.946731 -4.62551
358 0.944866 -4.62591
359 0.942779 -4.62822
360 0.94171 -4.63061
361 0.940784 -4.63278
362 0.940998 -4.63895
363 0.933709 -4.6601
364 0.956721 -4.71771
365 0.987832 -4.78055
366 1.04648 -4.90717
367 1.07178 -4.97198
368 1.09332 -5.03807
369 1.11133 -5.10528
370 1.12789 -5.1489
371 1.1301 -5.15909
372 1.13055 -5.16378
373 1.1304 -5.16649
374 1.13003 -5.16865
375 1.12899 -5.17211
376 1.12723 -5.17592
377 1.12573 -5.17851
378 1.12369 -5.18125
379 1.12147 -5.18382
380 1.11685 -5.18803
381 1.11389 -5.1904
382 1.11054 -5.19225
383 1.10751 -5.1938
384 1.10418 -5.19506
385 1.10074 -5.19599
386 1.0972 -5.19662
387 1.09037 -5.1967
388 1.08749 -5.19631
389 1.0849 -5.19573
390 1.08286 -5.19496
391 1.08078 -5.19436
392 1.07817 -5.19311
393 1.07538 -5.19144
394 1.07279 -5.18945
395 1.07034 -5.18749
396 0.993945 -5.13092
397 0.945748 -5.08073
398 0.89769 -5.03066
399 0.849727 -4.98051
400 0.753397 -4.8809
401 0.704937 -4.83172
402 0.656088 -4.78287
403 0.606972 -4.73426
404 0.534963 -4.65547
405 0.529367 -4.65018
406 0.523877 -4.64578
407 0.517926 -4.64214
408 0.511754 -4.63972
409 0.505717 -4.63864
410 0.498239 -4.64023
411 0.497464 -4.63986
412 0.495627 -4.64068
413 0.493726 -4.64286
414 0.492479 -4.64566
415 0.491733 -4.64864
416 0.479656 -4.67133
417 0.487675 -4.73426
418 0.498281 -4.80239
419 0.514822 -4.94085
420 0.518291 -5.01036
421 0.51769 -5.07968
422 0.521717 -5.12721
423 0.521043 -5.13964
424 0.520584 -5.14444
425 0.520062 -5.14576
426 0.519517 -5.14693
427 0.518656 -5.14846
428 0.516963 -5.1511
429 0.515042 -5.15363
430 0.511019 -5.15799
431 0.50851 -5.1601
432 0.505928 -5.16212
433 0.503074 -5.16393
434 0.500091 -5.16559
435 0.496737 -5.16705
436 0.490013 -5.16892
437 0.486601 -5.1694
438 0.483364 -5.16943
439 0.480622 -5.16919
440 0.478068 -5.1688
441 0.475755 -5.1681
442 0.473587 -5.16741
443 0.468266 -5.16501
444 0.465445 -5.16306
445 0.4629 -5.1613
446 0.432086 -5.15231
447 0.381275 -5.11
448 0.328868 -5.06444
449 0.276349 -5.01917
450 0.223498 -4.97442
451 0.170229 -4.93026
452 0.0623194 -4.84363
453 0.00785756 -4.80119
454 -0.0469453 -4.75932
455 -0.128602 -4.69145
456 -0.135759 -4.68635
457 -0.142355 -4.68226
458 -0.14924 -4.6792
459 -0.156397 -4.67732
460 -0.163146 -4.67684
461 -0.169063 -4.67764
462 -0.170827 -4.67934
463 -0.172234 -4.67872
464 -0.174465 -4.68071
465 -0.17696 -4.68516
466 -0.176902 -4.68997
467 -0.175229 -4.69431
468 -0.175764 -4.71115
469 -0.137297 -4.7566
470 -0.0880066 -4.80584
471 -0.0395803 -4.85613
472 0.0485757 -4.96276
473 0.120673 -5.07884
474 0.14763 -5.12489
475 0.1572 -5.14552
476 0.163301 -5.15967
477 0.169556 -5.17475
478 0.170815 -5.17969
479 0.171275 -5.18323
480 0.171337 -5.18643
481 0.171066 -5.18933
482 0.17062 -5.19171
483 0.170096 -5.19383
484 0.169388 -5.19595
485 0.168468 -5.19822
486 0.165713 -5.20301
487 0.163932 -5.20562
488 0.161612 -5.2082
489 0.159338 -5.21041
490 0.156698 -5.21288
491 0.153454 -5.21505
492 0.150256 -5.21708
493 0.146587 -5.21893
494 0.142724 -5.2204
495 0.138862 -5.2215
496 0.134916 -5.22227
497 0.131169 -5.22245
498 0.124592 -5.22199
499 0.122286 -5.2213
500 0.120565 -5.22084
501 0.118781 -5.22016
502 0.114042 -5.21763
503 0.111683 -5.21563
504 0.109349 -5.21378
505 0.106958 -5.21133
506 0.0390624 -5.14659
507 -0.0442331 -5.03528
508 -0.0859238 -4.97962
509 -0.127775 -4.92418
510 -0.169734 -4.86912
511 -0.212236 -4.81458
512 -0.255252 -4.76041
513 -0.298627 -4.70679
514 -0.34257 -4.65357
515 -0.362698 -4.62034
516 -0.373202 -4.60909
517 -0.378372 -4.60517
518 -0.383529 -4.60262
519 -0.388808 -4.60124
520 -0.393492 -4.60119
521 -0.396252 -4.60209
522 -0.397261 -4.60249
523 -0.398064 -4.60252
524 -0.399389 -4.60306
525 -0.425874 -4.61292
526 -0.463232 -4.66588
527 -0.537718 -4.7821
528 -0.577148 -4.83876
529 -0.618463 -4.89392
530 -0.66158 -4.9477
531 -0.706297 -4.99974
532 -0.729029 -5.03544
533 -0.73408 -5.04201
534 -0.736575 -5.04396
535 -0.741743 -5.04738
536 -0.744737 -5.04906
537 -0.747856 -5.05061
538 -0.751251 -5.05209
539 -0.784878 -5.06608
540 -0.847447 -5.08709
541 -0.913123 -5.10824
542 -0.978787 -5.12951
543 -1.04418 -5.15114
544 -1.10938 -5.17334
545 -1.1743 -5.19625
546 -1.23883 -5.21981
547 -1.27114 -5.23127
548 -1.27959 -5.23461
549 -1.29167 -5.24132
550 -1.29588 -5.24596
551 -1.29671 -5.24754
552 -1.29763 -5.2495
553 -1.29725 -5.25196
554 -1.29658 -5.25357
555 -1.2961 -5.25458
556 -1.29418 -5.27308
557 -1.24531 -5.3044
558 -1.17727 -5.33352
559 -1.10882 -5.35997
560 -1.04666 -5.38757
561 -0.989025 -5.40468
562 -0.986395 -5.40678
563 -0.984256 -5.40884
564 -0.982381 -5.41094
565 -0.980669 -5.41314
566 -0.978989 -5.41566
567 -0.977299 -5.41844
568 -0.975832 -5.42133
569 -0.973542 -5.42746
570 -0.972207 -5.43459
571 -0.97209 -5.43806
572 -0.972311 -5.44135
573 -0.97293 -5.44423
574 -0.973611 -5.44638
575 -0.974278 -5.44821
576 -0.975171 -5.45049
577 -0.976704 -5.45328
578 -0.978664 -5.45621
579 -0.980813 -5.45889
580 -0.994357 -5.48997
581 -1.08748 -5.5882
582 -1.1357 -5.63784
583 -1.23177 -5.73744
584 -1.27942 -5.78746
585 -1.3267 -5.83778
586 -1.37366 -5.88836
587 -1.46654 -5.99025
588 -1.49437 -6.01362
589 -1.49756 -6.01629
590 -1.49745 -6.01664
591 -1.49739 -6.01654
592 -1.49722 -6.01581
593 -1.49719 -6.01422
594 -1.49827 -6.01512
595 -1.496 -6.02015
596 -1.49394 -6.02235
597 -1.49145 -6.02395
598 -1.4888 -6.02526
599 -1.48541 -6.02591
600 -1.46719 -6.04003
601 -1.33586 -6.02861
602 -1.26704 -6.02246
603 -1.19765 -6.0187
604 -1.12897 -6.01784
605 -1.01413 -6.01842
606 -1.00252 -6.01979
607 -0.995518 -6.02121
608 -0.991431 -6.02234
609 -0.989293 -6.02324
610 -0.987615 -6.02419
611 -0.98554 -6.02552
612 -0.98332 -6.02714
613 -0.981004 -6.02905
614 -0.978711 -6.03123
615 -0.976653 -6.03343
616 -0.97466 -6.03586
617 -0.971075 -6.04141
618 -0.969603 -6.04445
619 -0.968395 -6.04761
620 -0.967425 -6.05098
621 -0.966877 -6.05446
622 -0.966618 -6.05799
623 -0.966842 -6.06137
624 -0.967278 -6.06431
625 -0.96791 -6.0669
626 -0.968632 -6.06929
627 -0.969574 -6.07157
628 -0.970659 -6.07407
629 -0.972267 -6.07689
630 -0.979165 -6.10875
631 -1.0186 -6.16202
632 -1.06146 -6.21669
633 -1.10413 -6.27136
634 -1.14647 -6.32611
635 -1.22953 -6.43675
636 -1.2702 -6.49261
637 -1.3104 -6.54885
638 -1.35008 -6.60537
639 -1.38927 -6.66224
640 -1.41492 -6.68924
641 -1.41953 -6.69632
642 -1.42595 -6.70935
643 -1.42738 -6.71581
644 -1.42749 -6.72209
645 -1.42621 -6.725
646 -1.42639 -6.72489
647 -1.42701 -6.72566
648 -1.42596 -6.72721
649 -1.42412 -6.72887
650 -1.40387 -6.75373
651 -1.27929 -6.80084
652 -1.15079 -6.85055
653 -1.08796 -6.87696
654 -0.985816 -6.91585
655 -0.97573 -6.91994
656 -0.969507 -6.9241
657 -0.964784 -6.92872
658 -0.962695 -6.93118
659 -0.960729 -6.93378
660 -0.958716 -6.93676
661 -0.93785 -6.96744
662 -0.905868 -7.02563
663 -0.873059 -7.08639
664 -0.839865 -7.147
665 -0.806164 -7.20709
666 -0.771634 -7.26675
667 -0.700283 -7.38481
668 -0.663431 -7.44338
669 -0.626105 -7.50133
670 -0.588251 -7.55869
671 -0.570038 -7.58605
672 -0.565576 -7.59248
673 -0.561361 -7.59777
674 -0.557324 -7.60154
675 -0.553265 -7.60423
676 -0.545515 -7.60626
677 -0.543015 -7.60568
678 -0.542183 -7.60669
679 -0.540636 -7.60554
680 -0.53878 -7.60377
681 -0.523289 -7.59379
682 -0.503369 -7.46587
683 -0.498294 -7.39314
684 -0.490967 -7.32416
685 -0.479935 -7.25706
686 -0.464557 -7.191
687 -0.444258 -7.12671
688 -0.434471 -7.08208
689 -0.432094 -7.0757
690 -0.430461 -7.0736
691 -0.428258 -7.0708
692 -0.425733 -7.06791
693 -0.423312 -7.06542
694 -0.420949 -7.06332
695 -0.418635 -7.0615
696 -0.412493 -7.05755
697 -0.408509 -7.05559
698 -0.404873 -7.05424
699 -0.397963 -7.05266
700 -0.39447 -7.05238
701 -0.391239 -7.05253
702 -0.388569 -7.05288
703 -0.384184 -7.05399
704 -0.381953 -7.05482
705 -0.379256 -7.05597
706 -0.376482 -7.05773
707 -0.345127 -7.06652
708 -0.240633 -7.15308
709 -0.187713 -7.19784
710 -0.134441 -7.24214
711 -0.0807469 -7.28593
712 -0.0265457 -7.32901
713 0.0281606 -7.37128
714 0.083337 -7.41277
715 0.195283 -7.49392
716 0.221873 -7.51913
717 0.224792 -7.52187
718 0.225133 -7.52181
719 0.225633 -7.52194
720 0.225133 -7.52185
721 0.224008 -7.52189
722 0.222539 -7.52229
723 0.223761 -7.52315
724 0.226293 -7.52163
725 0.228438 -7.51997
726 0.230337 -7.51764
727 0.231678 -7.51475
728 0.232735 -7.50834
729 0.245954 -7.48828
730 0.239242 -7.42513
731 0.227864 -7.35616
732 0.217095 -7.28727
733 0.208237 -7.21851
734 0.202686 -7.14952
735 0.192086 -7.10111
736 0.191489 -7.08724
737 0.1915 -7.07958
738 0.191841 -7.07649
739 0.192241 -7.07533
740 0.192786 -7.07422
741 0.193823 -7.07232
742 0.195304 -7.06996
743 0.198952 -7.06524
744 0.203842 -7.06049
745 0.206334 -7.0586
746 0.209076 -7.05676
747 0.21208 -7.05523
748 0.215016 -7.05402
749 0.218161 -7.05299
750 0.221604 -7.05223
751 0.225282 -7.05177
752 0.228667 -7.05187
753 0.231621 -7.05208
754 0.234412 -7.05262
755 0.236708 -7.05333
756 0.241468 -7.0551
757 0.246935 -7.05855
758 0.249124 -7.06003
759 0.251529 -7.06204
760 0.28058 -7.07391
761 0.324996 -7.12259
762 0.394809 -7.21747
763 0.407097 -7.23531
764 0.410214 -7.23765
765 0.41687 -7.24177
766 0.423923 -7.24456
767 0.427747 -7.24555
768 0.431335 -7.2461
769 0.437623 -7.24596
770 0.440298 -7.24557
771 0.442806 -7.24487
772 0.445019 -7.2441
773 0.447591 -7.24312
774 0.452129 -7.24051
775 0.454982 -7.23919
776 0.458249 -7.23783
777 0.461633 -7.23679
778 0.465262 -7.23608
779 0.468815 -7.23573
780 0.472412 -7.23573
781 0.475673 -7.23609
782 0.479165 -7.23672
783 0.483016 -7.23776
784 0.492105 -7.23983
785 0.496387 -7.24075
786 0.500978 -7.24177
787 0.506114 -7.24327
788 0.51055 -7.24504
789 0.513344 -7.24658
790 0.518659 -7.24962
791 0.521595 -7.25218
792 0.524234 -7.25466
793 0.526528 -7.25735
794 0.52873 -7.26017
795 0.530606 -7.26326
796 0.533747 -7.26996
797 0.53471 -7.27303
798 0.535571 -7.27627
799 0.535919 -7.27972
800 0.535961 -7.283
801 0.545627 -7.31602
802 0.521185 -7.44823
803 0.493824 -7.58444
804 0.480993 -7.65241
805 0.469494 -7.72061
806 0.450539 -7.85748
807 0.437079 -7.99494
808 0.432176 -8.06384
809 0.421978 -8.16946
810 0.421788 -8.17949
811 0.421951 -8.18933
812 0.422635 -8.19892
813 0.424092 -8.20774
814 0.426418 -8.21558
815 0.429491 -8.22197
816 0.432431 -8.22557
817 0.434553 -8.22781
818 0.439699 -8.23069
819 0.445427 -8.23126
820 0.447584 -8.23078
821 0.449206 -8.23048
822 0.524895 -8.20389
823 0.580534 -8.16773
824 0.639305 -8.13067
825 0.698899 -8.09567
826 0.759837 -8.06441
827 0.822828 -8.03608
828 0.887149 -8.012
829 0.953326 -7.99234
830 1.02113 -7.97665
831 1.08951 -7.96457
832 1.15817 -7.95574
833 1.29576 -7.94573
834 1.36469 -7.9436
835 1.43372 -7.94286
836 1.47649 -7.94232
837 1.49545 -7.94278
838 1.51159 -7.94359
839 1.52456 -7.94478
840 1.5344 -7.94624
841 1.54071 -7.94769
842 1.54535 -7.94905
843 1.54845 -7.95026
844 1.55403 -7.95331
845 1.58716 -7.96755
846 1.63954 -8.00713
847 1.69349 -8.05011
848 1.74769 -8.09308
849 1.80238 -8.13564
850 1.8575 -8.17747
851 1.96891 -8.25861
852 2.02558 -8.2982
853 2.08273 -8.3372
854 2.14012 -8.37544
855 2.16632 -8.3961
856 2.17276 -8.40015
857 2.17868 -8.40333
858 2.18482 -8.40573
859 2.19081 -8.40709
860 2.19654 -8.40748
861 2.2017 -8.40682
862 2.20418 -8.40597
863 2.20606 -8.4055
864 2.20872 -8.40364
865 2.21103 -8.40071
866 2.23665 -8.38621
867 2.26525 -8.32926
868 2.29222 -8.26494
869 2.32006 -8.20159
870 2.34926 -8.13931
871 2.38041 -8.07833
872 2.3929 -8.03532
873 2.39647 -8.02643
874 2.39871 -8.02366
875 2.40104 -8.02121
876 2.40363 -8.01883
877 2.40631 -8.01661
878 2.40933 -8.01449
879 2.41223 -8.01267
880 2.41486 -8.01127
881 2.41838 -8.00966
882 2.42217 -8.00843
883 2.42544 -8.00762
884 2.42865 -8.0071
885 2.43531 -8.00697
886 2.43867 -8.00733
887 2.4418 -8.00788
888 2.47587 -8.00667
889 2.53818 -8.02401
890 2.60425 -8.04455
891 2.67047 -8.06426
892 2.73699 -8.08286
893 2.80401 -8.1001
894 2.87129 -8.1159
895 2.93871 -8.1302
896 3.07426 -8.15501
897 3.14228 -8.16578
898 3.21071 -8.17574
899 3.24481 -8.18327
900 3.24905 -8.1842
901 3.24962 -8.18412
902 3.25045 -8.18414
903 3.25146 -8.18414
904 3.25374 -8.18402
905 3.25424 -8.18399
906 3.25421 -8.18419
907 3.25548 -8.18419
908 3.25806 -8.18259
909 3.26052 -8.18002
910 3.26279 -8.17731
911 3.26487 -8.17434
912 3.29255 -8.1524
913 3.32288 -8.09362
914 3.35319 -8.03138
915 3.41543 -7.90834
916 3.44768 -7.84801
917 3.51559 -7.72837
918 3.58701 -7.61068
919 3.62365 -7.55276
920 3.66105 -7.49517
921 3.67946 -7.45947
922 3.68448 -7.45054
923 3.68714 -7.44736
924 3.68964 -7.44473
925 3.6949 -7.4402
926 3.69777 -7.43815
927 3.70077 -7.43619
928 3.70388 -7.43444
929 3.73634 -7.41338
930 3.86131 -7.36127
931 3.92497 -7.33519
932 3.98856 -7.30869
933 4.05215 -7.28168
934 4.1155 -7.25406
935 4.17848 -7.22579
936 4.24104 -7.19697
937 4.27903 -7.18196
938 4.289 -7.17549
939 4.29141 -7.17323
940 4.29356 -7.17062
941 4.29534 -7.1676
942 4.29627 -7.16477
943 4.29721 -7.16196
944 4.2976 -7.15875
945 4.30583 -7.06165
946 4.29867 -6.99283
947 4.29294 -6.92385
948 4.28889 -6.8549
949 4.28698 -6.7863
950 4.28786 -6.71775
951 4.29119 -6.64904
952 4.29598 -6.54011
953 4.29745 -6.52654
954 4.29863 -6.51898
955 4.29943 -6.51564
956 4.30028 -6.51334
957 4.30139 -6.5107
958 4.30272 -6.50791
959 4.31926 -6.47318
960 4.35387 -6.4162
961 4.39079 -6.3577
962 4.42757 -6.29936
963 4.46407 -6.24099
964 4.50021 -6.18223
965 4.53592 -6.12313
966 4.55836 -6.0889
967 4.56111 -6.08344
968 4.56283 -6.07906
969 4.56399 -6.07503
970 4.56485 -6.07083
971 4.56509 -6.06706
972 4.56509 -6.06414
973 4.56496 -6.0616
974 4.56761 -6.02573
975 4.55144 -5.96269
976 4.5314 -5.89647
977 4.49259 -5.76378
978 4.47459 -5.6971
979 4.45777 -5.63013
980 4.42785 -5.49539
981 4.40205 -5.36012
982 4.37966 -5.22404
983 4.3706 -5.18783
984 4.37074 -5.18794
985 4.37082 -5.18754
986 4.37081 -5.18626
987 4.37091 -5.18435
988 4.37128 -5.18223
989 4.37209 -5.17961
990 4.37372 -5.17689
991 4.37594 -5.17426
992 4.3818 -5.17012
993 4.38515 -5.16847
994 4.38871 -5.16734
995 4.41322 -5.14702
996 4.47781 -5.13751
997 4.54689 -5.13053
998 4.61519 -5.12216
999 4.68301 -5.12284
1000 4.6983 -5.12075
1001 4.72204 -5.11997
1002 4.72781 -5.12109
1003 4.7302 -5.12138
1004 4.73356 -5.12176
1005 4.73582 -5.12247
1006 4.73829 -5.1236
1007 4.74053 -5.12508
1008 4.74289 -5.12658
1009 4.74544 -5.12881
1010 4.7478 -5.13132
1011 4.74997 -5.13389
1012 4.75358 -5.13952
1013 4.75511 -5.14261
1014 4.75644 -5.14602
1015 4.77425 -5.17444
1016 4.79153 -5.3089
1017 4.79918 -5.37794
1018 4.80708 -5.44681
1019 4.81528 -5.51546
1020 4.82464 -5.58398
1021 4.83528 -5.6523
1022 4.86052 -5.78805
1023 4.87486 -5.85558
1024 4.89018 -5.92286
1025 4.89455 -5.96082
1026 4.89511 -5.96517
1027 4.89526 -5.96505
1028 4.89554 -5.96542
1029 4.89587 -5.96609
1030 4.89873 -5.96977
1031 4.90112 -5.97141
1032 4.90454 -5.97256
1033 4.90589 -5.97269
1034 4.90691 -5.97263
1035 4.9061 -5.97301
1036 4.90478 -5.97385
1037 4.90366 -5.97443
1038 4.90274 -5.97482
1039 4.90237 -5.97515
1040 4.90257 -5.97529
1041 4.90155 -5.9756
1042 4.90001 -5.97586
1043 4.90025 -5.9761
1044 4.90286 -5.97645
1045 4.90666 -5.97725
1046 4.91415 -5.98004
1047 4.91734 -5.9817
1048 4.92019 -5.98346
1049 4.92313 -5.98547
1050 4.92579 -5.98779
1051 4.93039 -5.99261
1052 4.93232 -5.99502
1053 4.93406 -5.99765
1054 4.9357 -6.0005
1055 4.93712 -6.00368
1056 4.93826 -6.00703
1057 4.93906 -6.01045
1058 4.95483 -6.04436
1059 4.95789 -6.11015
1060 4.95861 -6.17955
1061 4.95942 -6.3181
1062 4.9608 -6.38726
1063 4.96323 -6.45626
1064 4.96685 -6.5252
1065 4.97737 -6.66308
1066 4.98405 -6.73165
1067 4.99155 -6.80017
1068 4.99057 -6.83616
1069 4.99181 -6.84485
1070 4.99349 -6.85288
1071 4.99923 -6.86748
1072 5.0023 -6.87136
1073 5.00448 -6.87359
1074 5.00693 -6.87525
1075 5.00902 -6.87588
1076 5.01098 -6.87663
1077 5.01494 -6.87576
1078 5.0161 -6.87537
1079 5.043 -6.87301
1080 5.09071 -6.83067
1081 5.14132 -6.78343
1082 5.19338 -6.73765
1083 5.24673 -6.6938
1084 5.30171 -6.65289
1085 5.35843 -6.61441
1086 5.47739 -6.54481
1087 5.60181 -6.48424
1088 5.65224 -6.45826
1089 5.65994 -6.45582
1090 5.66577 -6.45441
1091 5.67021 -6.45378
1092 5.67374 -6.45364
1093 5.67833 -6.45402
1094 5.68021 -6.45435
1095 5.68211 -6.45484
1096 5.68471 -6.45563
1097 5.68792 -6.45717
1098 5.69075 -6.45899
1099 5.6961 -6.46299
1100 5.69847 -6.46518
1101 5.70081 -6.46759
1102 5.73067 -6.49087
1103 5.76641 -6.5465
1104 5.80214 -6.6057
1105 5.8731 -6.72443
1106 5.90907 -6.78347
1107 5.94558 -6.84219
1108 6.02004 -6.9584
1109 6.09669 -7.07347
1110 6.17482 -7.18682
1111 6.19118 -7.21775
1112 6.193 -7.22109
1113 6.19292 -7.22074
1114 6.19258 -7.22018
1115 6.19195 -7.21988
1116 6.18811 -7.2197
1117 6.18852 -7.2215
1118 6.19117 -7.22042
1119 6.19314 -7.21921
1120 6.19494 -7.2178
1121 6.21717 -7.20975
1122 6.24631 -7.15521
1123 6.27089 -7.08621
1124 6.29511 -7.02166
1125 6.35158 -6.90088
1126 6.42321 -6.78642
1127 6.46454 -6.73153
1128 6.5087 -6.67875
1129 6.53309 -6.64367
1130 6.54169 -6.63484
1131 6.54785 -6.63101
1132 6.55479 -6.62798
1133 6.56207 -6.62635
1134 6.56827 -6.6263
1135 6.57308 -6.62725
1136 6.57525 -6.62795
1137 6.57823 -6.62907
1138 6.58163 -6.63123
1139 6.58432 -6.63356
1140 6.61508 -6.64548
1141 6.7083 -6.74344
1142 6.75538 -6.79438
1143 6.80252 -6.84497
1144 6.84986 -6.89505
1145 6.94602 -6.99382
1146 6.99493 -7.04255
1147 7.04446 -7.0909
1148 7.09419 -7.13871
1149 7.11621 -7.16772
1150 7.12197 -7.17292
1151 7.12728 -7.17708
1152 7.13854 -7.18238
1153 7.14877 -7.18295
1154 7.15054 -7.18174
1155 7.15175 -7.18219
1156 7.15386 -7.18087
1157 7.15576 -7.17872
1158 7.15731 -7.17633
1159 7.17956 -7.16122
1160 7.2013 -7.10166
1161 7.24511 -6.97176
1162 7.29809 -6.84563
1163 7.32875 -6.78523
1164 7.36233 -6.72603
1165 7.37878 -6.68617
1166 7.3831 -6.67813
1167 7.38856 -6.6723
1168 7.39119 -6.66997
1169 7.39369 -6.66806
1170 7.39601 -6.66654
1171 7.39854 -6.66512
1172 7.40141 -6.66381
1173 7.40447 -6.66268
1174 7.41118 -6.66119
1175 7.41436 -6.66092
1176 7.41773 -6.66091
1177 7.42088 -6.66137
1178 7.42334 -6.66198
1179 7.42817 -6.66343
1180 7.46183 -6.66705
1181 7.51984 -6.69735
1182 7.58011 -6.73112
1183 7.64042 -6.76485
1184 7.76204 -6.8299
1185 7.88568 -6.89132
1186 7.9484 -6.92078
1187 8.01128 -6.94935
1188 8.07437 -6.97696
1189 8.10474 -6.99526
1190 8.11353 -6.99864
1191 8.1222 -7.0016
1192 8.13075 -7.00347
1193 8.1394 -7.00418
1194 8.14742 -7.00367
1195 8.15436 -7.00201
1196 8.15589 -7.00006
1197 8.15671 -7.00094
1198 8.15847 -6.99964
1199 8.16158 -6.99562
1200 8.16384 -6.9902
1201 8.19301 -6.90255
1202 8.20025 -6.83342
1203 8.20835 -6.76467
1204 8.21756 -6.69626
1205 8.22848 -6.62875
1206 8.24233 -6.56199
1207 8.24735 -6.50729
1208 8.24883 -6.50147
1209 8.25002 -6.49911
1210 8.25142 -6.4968
1211 8.25333 -6.49402
1212 8.25536 -6.49126
1213 8.27798 -6.46304
1214 8.36625 -6.36108
1215 8.41167 -6.30917
1216 8.45694 -6.25716
1217 8.50201 -6.20505
1218 8.54691 -6.15244
1219 8.59131 -6.09962
1220 8.61708 -6.06868
1221 8.62005 -6.0646
1222 8.62239 -6.0604
1223 8.62451 -6.05288
1224 8.62446 -6.05021
1225 8.62422 -6.04836
1226 8.62402 -6.04692
1227 8.6234 -6.0175
1228 8.5419 -5.9137
1229 8.49694 -5.86101
1230 8.45355 -5.80768
1231 8.41217 -5.75319
1232 8.37903 -5.72377
1233 8.37236 -5.71649
1234 8.36951 -5.7096
1235 8.36848 -5.7061
1236 8.36785 -5.70271
1237 8.36753 -5.69935
1238 8.36755 -5.69612
1239 8.36784 -5.69295
1240 8.3684 -5.6898
1241 8.37508 -5.65206
1242 8.40038 -5.59203
1243 8.42904 -5.52941
1244 8.45817 -5.46686
1245 8.48706 -5.4045
1246 8.51506 -5.34181
1247 8.56831 -5.21496
1248 8.59343 -5.15109
1249 8.61755 -5.08694
1250 8.64083 -5.02227
1251 8.65436 -4.99156
1252 8.65913 -4.97536
1253 8.66033 -4.96754
1254 8.66042 -4.95994
1255 8.6593 -4.95334
1256 8.65797 -4.9503
1257 8.65487 -4.94564
1258 8.65233 -4.94336
1259 8.64934 -4.94144
1260 8.63057 -4.91787
1261 8.50345 -4.87858
1262 8.43801 -4.85994
1263 8.37345 -4.83926
1264 8.30894 -4.81676
1265 8.2452 -4.79193
1266 8.1211 -4.73536
1267 8.06044 -4.70353
1268 8.00057 -4.66998
1269 7.94184 -4.63462
1270 7.8272 -4.55982
1271 7.77078 -4.52061
1272 7.71468 -4.48034
1273 7.65929 -4.43929
1274 7.60452 -4.39757
1275 7.49573 -4.31234
1276 7.44205 -4.26936
1277 7.3885 -4.22598
1278 7.33514 -4.18227
1279 7.28207 -4.1384
1280 7.22911 -4.09433
1281 7.17629 -4.05011
1282 7.12359 -4.0058
1283 7.01851 -3.91695
1284 6.96607 -3.87243
1285 6.91364 -3.82782
1286 6.88207 -3.80136
1287 6.86886 -3.79251
1288 6.85462 -3.78848
1289 6.84832 -3.78882
1290 6.84627 -3.79058
1291 6.84538 -3.78929
1292 6.84106 -3.79214
1293 6.83885 -3.79498
1294 6.83736 -3.79589
1295 6.83527 -3.79856
1296 6.8337 -3.80237
1297 6.83256 -3.80562
1298 6.83166 -3.80866
1299 6.83101 -3.81172
1300 6.81695 -3.83497
1301 6.81479 -3.97034
1302 6.81477 -4.0398
1303 6.81433 -4.10911
1304 6.81348 -4.17829
1305 6.80931 -4.3164
1306 6.80589 -4.38531
1307 6.80169 -4.45415
1308 6.79663 -4.52299
1309 6.79898 -4.56343
1310 6.79714 -4.5832
1311 6.79737 -4.59875
1312 6.79712 -4.6063
1313 6.79682 -4.61332
1314 6.79631 -4.6175
1315 6.7957 -4.61983
1316 6.79395 -4.62425
1317 6.79257 -4.62691
1318 6.79085 -4.62963
1319 6.7889 -4.63233
1320 6.78666 -4.63494
1321 6.78418 -4.63747
1322 6.7816 -4.63967
1323 6.77906 -4.64162
1324 6.77343 -4.64503
1325 6.77014 -4.64644
1326 6.76671 -4.64752
1327 6.76338 -4.6481
1328 6.75714 -4.64835
1329 6.75104 -4.64722
1330 6.74889 -4.64646
1331 6.74729 -4.64578
1332 6.74527 -4.64515
1333 6.74253 -4.64352
1334 6.7398 -4.64135
1335 6.73727 -4.63906
1336 6.73506 -4.63668
1337 6.73071 -4.63126
1338 6.72714 -4.62472
1339 6.7259 -4.62118
1340 6.72508 -4.61764
1341 6.7247 -4.61414
1342 6.72476 -4.61084
1343 6.72511 -4.60784
1344 6.72569 -4.60519
1345 6.7264 -4.603
1346 6.7277 -4.5993
1347 6.7292 -4.59651
1348 6.73093 -4.59362
1349 6.73708 -4.5664
1350 6.77582 -4.51279
1351 6.85914 -4.40142
1352 6.94008 -4.2886
1353 6.97949 -4.23138
1354 7.0181 -4.17368
1355 7.05584 -4.11571
1356 7.09269 -4.05746
1357 7.12904 -3.99874
1358 7.15304 -3.96804
1359 7.15734 -3.96056
1360 7.1637 -3.94531
1361 7.16499 -3.93746
1362 7.1647 -3.9303
1363 7.16312 -3.92722
1364 7.16344 -3.92758
1365 7.16439 -3.92789
1366 7.15184 -3.90195
1367 7.09698 -3.869
1368 7.03456 -3.8376
1369 6.97291 -3.80621
1370 6.9121 -3.77378
1371 6.79428 -3.70352
1372 6.73721 -3.66517
1373 6.68166 -3.62506
1374 6.62763 -3.58298
1375 6.57478 -3.5392
1376 6.47229 -3.44774
1377 6.42251 -3.40051
1378 6.37345 -3.35237
1379 6.32494 -3.30323
1380 6.29563 -3.2757
1381 6.28881 -3.26889
1382 6.28678 -3.26636
1383 6.28311 -3.26069
1384 6.28161 -3.25773
1385 6.28032 -3.25455
1386 6.27933 -3.25128
1387 6.27863 -3.24789
1388 6.27824 -3.24452
1389 6.2692 -3.2095
1390 6.2767 -3.07506
1391 6.28086 -3.00619
1392 6.28404 -2.93699
1393 6.28638 -2.8677
1394 6.2874 -2.79873
1395 6.28703 -2.72989
1396 6.28266 -2.59229
1397 6.27901 -2.52368
1398 6.27453 -2.45511
1399 6.27399 -2.41139
1400 6.27264 -2.40226
1401 6.27063 -2.39349
1402 6.26786 -2.38575
1403 6.26316 -2.37855
1404 6.25945 -2.3755
1405 6.25818 -2.37504
1406 6.25688 -2.37415
1407 6.2549 -2.37461
1408 6.25364 -2.37517
1409 6.2343 -2.37871
1410 6.17251 -2.49381
1411 6.11094 -2.61662
1412 6.07686 -2.6769
1413 6.04007 -2.73481
1414 6.00024 -2.79007
1415 5.95705 -2.84296
1416 5.911 -2.89364
1417 5.88284 -2.92982
1418 5.87466 -2.93791
1419 5.86915 -2.94099
1420 5.86597 -2.9424
1421 5.86248 -2.94361
1422 5.85893 -2.94447
1423 5.85671 -2.94472
1424 5.85112 -2.94516
1425 5.84301 -2.94403
1426 5.83876 -2.94274
1427 5.83469 -2.94115
1428 5.83074 -2.93911
1429 5.82762 -2.93689
1430 5.82455 -2.93488
1431 5.82181 -2.93232
1432 5.81702 -2.92734
1433 5.81483 -2.92476
1434 5.81309 -2.92206
1435 5.78765 -2.90145
1436 5.75568 -2.84366
1437 5.69217 -2.72038
1438 5.66026 -2.65889
1439 5.62804 -2.59782
1440 5.59543 -2.53717
1441 5.52827 -2.41602
1442 5.49408 -2.35583
1443 5.45969 -2.29615
1444 5.42487 -2.23676
1445 5.41098 -2.20345
1446 5.40235 -2.19052
1447 5.3989 -2.18682
1448 5.3962 -2.18486
1449 5.39344 -2.18356
1450 5.38928 -2.18293
1451 5.38588 -2.18362
1452 5.38169 -2.18812
1453 5.37923 -2.19373
1454 5.36467 -2.20896
1455 5.35952 -2.2699
1456 5.35803 -2.33944
1457 5.35534 -2.40768
1458 5.34858 -2.47349
1459 5.32012 -2.6039
1460 5.29862 -2.66614
1461 5.27239 -2.72482
1462 5.25308 -2.76936
1463 5.24927 -2.77375
1464 5.24696 -2.77601
1465 5.24455 -2.77805
1466 5.24219 -2.77977
1467 5.23944 -2.78156
1468 5.23613 -2.78329
1469 5.2296 -2.7858
1470 5.22607 -2.78667
1471 5.22254 -2.78713
1472 5.21922 -2.78727
1473 5.21611 -2.78702
1474 5.21336 -2.78654
1475 5.21098 -2.78593
1476 5.20881 -2.78522
1477 5.20642 -2.78435
1478 5.20354 -2.78297
1479 5.20069 -2.78108
1480 5.16703 -2.76842
1481 5.1182 -2.72392
1482 5.06863 -2.67579
1483 4.9701 -2.57871
1484 4.92068 -2.53034
1485 4.87108 -2.48238
1486 4.82124 -2.4348
1487 4.77117 -2.3876
1488 4.67004 -2.29412
1489 4.64484 -2.26201
1490 4.64563 -2.26279
1491 4.64653 -2.26379
1492 4.64919 -2.26495
1493 4.65161 -2.26518
1494 4.65467 -2.2647
1495 4.65401 -2.26312
1496 4.65115 -2.26482
1497 4.64883 -2.26669
1498 4.64687 -2.26912
1499 4.64547 -2.27204
1500 4.64468 -2.2751
1501 4.64424 -2.27814
1502 4.63046 -2.29776
1503 4.63457 -2.36177
1504 4.64189 -2.43119
1505 4.64764 -2.50085
1506 4.65107 -2.57059
1507 4.65137 -2.63997
1508 4.64248 -2.77681
1509 4.64163 -2.83621
1510 4.63997 -2.84497
1511 4.63914 -2.84879
1512 4.63868 -2.84968
1513 4.63763 -2.85145
1514 4.63609 -2.85383
1515 4.6344 -2.8561
1516 4.63003 -2.86089
1517 4.62754 -2.86312
1518 4.62461 -2.86535
1519 4.62142 -2.86731
1520 4.61795 -2.86913
1521 4.6143 -2.87051
1522 4.61063 -2.87171
1523 4.60656 -2.87257
1524 4.59923 -2.87289
1525 4.59371 -2.87206
1526 4.59183 -2.87145
1527 4.59026 -2.87097
1528 4.5887 -2.87027
1529 4.58642 -2.86932
1530 4.58371 -2.8673
1531 4.58098 -2.86505
1532 4.57845 -2.86245
1533 4.57611 -2.85988
1534 4.54817 -2.84496
1535 4.50812 -2.79179
1536 4.42755 -2.67839
1537 4.38735 -2.62184
1538 4.30647 -2.50942
1539 4.2247 -2.39811
1540 4.18338 -2.34279
1541 4.14169 -2.28752
1542 4.0997 -2.23234
1543 4.08146 -2.1989
1544 4.07607 -2.19214
1545 4.07076 -2.18633
1546 4.05995 -2.17887
1547 4.05412 -2.17713
1548 4.04902 -2.17689
1549 4.04655 -2.17788
1550 4.04522 -2.17711
1551 4.04315 -2.17914
1552 4.04163 -2.18182
1553 4.04084 -2.18472
1554 4.04115 -2.19036
1555 4.03409 -2.20843
1556 4.05314 -2.26884
1557 4.0761 -2.33498
1558 4.0974 -2.40184
1559 4.11559 -2.46968
1560 4.13856 -2.60664
1561 4.14303 -2.67582
1562 4.14326 -2.74489
1563 4.1383 -2.85595
1564 4.13556 -2.87258
1565 4.13432 -2.8761
1566 4.13363 -2.8775
1567 4.13241 -2.8795
1568 4.12866 -2.88406
1569 4.12399 -2.88822
1570 4.12144 -2.89036
1571 4.11816 -2.89225
1572 4.11504 -2.89382
1573 4.11149 -2.89523
1574 4.10404 -2.89675
1575 4.10077 -2.897
1576 4.09763 -2.89692
1577 4.09492 -2.89649
1578 4.09278 -2.896
1579 4.08834 -2.89473
1580 4.08557 -2.89325
1581 4.08285 -2.89162
1582 4.08058 -2.88966
1583 4.0783 -2.88789
1584 4.07412 -2.8832
1585 4.0721 -2.88041
1586 4.07002 -2.87743
1587 4.01499 -2.79918
1588 3.95386 -2.67433
1589 3.89224 -2.55
1590 3.82934 -2.42685
1591 3.7969 -2.36561
1592 3.76385 -2.30471
1593 3.73017 -2.24411
1594 3.71612 -2.20805
1595 3.71186 -2.20071
1596 3.70768 -2.19478
1597 3.70443 -2.19117
1598 3.70217 -2.18952
1599 3.69842 -2.1882
1600 3.69682 -2.18781
1601 3.69529 -2.18842
1602 3.6935 -2.18865
1603 3.69129 -2.19067
1604 3.68947 -2.19326
1605 3.68814 -2.1962
1606 3.68719 -2.19925
1607 3.67135 -2.2159
1608 3.65892 -2.34973
1609 3.64311 -2.48591
1610 3.63159 -2.55379
1611 3.6175 -2.62119
1612 3.60083 -2.68779
1613 3.59455 -2.73303
1614 3.59024 -2.74739
1615 3.58781 -2.75123
1616 3.58597 -2.75365
1617 3.58401 -2.75587
1618 3.58166 -2.75817
1619 3.57908 -2.76031
1620 3.57367 -2.76399
1621 3.5683 -2.76667
1622 3.56498 -2.76785
1623 3.56156 -2.76863
1624 3.55828 -2.76903
1625 3.55517 -2.76903
1626 3.5521 -2.76881
1627 3.54913 -2.76821
1628 3.54664 -2.76745
1629 3.54481 -2.76669
1630 3.54234 -2.76606
1631 3.53703 -2.76236
1632 3.5348 -2.76092
1633 3.53233 -2.75868
1634 3.50196 -2.74163
1635 3.4609 -2.69011
1636 3.37767 -2.57886
1637 3.33597 -2.5236
1638 3.29376 -2.46882
1639 3.25089 -2.41454
1640 3.20745 -2.36068
1641 3.16343 -2.30739
1642 3.07387 -2.20212
1643 3.0402 -2.15479
1644 3.03728 -2.15093
1645 3.03511 -2.14809
1646 3.03323 -2.14504
1647 3.03048 -2.13875
1648 3.02886 -2.13256
1649 3.02855 -2.12927
1650 3.02864 -2.1261
1651 3.02909 -2.12326
1652 3.02973 -2.12093
1653 3.03124 -2.11608
1654 3.03458 -2.08487
1655 3.07015 -2.0301
1656 3.11029 -1.97354
1657 3.15064 -1.91714
1658 3.19053 -1.86038
1659 3.22972 -1.80333
1660 3.26792 -1.74586
1661 3.30532 -1.68793
1662 3.3419 -1.62952
1663 3.37778 -1.57064
1664 3.43691 -1.48269
1665 3.44076 -1.4757
1666 3.44381 -1.46906
1667 3.44594 -1.46233
1668 3.44692 -1.45567
1669 3.4466 -1.44956
1670 3.44532 -1.44704
1671 3.44546 -1.44618
1672 3.44467 -1.44424
1673 3.44252 -1.44247
1674 3.4373 -1.44031
1675 3.43436 -1.44018
1676 3.43172 -1.44043
1677 3.42937 -1.44087
1678 3.40783 -1.43482
1679 3.35018 -1.45782
1680 3.28739 -1.4849
1681 3.22274 -1.51061
1682 3.0904 -1.55345
1683 3.02256 -1.5697
1684 2.95416 -1.58204
1685 2.90441 -1.59311
1686 2.88312 -1.59589
1687 2.87003 -1.5967
1688 2.86002 -1.59671
1689 2.85317 -1.59633
1690 2.84799 -1.59537
1691 2.84448 -1.59402
1692 2.83889 -1.59076
1693 2.83628 -1.58872
1694 2.83356 -1.58632
1695 2.83103 -1.5835
1696 2.82868 -1.58052
1697 2.82692 -1.57759
1698 2.82526 -1.57484
1699 2.82262 -1.56832
1700 2.8218 -1.56481
1701 2.82122 -1.55785
1702 2.82141 -1.55449
1703 2.82216 -1.5515
1704 2.82282 -1.5493
1705 2.82347 -1.54705
1706 2.82608 -1.54189
1707 2.82797 -1.53925
1708 2.82999 -1.53668
1709 2.83233 -1.5342
1710 2.84413 -1.50657
1711 2.94876 -1.42064
1712 3.05741 -1.33407
1713 3.11136 -1.29057
1714 3.16494 -1.24661
1715 3.21818 -1.2023
1716 3.27078 -1.1577
1717 3.32289 -1.11264
1718 3.3748 -1.06704
1719 3.41357 -1.0405
1720 3.41874 -1.03499
1721 3.42274 -1.02917
1722 3.42553 -1.02283
1723 3.42664 -1.01681
1724 3.426 -1.01338
1725 3.42576 -1.01284
1726 3.4262 -1.01137
1727 3.42424 -1.00914
1728 3.41917 -1.00602
1729 3.41622 -1.0051
1730 3.41306 -1.00462
1731 3.41003 -1.00447
1732 3.38986 -0.99351
1733 3.32722 -0.99963
1734 3.25945 -1.0079
1735 3.19138 -1.01414
1736 3.12245 -1.0179
1737 3.05349 -1.01823
1738 2.91683 -1.00814
1739 2.87235 -1.00715
1740 2.85882 -1.00471
1741 2.84859 -1.00237
1742 2.83881 -0.999228
1743 2.83631 -0.997975
1744 2.83394 -0.996559
1745 2.83134 -0.994741
1746 2.82895 -0.992742
1747 2.82424 -0.988027
1748 2.8221 -0.985402
1749 2.82004 -0.982504
1750 2.81809 -0.979219
1751 2.8165 -0.975767
1752 2.81522 -0.972307
1753 2.81434 -0.968855
1754 2.81363 -0.965227
1755 2.81355 -0.961671
1756 2.81367 -0.958681
1757 2.81403 -0.955948
1758 2.81461 -0.953499
1759 2.81531 -0.951524
1760 2.81735 -0.946052
1761 2.81941 -0.942875
1762 2.82154 -0.940155
1763 2.82588 -0.93528
1764 2.82861 -0.933165
1765 2.83086 -0.931381
1766 2.84731 -0.905082
1767 2.90292 -0.869077
1768 2.96226 -0.832801
1769 3.08031 -0.759898
1770 3.13892 -0.722803
1771 3.19714 -0.685282
1772 3.25487 -0.647301
1773 3.31226 -0.608824
1774 3.36934 -0.569921
1775 3.42621 -0.530577
1776 3.46026 -0.513956
1777 3.47253 -0.504309
1778 3.4799 -0.494341
1779 3.48135 -0.485724
1780 3.48103 -0.484242
1781 3.48098 -0.483477
1782 3.48095 -0.483061
1783 3.48095 -0.48173
1784 3.47085 -0.458877
1785 3.41618 -0.429773
1786 3.35366 -0.401837
1787 3.29325 -0.372068
1788 3.23444 -0.339295
1789 3.17717 -0.303206
1790 3.12193 -0.263697
1791 3.06923 -0.221311
1792 2.98653 -0.151278
1793 2.98102 -0.145982
1794 2.97753 -0.140642
1795 2.97588 -0.137436
1796 2.97441 -0.133946
1797 2.97331 -0.130529
1798 2.97254 -0.127179
1799 2.97208 -0.123736
1800 2.97199 -0.12046
1801 2.9721 -0.117087
1802 2.97266 -0.113767
1803 2.97399 -0.109371
1804 2.97476 -0.107274
1805 2.97599 -0.104439
1806 2.97805 -0.101249
1807 2.99304 -0.0667165
1808 3.08792 0.0300011
1809 3.1373 0.0785758
1810 3.18654 0.12715
1811 3.23567 0.175768
1812 3.28427 0.224636
1813 3.33231 0.273957
1814 3.38 0.323931
1815 3.42726 0.374245
1816 3.47394 0.424865
1817 3.5022 0.447524
1818 3.51053 0.457586
1819 3.51358 0.463106
1820 3.51551 0.468801
1821 3.51608 0.473989
1822 3.51533 0.476841
1823 3.5152 0.477142
1824 3.5137 0.480953
1825 3.51098 0.483017
1826 3.50785 0.484315
1827 3.50495 0.485336
1828 3.48756 0.500073
1829 3.42746 0.500725
1830 3.28947 0.491469
1831 3.2207 0.489595
1832 3.15143 0.490813
1833 3.01508 0.504015
1834 2.95729 0.508072
1835 2.94866 0.510587
1836 2.94381 0.512225
1837 2.94143 0.513453
1838 2.93914 0.514919
1839 2.93661 0.51674
1840 2.93445 0.518535
1841 2.9324 0.520418
1842 2.92815 0.525221
1843 2.92458 0.530626
1844 2.92308 0.53362
1845 2.92072 0.540765
1846 2.92021 0.544563
1847 2.92019 0.548051
1848 2.92047 0.551338
1849 2.92125 0.553996
1850 2.9226 0.558748
1851 2.92528 0.564227
1852 2.92753 0.567312
1853 2.92973 0.569847
1854 2.93185 0.572306
1855 2.94459 0.60158
1856 3.04779 0.690361
1857 3.10072 0.735311
1858 3.15314 0.780378
1859 3.20491 0.825831
1860 3.25633 0.872006
1861 3.30735 0.91885
1862 3.35778 0.966071
1863 3.45673 1.06154
1864 3.48682 1.08296
1865 3.48966 1.08506
1866 3.48951 1.08523
1867 3.49047 1.08657
1868 3.49126 1.08728
1869 3.49458 1.0889
1870 3.50058 1.08819
1871 3.5031 1.08742
1872 3.50571 1.08653
1873 3.53397 1.08526
1874 3.58662 1.04908
1875 3.64189 1.00757
1876 3.75688 0.930335
1877 3.87902 0.863546
1878 3.94156 0.835344
1879 4.00576 0.810663
1880 4.07149 0.789015
1881 4.20534 0.754205
1882 4.34048 0.727389
1883 4.47706 0.706544
1884 4.54539 0.697974
1885 4.61378 0.690173
1886 4.68227 0.683076
1887 4.75079 0.676361
1888 4.81937 0.669777
1889 4.88787 0.66325
1890 4.95631 0.656724
1891 5.02481 0.650156
1892 5.1619 0.636861
1893 5.23028 0.630151
1894 5.29869 0.623388
1895 5.36719 0.616567
1896 5.4357 0.609696
1897 5.57257 0.59586
1898 5.641 0.588903
1899 5.70949 0.581918
1900 5.77796 0.57491
1901 5.91478 0.560863
1902 6.05136 0.546785
1903 6.11975 0.539719
1904 6.18803 0.53266
1905 6.25629 0.525596
1906 6.32468 0.518516
1907 6.39297 0.511437
1908 6.46125 0.504356
1909 6.52968 0.497256
1910 6.59797 0.490167
1911 6.63046 0.486705
1912 6.67543 0.481977
1913 6.74258 0.474183
1914 6.87894 0.456301
1915 6.94688 0.446388
1916 7.01464 0.435896
1917 7.08237 0.424812
1918 7.15017 0.413191
1919 7.21772 0.401206
1920 7.28552 0.388876
1921 7.42119 0.363443
1922 7.48882 0.350507
1923 7.5565 0.337426
1924 7.62413 0.324247
1925 7.69153 0.311021
1926 7.82638 0.284459
1927 7.96124 0.257697
1928 8.02869 0.244262
1929 8.09619 0.230768
1930 8.16366 0.217255
1931 8.23112 0.203734
1932 8.29859 0.190208
1933 8.36606 0.176677
1934 8.43351 0.163145
1935 8.50095 0.149608
1936 8.56841 0.136061
1937 8.63586 0.122514
1938 8.70332 0.10896
1939 8.77078 0.0953993
1940 8.83823 0.0818355
1941 8.90569 0.0682633
1942 8.97316 0.0546853
1943 9.1081 0.0275145
1944 9.17557 0.0139245
1945 9.243 0.000337118
1946 9.37791 -0.0268577
1947 9.44536 -0.040462
1948 9.51282 -0.0540723
1949 9.58027 -0.0676852
1950 9.64772 -0.0813004
1951 9.71517 -0.0949194
1952 9.74642 -0.101421
1953 9.79052 -0.110269
1954 9.8569 -0.124291
1955 9.92443 -0.137926
1956 9.99203 -0.150782
1957 10.1272 -0.173972
1958 10.195 -0.184377
1959 10.2631 -0.194101
1960 10.3312 -0.203098
1961 10.4678 -0.219476
1962 10.5362 -0.227032
1963 10.673 -0.241247
1964 10.7415 -0.247969
1965 10.81 -0.254544
1966 10.9468 -0.267275
1967 11.0834 -0.27979
1968 11.1517 -0.286035
1969 11.2201 -0.292284
1970 11.2884 -0.298542
1971 11.3567 -0.304801
1972 11.4935 -0.317269
1973 11.5618 -0.323457
1974 11.6303 -0.329626
1975 11.6987 -0.335762
1976 11.7375 -0.338721
1977 11.7564 -0.340541
1978 11.7721 -0.342524
1979 11.7849 -0.344714
1980 11.7892 -0.346012
1981 11.7914 -0.346264
1982 11.7994 -0.3492
1983 11.8026 -0.35088
1984 11.8055 -0.352567
1985 11.8083 -0.354408
1986 11.8109 -0.356453
1987 11.8137 -0.35882
1988 11.816 -0.361512
1989 11.8197 -0.36629
1990 11.8215 -0.369037
1991 11.8232 -0.372039
1992 11.8478 -0.39982
1993 11.8929 -0.527643
1994 11.9387 -0.657952
1995 11.9623 -0.722757
1996 11.9867 -0.787272
1997 12.0118 -0.851642
1998 12.0376 -0.915676
1999 12.0641 -0.97949
2000 12.0909 -1.04297
2001 12.0988 -1.07603
2002 12.102 -1.0828
2003 12.1079 -1.09241
2004 12.1127 -1.09631
2005 12.1147 -1.09708
2006 12.1161 -1.09746
2007 12.1183 -1.09751
2008 12.1199 -1.0977
2009 12.1221 -1.09605
2010 12.1479 -1.08957
2011 12.1857 -1.03776
2012 12.2246 -0.980756
2013 12.2662 -0.92612
2014 12.3104 -0.874586
2015 12.409 -0.783108
2016 12.4375 -0.751403
2017 12.4434 -0.746564
2018 12.4464 -0.745148
2019 12.4497 -0.743882
2020 12.4531 -0.742764
2021 12.4565 -0.741914
2022 12.4598 -0.741282
2023 12.4939 -0.735679
2024 12.6279 -0.72231
2025 12.6964 -0.715653
2026 12.7649 -0.708522
2027 12.8334 -0.700832
2028 12.902 -0.692364
2029 13.0374 -0.673175
2030 13.1053 -0.662369
2031 13.1739 -0.650758
2032 13.2153 -0.643114
2033 13.2634 -0.634523
2034 13.3316 -0.621236
2035 13.465 -0.59219
2036 13.5315 -0.576461
2037 13.5988 -0.55964
2038 13.6641 -0.542526
2039 13.7306 -0.524654
2040 13.7972 -0.506224
2041 13.863 -0.487857
2042 13.9297 -0.469204
2043 13.9959 -0.450629
2044 14.1287 -0.413634
2045 14.2608 -0.377146
2046 14.3273 -0.358965
2047 14.3938 -0.340834
2048 14.4603 -0.322807
2049 14.5268 -0.30483
2050 14.6597 -0.268924
2051 14.7261 -0.250978
2052 14.8591 -0.215099
2053 14.9255 -0.197165
2054 14.992 -0.179231
2055 15.0585 -0.161302
2056 15.1249 -0.143376
2057 15.1914 -0.12545
2058 15.2578 -0.10753
2059 15.3243 -0.0896104
2060 15.3908 -0.0716916
2061 15.4881 -0.0451776
2062 15.4971 -0.0427023
2063 15.5049 -0.0400657
2064 15.5121 -0.0367412
2065 15.5162 -0.0335967
2066 15.5187 -0.031661
2067 15.5214 -0.0280329
2068 15.5225 -0.0264614
2069 15.5224 -0.0244651
2070 15.5218 -0.0213727
2071 15.5188 -0.0191942
2072 15.5176 -0.0186174
2073 15.5154 -0.0189711
2074 15.5142 -0.0194769
2075 15.467 -0.0605897
2076 15.4217 -0.117237
2077 15.3775 -0.177737
2078 15.3355 -0.232637
2079 15.2914 -0.284742
2080 15.2443 -0.333219
2081 15.1934 -0.378101
2082 15.1392 -0.419062
2083 15.0391 -0.480608
2084 15.0296 -0.485136
2085 15.0266 -0.486286
2086 15.0252 -0.486696
2087 15.0249 -0.486808
2088 15.0253 -0.486866
2089 15.026 -0.486986
2090 15.0265 -0.487161
2091 15.0266 -0.487316
2092 15.0257 -0.48745
2093 15.0252 -0.487492
2094 15.0227 -0.486912
2095 15.0201 -0.485545
2096 15.0176 -0.483046
2097 15.0155 -0.48019
2098 15.0142 -0.476968
2099 15.0134 -0.473717
2100 15.0132 -0.470438
2101 15.0107 -0.382493
2102 15.0228 -0.31369
2103 15.0337 -0.244902
2104 15.0429 -0.176139
2105 15.05 -0.10687
2106 15.0541 -0.0375043
2107 15.055 0.0315268
2108 15.053 0.100048
2109 15.0559 0.147043
2110 15.0558 0.146167
