0 0.000535201 1.42282e-06
2 0.000563485 1.51549e-06
4 0.150046 0.000528012
7 0.217914 0.000719857
9 0.37284 0.00114404
12 0.440946 0.00132299
14 0.595018 0.0017461
17 0.663035 0.00189231
19 0.818353 0.00237114
22 0.89821 0.00260305
24 1.04951 0.0029744
27 1.10146 0.00300017
29 1.2549 0.00343241
31 1.34221 0.00369574
34 1.39669 0.00384417
36 1.5544 0.00448141
38 1.64005 0.00481085
41 1.70468 0.00492942
43 1.85826 0.00527504
45 1.94466 0.00542612
48 2.00186 0.00533754
50 2.15957 0.00524986
52 2.24475 0.00523539
54 2.32921 0.0052323
57 2.38538 0.00508027
89 2.14981 0.246215
105 1.9267 0.0483252
134 2.59164 -0.166218
208 3.7028 1.26223
260 4.48634 1.24671
300 4.44208 0.577992
354 4.51528 -0.175578
408 4.47155 -0.888538
454 4.4787 -1.83109
508 4.48025 -2.56582
551 4.42358 -3.48479
607 4.4191 -4.23676
686 3.93339 -4.73864
738 3.03319 -4.82451
792 2.2762 -4.85882
842 1.62294 -5.32893
880 1.36064 -6.09912
938 1.52849 -6.74081
991 3.78281 -8.39935
1048 5.71152 -7.08762
1096 6.0022 -6.31596
1138 6.05555 -5.24261
1214 6.50608 -4.83117
1288 7.24999 -5.44919
1344 7.44918 -6.11031
1393 8.158 -6.73332
1438 8.84803 -6.91433
1490 8.33912 -6.86715
1514 8.55123 -7.71374
1576 10.1692 -6.98518
1625 10.8678 -6.4506
1670 11.1945 -5.80755
1730 11.0924 -5.18255
1769 10.5288 -4.38645
1816 11.3214 -1.8993
1837 11.9918 -1.41146
1842 12.2395 -1.27535
1844 12.3596 -1.20829
1847 12.4184 -1.17887
1849 12.5499 -1.09915
1852 12.6057 -1.06894
1854 12.7369 -0.987957
1857 12.7914 -0.95652
1859 12.9199 -0.876342
1862 12.986 -0.837523
1864 13.1202 -0.757147
1866 13.1925 -0.71543
1869 13.2533 -0.682068
1871 13.3902 -0.603994
1873 13.461 -0.564717
1876 13.5112 -0.537891
1878 13.645 -0.461992
1885 13.7295 -0.416219
1896 13.7468 -0.397895
1911 13.7642 -0.36647
1938 14.798 0.103683
1939 14.8613 0.130783
1940 14.9247 0.157833
1941 14.9158 0.153577
1942 14.9131 0.15238
1943 14.9131 0.152399
1944 14.9131 0.152414
1945 14.9131 0.152423
1946 14.9131 0.152434
1947 14.9131 0.152453
1948 14.9131 0.152462
1949 14.9132 0.152486
1950 14.9132 0.152506
1951 14.9132 0.152523
1952 14.9132 0.152532
1953 14.9132 0.152543
1954 14.9133 0.15255
1955 14.9133 0.152582
1956 14.9133 0.152579
1957 14.9133 0.152586
1958 14.9133 0.152587
1959 14.9133 0.15259
1960 14.9133 0.152601
1961 14.9134 0.152611
1962 14.9134 0.152613
1963 14.9134 0.152615
1964 14.9134 0.152631
1965 14.9134 0.152637
1966 14.9134 0.15264
1967 14.9134 0.152656
1968 14.9134 0.152654
1969 14.9134 0.152661
1970 14.9135 0.152666
1971 14.9135 0.152669
1972 14.9135 0.152684
1973 14.9135 0.152689
1974 14.9135 0.152695
1975 14.9135 0.152702
1976 14.9135 0.152705
1977 14.9135 0.152707
1978 14.9135 0.152707
1979 14.9136 0.152719
1980 14.9136 0.152717
1981 14.9136 0.152716
1982 14.9136 0.152719
1983 14.9136 0.15272
1984 14.9136 0.152734
1985 14.9136 0.152723
1986 14.9136 0.152726
1987 14.9136 0.152725
1988 14.9136 0.152742
1989 14.9136 0.152739
1990 14.9136 0.152747
1991 14.9136 0.15274
1992 14.9136 0.152743
1993 14.9136 0.152743
1994 14.9136 0.152747
1995 14.9137 0.152752
1996 14.9137 0.152754
1997 14.9137 0.152758
1998 14.9137 0.152757
1999 14.9137 0.152757
2000 14.9137 0.15276
2001 14.9137 0.152764
2002 14.9137 0.152763
2003 14.9137 0.152775
2004 14.9137 0.152772
2005 14.9137 0.152765
2006 14.9137 0.15277
2007 14.9137 0.152768
2008 14.9137 0.152769
2009 14.9137 0.152768
2010 14.9137 0.15277
2011 14.9137 0.152775
2012 14.9137 0.152776
2013 14.9137 0.152786
2014 14.9137 0.152785
2015 14.9137 0.152783
2016 14.9137 0.15279
2017 14.9137 0.152794
2018 14.9137 0.152787
2019 14.9137 0.152794
2020 14.9138 0.152795
2021 14.9137 0.152795
2022 14.9137 0.152795
2023 14.9138 0.152807
2024 14.9138 0.152804
2025 14.9138 0.152802
2026 14.9138 0.152803
2027 14.9138 0.152802
2028 14.9138 0.152804
2029 14.9138 0.152802
2030 14.9138 0.1528
2031 14.9138 0.152803
2032 14.9138 0.152802
2033 14.9138 0.152803
2034 14.9138 0.152813
2035 14.9138 0.152805
2036 14.9138 0.152816
2037 14.9138 0.152814
2038 14.9138 0.15282
2039 14.9138 0.152825
2040 14.9138 0.152826
2041 14.9138 0.152827
2042 14.9138 0.152831
2043 14.9138 0.15283
2044 14.9138 0.152828
2045 14.9138 0.152829
2046 14.9138 0.152834
2047 14.9138 0.152836
2048 14.9138 0.152835
2049 14.9139 0.152838
2050 14.9138 0.152832
2051 14.9139 0.152839
2052 14.9139 0.152846
2053 14.9139 0.152849
2054 14.9139 0.152851
2055 14.9139 0.152848
2056 14.9139 0.152848
2057 14.9139 0.152847
2058 14.9139 0.152853
2059 14.9139 0.152853
2060 14.9139 0.152853
2061 14.9139 0.152852
2062 14.9139 0.152852
2063 14.9139 0.152861
2064 14.9139 0.15287
2065 14.9139 0.152868
2066 14.9139 0.152869
2067 14.9139 0.152864
2068 14.9139 0.152865
2069 14.9139 0.152867
2070 14.9139 0.152868
2071 14.9139 0.152865
2072 14.9139 0.152866
2073 14.9139 0.152867
2074 14.9139 0.152868
2075 14.9139 0.15287
2076 14.9139 0.152872
2077 14.9139 0.152879
2078 14.9139 0.152875
2079 14.9139 0.152877
2080 14.9139 0.152875
2081 14.9139 0.152875
2082 14.9139 0.152879
2083 14.914 0.15289
2084 14.914 0.152901
2085 14.914 0.152896
2086 14.914 0.152896
2087 14.914 0.152896
2088 14.914 0.152905
2089 14.914 0.152905
2090 14.914 0.152907
2091 14.914 0.152909
2092 14.914 0.152907
2093 14.914 0.15291
2094 14.914 0.152907
2095 14.914 0.152913
2096 14.914 0.15291
2097 14.914 0.152904
2098 14.914 0.152906
2099 14.914 0.152916
2100 14.914 0.152911
2101 14.914 0.152911
2102 14.914 0.152914
2103 14.914 0.152914
2104 14.9141 0.152925
2105 14.9141 0.152931
2106 14.9141 0.152925
2107 14.9141 0.152926
2108 14.9141 0.152927
2109 14.9141 0.152927
2110 14.914 0.152923
2111 14.9141 0.152938
2112 14.9141 0.152939
2113 14.9141 0.152935
2114 14.9141 0.152934
2115 14.9141 0.152946
2116 14.9141 0.152957
2117 14.9141 0.152954
2118 14.9141 0.152956
2119 14.9141 0.152967
2120 14.9142 0.152972
2121 14.9142 0.152976
2122 14.9142 0.152968
2123 14.9142 0.152971
2124 14.9142 0.152973
2125 14.9142 0.152974
2126 14.9142 0.152978
2127 14.9142 0.152983
2128 14.9142 0.152987
2129 14.9142 0.152986
2130 14.9142 0.152993
2131 14.9142 0.152995
2132 14.9142 0.153
2133 14.9142 0.152997
2134 14.9142 0.152999
2135 14.9142 0.152999
2136 14.9142 0.152999
2137 14.9142 0.153005
2138 14.9143 0.153017
2139 14.9143 0.153017
2140 14.9143 0.153018
2141 14.9143 0.153028
2142 14.9142 0.153011
2143 14.9143 0.153013
2144 14.9143 0.153024
2145 14.9143 0.153025
2146 14.9143 0.153026
2147 14.9143 0.153027
2148 14.9143 0.153028
2149 14.9143 0.153029
2150 14.9143 0.153029
2151 14.9143 0.15303
2152 14.9143 0.153036
2153 14.9143 0.153034
2154 14.9143 0.153032
2155 14.9143 0.153033
2156 14.9143 0.153033
2157 14.9143 0.153034
2158 14.9143 0.153041
2159 14.9143 0.153043
2160 14.9143 0.153049
2161 14.9144 0.15306
2162 14.9144 0.153059
2163 14.9144 0.153058
2164 14.9144 0.153058
2165 14.9144 0.153058
2166 14.9144 0.15306
2167 14.9144 0.153055
2168 14.9143 0.15305
2169 14.9143 0.153046
2170 14.9143 0.153041
2171 14.9143 0.153036
2172 14.9143 0.153032
2173 14.9143 0.153027
2174 14.9143 0.153024
2175 14.9143 0.153019
2176 14.9143 0.153015
2177 14.9142 0.15301
2178 14.9142 0.153006
2179 14.9142 0.153001
2180 14.9142 0.152996
2181 14.9142 0.152992
2182 14.9142 0.152988
2183 14.9142 0.152984
2184 14.9142 0.15298
2185 14.9142 0.152975
2186 14.9142 0.152971
2187 14.9141 0.152966
2188 14.9141 0.152962
2189 14.9141 0.152958
2190 14.9141 0.152953
2191 14.9141 0.152948
2192 14.9141 0.152944
2193 14.9141 0.15294
2194 14.9141 0.152935
2195 14.9141 0.152931
2196 14.9141 0.152926
2197 14.914 0.152922
2198 14.914 0.152918
2199 14.914 0.152913
2200 14.914 0.152909
2201 14.914 0.152905
2202 14.914 0.1529
2203 14.914 0.152896
2204 14.914 0.152891
2205 14.914 0.152887
2206 14.914 0.152882
2207 14.9139 0.152877
2208 14.9139 0.152873
2209 14.9139 0.152868
2210 14.9139 0.152864
2211 14.9139 0.15286
2212 14.9139 0.152855
2213 14.9139 0.152851
2214 14.9139 0.152847
2215 14.9139 0.152842
2216 14.9138 0.152838
2217 14.9138 0.152833
2218 14.9138 0.152829
2219 14.9138 0.152825
2220 14.9138 0.15282
2221 14.9138 0.152815
2222 14.9138 0.152811
2223 14.9138 0.152807
2224 14.9138 0.152802
2225 14.9138 0.152798
2226 14.9137 0.152793
2227 14.9137 0.152789
2228 14.9137 0.152785
2229 14.9137 0.15278
2230 14.9137 0.152776
2231 14.9137 0.152771
2232 14.9137 0.152767
2233 14.9137 0.152763
2234 14.9137 0.152758
2235 14.9137 0.152754
2236 14.9136 0.15275
2237 14.9136 0.152745
2238 14.9136 0.152741
2239 14.9136 0.152737
2240 14.9136 0.152732
2241 14.9136 0.152728
2242 14.9136 0.152723
2243 14.9136 0.152719
2244 14.9136 0.152715
2245 14.9136 0.152711
2246 14.9135 0.152706
2247 14.9135 0.152702
2248 14.9135 0.152698
2249 14.9135 0.152694
2250 14.9135 0.15269
2251 14.9135 0.152685
2252 14.9135 0.152681
2253 14.9135 0.152677
2254 14.9135 0.152673
2255 14.9135 0.152668
2256 14.9134 0.152664
2257 14.9134 0.15266
2258 14.9134 0.152655
2259 14.9134 0.152651
2260 14.9134 0.152646
2261 14.9134 0.152641
2262 14.9134 0.152637
2263 14.9134 0.152633
2264 14.9134 0.152628
2265 14.9134 0.152624
2266 14.9133 0.152619
2267 14.9133 0.152615
2268 14.9133 0.15261
2269 14.9133 0.152606
2270 14.9133 0.152601
2271 14.9133 0.152596
2272 14.9133 0.152592
2273 14.9133 0.152588
2274 14.9133 0.152583
2275 14.9132 0.152578
2276 14.9132 0.152574
2277 14.9132 0.15257
2278 14.9132 0.152565
2279 14.9132 0.152561
2280 14.9132 0.152557
2281 14.9132 0.152552
2282 14.9132 0.152548
2283 14.9132 0.152544
2284 14.9132 0.152539
2285 14.9131 0.152535
2286 14.9131 0.15253
2287 14.9131 0.152526
2288 14.9131 0.152521
2289 14.9131 0.152518
2290 14.9131 0.152513
2291 14.9131 0.152509
2292 14.9131 0.152505
2293 14.9131 0.1525
2294 14.9131 0.152496
2295 14.913 0.152492
2296 14.913 0.152487
2297 14.913 0.152483
2298 14.913 0.152478
2299 14.913 0.152474
2300 14.913 0.15247
2301 14.913 0.152465
2302 14.913 0.152461
2303 14.913 0.152456
2304 14.9129 0.152452
2305 14.9129 0.152447
2306 14.9129 0.152443
2307 14.9129 0.152439
2308 14.9129 0.152434
2309 14.9129 0.15243
2310 14.9129 0.152425
2311 14.9129 0.152421
2312 14.9129 0.152416
2313 14.9129 0.152412
2314 14.9128 0.152407
2315 14.9128 0.152403
2316 14.9128 0.152399
2317 14.9128 0.152394
2318 14.9128 0.15239
2319 14.9128 0.152386
2320 14.9128 0.152381
2321 14.9128 0.152377
2322 14.9128 0.152372
2323 14.9128 0.152368
2324 14.9127 0.152364
2325 14.9127 0.152359
2326 14.9127 0.152354
2327 14.9127 0.152351
2328 14.9127 0.152346
2329 14.9127 0.152342
2330 14.9127 0.152338
2331 14.9127 0.152334
2332 14.9127 0.152329
2333 14.9126 0.152325
2334 14.9126 0.15232
2335 14.9126 0.152316
2336 14.9126 0.152311
2337 14.9126 0.152307
2338 14.9126 0.152303
2339 14.9126 0.152299
2340 14.9126 0.152294
2341 14.9126 0.15229
2342 14.9126 0.152285
2343 14.9125 0.152281
2344 14.9125 0.152277
2345 14.9125 0.152272
2346 14.9125 0.152268
2347 14.9125 0.152264
2348 14.9125 0.15226
2349 14.9125 0.152255
2350 14.9125 0.15225
2351 14.9125 0.152246
2352 14.9125 0.152242
2353 14.9124 0.152237
2354 14.9124 0.152233
2355 14.9124 0.152229
2356 14.9124 0.152225
2357 14.9124 0.15222
2358 14.9124 0.152216
2359 14.9124 0.152212
2360 14.9124 0.152207
2361 14.9124 0.152203
2362 14.9123 0.152199
2363 14.9123 0.152195
2364 14.9123 0.15219
2365 14.9123 0.152186
2366 14.9123 0.152181
2367 14.9123 0.152177
2368 14.9123 0.152173
2369 14.9123 0.152169
2370 14.9123 0.152165
2371 14.9123 0.15216
2372 14.9122 0.152156
2373 14.9122 0.152152
2374 14.9122 0.152147
2375 14.9122 0.152143
2376 14.9122 0.152139
2377 14.9122 0.152134
2378 14.9122 0.15213
2379 14.9122 0.152125
2380 14.9122 0.152121
2381 14.9122 0.152116
2382 14.9121 0.152112
2383 14.9121 0.152108
2384 14.9121 0.152104
2385 14.9121 0.152099
2386 14.9121 0.152095
2387 14.9121 0.152091
2388 14.9121 0.152087
2389 14.9121 0.152083
2390 14.9121 0.152078
2391 14.9121 0.152074
2392 14.912 0.15207
2393 14.912 0.152065
2394 14.912 0.152061
2395 14.912 0.152057
2396 14.912 0.152053
2397 14.912 0.152048
2398 14.912 0.152044
2399 14.912 0.15204
2400 14.912 0.152036
2401 14.912 0.152031
2402 14.9119 0.152027
2403 14.9119 0.152023
2404 14.9119 0.152019
2405 14.9119 0.152014
2406 14.9119 0.15201
2407 14.9119 0.152006
2408 14.9119 0.152001
2409 14.9119 0.151997
2410 14.9119 0.151993
2411 14.9118 0.151989
2412 14.9118 0.151984
2413 14.9118 0.15198
2414 14.9118 0.151976
2415 14.9118 0.151972
2416 14.9118 0.151968
2417 14.9118 0.151963
2418 14.9118 0.151959
2419 14.9118 0.151955
2420 14.9118 0.151951
2421 14.9117 0.151946
2422 14.9117 0.151942
2423 14.9117 0.151938
2424 14.9117 0.151934
2425 14.9117 0.151929
2426 14.9117 0.151925
2427 14.9117 0.151921
2428 14.9117 0.151917
2429 14.9117 0.151912
2430 14.9117 0.151908
2431 14.9116 0.151904
2432 14.9116 0.1519
2433 14.9116 0.151895
2434 14.9116 0.151891
2435 14.9116 0.151887
2436 14.9116 0.151883
2437 14.9116 0.151879
2438 14.9116 0.151874
2439 14.9116 0.15187
2440 14.9116 0.151865
2441 14.9115 0.151861
2442 14.9115 0.151857
2443 14.9115 0.151853
2444 14.9115 0.151848
2445 14.9115 0.151844
2446 14.9115 0.15184
2447 14.9115 0.151836
2448 14.9115 0.151832
2449 14.9115 0.151827
2450 14.9115 0.151823
2451 14.9114 0.151819
2452 14.9114 0.151815
2453 14.9114 0.15181
2454 14.9114 0.151806
2455 14.9114 0.151802
2456 14.9114 0.151798
2457 14.9114 0.151794
2458 14.9114 0.151789
2459 14.9114 0.151785
2460 14.9113 0.151781
2461 14.9113 0.151776
2462 14.9113 0.151772
2463 14.9113 0.151767
2464 14.9113 0.151763
2465 14.9113 0.151759
2466 14.9113 0.151755
2467 14.9113 0.15175
2468 14.9113 0.151746
2469 14.9113 0.151742
2470 14.9112 0.151738
2471 14.9112 0.151734
2472 14.9112 0.15173
2473 14.9112 0.151725
2474 14.9112 0.151721
2475 14.9112 0.151717
2476 14.9112 0.151713
2477 14.9112 0.151708
2478 14.9112 0.151704
2479 14.9112 0.151699
2480 14.9111 0.151695
2481 14.9111 0.151691
2482 14.9111 0.151687
2483 14.9111 0.151682
2484 14.9111 0.151678
2485 14.9111 0.151674
2486 14.9111 0.151669
2487 14.9111 0.151665
2488 14.9111 0.151661
2489 14.911 0.151657
2490 14.911 0.151653
2491 14.911 0.151648
2492 14.911 0.151644
2493 14.911 0.15164
2494 14.911 0.151635
2495 14.911 0.151631
2496 14.911 0.151627
2497 14.911 0.151623
2498 14.911 0.151618
2499 14.9109 0.151614
2500 14.9109 0.15161
2501 14.9109 0.151605
2502 14.9109 0.151601
2503 14.9109 0.151597
2504 14.9109 0.151593
2505 14.9109 0.151589
2506 14.9109 0.151584
2507 14.9109 0.15158
2508 14.9109 0.151576
2509 14.9108 0.151571
2510 14.9108 0.151567
2511 14.9108 0.151563
2512 14.9108 0.151559
2513 14.9108 0.151555
2514 14.9108 0.151551
2515 14.9108 0.151547
2516 14.9108 0.151542
2517 14.9108 0.151538
2518 14.9107 0.151534
2519 14.9107 0.15153
2520 14.9107 0.151526
2521 14.9107 0.151522
2522 14.9107 0.151518
2523 14.9107 0.151513
2524 14.9107 0.151509
2525 14.9107 0.151505
2526 14.9107 0.151501
2527 14.9107 0.151497
2528 14.9106 0.151492
2529 14.9106 0.151489
2530 14.9106 0.151484
2531 14.9106 0.15148
2532 14.9106 0.151475
2533 14.9106 0.151471
2534 14.9106 0.151467
2535 14.9106 0.151463
2536 14.9106 0.151459
2537 14.9106 0.151455
2538 14.9105 0.151451
2539 14.9105 0.151446
2540 14.9105 0.151442
2541 14.9105 0.151438
2542 14.9105 0.151433
2543 14.9105 0.15143
2544 14.9105 0.151425
2545 14.9105 0.151421
2546 14.9105 0.151417
2547 14.9105 0.151413
2548 14.9104 0.151408
2549 14.9104 0.151404
2550 14.9104 0.151401
2551 14.9104 0.151396
2552 14.9104 0.151392
2553 14.9104 0.151389
2554 14.9104 0.151384
2555 14.9104 0.15138
2556 14.9104 0.151376
2557 14.9104 0.151372
2558 14.9103 0.151367
2559 14.9103 0.151363
2560 14.9103 0.151359
2561 14.9103 0.151355
2562 14.9103 0.151351
2563 14.9103 0.151346
2564 14.9103 0.151342
2565 14.9103 0.151337
2566 14.9103 0.151333
2567 14.9102 0.151329
2568 14.9102 0.151324
2569 14.9102 0.15132
2570 14.9102 0.151316
2571 14.9102 0.151312
2572 14.9102 0.151308
2573 14.9102 0.151304
2574 14.9102 0.151299
2575 14.9102 0.151295
2576 14.9102 0.151291
2577 14.9101 0.151286
2578 14.9101 0.151282
2579 14.9101 0.151278
2580 14.9101 0.151274
2581 14.9101 0.15127
2582 14.9101 0.151265
2583 14.9101 0.151261
2584 14.9101 0.151257
2585 14.9101 0.151253
2586 14.9101 0.151249
2587 14.91 0.151244
2588 14.91 0.15124
2589 14.91 0.151236
2590 14.91 0.151232
2591 14.91 0.151227
2592 14.91 0.151223
2593 14.91 0.151219
2594 14.91 0.151215
2595 14.91 0.151211
2596 14.9099 0.151207
2597 14.9099 0.151202
2598 14.9099 0.151199
2599 14.9099 0.151195
2600 14.9099 0.15119
2601 14.9099 0.151187
2602 14.9099 0.151182
2603 14.9099 0.151178
2604 14.9099 0.151174
2605 14.9099 0.15117
2606 14.9098 0.151166
2607 14.9098 0.151162
2608 14.9098 0.151158
2609 14.9098 0.151154
2610 14.9098 0.15115
2611 14.9098 0.151146
2612 14.9098 0.151142
2613 14.9098 0.151138
2614 14.9098 0.151134
2615 14.9098 0.15113
2616 14.9097 0.151126
2617 14.9097 0.151122
2618 14.9097 0.151118
2619 14.9097 0.151114
2620 14.9097 0.15111
2621 14.9097 0.151106
2622 14.9097 0.151102
2623 14.9097 0.151098
2624 14.9097 0.151093
2625 14.9097 0.15109
2626 14.9096 0.151086
2627 14.9096 0.151081
2628 14.9096 0.151078
2629 14.9096 0.151074
2630 14.9096 0.151069
2631 14.9096 0.151066
2632 14.9096 0.151062
2633 14.9096 0.151057
2634 14.9096 0.151053
2635 14.9096 0.151049
2636 14.9095 0.151045
2637 14.9095 0.151041
2638 14.9095 0.151037
2639 14.9095 0.151033
2640 14.9095 0.151029
2641 14.9095 0.151025
2642 14.9095 0.151021
2643 14.9095 0.151017
2644 14.9095 0.151013
2645 14.9095 0.151009
2646 14.9094 0.151006
2647 14.9094 0.151002
2648 14.9094 0.150997
2649 14.9094 0.150993
2650 14.9094 0.150989
2651 14.9094 0.150985
2652 14.9094 0.150981
2653 14.9094 0.150977
2654 14.9094 0.150973
2655 14.9094 0.150969
2656 14.9093 0.150965
2657 14.9093 0.150961
2658 14.9093 0.150957
2659 14.9093 0.150953
2660 14.9093 0.150948
2661 14.9093 0.150945
2662 14.9093 0.15094
2663 14.9093 0.150937
2664 14.9093 0.150933
2665 14.9093 0.150929
2666 14.9092 0.150924
2667 14.9092 0.15092
2668 14.9092 0.150916
2669 14.9092 0.150912
2670 14.9092 0.150908
2671 14.9092 0.150904
2672 14.9092 0.1509
2673 14.9092 0.150896
2674 14.9092 0.150892
2675 14.9092 0.150888
2676 14.9091 0.150883
2677 14.9091 0.150879
2678 14.9091 0.150875
2679 14.9091 0.150871
2680 14.9091 0.150867
2681 14.9091 0.150863
2682 14.9091 0.150859
2683 14.9091 0.150855
2684 14.9091 0.150851
2685 14.9091 0.150847
2686 14.909 0.150843
2687 14.909 0.150839
2688 14.909 0.150835
2689 14.909 0.150831
2690 14.909 0.150827
2691 14.909 0.150823
2692 14.909 0.150819
2693 14.909 0.150815
2694 14.909 0.150811
2695 14.909 0.150807
2696 14.9089 0.150802
2697 14.9089 0.150799
2698 14.9089 0.150794
2699 14.9089 0.15079
2700 14.9089 0.150787
2701 14.9089 0.150782
2702 14.9089 0.150778
2703 14.9089 0.150774
2704 14.9089 0.15077
2705 14.9088 0.150766
2706 14.9088 0.150762
2707 14.9088 0.150758
2708 14.9088 0.150754
2709 14.9088 0.15075
2710 14.9088 0.150746
2711 14.9088 0.150741
2712 14.9088 0.150738
2713 14.9088 0.150734
2714 14.9088 0.150729
2715 14.9087 0.150725
2716 14.9087 0.150721
2717 14.9087 0.150718
2718 14.9087 0.150714
2719 14.9087 0.15071
2720 14.9087 0.150705
2721 14.9087 0.150702
2722 14.9087 0.150698
2723 14.9087 0.150693
2724 14.9087 0.15069
2725 14.9086 0.150685
2726 14.9086 0.150681
2727 14.9086 0.150677
2728 14.9086 0.150673
2729 14.9086 0.150669
2730 14.9086 0.150665
2731 14.9086 0.150661
2732 14.9086 0.150657
2733 14.9086 0.150653
2734 14.9086 0.150649
2735 14.9085 0.150645
2736 14.9085 0.150641
2737 14.9085 0.150637
2738 14.9085 0.150633
2739 14.9085 0.150629
2740 14.9085 0.150625
2741 14.9085 0.150621
2742 14.9085 0.150618
2743 14.9085 0.150614
2744 14.9085 0.150609
2745 14.9084 0.150605
2746 14.9084 0.150601
2747 14.9084 0.150597
2748 14.9084 0.150594
2749 14.9084 0.15059
2750 14.9084 0.150586
2751 14.9084 0.150582
2752 14.9084 0.150578
2753 14.9084 0.150574
2754 14.9084 0.150571
2755 14.9083 0.150567
2756 14.9083 0.150562
2757 14.9083 0.150558
2758 14.9083 0.150554
2759 14.9083 0.15055
2760 14.9083 0.150546
2761 14.9083 0.150542
2762 14.9083 0.150538
2763 14.9083 0.150535
2764 14.9083 0.150531
2765 14.9082 0.150527
2766 14.9082 0.150523
2767 14.9082 0.150519
2768 14.9082 0.150515
2769 14.9082 0.150511
2770 14.9082 0.150506
2771 14.9082 0.150503
2772 14.9082 0.150498
2773 14.9082 0.150494
2774 14.9082 0.150491
2775 14.9081 0.150487
2776 14.9081 0.150484
2777 14.9081 0.150479
2778 14.9081 0.150475
2779 14.9081 0.150471
2780 14.9081 0.150467
2781 14.9081 0.150463
2782 14.9081 0.150458
2783 14.9081 0.150455
2784 14.908 0.15045
2785 14.908 0.150446
2786 14.908 0.150442
2787 14.908 0.150439
2788 14.908 0.150435
2789 14.908 0.150431
2790 14.908 0.150427
2791 14.908 0.150423
2792 14.908 0.150419
2793 14.908 0.150415
2794 14.908 0.150412
2795 14.9079 0.150408
2796 14.9079 0.150404
2797 14.9079 0.1504
2798 14.9079 0.150395
2799 14.9079 0.150392
2800 14.9079 0.150387
2801 14.9079 0.150383
2802 14.9079 0.150379
2803 14.9079 0.150375
2804 14.9078 0.150371
2805 14.9078 0.150367
2806 14.9078 0.150363
2807 14.9078 0.150359
2808 14.9078 0.150355
2809 14.9078 0.150351
2810 14.9078 0.150347
2811 14.9078 0.150343
2812 14.9078 0.15034
2813 14.9078 0.150335
2814 14.9077 0.150331
2815 14.9077 0.150328
2816 14.9077 0.150324
2817 14.9077 0.15032
2818 14.9077 0.150316
2819 14.9077 0.150312
2820 14.9077 0.150308
2821 14.9077 0.150304
2822 14.9077 0.150299
2823 14.9077 0.150295
2824 14.9076 0.150291
2825 14.9076 0.150287
2826 14.9076 0.150283
2827 14.9076 0.150279
2828 14.9076 0.150276
2829 14.9076 0.150271
2830 14.9076 0.150268
2831 14.9076 0.150264
2832 14.9076 0.15026
2833 14.9076 0.150256
2834 14.9075 0.150252
2835 14.9075 0.150248
2836 14.9075 0.150244
2837 14.9075 0.15024
2838 14.9075 0.150236
2839 14.9075 0.150232
2840 14.9075 0.150228
2841 14.9075 0.150224
2842 14.9075 0.15022
2843 14.9075 0.150216
2844 14.9074 0.150212
2845 14.9074 0.150208
2846 14.9074 0.150204
2847 14.9074 0.1502
2848 14.9074 0.150196
2849 14.9074 0.150192
2850 14.9074 0.150188
2851 14.9074 0.150184
2852 14.9074 0.15018
2853 14.9073 0.150176
2854 14.9073 0.150172
2855 14.9073 0.150168
2856 14.9073 0.150164
2857 14.9073 0.15016
2858 14.9073 0.150156
2859 14.9073 0.150152
2860 14.9073 0.150148
2861 14.9073 0.150144
2862 14.9073 0.15014
2863 14.9072 0.150135
2864 14.9072 0.150132
2865 14.9072 0.150128
2866 14.9072 0.150123
2867 14.9072 0.15012
2868 14.9072 0.150116
2869 14.9072 0.150111
2870 14.9072 0.150107
2871 14.9072 0.150104
2872 14.9071 0.150099
2873 14.9071 0.150095
2874 14.9071 0.150092
2875 14.9071 0.150087
2876 14.9071 0.150083
2877 14.9071 0.15008
2878 14.9071 0.150075
2879 14.9071 0.150071
2880 14.9071 0.150068
2881 14.9071 0.150063
2882 14.907 0.150059
2883 14.907 0.150056
2884 14.907 0.150051
2885 14.907 0.150047
2886 14.907 0.150044
2887 14.907 0.150039
2888 14.907 0.150035
2889 14.907 0.150032
2890 14.907 0.150027
2891 14.907 0.150023
2892 14.9069 0.15002
2893 14.9069 0.150015
2894 14.9069 0.150011
2895 14.9069 0.150008
2896 14.9069 0.150003
2897 14.9069 0.149999
2898 14.9069 0.149996
2899 14.9069 0.149991
2900 14.9069 0.149987
2901 14.9068 0.149984
2902 14.9068 0.149979
2903 14.9068 0.149975
2904 14.9068 0.149972
2905 14.9068 0.149967
2906 14.9068 0.149964
2907 14.9068 0.14996
2908 14.9068 0.149955
2909 14.9068 0.149952
2910 14.9068 0.149948
2911 14.9067 0.149943
2912 14.9067 0.14994
2913 14.9067 0.149936
2914 14.9067 0.149932
2915 14.9067 0.149927
2916 14.9067 0.149924
2917 14.9067 0.14992
2918 14.9067 0.149915
2919 14.9067 0.149912
2920 14.9066 0.149908
2921 14.9066 0.149904
2922 14.9066 0.1499
2923 14.9066 0.149896
2924 14.9066 0.149893
2925 14.9066 0.149889
2926 14.9066 0.149885
2927 14.9066 0.149881
2928 14.9066 0.149877
2929 14.9066 0.149873
2930 14.9065 0.149869
2931 14.9065 0.149866
2932 14.9065 0.149861
2933 14.9065 0.149857
2934 14.9065 0.149853
2935 14.9065 0.14985
2936 14.9065 0.149846
2937 14.9065 0.149842
2938 14.9065 0.149839
2939 14.9065 0.149835
2940 14.9064 0.149831
2941 14.9064 0.149827
2942 14.9064 0.149823
2943 14.9064 0.149819
2944 14.9064 0.149815
2945 14.9064 0.149811
2946 14.9064 0.149807
2947 14.9064 0.149804
2948 14.9064 0.1498
2949 14.9064 0.149796
2950 14.9063 0.149793
2951 14.9063 0.149788
2952 14.9063 0.149785
2953 14.9063 0.149781
2954 14.9063 0.149777
2955 14.9063 0.149774
2956 14.9063 0.149769
2957 14.9063 0.149765
2958 14.9063 0.149761
2959 14.9063 0.149758
2960 14.9062 0.149754
2961 14.9062 0.14975
2962 14.9062 0.149746
2963 14.9062 0.149742
2964 14.9062 0.149739
2965 14.9062 0.149735
2966 14.9062 0.149731
2967 14.9062 0.149727
2968 14.9062 0.149723
2969 14.9062 0.149719
2970 14.9061 0.149716
2971 14.9061 0.149711
2972 14.9061 0.149707
2973 14.9061 0.149704
2974 14.9061 0.1497
2975 14.9061 0.149696
2976 14.9061 0.149693
2977 14.9061 0.149689
2978 14.9061 0.149685
2979 14.9061 0.149682
2980 14.906 0.149677
2981 14.906 0.149673
2982 14.906 0.14967
2983 14.906 0.149666
2984 14.906 0.149662
2985 14.906 0.149658
2986 14.906 0.149655
2987 14.906 0.149651
2988 14.906 0.149647
2989 14.906 0.149643
2990 14.9059 0.149639
2991 14.9059 0.149636
2992 14.9059 0.149632
2993 14.9059 0.149628
2994 14.9059 0.149625
2995 14.9059 0.149621
2996 14.9059 0.149617
2997 14.9059 0.149614
2998 14.9059 0.14961
2999 14.9059 0.149606
3000 14.9058 0.149602
3001 14.9058 0.149598
3002 14.9058 0.149594
3003 14.9058 0.149591
