22 0.00999932 0.0246242
36 0.780008 -0.0434894
94 1.91081 -0.514865
153 1.83269 -1.03788
201 1.85312 -1.83799
253 1.84864 -2.52881
299 1.77945 -3.32035
350 1.81799 -4.07985
418 1.3621 -4.79409
472 0.645388 -4.74667
523 -0.101998 -4.78674
570 -0.886584 -5.16695
605 -1.2672 -6.02984
657 -1.14534 -6.71691
718 1.69515 -8.48062
788 4.28188 -5.44779
885 3.68388 -4.8846
976 4.83625 -5.67449
1026 4.4141 -5.09523
1083 3.60995 -7.2888
1158 6.97682 -7.36701
1230 7.71148 -6.89757
1276 8.32898 -6.35053
1319 8.58544 -5.6327
1370 8.90524 -4.92576
1439 7.86186 -1.11574
1524 5.86108 -2.3638
1565 5.07494 -2.24174
1619 4.41221 -2.30565
1665 3.57705 -2.24981
1727 3.44204 -1.96673
1777 4.95629 -2.15452
1849 3.48566 -0.454597
1893 3.47912 0.377357
1960 6.49229 -1.77608
1999 7.81089 -0.47512
2038 9.86003 0.361115
2103 11.5866 -0.281796
2144 12.3199 -0.683607
2204 15.4285 0.69747
2237 14.925 0.269013
2253 14.9355 0.0423734
2254 14.9354 0.0424448
2255 14.9354 0.0425408
2256 14.9353 0.0426068
2257 14.9353 0.042664
2258 14.9353 0.0427148
2259 14.9352 0.0427599
2260 14.9352 0.0427996
2261 14.9352 0.0428345
2262 14.9351 0.0428652
2263 14.9351 0.0428921
2264 14.9351 0.0429147
2265 14.9351 0.0429339
2266 14.9351 0.0429512
2267 14.9351 0.0429665
2268 14.935 0.0429798
2269 14.935 0.0429914
2270 14.935 0.0430005
2271 14.935 0.043008
2272 14.935 0.0430151
2273 14.935 0.0430204
2274 14.935 0.0430245
2275 14.935 0.0430281
2276 14.935 0.0430308
2277 14.935 0.043033
2278 14.935 0.0430347
2279 14.935 0.0430349
2280 14.935 0.0430349
2281 14.935 0.0430354
2282 14.935 0.0430352
2283 14.935 0.0430347
2284 14.935 0.043034
2285 14.935 0.043033
2286 14.935 0.0430319
2287 14.935 0.04303
2288 14.935 0.0430271
2289 14.935 0.0430246
2290 14.935 0.0430212
2291 14.935 0.0430187
2292 14.935 0.0430161
2293 14.935 0.0430137
2294 14.935 0.0430112
2295 14.935 0.0430082
2296 14.935 0.0430045
2297 14.935 0.0430012
2298 14.935 0.0429985
2299 14.935 0.0429951
2300 14.935 0.0429913
2301 14.935 0.042988
2302 14.935 0.0429847
2303 14.935 0.0429811
2304 14.935 0.0429778
2305 14.935 0.0429745
2306 14.935 0.0429705
2307 14.935 0.042966
2308 14.935 0.0429622
2309 14.935 0.0429582
2310 14.935 0.0429539
2311 14.935 0.0429499
2312 14.935 0.0429462
2313 14.935 0.0429427
2314 14.935 0.0429394
2315 14.935 0.0429362
2316 14.935 0.0429321
2317 14.935 0.042928
2318 14.935 0.0429247
2319 14.935 0.0429213
2320 14.935 0.0429178
2321 14.935 0.0429143
2322 14.935 0.0429109
2323 14.935 0.0429073
2324 14.935 0.0429038
2325 14.935 0.0429
2326 14.935 0.0428953
2327 14.935 0.0428902
2328 14.935 0.042886
2329 14.935 0.042882
2330 14.935 0.0428778
2331 14.935 0.042874
2332 14.935 0.0428701
2333 14.935 0.0428662
2334 14.935 0.0428625
2335 14.935 0.0428592
2336 14.935 0.0428552
2337 14.935 0.0428505
2338 14.935 0.0428464
2339 14.935 0.042843
2340 14.935 0.0428392
2341 14.935 0.0428351
2342 14.935 0.0428312
2343 14.935 0.0428276
2344 14.935 0.0428242
2345 14.935 0.0428209
2346 14.935 0.0428167
2347 14.935 0.0428115
2348 14.935 0.0428072
2349 14.935 0.0428038
2350 14.935 0.0428002
2351 14.935 0.0427962
2352 14.935 0.0427924
2353 14.935 0.0427889
2354 14.935 0.0427854
2355 14.935 0.042782
2356 14.935 0.0427779
2357 14.935 0.0427728
2358 14.935 0.0427685
2359 14.935 0.042765
2360 14.935 0.0427609
2361 14.935 0.0427566
2362 14.935 0.0427528
2363 14.935 0.0427492
2364 14.935 0.0427457
2365 14.935 0.0427424
2366 14.935 0.0427385
2367 14.935 0.0427338
2368 14.935 0.0427298
2369 14.935 0.0427264
2370 14.935 0.0427221
2371 14.935 0.0427174
2372 14.935 0.0427136
2373 14.935 0.04271
2374 14.935 0.0427065
2375 14.935 0.0427032
2376 14.935 0.0426995
2377 14.935 0.0426949
2378 14.935 0.0426907
2379 14.935 0.0426873
2380 14.935 0.042683
2381 14.935 0.0426784
2382 14.935 0.0426742
2383 14.935 0.0426703
2384 14.935 0.0426667
2385 14.935 0.0426632
2386 14.935 0.0426599
2387 14.935 0.0426562
2388 14.935 0.0426518
2389 14.935 0.0426471
2390 14.935 0.042643
2391 14.935 0.0426396
2392 14.935 0.0426352
2393 14.935 0.0426305
2394 14.935 0.0426267
2395 14.935 0.0426229
2396 14.935 0.0426189
2397 14.935 0.0426152
2398 14.935 0.0426118
2399 14.935 0.0426079
2400 14.935 0.0426033
2401 14.935 0.0425992
2402 14.935 0.0425958
2403 14.935 0.0425918
2404 14.935 0.0425876
2405 14.935 0.0425837
2406 14.935 0.04258
2407 14.935 0.0425763
2408 14.935 0.0425729
2409 14.935 0.0425695
2410 14.935 0.0425657
2411 14.935 0.0425609
2412 14.935 0.0425557
2413 14.935 0.0425514
2414 14.935 0.0425479
2415 14.935 0.0425438
2416 14.935 0.0425395
2417 14.935 0.0425359
2418 14.935 0.0425323
2419 14.935 0.0425287
2420 14.935 0.0425252
2421 14.935 0.0425218
2422 14.935 0.0425176
2423 14.935 0.0425126
2424 14.935 0.0425083
2425 14.935 0.0425049
2426 14.935 0.0425012
2427 14.935 0.0424975
2428 14.935 0.0424938
2429 14.935 0.0424903
2430 14.935 0.0424869
2431 14.935 0.0424828
2432 14.935 0.0424786
2433 14.935 0.0424752
2434 14.935 0.0424714
2435 14.935 0.0424677
2436 14.935 0.0424642
2437 14.935 0.0424605
2438 14.935 0.042457
2439 14.935 0.0424531
2440 14.935 0.0424492
2441 14.935 0.0424458
2442 14.935 0.0424416
2443 14.935 0.0424373
2444 14.935 0.0424337
2445 14.935 0.0424302
2446 14.935 0.0424267
2447 14.935 0.0424228
2448 14.935 0.042418
2449 14.935 0.0424137
2450 14.935 0.0424103
2451 14.935 0.0424067
2452 14.935 0.0424029
2453 14.935 0.0423992
2454 14.935 0.0423955
2455 14.935 0.042392
2456 14.935 0.0423877
2457 14.935 0.0423835
2458 14.935 0.04238
2459 14.935 0.0423758
2460 14.935 0.0423712
2461 14.935 0.0423673
2462 14.935 0.0423638
2463 14.935 0.0423605
2464 14.935 0.0423568
2465 14.935 0.0423524
2466 14.935 0.0423484
2467 14.935 0.042344
2468 14.935 0.0423394
2469 14.935 0.0423355
2470 14.935 0.0423317
2471 14.935 0.042328
2472 14.935 0.0423241
2473 14.935 0.0423195
2474 14.935 0.0423155
2475 14.935 0.0423115
2476 14.935 0.0423073
2477 14.935 0.0423036
2478 14.935 0.0423001
2479 14.935 0.0422966
2480 14.935 0.0422928
2481 14.935 0.042288
2482 14.935 0.0422828
2483 14.935 0.0422785
2484 14.935 0.0422745
2485 14.935 0.0422702
2486 14.935 0.0422666
2487 14.935 0.0422631
2488 14.935 0.0422596
2489 14.935 0.0422563
2490 14.935 0.0422522
2491 14.935 0.042248
2492 14.935 0.0422446
2493 14.935 0.0422411
2494 14.9349 0.0422375
2495 14.9349 0.0422337
2496 14.9349 0.04223
2497 14.9349 0.0422263
2498 14.9349 0.0422228
2499 14.9349 0.0422185
2500 14.9349 0.0422134
2501 14.9349 0.0422091
2502 14.9349 0.0422049
2503 14.9349 0.0422003
2504 14.9349 0.0421961
2505 14.9349 0.0421922
2506 14.9349 0.0421888
2507 14.9349 0.0421855
2508 14.9349 0.0421818
2509 14.9349 0.0421774
2510 14.9349 0.0421733
2511 14.9349 0.0421699
2512 14.9349 0.0421658
2513 14.9349 0.0421611
2514 14.9349 0.0421573
2515 14.9349 0.0421533
2516 14.9349 0.0421496
2517 14.9349 0.0421456
2518 14.9349 0.042141
2519 14.9349 0.042137
2520 14.9349 0.042133
2521 14.9349 0.0421288
2522 14.9349 0.042125
2523 14.9349 0.0421212
2524 14.9349 0.0421176
2525 14.9349 0.042114
2526 14.9349 0.0421101
2527 14.9349 0.0421054
2528 14.9349 0.0421011
2529 14.9349 0.0420976
2530 14.9349 0.0420935
2531 14.9349 0.0420894
2532 14.9349 0.0420859
2533 14.9349 0.0420822
2534 14.9349 0.0420787
2535 14.9349 0.0420748
2536 14.9349 0.04207
2537 14.9349 0.0420657
2538 14.9349 0.0420623
2539 14.9349 0.0420585
2540 14.9349 0.0420544
2541 14.9349 0.0420506
2542 14.9349 0.0420471
2543 14.9349 0.0420435
2544 14.9349 0.0420402
2545 14.9349 0.0420359
2546 14.9349 0.0420317
2547 14.9349 0.0420282
2548 14.9349 0.042024
2549 14.9349 0.0420194
2550 14.9349 0.0420155
2551 14.9349 0.0420118
2552 14.9349 0.0420083
2553 14.9349 0.0420047
2554 14.9349 0.0420003
2555 14.9349 0.0419956
2556 14.9349 0.0419915
2557 14.9349 0.0419872
2558 14.9349 0.0419825
2559 14.9349 0.0419787
2560 14.9349 0.0419749
2561 14.9349 0.0419712
2562 14.9349 0.0419679
2563 14.9349 0.0419639
2564 14.9349 0.04196
2565 14.9349 0.0419566
2566 14.9349 0.0419525
2567 14.9349 0.0419483
2568 14.9349 0.0419447
2569 14.9349 0.0419411
2570 14.9349 0.0419376
2571 14.9349 0.0419338
2572 14.9349 0.041929
2573 14.9349 0.0419239
2574 14.9349 0.0419196
2575 14.9349 0.0419155
2576 14.9349 0.0419113
2577 14.9349 0.0419077
2578 14.9349 0.0419042
2579 14.9349 0.0419007
2580 14.9349 0.0418974
2581 14.9349 0.0418932
2582 14.9349 0.041889
2583 14.9349 0.0418856
2584 14.9349 0.0418822
2585 14.9349 0.0418786
2586 14.9349 0.0418747
2587 14.9349 0.0418711
2588 14.9349 0.0418674
2589 14.9349 0.0418638
2590 14.9349 0.0418596
2591 14.9349 0.0418544
2592 14.9349 0.0418502
2593 14.9349 0.041846
2594 14.9349 0.0418413
2595 14.9349 0.0418372
2596 14.9349 0.0418333
2597 14.9349 0.0418298
2598 14.9349 0.0418265
2599 14.9349 0.0418228
2600 14.9349 0.0418185
2601 14.9349 0.0418144
2602 14.9349 0.0418109
2603 14.9349 0.0418066
2604 14.9349 0.0418022
2605 14.9349 0.0417984
2606 14.9349 0.0417944
2607 14.9349 0.0417907
2608 14.9349 0.0417868
2609 14.9349 0.0417822
2610 14.9349 0.0417781
2611 14.9349 0.0417742
2612 14.9349 0.0417699
2613 14.9349 0.0417661
2614 14.9349 0.0417624
2615 14.9349 0.0417587
2616 14.9349 0.0417551
2617 14.9349 0.0417512
2618 14.9349 0.0417465
2619 14.9349 0.0417422
2620 14.9349 0.0417387
2621 14.9349 0.0417346
2622 14.9349 0.0417306
2623 14.9349 0.041727
2624 14.9349 0.0417234
2625 14.9349 0.0417198
2626 14.9349 0.0417159
2627 14.9349 0.0417111
2628 14.9349 0.0417071
2629 14.9349 0.0417035
2630 14.9349 0.0416997
2631 14.9349 0.0416956
2632 14.9349 0.0416918
2633 14.9349 0.0416882
2634 14.9349 0.0416847
2635 14.9349 0.0416814
2636 14.9349 0.0416771
2637 14.9349 0.0416728
2638 14.9349 0.0416694
2639 14.9349 0.0416652
2640 14.9349 0.0416608
2641 14.9349 0.0416567
2642 14.9349 0.041653
2643 14.9349 0.0416496
2644 14.9349 0.0416459
2645 14.9349 0.0416416
2646 14.9349 0.0416369
2647 14.9349 0.0416328
2648 14.9349 0.0416284
2649 14.9349 0.0416238
2650 14.9349 0.0416199
2651 14.9349 0.0416162
2652 14.9349 0.0416125
2653 14.9349 0.0416091
2654 14.9349 0.0416051
2655 14.9349 0.0416012
2656 14.9349 0.0415978
2657 14.9349 0.0415938
2658 14.9349 0.0415895
2659 14.9349 0.0415859
2660 14.9349 0.0415824
2661 14.9349 0.0415789
2662 14.9349 0.0415751
2663 14.9349 0.0415703
2664 14.9349 0.0415651
2665 14.9349 0.0415608
2666 14.9349 0.0415567
2667 14.9349 0.0415525
2668 14.9349 0.0415489
2669 14.9349 0.0415454
2670 14.9349 0.0415419
2671 14.9349 0.0415386
2672 14.9349 0.0415345
2673 14.9349 0.0415303
2674 14.9349 0.0415269
2675 14.9349 0.0415234
2676 14.9349 0.0415197
2677 14.9349 0.041516
2678 14.9349 0.0415123
2679 14.9349 0.0415086
2680 14.9349 0.0415051
2681 14.9349 0.0415008
2682 14.9349 0.0414957
2683 14.9349 0.0414914
2684 14.9349 0.0414872
2685 14.9349 0.0414826
2686 14.9349 0.0414785
2687 14.9349 0.0414746
2688 14.9349 0.0414711
2689 14.9349 0.0414678
2690 14.9349 0.0414641
2691 14.9349 0.0414597
2692 14.9349 0.0414556
2693 14.9349 0.0414522
2694 14.9349 0.0414479
2695 14.9349 0.0414435
2696 14.9349 0.0414397
2697 14.9349 0.0414357
2698 14.9349 0.041432
2699 14.9349 0.041428
2700 14.9349 0.0414234
2701 14.9349 0.0414194
2702 14.9349 0.0414154
2703 14.9349 0.0414112
2704 14.9349 0.0414074
2705 14.9349 0.0414036
2706 14.9349 0.0414
2707 14.9349 0.0413964
2708 14.9349 0.0413925
2709 14.9349 0.0413878
2710 14.9349 0.0413835
2711 14.9349 0.04138
2712 14.9349 0.0413759
2713 14.9349 0.0413718
2714 14.9349 0.0413683
2715 14.9349 0.0413649
2716 14.9349 0.0413611
2717 14.9349 0.0413572
2718 14.9349 0.0413524
2719 14.9349 0.0413482
2720 14.9349 0.0413448
2721 14.9349 0.041341
2722 14.9349 0.0413368
2723 14.9349 0.0413332
2724 14.9349 0.0413295
2725 14.9349 0.041326
2726 14.9349 0.0413226
2727 14.9349 0.0413184
2728 14.9349 0.0413141
2729 14.9349 0.0413107
2730 14.9349 0.0413064
2731 14.9349 0.0413018
2732 14.9349 0.0412979
2733 14.9349 0.0412942
2734 14.9349 0.0412908
2735 14.9349 0.0412872
2736 14.9349 0.0412828
2737 14.9349 0.0412781
2738 14.9349 0.041274
2739 14.9349 0.0412697
2740 14.9349 0.041265
2741 14.9349 0.0412611
2742 14.9349 0.0412574
2743 14.9349 0.0412537
2744 14.9349 0.0412503
2745 14.9349 0.0412464
2746 14.9349 0.0412424
2747 14.9349 0.041239
2748 14.9349 0.041235
2749 14.9349 0.0412308
2750 14.9349 0.0412271
2751 14.9349 0.0412236
2752 14.9349 0.0412201
2753 14.9349 0.0412163
2754 14.9349 0.0412115
2755 14.9349 0.0412066
2756 14.9349 0.041202
2757 14.9349 0.041198
2758 14.9349 0.0411938
2759 14.9349 0.0411902
2760 14.9349 0.0411866
2761 14.9349 0.0411832
2762 14.9349 0.0411799
2763 14.9349 0.0411757
2764 14.9349 0.0411715
2765 14.9349 0.0411681
2766 14.9349 0.0411647
2767 14.9349 0.041161
2768 14.9349 0.0411573
2769 14.9349 0.0411536
2770 14.9349 0.0411499
2771 14.9349 0.0411463
2772 14.9349 0.0411422
2773 14.9349 0.0411369
2774 14.9349 0.0411326
2775 14.9349 0.0411284
2776 14.9349 0.0411238
2777 14.9349 0.0411197
2778 14.9349 0.0411158
2779 14.9349 0.0411121
2780 14.9349 0.0411087
2781 14.9349 0.0411053
2782 14.9349 0.0411017
2783 14.9349 0.0410973
2784 14.9349 0.0410926
2785 14.9349 0.0410885
2786 14.9349 0.041085
2787 14.9349 0.0410807
2788 14.9349 0.0410764
2789 14.9349 0.0410723
2790 14.9349 0.0410685
2791 14.9349 0.0410645
2792 14.9349 0.0410608
2793 14.9349 0.0410574
2794 14.9349 0.0410535
2795 14.9349 0.0410489
2796 14.9349 0.0410448
2797 14.9349 0.0410414
2798 14.9349 0.0410374
2799 14.9349 0.0410332
2800 14.9349 0.0410293
2801 14.9349 0.0410257
2802 14.9349 0.0410221
2803 14.9349 0.0410184
2804 14.9349 0.0410149
2805 14.9349 0.041011
2806 14.9349 0.0410062
2807 14.9349 0.041002
2808 14.9349 0.0409979
2809 14.9349 0.0409936
2810 14.9349 0.0409901
2811 14.9349 0.0409865
2812 14.9349 0.0409831
2813 14.9349 0.0409798
2814 14.9349 0.0409759
2815 14.9349 0.040972
2816 14.9349 0.0409685
2817 14.9349 0.0409651
2818 14.9349 0.0409613
2819 14.9349 0.0409574
2820 14.9349 0.0409537
2821 14.9349 0.04095
2822 14.9349 0.0409465
2823 14.9349 0.0409423
2824 14.9349 0.0409371
2825 14.9349 0.0409328
2826 14.9349 0.0409286
2827 14.9349 0.040924
2828 14.9349 0.0409199
2829 14.9349 0.040916
2830 14.9349 0.0409125
2831 14.9349 0.0409092
2832 14.9349 0.0409055
2833 14.9349 0.0409011
2834 14.9349 0.0408971
2835 14.9349 0.0408936
2836 14.9349 0.0408893
2837 14.9349 0.0408849
2838 14.9349 0.0408811
2839 14.9349 0.0408771
2840 14.9349 0.0408734
2841 14.9349 0.0408695
2842 14.9349 0.0408649
2843 14.9349 0.0408609
2844 14.9349 0.0408567
2845 14.9349 0.0408522
2846 14.9349 0.0408484
2847 14.9349 0.0408448
2848 14.9349 0.0408412
2849 14.9349 0.0408376
2850 14.9349 0.0408337
2851 14.9349 0.040829
2852 14.9349 0.0408247
2853 14.9349 0.0408213
2854 14.9349 0.0408172
2855 14.9349 0.0408132
2856 14.9349 0.0408097
2857 14.9349 0.040806
2858 14.9349 0.0408025
2859 14.9349 0.0407987
2860 14.9349 0.0407939
2861 14.9349 0.0407896
2862 14.9349 0.0407862
2863 14.9349 0.0407824
2864 14.9349 0.0407783
2865 14.9349 0.0407744
2866 14.9349 0.0407707
2867 14.9349 0.0407672
2868 14.9349 0.0407638
2869 14.9349 0.0407596
2870 14.9349 0.0407553
2871 14.9349 0.0407519
2872 14.9349 0.0407476
2873 14.9349 0.040743
2874 14.9349 0.0407391
2875 14.9349 0.0407355
2876 14.9349 0.040732
2877 14.9349 0.0407284
2878 14.9349 0.040724
2879 14.9349 0.0407193
2880 14.9349 0.0407152
2881 14.9349 0.0407109
2882 14.9349 0.0407062
2883 14.9349 0.0407024
2884 14.9349 0.0406986
2885 14.9349 0.0406949
2886 14.9349 0.0406916
2887 14.9349 0.0406876
2888 14.9349 0.0406837
2889 14.9349 0.0406803
2890 14.9349 0.0406763
2891 14.9349 0.040672
2892 14.9349 0.0406684
2893 14.9349 0.0406649
2894 14.9349 0.0406612
2895 14.9349 0.0406573
2896 14.9349 0.0406527
2897 14.9349 0.0406475
2898 14.9349 0.0406433
2899 14.9349 0.0406392
2900 14.9349 0.040635
2901 14.9349 0.0406315
2902 14.9349 0.0406279
2903 14.9349 0.0406244
2904 14.9349 0.0406211
2905 14.9349 0.0406173
2906 14.9349 0.0406133
2907 14.9349 0.0406099
2908 14.9349 0.0406064
2909 14.9349 0.0406026
2910 14.9349 0.0405987
2911 14.9349 0.0405951
2912 14.9349 0.0405914
2913 14.9349 0.0405879
2914 14.9349 0.0405836
2915 14.9349 0.0405785
2916 14.9349 0.0405742
2917 14.9349 0.04057
2918 14.9349 0.0405654
2919 14.9349 0.0405612
2920 14.9349 0.0405573
2921 14.9349 0.0405539
2922 14.9349 0.0405506
2923 14.9349 0.0405469
2924 14.9349 0.0405425
2925 14.9349 0.0405384
2926 14.9349 0.040535
2927 14.9349 0.0405306
2928 14.9349 0.0405263
2929 14.9349 0.0405225
2930 14.9349 0.0405185
2931 14.9349 0.0405148
2932 14.9349 0.0405109
2933 14.9349 0.0405063
2934 14.9349 0.0405022
2935 14.9349 0.040498
2936 14.9349 0.0404936
2937 14.9349 0.0404898
2938 14.9349 0.0404861
2939 14.9349 0.0404825
2940 14.9349 0.040479
2941 14.9349 0.0404751
2942 14.9349 0.0404704
2943 14.9349 0.0404661
2944 14.9349 0.0404626
2945 14.9349 0.0404586
2946 14.9349 0.0404546
2947 14.9349 0.0404511
2948 14.9349 0.0404474
2949 14.9349 0.0404439
2950 14.9349 0.0404401
2951 14.9349 0.0404353
2952 14.9349 0.040431
2953 14.9349 0.0404276
2954 14.9349 0.0404239
2955 14.9349 0.0404197
2956 14.9349 0.0404158
2957 14.9349 0.0404121
2958 14.9349 0.0404086
2959 14.9349 0.0404052
2960 14.9349 0.040401
2961 14.9349 0.0403967
2962 14.9349 0.0403933
2963 14.9349 0.040389
2964 14.9349 0.0403844
2965 14.9349 0.0403805
2966 14.9349 0.0403769
2967 14.9349 0.0403734
2968 14.9349 0.0403698
2969 14.9349 0.0403654
2970 14.9349 0.0403607
2971 14.9349 0.0403568
2972 14.9349 0.0403523
2973 14.9349 0.0403477
2974 14.9349 0.0403438
2975 14.9349 0.0403401
2976 14.9349 0.0403364
2977 14.9349 0.040333
2978 14.9349 0.0403291
2979 14.9349 0.0403251
2980 14.9349 0.0403217
2981 14.9349 0.0403177
2982 14.9349 0.0403135
2983 14.9349 0.0403099
2984 14.9349 0.0403063
2985 14.9349 0.0403026
2986 14.9349 0.0402987
2987 14.9349 0.0402941
2988 14.9349 0.040289
2989 14.9349 0.0402847
2990 14.9349 0.0402808
2991 14.9349 0.0402764
2992 14.9349 0.0402728
2993 14.9349 0.0402693
2994 14.9349 0.0402659
2995 14.9349 0.040262
2996 14.9349 0.0402572
2997 14.9349 0.0402529
2998 14.9349 0.0402495
2999 14.9349 0.0402458
3000 14.9349 0.0402419
3001 14.9349 0.0402382
3002 14.9349 0.0402347
