1 -0.000268126 3.29397e-08
2 -0.000294477 3.94923e-08
3 -0.000922414 8.88067e-06
4 -0.00146448 4.73799e-05
5 -0.00104492 2.82759e-05
6 -0.000633271 -2.3773e-05
7 -0.000626186 -2.9163e-05
8 -0.00100098 3.75784e-05
9 -0.00201979 0.000389368
10 -0.00362254 0.00125818
11 -0.00591558 0.0030294
12 -0.00800854 0.00594634
13 -0.00939035 0.00915023
14 -0.00988891 0.0127911
15 -0.00911081 0.0161969
16 -0.00779967 0.0180722
17 -0.00729605 0.019454
18 -0.00435787 0.0217593
19 -0.000958342 0.0234479
20 0.0027869 0.0244309
21 0.00651033 0.0247601
22 0.00999932 0.0246242
23 0.0125107 0.0241136
24 0.0123788 0.0241489
25 0.0264601 0.025828
26 0.0893201 0.0173541
27 0.158426 0.00783144
28 0.227452 -0.000665377
29 0.296527 -0.00824937
30 0.365825 -0.015046
31 0.434991 -0.0211204
32 0.503938 -0.0265461
33 0.572884 -0.0314153
34 0.641942 -0.0358197
35 0.711059 -0.0398345
36 0.780008 -0.0434894
37 0.848956 -0.0468458
38 0.895756 -0.0503032
39 0.928412 -0.0505474
40 0.995818 -0.0535446
41 1.06483 -0.0563454
42 1.13378 -0.0584994
43 1.20269 -0.060091
44 1.27153 -0.0611461
45 1.34032 -0.0617147
46 1.40915 -0.0618917
47 1.47782 -0.0617318
48 1.5466 -0.0613064
49 1.61553 -0.0606782
50 1.6844 -0.0598015
51 1.75321 -0.0587564
52 1.82198 -0.0575297
53 1.89077 -0.0561772
54 1.95757 -0.0547458
55 2.02853 -0.0531299
56 2.09733 -0.051493
57 2.16615 -0.0497823
58 2.21391 -0.0485979
59 2.23566 -0.048116
60 2.2542 -0.0480221
61 2.26974 -0.0485091
62 2.28213 -0.049549
63 2.29072 -0.0509082
64 2.29535 -0.0520268
65 2.29741 -0.0526691
66 2.29857 -0.0529717
67 2.30026 -0.0535606
68 2.30265 -0.0549029
69 2.30757 -0.0587806
70 2.31001 -0.061296
71 2.31224 -0.0640839
72 2.31421 -0.0670465
73 2.31589 -0.070245
74 2.31722 -0.0736131
75 2.31815 -0.0770572
76 2.31866 -0.0804597
77 2.31882 -0.0837868
78 2.31858 -0.0868222
79 2.31807 -0.0895107
80 2.31758 -0.0915275
81 2.31704 -0.0932509
82 2.31622 -0.0953367
83 2.31486 -0.0981852
84 2.31235 -0.101421
85 2.31022 -0.104029
86 2.30035 -0.1268
87 2.25481 -0.173916
88 2.20543 -0.222655
89 2.15758 -0.269869
90 2.10686 -0.319973
91 2.05775 -0.368632
92 2.0087 -0.417364
93 1.9597 -0.466108
94 1.91081 -0.514865
95 1.86199 -0.563668
96 1.82711 -0.592267
97 1.82095 -0.598486
98 1.81621 -0.604007
99 1.81254 -0.609663
100 1.81004 -0.6158
101 1.809 -0.621986
102 1.80961 -0.62607
103 1.80987 -0.626817
104 1.8099 -0.628025
105 1.812 -0.630071
106 1.81417 -0.631563
107 1.81682 -0.632612
108 1.81989 -0.633012
109 1.82293 -0.632858
110 1.82577 -0.632278
111 1.84477 -0.634545
112 1.90424 -0.614524
113 1.96931 -0.590541
114 2.03438 -0.56793
115 2.08473 -0.546356
116 2.10281 -0.539602
117 2.11342 -0.535722
118 2.12253 -0.532549
119 2.13152 -0.529732
120 2.13866 -0.527956
121 2.14383 -0.527294
122 2.14803 -0.527168
123 2.15091 -0.527454
124 2.15302 -0.527915
125 2.15446 -0.528392
126 2.15616 -0.529091
127 2.15876 -0.530524
128 2.16172 -0.53247
129 2.16464 -0.534772
130 2.16718 -0.537086
131 2.16951 -0.5396
132 2.17155 -0.542227
133 2.17323 -0.544829
134 2.17478 -0.547581
135 2.17627 -0.550913
136 2.17744 -0.554605
137 2.1782 -0.558242
138 2.17851 -0.561784
139 2.17838 -0.565122
140 2.17793 -0.568299
141 2.17703 -0.571149
142 2.17618 -0.573242
143 2.17531 -0.5754
144 2.17381 -0.578074
145 2.16707 -0.602363
146 2.1289 -0.654835
147 2.08635 -0.709546
148 2.04371 -0.764202
149 2.00122 -0.818813
150 1.95885 -0.873497
151 1.91667 -0.928233
152 1.87461 -0.983024
153 1.83269 -1.03788
154 1.79083 -1.09277
155 1.76056 -1.12484
156 1.75594 -1.13116
157 1.75199 -1.13715
158 1.74911 -1.14314
159 1.74744 -1.1492
160 1.7471 -1.15493
161 1.74797 -1.15836
162 1.74808 -1.15858
163 1.74761 -1.15876
164 1.74849 -1.15998
165 1.75027 -1.16132
166 1.75222 -1.16246
167 1.76967 -1.17948
168 1.83011 -1.20224
169 1.89561 -1.2248
170 1.96081 -1.24801
171 2.02431 -1.27133
172 2.09012 -1.29658
173 2.13873 -1.31007
174 2.15319 -1.3151
175 2.1598 -1.31802
176 2.16337 -1.32008
177 2.16585 -1.32191
178 2.16822 -1.32396
179 2.17066 -1.32641
180 2.17293 -1.32905
181 2.17478 -1.33157
182 2.17653 -1.33436
183 2.17813 -1.33746
184 2.17944 -1.34077
185 2.18043 -1.34431
186 2.18099 -1.34791
187 2.18113 -1.35133
188 2.18083 -1.35448
189 2.18029 -1.35715
190 2.17956 -1.35942
191 2.17874 -1.36151
192 2.17755 -1.36419
193 2.17028 -1.39106
194 2.13313 -1.44503
195 2.09232 -1.50088
196 2.05168 -1.55679
197 2.01134 -1.6127
198 1.97135 -1.66886
199 1.93156 -1.72532
200 1.89204 -1.78188
201 1.85312 -1.83799
202 1.81358 -1.89535
203 1.78549 -1.92811
204 1.78114 -1.93459
205 1.77745 -1.941
206 1.77473 -1.94755
207 1.77326 -1.95424
208 1.7732 -1.96047
209 1.77429 -1.96381
210 1.77433 -1.96416
211 1.77436 -1.96505
212 1.77601 -1.96668
213 1.77837 -1.96815
214 1.78107 -1.96928
215 1.78395 -1.97015
216 1.80391 -1.98274
217 1.86737 -1.99058
218 1.93627 -1.9968
219 2.00484 -2.00388
220 2.0735 -2.01185
221 2.12501 -2.01262
222 2.14282 -2.01505
223 2.15662 -2.01746
224 2.16708 -2.01996
225 2.17422 -2.02201
226 2.17778 -2.02342
227 2.17999 -2.02463
228 2.182 -2.02595
229 2.18413 -2.02759
230 2.18656 -2.02976
231 2.18901 -2.03231
232 2.19122 -2.03507
233 2.19305 -2.03774
234 2.19484 -2.04088
235 2.1963 -2.04435
236 2.19738 -2.04766
237 2.19813 -2.0511
238 2.19853 -2.0546
239 2.19844 -2.05803
240 2.19799 -2.06108
241 2.1973 -2.0638
242 2.19638 -2.06601
243 2.19555 -2.06812
244 2.19404 -2.07087
245 2.18647 -2.09646
246 2.14741 -2.14857
247 2.10411 -2.20268
248 2.06101 -2.25678
249 2.01804 -2.31097
250 1.97532 -2.36529
251 1.93285 -2.41973
252 1.89065 -2.47422
253 1.84864 -2.52881
254 1.80674 -2.58357
255 1.77653 -2.61537
256 1.77132 -2.62242
257 1.767 -2.62906
258 1.76376 -2.6359
259 1.76187 -2.64299
260 1.76154 -2.6498
261 1.76265 -2.65363
262 1.76268 -2.65382
263 1.76214 -2.65368
264 1.76211 -2.65421
265 1.76307 -2.65521
266 1.77849 -2.67352
267 1.83658 -2.69942
268 1.90098 -2.72489
269 1.965 -2.75117
270 2.02842 -2.77838
271 2.07563 -2.7927
272 2.08728 -2.79735
273 2.09185 -2.79971
274 2.0945 -2.80175
275 2.09733 -2.80418
276 2.10014 -2.80702
277 2.10298 -2.81022
278 2.10515 -2.813
279 2.10677 -2.8154
280 2.10824 -2.81798
281 2.10948 -2.82066
282 2.11058 -2.82364
283 2.11147 -2.82702
284 2.11199 -2.83053
285 2.11208 -2.83397
286 2.11178 -2.83719
287 2.11115 -2.8403
288 2.11016 -2.84312
289 2.10914 -2.84542
290 2.10799 -2.84784
291 2.10032 -2.87473
292 2.06287 -2.9285
293 2.02162 -2.98416
294 1.98063 -3.03982
295 1.93986 -3.09558
296 1.89939 -3.15154
297 1.85917 -3.20764
298 1.81922 -3.26391
299 1.77945 -3.32035
300 1.73995 -3.37685
301 1.71204 -3.40894
302 1.70781 -3.41513
303 1.70462 -3.42056
304 1.70224 -3.42616
305 1.70091 -3.43186
306 1.7008 -3.43696
307 1.70161 -3.43988
308 1.70179 -3.4403
309 1.70168 -3.44116
310 1.70346 -3.44298
311 1.70594 -3.44453
312 1.7084 -3.44579
313 1.72652 -3.46167
314 1.78814 -3.47825
315 1.85578 -3.49341
316 1.92332 -3.50899
317 1.99004 -3.52522
318 2.05577 -3.54228
319 2.10613 -3.54995
320 2.12144 -3.55382
321 2.13072 -3.5569
322 2.13649 -3.5592
323 2.13977 -3.56101
324 2.14256 -3.5629
325 2.14526 -3.56503
326 2.14784 -3.5674
327 2.1501 -3.56982
328 2.15215 -3.57238
329 2.15409 -3.57526
330 2.1559 -3.57844
331 2.15754 -3.58199
332 2.1588 -3.58562
333 2.15976 -3.5895
334 2.16012 -3.5934
335 2.1601 -3.59668
336 2.15973 -3.59973
337 2.15909 -3.60242
338 2.15837 -3.60462
339 2.15755 -3.60692
340 2.15618 -3.60977
341 2.15431 -3.61302
342 2.14579 -3.63964
343 2.10751 -3.69286
344 2.06565 -3.74808
345 2.02407 -3.80318
346 1.98255 -3.85839
347 1.94119 -3.91367
348 1.9 -3.969
349 1.85895 -4.02438
350 1.81799 -4.07985
351 1.77707 -4.13538
352 1.74803 -4.16717
353 1.74338 -4.1736
354 1.73993 -4.17901
355 1.73753 -4.18424
356 1.73612 -4.18965
357 1.73594 -4.19401
358 1.73619 -4.19655
359 1.73654 -4.19855
360 1.73706 -4.2005
361 1.73784 -4.20258
362 1.73903 -4.20519
363 1.74832 -4.23229
364 1.78606 -4.2852
365 1.82833 -4.34017
366 1.87028 -4.39492
367 1.91207 -4.44976
368 1.95374 -4.5048
369 1.99519 -4.55999
370 2.03644 -4.61528
371 2.06657 -4.64922
372 2.07516 -4.65957
373 2.07757 -4.66333
374 2.07925 -4.66675
375 2.08079 -4.67064
376 2.08185 -4.67425
377 2.08256 -4.6777
378 2.08296 -4.68127
379 2.08303 -4.68465
380 2.08276 -4.68781
381 2.08219 -4.69054
382 2.08154 -4.69288
383 2.07684 -4.7214
384 2.04983 -4.78012
385 2.01889 -4.8419
386 1.98833 -4.90369
387 1.9582 -4.96569
388 1.92856 -5.02796
389 1.90513 -5.06891
390 1.89792 -5.08223
391 1.89483 -5.08748
392 1.89316 -5.09045
393 1.89101 -5.09354
394 1.88859 -5.09632
395 1.88625 -5.09875
396 1.88363 -5.1011
397 1.88072 -5.10322
398 1.87797 -5.10485
399 1.87527 -5.10635
400 1.87194 -5.1077
401 1.86835 -5.10862
402 1.8648 -5.10919
403 1.86124 -5.10933
404 1.85791 -5.10916
405 1.85515 -5.10861
406 1.85277 -5.10822
407 1.85017 -5.10724
408 1.84764 -5.10631
409 1.84454 -5.10476
410 1.81929 -5.09927
411 1.76428 -5.06372
412 1.70704 -5.02466
413 1.64976 -4.9858
414 1.59243 -4.94707
415 1.535 -4.90857
416 1.47744 -4.87025
417 1.41981 -4.83211
418 1.3621 -4.79409
419 1.30377 -4.75582
420 1.26993 -4.7281
421 1.26266 -4.72355
422 1.25549 -4.71951
423 1.24819 -4.71651
424 1.24068 -4.71476
425 1.2334 -4.71439
426 1.22712 -4.71537
427 1.22477 -4.71679
428 1.22488 -4.71615
429 1.22376 -4.71677
430 1.22242 -4.71838
431 1.22117 -4.72039
432 1.22007 -4.72282
433 1.20473 -4.74244
434 1.18833 -4.80533
435 1.17265 -4.8727
436 1.15624 -4.93972
437 1.13916 -5.00642
438 1.12107 -5.07291
439 1.11264 -5.12209
440 1.10867 -5.13699
441 1.10632 -5.14474
442 1.10511 -5.14749
443 1.10396 -5.1492
444 1.10222 -5.15151
445 1.10019 -5.15386
446 1.0979 -5.15614
447 1.09533 -5.15836
448 1.09277 -5.16033
449 1.08972 -5.16235
450 1.08636 -5.1641
451 1.08311 -5.16547
452 1.07982 -5.16644
453 1.07652 -5.16716
454 1.07295 -5.16756
455 1.06933 -5.16762
456 1.06622 -5.16727
457 1.06317 -5.16664
458 1.06075 -5.16585
459 1.05861 -5.16502
460 1.05591 -5.16387
461 1.05263 -5.16182
462 1.04992 -5.1596
463 1.04749 -5.15774
464 1.02281 -5.1458
465 0.976466 -5.09927
466 0.929047 -5.04895
467 0.881736 -4.99853
468 0.834468 -4.94806
469 0.787213 -4.89764
470 0.739955 -4.84728
471 0.692673 -4.79696
472 0.645388 -4.74667
473 0.598094 -4.69642
474 0.572199 -4.66188
475 0.566904 -4.65643
476 0.561902 -4.65183
477 0.556703 -4.64823
478 0.55123 -4.64577
479 0.546001 -4.64463
480 0.541344 -4.64463
481 0.538682 -4.64564
482 0.538131 -4.64568
483 0.536927 -4.64608
484 0.535208 -4.64794
485 0.533726 -4.65038
486 0.532552 -4.65295
487 0.517613 -4.6704
488 0.502419 -4.7329
489 0.488694 -4.80108
490 0.474282 -4.8689
491 0.459113 -4.9364
492 0.442924 -5.00334
493 0.435859 -5.0535
494 0.432415 -5.06795
495 0.430304 -5.07534
496 0.429051 -5.07828
497 0.427574 -5.08053
498 0.425705 -5.08321
499 0.423692 -5.08557
500 0.421127 -5.08823
501 0.418509 -5.09063
502 0.41581 -5.09277
503 0.412907 -5.09472
504 0.410202 -5.09625
505 0.407364 -5.09758
506 0.404384 -5.09856
507 0.401242 -5.09943
508 0.397472 -5.09993
509 0.393904 -5.10007
510 0.390387 -5.09988
511 0.387406 -5.09929
512 0.385171 -5.09873
513 0.38295 -5.09796
514 0.380545 -5.09688
515 0.354462 -5.0909
516 0.299933 -5.05634
517 0.242822 -5.01725
518 0.18567 -4.97827
519 0.128427 -4.93941
520 0.0710433 -4.90089
521 0.0134423 -4.86259
522 -0.0442694 -4.82453
523 -0.101998 -4.78674
524 -0.159799 -4.74909
525 -0.193046 -4.72201
526 -0.200274 -4.71758
527 -0.207534 -4.7135
528 -0.214855 -4.71054
529 -0.222377 -4.70884
530 -0.229518 -4.70854
531 -0.235698 -4.70955
532 -0.23796 -4.71106
533 -0.23879 -4.71064
534 -0.241136 -4.71289
535 -0.243073 -4.71569
536 -0.244506 -4.71879
537 -0.245495 -4.72203
538 -0.246189 -4.72535
539 -0.257617 -4.74656
540 -0.262007 -4.81106
541 -0.265134 -4.8802
542 -0.269252 -4.94914
543 -0.274444 -5.01785
544 -0.27341 -5.06898
545 -0.275007 -5.08648
546 -0.276562 -5.09875
547 -0.277888 -5.10596
548 -0.278837 -5.10916
549 -0.279609 -5.11076
550 -0.280773 -5.11267
551 -0.282535 -5.11518
552 -0.284543 -5.11766
553 -0.286589 -5.11986
554 -0.288698 -5.12183
555 -0.291094 -5.12375
556 -0.293813 -5.12555
557 -0.296789 -5.12726
558 -0.299957 -5.12865
559 -0.303099 -5.12984
560 -0.306666 -5.13076
561 -0.310334 -5.13146
562 -0.338084 -5.14045
563 -0.403078 -5.14453
564 -0.472289 -5.14678
565 -0.541288 -5.14922
566 -0.610355 -5.15196
567 -0.679538 -5.15514
568 -0.748539 -5.15869
569 -0.817502 -5.1627
570 -0.886584 -5.16695
571 -0.955476 -5.17148
572 -0.998296 -5.17099
573 -1.00884 -5.17187
574 -1.01816 -5.17299
575 -1.02671 -5.17471
576 -1.03482 -5.17722
577 -1.04223 -5.18063
578 -1.04747 -5.18435
579 -1.05023 -5.18711
580 -1.05217 -5.18977
581 -1.05356 -5.19289
582 -1.05431 -5.1962
583 -1.05447 -5.1994
584 -1.05438 -5.20244
585 -1.06002 -5.22713
586 -1.04753 -5.2899
587 -1.03227 -5.35744
588 -1.01829 -5.42516
589 -1.0027 -5.4738
590 -0.999156 -5.4914
591 -0.997411 -5.50336
592 -0.996665 -5.5106
593 -0.996828 -5.51382
594 -0.997238 -5.51585
595 -0.997787 -5.5176
596 -0.998678 -5.51979
597 -1.01094 -5.54645
598 -1.04129 -5.60361
599 -1.07475 -5.66386
600 -1.108 -5.72439
601 -1.14086 -5.78507
602 -1.17309 -5.84586
603 -1.20488 -5.90701
604 -1.2362 -5.96831
605 -1.2672 -6.02984
606 -1.29798 -6.09162
607 -1.3162 -6.12793
608 -1.3197 -6.13517
609 -1.32264 -6.14213
610 -1.32485 -6.14988
611 -1.32575 -6.15762
612 -1.32514 -6.16475
613 -1.32341 -6.16802
614 -1.32364 -6.16884
615 -1.32246 -6.17061
616 -1.32039 -6.17238
617 -1.31774 -6.17373
618 -1.31479 -6.17472
619 -1.3114 -6.17525
620 -1.29206 -6.18498
621 -1.22859 -6.18293
622 -1.15933 -6.17795
623 -1.08989 -6.17394
624 -1.02032 -6.17087
625 -0.967263 -6.16376
626 -0.947127 -6.16351
627 -0.929876 -6.16377
628 -0.915533 -6.16455
629 -0.904553 -6.16575
630 -0.89739 -6.167
631 -0.894042 -6.16788
632 -0.8924 -6.16863
633 -0.890141 -6.16987
634 -0.88751 -6.17159
635 -0.885145 -6.17345
636 -0.882919 -6.17547
637 -0.880518 -6.17806
638 -0.878467 -6.18075
639 -0.876623 -6.1835
640 -0.874988 -6.1867
641 -0.87357 -6.19007
642 -0.872569 -6.1938
643 -0.872003 -6.19728
644 -0.871858 -6.2007
645 -0.872148 -6.20393
646 -0.872753 -6.20674
647 -0.873506 -6.20923
648 -0.874496 -6.21193
649 -0.878443 -6.23788
650 -0.909467 -6.29465
651 -0.944517 -6.35438
652 -0.979158 -6.41426
653 -1.0134 -6.47428
654 -1.04702 -6.53451
655 -1.07986 -6.59445
656 -1.11293 -6.65587
657 -1.14534 -6.71691
658 -1.17731 -6.77798
659 -1.20109 -6.8141
660 -1.20446 -6.82073
661 -1.20698 -6.82682
662 -1.20889 -6.83345
663 -1.20972 -6.84015
664 -1.20932 -6.84658
665 -1.20803 -6.84999
666 -1.20806 -6.85012
667 -1.20818 -6.85077
668 -1.20679 -6.85227
669 -1.20476 -6.85384
670 -1.18744 -6.87313
671 -1.12953 -6.90098
672 -1.06609 -6.92865
673 -1.003 -6.95665
674 -0.940486 -6.9853
675 -0.878174 -7.01458
676 -0.816406 -7.04463
677 -0.754542 -7.07541
678 -0.692821 -7.10663
679 -0.631446 -7.13822
680 -0.570304 -7.1702
681 -0.509331 -7.2025
682 -0.448484 -7.23519
683 -0.387571 -7.26827
684 -0.327068 -7.30144
685 -0.266986 -7.33475
686 -0.206887 -7.36835
687 -0.146872 -7.40213
688 -0.0869307 -7.43609
689 -0.0270368 -7.47018
690 0.032751 -7.50438
691 0.0925759 -7.53871
692 0.152278 -7.57311
693 0.211849 -7.60755
694 0.27142 -7.64211
695 0.330993 -7.67673
696 0.390485 -7.7114
697 0.44994 -7.74614
698 0.509364 -7.78093
699 0.568773 -7.81577
700 0.628164 -7.85065
701 0.687516 -7.88554
702 0.746847 -7.92045
703 0.806162 -7.9554
704 0.86545 -7.99035
705 0.92475 -8.02531
706 0.984043 -8.06029
707 1.04333 -8.09528
708 1.10261 -8.13027
709 1.16188 -8.16527
710 1.22113 -8.20028
711 1.2804 -8.23531
712 1.33966 -8.27033
713 1.39892 -8.30537
714 1.45819 -8.34043
715 1.51743 -8.37548
716 1.57667 -8.41052
717 1.6359 -8.44558
718 1.69515 -8.48062
719 1.75439 -8.51568
720 1.78839 -8.53549
721 1.79592 -8.53992
722 1.80351 -8.54394
723 1.81144 -8.54704
724 1.8195 -8.5488
725 1.827 -8.54913
726 1.83269 -8.54807
727 1.83443 -8.54697
728 1.8345 -8.54789
729 1.83612 -8.54763
730 1.8386 -8.54567
731 1.86209 -8.53315
732 1.90019 -8.48024
733 1.93855 -8.4228
734 1.97726 -8.3656
735 2.0163 -8.30871
736 2.05586 -8.25228
737 2.09585 -8.19613
738 2.13626 -8.14046
739 2.17716 -8.08484
740 2.21829 -8.02952
741 2.25972 -7.97448
742 2.30136 -7.91957
743 2.34318 -7.86493
744 2.38522 -7.81033
745 2.42744 -7.75589
746 2.46979 -7.70152
747 2.51228 -7.64727
748 2.5549 -7.5931
749 2.5976 -7.53906
750 2.64036 -7.48511
751 2.68324 -7.43119
752 2.72615 -7.37734
753 2.7691 -7.32353
754 2.81214 -7.26969
755 2.85521 -7.21588
756 2.8983 -7.16217
757 2.94143 -7.10849
758 2.98458 -7.05482
759 3.02774 -7.00117
760 3.0709 -6.94754
761 3.11277 -6.89552
762 3.15726 -6.84031
763 3.20045 -6.78671
764 3.24365 -6.7331
765 3.28686 -6.67951
766 3.33008 -6.62592
767 3.37329 -6.57235
768 3.41652 -6.51877
769 3.45975 -6.46519
770 3.503 -6.41161
771 3.54625 -6.35803
772 3.58949 -6.30446
773 3.63272 -6.25088
774 3.67424 -6.19946
775 3.71922 -6.14377
776 3.76247 -6.09021
777 3.80573 -6.03666
778 3.84899 -5.98311
779 3.89225 -5.92957
780 3.93551 -5.87603
781 3.97876 -5.82247
782 4.02205 -5.76894
783 4.06533 -5.7154
784 4.10862 -5.66186
785 4.15192 -5.6083
786 4.19523 -5.55477
787 4.23854 -5.50128
788 4.28188 -5.44779
789 4.32521 -5.39431
790 4.34956 -5.36393
791 4.3544 -5.35792
792 4.35844 -5.35235
793 4.36152 -5.3468
794 4.36349 -5.34108
795 4.3642 -5.33558
796 4.36348 -5.33215
797 4.36349 -5.33134
798 4.36401 -5.33141
799 4.36499 -5.33128
800 4.36482 -5.3301
801 4.35377 -5.31039
802 4.30021 -5.27814
803 4.23967 -5.24491
804 4.18004 -5.21057
805 4.12086 -5.17512
806 4.06259 -5.13842
807 4.00488 -5.10053
808 3.94803 -5.06187
809 3.89202 -5.02234
810 3.83636 -4.98202
811 3.78128 -4.94107
812 3.72659 -4.8995
813 3.67229 -4.85735
814 3.61816 -4.81466
815 3.56436 -4.77158
816 3.51084 -4.72814
817 3.47211 -4.69977
818 3.46053 -4.69119
819 3.45644 -4.68813
820 3.4536 -4.68619
821 3.45078 -4.68451
822 3.44733 -4.68287
823 3.44365 -4.68175
824 3.44018 -4.68089
825 3.43657 -4.68064
826 3.43359 -4.68065
827 3.43103 -4.68103
828 3.42897 -4.68138
829 3.40361 -4.68197
830 3.34479 -4.70568
831 3.28161 -4.73386
832 3.21834 -4.7616
833 3.1746 -4.78647
834 3.16003 -4.79412
835 3.15312 -4.79761
836 3.14777 -4.80007
837 3.14222 -4.80234
838 3.13757 -4.80402
839 3.13399 -4.80479
840 3.13043 -4.80521
841 3.12699 -4.80522
842 3.12378 -4.80485
843 3.1213 -4.80429
844 3.11917 -4.80362
845 3.11672 -4.80265
846 3.11407 -4.80125
847 3.11153 -4.79964
848 3.10873 -4.79758
849 3.10603 -4.795
850 3.10353 -4.79243
851 3.10115 -4.78948
852 3.09916 -4.78658
853 3.09746 -4.78369
854 3.096 -4.78065
855 3.09485 -4.77747
856 3.09399 -4.77419
857 3.09352 -4.77075
858 3.09335 -4.7671
859 3.09383 -4.76351
860 3.09444 -4.76067
861 3.0953 -4.75817
862 3.09624 -4.75611
863 3.09717 -4.75422
864 3.09856 -4.75188
865 3.10079 -4.74907
866 3.10348 -4.74634
867 3.10629 -4.74394
868 3.10911 -4.74194
869 3.11192 -4.74016
870 3.11515 -4.73855
871 3.11864 -4.73718
872 3.12238 -4.73612
873 3.1262 -4.73551
874 3.12993 -4.73535
875 3.13344 -4.73564
876 3.13638 -4.7362
877 3.15775 -4.7346
878 3.21828 -4.75146
879 3.28456 -4.77236
880 3.35084 -4.79269
881 3.41722 -4.81248
882 3.4837 -4.83148
883 3.55024 -4.84981
884 3.61686 -4.86739
885 3.68388 -4.8846
886 3.75087 -4.90127
887 3.79392 -4.91549
888 3.80348 -4.91756
889 3.81443 -4.91957
890 3.82602 -4.92073
891 3.8373 -4.92062
892 3.84769 -4.91917
893 3.85698 -4.91642
894 3.86243 -4.91339
895 3.86467 -4.91197
896 3.86673 -4.9099
897 3.8687 -4.90768
898 3.87062 -4.90452
899 3.8722 -4.90125
900 3.88855 -4.87937
901 3.90858 -4.81713
902 3.92774 -4.75079
903 3.94715 -4.68447
904 3.96685 -4.6184
905 3.97639 -4.5703
906 3.9808 -4.55476
907 3.98361 -4.54644
908 3.98518 -4.54285
909 3.98633 -4.5411
910 3.98794 -4.53896
911 3.98982 -4.53676
912 3.99189 -4.53466
913 3.99458 -4.53234
914 3.99761 -4.53012
915 4.00061 -4.52832
916 4.00373 -4.52673
917 4.00716 -4.52548
918 4.01053 -4.52457
919 4.01404 -4.52407
920 4.01742 -4.52397
921 4.02064 -4.52423
922 4.0236 -4.52478
923 4.02609 -4.52559
924 4.02828 -4.52642
925 4.03048 -4.52758
926 4.03287 -4.52892
927 4.05852 -4.53722
928 4.10935 -4.57796
929 4.1619 -4.62281
930 4.21454 -4.66779
931 4.26665 -4.71213
932 4.31993 -4.75718
933 4.37284 -4.80164
934 4.42582 -4.84596
935 4.47886 -4.89012
936 4.53196 -4.93416
937 4.56642 -4.96789
938 4.57594 -4.97732
939 4.57884 -4.98
940 4.58109 -4.98219
941 4.58336 -4.98484
942 4.58551 -4.9879
943 4.58746 -4.99126
944 4.58912 -4.99487
945 4.59034 -4.99853
946 4.59123 -5.00212
947 4.5918 -5.00573
948 4.59223 -5.00906
949 4.59294 -5.01261
950 4.5937 -5.01634
951 4.5946 -5.01928
952 4.59577 -5.02191
953 4.59733 -5.02475
954 4.59898 -5.0273
955 4.60089 -5.02974
956 4.60325 -5.03237
957 4.60578 -5.0349
958 4.62754 -5.05736
959 4.66179 -5.08477
960 4.6748 -5.09493
961 4.67945 -5.09898
962 4.68181 -5.10149
963 4.68365 -5.10381
964 4.68525 -5.10623
965 4.68669 -5.10883
966 4.68802 -5.11177
967 4.68919 -5.11495
968 4.7022 -5.14332
969 4.71888 -5.20683
970 4.73498 -5.27388
971 4.75121 -5.34093
972 4.76762 -5.40783
973 4.78435 -5.47462
974 4.80139 -5.54132
975 4.81871 -5.6079
976 4.83625 -5.67449
977 4.85399 -5.74101
978 4.86207 -5.78061
979 4.86445 -5.78895
980 4.86698 -5.79623
981 4.87028 -5.80281
982 4.87359 -5.80711
983 4.87578 -5.8092
984 4.87795 -5.81061
985 4.87996 -5.8113
986 4.88211 -5.8118
987 4.88462 -5.81132
988 4.88637 -5.8107
989 4.8876 -5.81009
990 4.88927 -5.80952
991 4.89166 -5.80759
992 4.89397 -5.80553
993 4.89644 -5.80292
994 4.89869 -5.79967
995 4.90052 -5.79663
996 4.90213 -5.79337
997 4.9034 -5.78989
998 4.90431 -5.78649
999 4.9049 -5.78306
1000 4.90521 -5.77961
1001 4.91208 -5.75855
1002 4.91064 -5.69393
1003 4.90719 -5.62444
1004 4.90411 -5.55518
1005 4.89776 -5.50201
1006 4.89659 -5.48104
1007 4.89522 -5.46461
1008 4.89347 -5.45325
1009 4.89205 -5.44797
1010 4.89169 -5.44638
1011 4.89121 -5.44503
1012 4.89062 -5.44347
1013 4.88921 -5.44097
1014 4.887 -5.4381
1015 4.88471 -5.43556
1016 4.88239 -5.43323
1017 4.87989 -5.43101
1018 4.86372 -5.41058
1019 4.81115 -5.37155
1020 4.75464 -5.33167
1021 4.69791 -5.29203
1022 4.64118 -5.25258
1023 4.58442 -5.21319
1024 4.52766 -5.17385
1025 4.47088 -5.13452
1026 4.4141 -5.09523
1027 4.35733 -5.05601
1028 4.31949 -5.03417
1029 4.31278 -5.02956
1030 4.30676 -5.02576
1031 4.30048 -5.02282
1032 4.2941 -5.02107
1033 4.28794 -5.02055
1034 4.28251 -5.02129
1035 4.28004 -5.02282
1036 4.28021 -5.02224
1037 4.27919 -5.02233
1038 4.27757 -5.02437
1039 4.27623 -5.02646
1040 4.26074 -5.04081
1041 4.23847 -5.10095
1042 4.217 -5.16698
1043 4.19511 -5.23271
1044 4.17262 -5.298
1045 4.14925 -5.36295
1046 4.12494 -5.42778
1047 4.09996 -5.4924
1048 4.07439 -5.55654
1049 4.0483 -5.6205
1050 4.02178 -5.68429
1051 3.99482 -5.74786
1052 3.96747 -5.81141
1053 3.93992 -5.87472
1054 3.91222 -5.93781
1055 3.88431 -6.00081
1056 3.85624 -6.06382
1057 3.82804 -6.12676
1058 3.79972 -6.18961
1059 3.77132 -6.25238
1060 3.7428 -6.3151
1061 3.71423 -6.37776
1062 3.68559 -6.44036
1063 3.65687 -6.50295
1064 3.62814 -6.56546
1065 3.59936 -6.62794
1066 3.58081 -6.67088
1067 3.57448 -6.68458
1068 3.57094 -6.69126
1069 3.568 -6.6965
1070 3.56562 -6.70135
1071 3.5641 -6.70528
1072 3.5631 -6.70884
1073 3.56258 -6.71202
1074 3.56228 -6.71489
1075 3.55808 -6.74388
1076 3.56404 -6.80798
1077 3.57261 -6.87635
1078 3.58074 -6.94481
1079 3.58818 -7.01339
1080 3.59478 -7.08221
1081 3.60055 -7.15097
1082 3.60555 -7.21976
1083 3.60995 -7.2888
1084 3.61384 -7.35771
1085 3.61872 -7.39893
1086 3.61917 -7.40826
1087 3.6197 -7.41682
1088 3.62091 -7.42564
1089 3.62293 -7.43387
1090 3.62575 -7.44087
1091 3.62852 -7.44444
1092 3.62953 -7.44622
1093 3.63168 -7.44797
1094 3.63416 -7.44932
1095 3.63715 -7.45006
1096 3.64019 -7.45018
1097 3.64293 -7.44988
1098 3.66317 -7.45455
1099 3.72272 -7.43744
1100 3.78848 -7.41571
1101 3.85445 -7.39525
1102 3.92114 -7.37612
1103 3.98849 -7.35816
1104 4.05583 -7.34188
1105 4.12344 -7.32677
1106 4.1911 -7.31284
1107 4.25882 -7.29981
1108 4.32645 -7.28769
1109 4.39438 -7.27619
1110 4.4625 -7.26529
1111 4.5307 -7.25486
1112 4.59887 -7.24493
1113 4.66712 -7.23535
1114 4.73555 -7.2261
1115 4.80411 -7.21708
1116 4.87244 -7.20832
1117 4.94067 -7.19977
1118 5.00903 -7.19143
1119 5.07748 -7.18322
1120 5.14589 -7.17515
1121 5.21426 -7.1672
1122 5.28257 -7.15936
1123 5.3509 -7.15158
1124 5.41924 -7.14388
1125 5.48765 -7.13625
1126 5.5561 -7.12867
1127 5.62453 -7.12114
1128 5.69287 -7.11369
1129 5.76126 -7.10629
1130 5.82962 -7.0989
1131 5.89794 -7.09153
1132 5.96636 -7.08417
1133 6.03481 -7.0768
1134 6.10317 -7.06949
1135 6.17141 -7.0622
1136 6.23972 -7.05492
1137 6.30815 -7.04762
1138 6.37659 -7.04037
1139 6.42299 -7.03506
1140 6.44313 -7.03301
1141 6.45911 -7.03178
1142 6.47234 -7.03138
1143 6.48254 -7.03174
1144 6.4889 -7.03252
1145 6.49183 -7.03311
1146 6.49367 -7.03346
1147 6.49618 -7.03416
1148 6.49935 -7.03555
1149 6.50277 -7.0373
1150 6.53187 -7.04904
1151 6.58558 -7.08652
1152 6.64125 -7.12712
1153 6.69703 -7.16759
1154 6.7529 -7.20792
1155 6.80883 -7.24802
1156 6.86488 -7.28791
1157 6.92108 -7.32773
1158 6.97682 -7.36701
1159 7.03378 -7.40695
1160 7.06493 -7.43301
1161 7.07154 -7.43751
1162 7.07758 -7.44111
1163 7.08389 -7.4439
1164 7.09043 -7.44561
1165 7.0967 -7.44606
1166 7.10191 -7.44534
1167 7.10402 -7.44412
1168 7.10412 -7.44462
1169 7.10517 -7.44451
1170 7.10715 -7.443
1171 7.10917 -7.44051
1172 7.13108 -7.42528
1173 7.16504 -7.36945
1174 7.1996 -7.30952
1175 7.23467 -7.24987
1176 7.27019 -7.19051
1177 7.29153 -7.14432
1178 7.29882 -7.12962
1179 7.30175 -7.12391
1180 7.30369 -7.1202
1181 7.30513 -7.11638
1182 7.30606 -7.11286
1183 7.30658 -7.10955
1184 7.30663 -7.10644
1185 7.30641 -7.10381
1186 7.30603 -7.10149
1187 7.30723 -7.0777
1188 7.28677 -7.01807
1189 7.26202 -6.95349
1190 7.23776 -6.88877
1191 7.21412 -6.82391
1192 7.19123 -6.75871
1193 7.17051 -6.7126
1194 7.16415 -6.69673
1195 7.16047 -6.68696
1196 7.157 -6.67823
1197 7.15453 -6.6713
1198 7.15339 -6.66677
1199 7.15303 -6.66334
1200 7.15301 -6.66004
1201 7.15328 -6.65724
1202 7.15372 -6.6551
1203 7.15412 -6.6538
1204 7.15461 -6.65237
1205 7.15573 -6.65016
1206 7.15758 -6.64721
1207 7.16013 -6.64422
1208 7.16239 -6.6419
1209 7.16466 -6.63982
1210 7.16735 -6.63766
1211 7.17052 -6.63567
1212 7.17379 -6.63397
1213 7.17746 -6.63246
1214 7.18114 -6.63161
1215 7.18438 -6.63098
1216 7.18794 -6.63086
1217 7.19145 -6.63098
1218 7.19484 -6.63164
1219 7.19748 -6.63233
1220 7.19991 -6.63315
1221 7.20259 -6.63415
1222 7.22788 -6.63739
1223 7.28536 -6.66762
1224 7.34581 -6.70131
1225 7.40642 -6.73479
1226 7.46728 -6.76795
1227 7.52836 -6.80086
1228 7.58935 -6.83336
1229 7.65033 -6.86554
1230 7.71148 -6.89757
1231 7.77275 -6.92942
1232 7.80959 -6.95365
1233 7.8171 -6.95738
1234 7.8244 -6.96057
1235 7.83188 -6.96285
1236 7.83954 -6.96404
1237 7.847 -6.964
1238 7.85364 -6.96275
1239 7.85667 -6.96106
1240 7.85794 -6.96084
1241 7.86007 -6.95865
1242 7.86176 -6.95612
1243 7.86282 -6.95301
1244 7.86323 -6.94987
1245 7.86309 -6.94687
1246 7.86829 -6.92624
1247 7.8524 -6.86528
1248 7.83158 -6.799
1249 7.81172 -6.73234
1250 7.79324 -6.66543
1251 7.77495 -6.61623
1252 7.77088 -6.60007
1253 7.76885 -6.58907
1254 7.76788 -6.5822
1255 7.76796 -6.57924
1256 7.76831 -6.5771
1257 7.76876 -6.57541
1258 7.76926 -6.5741
1259 7.76993 -6.57273
1260 7.7713 -6.5704
1261 7.77339 -6.56765
1262 7.77533 -6.56531
1263 7.77785 -6.56277
1264 7.78042 -6.56056
1265 7.78313 -6.55851
1266 7.78625 -6.55657
1267 7.78953 -6.5548
1268 7.81375 -6.53806
1269 7.87472 -6.51399
1270 7.93948 -6.49052
1271 8.00448 -6.46721
1272 8.0695 -6.44399
1273 8.13446 -6.42071
1274 8.19935 -6.39737
1275 8.26419 -6.37397
1276 8.32898 -6.35053
1277 8.39377 -6.32706
1278 8.43211 -6.31674
1279 8.44123 -6.3133
1280 8.4487 -6.30997
1281 8.45496 -6.30613
1282 8.45872 -6.30267
1283 8.4605 -6.30033
1284 8.46153 -6.29807
1285 8.46213 -6.29562
1286 8.46173 -6.2931
1287 8.46119 -6.29168
1288 8.46089 -6.29097
1289 8.4562 -6.27306
1290 8.41024 -6.2348
1291 8.34991 -6.19619
1292 8.29134 -6.15863
1293 8.24388 -6.13501
1294 8.23393 -6.1294
1295 8.23214 -6.12747
1296 8.23016 -6.12509
1297 8.22804 -6.12222
1298 8.22599 -6.11907
1299 8.2243 -6.11587
1300 8.22291 -6.11249
1301 8.22182 -6.10897
1302 8.22106 -6.10537
1303 8.22063 -6.10187
1304 8.22053 -6.09846
1305 8.22077 -6.09522
1306 8.22128 -6.0925
1307 8.22197 -6.09005
1308 8.2229 -6.08791
1309 8.22394 -6.08559
1310 8.22579 -6.08265
1311 8.23744 -6.05655
1312 8.27793 -6.0054
1313 8.32234 -5.95232
1314 8.36666 -5.89924
1315 8.41082 -5.84611
1316 8.45481 -5.79287
1317 8.49853 -5.7396
1318 8.54204 -5.68621
1319 8.58544 -5.6327
1320 8.6287 -5.57909
1321 8.65768 -5.54878
1322 8.66282 -5.54214
1323 8.66727 -5.53578
1324 8.67059 -5.52934
1325 8.67269 -5.52257
1326 8.67301 -5.51746
1327 8.67272 -5.5152
1328 8.67244 -5.51423
1329 8.67258 -5.51437
1330 8.66672 -5.49233
1331 8.62552 -5.44658
1332 8.57467 -5.39913
1333 8.52473 -5.35172
1334 8.47604 -5.30284
1335 8.42848 -5.25248
1336 8.38257 -5.20104
1337 8.3483 -5.16867
1338 8.34068 -5.16067
1339 8.33879 -5.15767
1340 8.33717 -5.15458
1341 8.33826 -5.15834
1342 8.34238 -5.16827
1343 8.34612 -5.1768
1344 8.34911 -5.18254
1345 8.34964 -5.1837
1346 8.34937 -5.18274
1347 8.34868 -5.17965
1348 8.34831 -5.17621
1349 8.34835 -5.17272
1350 8.34878 -5.16926
1351 8.34955 -5.16577
1352 8.35066 -5.16259
1353 8.35194 -5.15956
1354 8.35363 -5.15684
1355 8.35533 -5.15399
1356 8.35792 -5.15105
1357 8.3602 -5.14872
1358 8.36245 -5.14677
1359 8.36494 -5.14476
1360 8.36799 -5.14292
1361 8.37087 -5.14137
1362 8.39071 -5.12302
1363 8.45293 -5.09709
1364 8.51773 -5.07251
1365 8.5824 -5.04811
1366 8.64712 -5.02373
1367 8.71176 -4.99932
1368 8.77171 -4.97661
1369 8.84076 -4.95035
1370 8.90524 -4.92576
1371 8.96971 -4.90113
1372 9.01188 -4.89014
1373 9.02036 -4.88674
1374 9.02787 -4.88322
1375 9.03374 -4.87953
1376 9.03704 -4.87642
1377 9.03877 -4.87398
1378 9.03991 -4.87132
1379 9.04042 -4.86829
1380 9.04019 -4.86537
1381 9.03955 -4.86353
1382 9.03939 -4.84052
1383 9.01051 -4.78596
1384 8.97438 -4.7274
1385 8.93906 -4.66851
1386 8.90524 -4.60878
1387 8.87309 -4.54772
1388 8.8424 -4.48538
1389 8.81342 -4.42249
1390 8.78604 -4.35905
1391 8.75997 -4.29512
1392 8.73513 -4.23087
1393 8.71124 -4.1661
1394 8.68821 -4.10103
1395 8.66604 -4.03594
1396 8.64455 -3.97068
1397 8.62361 -3.90525
1398 8.60315 -3.83965
1399 8.58305 -3.77366
1400 8.56324 -3.70752
1401 8.54371 -3.64121
1402 8.52451 -3.57503
1403 8.50558 -3.50888
1404 8.48681 -3.44259
1405 8.46826 -3.37633
1406 8.44979 -3.30999
1407 8.43143 -3.2436
1408 8.4132 -3.17723
1409 8.39505 -3.11083
1410 8.37697 -3.0444
1411 8.35898 -2.97798
1412 8.34103 -2.91157
1413 8.32312 -2.84512
1414 8.30524 -2.77863
1415 8.28739 -2.71217
1416 8.26956 -2.64571
1417 8.25176 -2.57921
1418 8.23398 -2.5127
1419 8.21622 -2.44619
1420 8.19845 -2.37967
1421 8.18072 -2.31315
1422 8.16297 -2.24664
1423 8.14523 -2.18012
1424 8.1275 -2.1136
1425 8.10976 -2.04708
1426 8.09203 -1.98057
1427 8.0743 -1.91405
1428 8.05657 -1.84753
1429 8.03885 -1.78101
1430 8.02115 -1.71448
1431 8.00345 -1.64795
1432 7.98574 -1.58143
1433 7.96804 -1.5149
1434 7.95035 -1.44837
1435 7.93265 -1.38185
1436 7.91495 -1.31532
1437 7.89726 -1.24879
1438 7.87956 -1.18227
1439 7.86186 -1.11574
1440 7.84417 -1.04922
1441 7.8339 -1.01111
1442 7.8316 -1.00271
1443 7.82917 -0.995293
1444 7.82612 -0.988765
1445 7.82307 -0.984573
1446 7.82099 -0.982234
1447 7.81891 -0.98062
1448 7.8172 -0.979745
1449 7.816 -0.979236
1450 7.81519 -0.979043
1451 7.81502 -0.978727
1452 7.8153 -0.978029
1453 7.81492 -0.977148
1454 7.79909 -0.98447
1455 7.76784 -1.03763
1456 7.73612 -1.10013
1457 7.70356 -1.16095
1458 7.66922 -1.22097
1459 7.63323 -1.2799
1460 7.59568 -1.33734
1461 7.55656 -1.39391
1462 7.51604 -1.44956
1463 7.4743 -1.50459
1464 7.43166 -1.55868
1465 7.38811 -1.6121
1466 7.34384 -1.66491
1467 7.29887 -1.71712
1468 7.25321 -1.76907
1469 7.20711 -1.82048
1470 7.16069 -1.87142
1471 7.11398 -1.92185
1472 7.06687 -1.9721
1473 7.01943 -2.0221
1474 6.97178 -2.07179
1475 6.92393 -2.1212
1476 6.87584 -2.17042
1477 6.8276 -2.21946
1478 6.77922 -2.26835
1479 6.73068 -2.31713
1480 6.68196 -2.36581
1481 6.63316 -2.41437
1482 6.5843 -2.46283
1483 6.5353 -2.51126
1484 6.48625 -2.55964
1485 6.43715 -2.60793
1486 6.38799 -2.65615
1487 6.33878 -2.7043
1488 6.2895 -2.75243
1489 6.24019 -2.80053
1490 6.19085 -2.84859
1491 6.15804 -2.88102
1492 6.14814 -2.89095
1493 6.14419 -2.89513
1494 6.14146 -2.89815
1495 6.13919 -2.90037
1496 6.13668 -2.90251
1497 6.1339 -2.90456
1498 6.13092 -2.90644
1499 6.12758 -2.90818
1500 6.12408 -2.90955
1501 6.1208 -2.91051
1502 6.11751 -2.91112
1503 6.11422 -2.91135
1504 6.11112 -2.91116
1505 6.10823 -2.91071
1506 6.10576 -2.90995
1507 6.10366 -2.90929
1508 6.10148 -2.90834
1509 6.09875 -2.90699
1510 6.09598 -2.90475
1511 6.09349 -2.9027
1512 6.09114 -2.90014
1513 6.08907 -2.89761
1514 6.08721 -2.89485
1515 6.08552 -2.892
1516 6.06691 -2.87326
1517 6.04084 -2.81279
1518 6.0152 -2.74857
1519 5.98966 -2.68434
1520 5.96413 -2.62014
1521 5.93849 -2.55604
1522 5.91274 -2.49192
1523 5.88692 -2.42781
1524 5.86108 -2.3638
1525 5.83518 -2.29984
1526 5.82317 -2.25721
1527 5.8196 -2.24902
1528 5.81591 -2.24152
1529 5.81242 -2.23619
1530 5.80974 -2.2335
1531 5.80735 -2.2319
1532 5.80507 -2.23102
1533 5.80314 -2.2307
1534 5.80124 -2.23082
1535 5.79961 -2.23143
1536 5.79866 -2.23199
1537 5.77992 -2.23836
1538 5.742 -2.28544
1539 5.70457 -2.34507
1540 5.66818 -2.40356
1541 5.64617 -2.44995
1542 5.64084 -2.45949
1543 5.6388 -2.46177
1544 5.63654 -2.4637
1545 5.63409 -2.46573
1546 5.63184 -2.46725
1547 5.62913 -2.46881
1548 5.62608 -2.47037
1549 5.62276 -2.47172
1550 5.61903 -2.4729
1551 5.61548 -2.47369
1552 5.6119 -2.47411
1553 5.6085 -2.47412
1554 5.60539 -2.47375
1555 5.60251 -2.47311
1556 5.59987 -2.47224
1557 5.57257 -2.46695
1558 5.51381 -2.44055
1559 5.45162 -2.41057
1560 5.38945 -2.3811
1561 5.32719 -2.35213
1562 5.26464 -2.32383
1563 5.20164 -2.29599
1564 5.13846 -2.26865
1565 5.07494 -2.24174
1566 5.01114 -2.21509
1567 4.97408 -2.19664
1568 4.9659 -2.19346
1569 4.95757 -2.19059
1570 4.94944 -2.18874
1571 4.94137 -2.18803
1572 4.93372 -2.18857
1573 4.92735 -2.19021
1574 4.92373 -2.19221
1575 4.92157 -2.19343
1576 4.9193 -2.19574
1577 4.91751 -2.1986
1578 4.91621 -2.20186
1579 4.91564 -2.2053
1580 4.91538 -2.20832
1581 4.90669 -2.22957
1582 4.91245 -2.29332
1583 4.921 -2.36212
1584 4.92837 -2.43096
1585 4.93438 -2.49998
1586 4.94378 -2.55142
1587 4.94499 -2.56935
1588 4.94523 -2.58202
1589 4.94513 -2.58954
1590 4.94474 -2.59209
1591 4.9443 -2.5933
1592 4.94366 -2.59471
1593 4.94273 -2.59644
1594 4.94156 -2.59833
1595 4.94001 -2.60048
1596 4.93793 -2.60287
1597 4.93557 -2.60519
1598 4.93284 -2.60749
1599 4.92979 -2.60968
1600 4.9265 -2.61167
1601 4.92289 -2.61346
1602 4.91914 -2.61475
1603 4.91544 -2.61578
1604 4.9113 -2.61641
1605 4.90745 -2.61651
1606 4.90421 -2.61625
1607 4.90153 -2.61568
1608 4.89947 -2.61506
1609 4.8977 -2.61441
1610 4.89557 -2.61358
1611 4.86991 -2.60834
1612 4.81503 -2.57387
1613 4.75762 -2.53508
1614 4.70021 -2.49638
1615 4.64279 -2.45784
1616 4.58528 -2.41955
1617 4.52765 -2.38144
1618 4.46995 -2.34347
1619 4.41221 -2.30565
1620 4.35438 -2.26797
1621 4.32086 -2.24042
1622 4.31436 -2.23637
1623 4.30801 -2.23287
1624 4.30134 -2.23018
1625 4.2945 -2.22864
1626 4.28792 -2.22837
1627 4.28222 -2.22932
1628 4.27982 -2.23071
1629 4.27977 -2.23037
1630 4.2787 -2.23076
1631 4.27682 -2.23256
1632 4.27498 -2.23515
1633 4.25497 -2.25206
1634 4.22406 -2.30886
1635 4.19287 -2.3705
1636 4.16118 -2.4317
1637 4.12898 -2.49297
1638 4.11077 -2.53882
1639 4.10516 -2.55111
1640 4.10271 -2.55513
1641 4.1008 -2.55741
1642 4.09868 -2.55959
1643 4.0963 -2.56171
1644 4.09359 -2.56381
1645 4.09052 -2.56584
1646 4.08707 -2.56772
1647 4.08351 -2.56924
1648 4.0799 -2.57041
1649 4.0761 -2.5712
1650 4.07244 -2.57161
1651 4.06892 -2.57166
1652 4.06546 -2.57137
1653 4.06252 -2.57064
1654 4.0604 -2.56996
1655 4.05864 -2.56925
1656 4.05625 -2.56835
1657 4.02888 -2.56094
1658 3.97443 -2.52521
1659 3.91781 -2.48551
1660 3.86115 -2.44582
1661 3.80452 -2.40628
1662 3.74775 -2.36694
1663 3.69089 -2.32774
1664 3.63401 -2.28871
1665 3.57705 -2.24981
1666 3.52003 -2.21099
1667 3.48782 -2.18347
1668 3.48094 -2.17902
1669 3.47402 -2.17496
1670 3.46677 -2.17185
1671 3.4591 -2.1699
1672 3.45151 -2.16931
1673 3.44452 -2.1701
1674 3.44118 -2.17182
1675 3.44085 -2.17162
1676 3.43964 -2.17216
1677 3.43803 -2.17387
1678 3.43655 -2.17617
1679 3.43526 -2.17875
1680 3.41864 -2.19769
1681 3.40037 -2.2601
1682 3.38293 -2.32713
1683 3.3649 -2.39392
1684 3.34632 -2.4603
1685 3.33815 -2.50972
1686 3.33428 -2.52439
1687 3.33223 -2.53128
1688 3.33109 -2.53359
1689 3.32991 -2.53531
1690 3.32804 -2.53763
1691 3.32564 -2.54033
1692 3.32328 -2.54258
1693 3.32078 -2.54463
1694 3.31817 -2.54643
1695 3.3154 -2.54804
1696 3.31215 -2.54954
1697 3.30888 -2.55062
1698 3.30561 -2.55143
1699 3.30188 -2.55184
1700 3.29833 -2.55177
1701 3.29522 -2.55134
1702 3.29245 -2.55067
1703 3.29023 -2.54976
1704 3.2882 -2.54899
1705 3.28523 -2.54751
1706 3.28181 -2.54508
1707 3.27897 -2.54255
1708 3.2766 -2.54022
1709 3.27412 -2.53751
1710 3.27175 -2.53408
1711 3.26979 -2.53063
1712 3.26803 -2.527
1713 3.26662 -2.52294
1714 3.26574 -2.51892
1715 3.26535 -2.51518
1716 3.26543 -2.51177
1717 3.26587 -2.50885
1718 3.26643 -2.5064
1719 3.26504 -2.48451
1720 3.28507 -2.42496
1721 3.30946 -2.36001
1722 3.33332 -2.29492
1723 3.35655 -2.22968
1724 3.37899 -2.16428
1725 3.40056 -2.09868
1726 3.4216 -2.03273
1727 3.44204 -1.96673
1728 3.46197 -1.90065
1729 3.47867 -1.85878
1730 3.48103 -1.85072
1731 3.48352 -1.84347
1732 3.48682 -1.83675
1733 3.49053 -1.83225
1734 3.49296 -1.82983
1735 3.49593 -1.82802
1736 3.49921 -1.82689
1737 3.50269 -1.82681
1738 3.50526 -1.82738
1739 3.50676 -1.82803
1740 3.50781 -1.82837
1741 3.52585 -1.83273
1742 3.57412 -1.87328
1743 3.62592 -1.91984
1744 3.67865 -1.96508
1745 3.73258 -2.00911
1746 3.78742 -2.0515
1747 3.84316 -2.09244
1748 3.89973 -2.13201
1749 3.95718 -2.17047
1750 4.01539 -2.20793
1751 4.07403 -2.24435
1752 4.13298 -2.27977
1753 4.19246 -2.31444
1754 4.2525 -2.34853
1755 4.31279 -2.382
1756 4.37307 -2.41474
1757 4.41526 -2.43908
1758 4.42907 -2.44653
1759 4.43698 -2.45014
1760 4.44409 -2.45276
1761 4.45021 -2.45445
1762 4.45478 -2.45524
1763 4.45806 -2.45548
1764 4.46069 -2.45538
1765 4.46289 -2.45513
1766 4.46486 -2.45469
1767 4.46674 -2.4542
1768 4.46909 -2.45334
1769 4.49485 -2.44594
1770 4.54904 -2.41392
1771 4.60701 -2.37659
1772 4.66496 -2.33931
1773 4.72307 -2.30204
1774 4.78127 -2.26491
1775 4.8395 -2.22796
1776 4.89783 -2.19119
1777 4.95629 -2.15452
1778 5.01481 -2.11801
1779 5.0489 -2.09249
1780 5.0565 -2.08769
1781 5.06278 -2.08339
1782 5.06714 -2.07916
1783 5.06965 -2.07591
1784 5.07121 -2.07253
1785 5.07173 -2.06941
1786 5.07144 -2.0671
1787 5.07098 -2.06584
1788 5.07083 -2.06525
1789 5.07068 -2.06472
1790 5.06991 -2.06359
1791 5.05835 -2.04909
1792 5.00006 -2.02398
1793 4.93546 -1.99889
1794 4.87152 -1.97289
1795 4.80812 -1.94579
1796 4.74552 -1.9175
1797 4.68351 -1.88802
1798 4.62184 -1.85735
1799 4.56043 -1.82569
1800 4.49972 -1.79338
1801 4.43945 -1.76034
1802 4.37922 -1.72657
1803 4.31931 -1.69232
1804 4.2597 -1.65763
1805 4.20018 -1.62242
1806 4.14102 -1.58696
1807 4.08229 -1.55121
1808 4.02347 -1.51506
1809 3.96502 -1.47877
1810 3.90681 -1.44228
1811 3.84852 -1.40545
1812 3.79025 -1.3684
1813 3.7322 -1.33128
1814 3.67429 -1.29405
1815 3.61645 -1.25669
1816 3.55864 -1.21922
1817 3.50098 -1.18169
1818 3.44337 -1.14406
1819 3.38581 -1.10636
1820 3.32829 -1.06857
1821 3.27076 -1.03071
1822 3.21332 -0.992803
1823 3.17457 -0.96787
1824 3.16355 -0.960531
1825 3.15981 -0.957712
1826 3.15728 -0.955523
1827 3.15505 -0.95328
1828 3.15315 -0.951111
1829 3.15145 -0.94885
1830 3.14971 -0.946201
1831 3.14806 -0.943031
1832 3.14687 -0.939991
1833 3.14592 -0.937033
1834 3.14532 -0.933685
1835 3.14511 -0.930174
1836 3.14543 -0.92677
1837 3.14597 -0.923765
1838 3.14682 -0.921317
1839 3.14749 -0.919188
1840 3.1487 -0.916683
1841 3.15491 -0.891209
1842 3.19269 -0.839029
1843 3.23504 -0.784534
1844 3.27733 -0.729863
1845 3.31949 -0.675096
1846 3.36133 -0.620212
1847 3.40294 -0.56514
1848 3.44436 -0.509938
1849 3.48566 -0.454597
1850 3.52679 -0.399163
1851 3.55683 -0.367004
1852 3.56189 -0.359987
1853 3.56581 -0.353696
1854 3.56882 -0.346982
1855 3.57064 -0.339791
1856 3.57087 -0.333295
1857 3.56992 -0.329868
1858 3.56988 -0.329558
1859 3.5703 -0.329469
1860 3.5701 -0.328724
1861 3.56884 -0.327444
1862 3.55285 -0.309078
1863 3.4951 -0.283093
1864 3.4308 -0.257223
1865 3.36677 -0.230467
1866 3.30333 -0.202782
1867 3.25618 -0.188004
1868 3.24445 -0.183371
1869 3.24021 -0.181015
1870 3.23767 -0.179159
1871 3.23536 -0.177048
1872 3.23296 -0.174634
1873 3.23086 -0.17214
1874 3.22872 -0.169244
1875 3.22684 -0.166288
1876 3.22513 -0.163078
1877 3.22363 -0.159346
1878 3.22257 -0.155735
1879 3.22193 -0.152147
1880 3.22173 -0.148702
1881 3.22195 -0.145533
1882 3.22245 -0.142755
1883 3.22312 -0.140268
1884 3.22394 -0.137691
1885 3.22822 -0.109876
1886 3.25728 -0.0516172
1887 3.28993 0.00929946
1888 3.32233 0.0702858
1889 3.35444 0.131376
1890 3.38616 0.192593
1891 3.41742 0.253928
1892 3.44838 0.315514
1893 3.47912 0.377357
1894 3.50963 0.439273
1895 3.53198 0.475253
1896 3.5356 0.482583
1897 3.53921 0.489188
1898 3.54298 0.493677
1899 3.54558 0.496209
1900 3.5489 0.498243
1901 3.55271 0.499393
1902 3.55619 0.499373
1903 3.5586 0.498794
1904 3.56014 0.498076
1905 3.56107 0.497532
1906 3.5772 0.492811
1907 3.61606 0.445876
1908 3.65653 0.38786
1909 3.69684 0.331894
1910 3.7389 0.277251
1911 3.7827 0.224073
1912 3.82816 0.172417
1913 3.87518 0.12212
1914 3.92355 0.0729314
1915 3.97302 0.0248962
1916 4.02344 -0.0221309
1917 4.07467 -0.0681795
1918 4.12662 -0.113364
1919 4.17924 -0.157775
1920 4.23255 -0.201514
1921 4.28659 -0.244778
1922 4.34094 -0.287403
1923 4.3955 -0.329368
1924 4.45043 -0.370887
1925 4.50572 -0.412079
1926 4.56111 -0.452781
1927 4.61679 -0.493257
1928 4.6729 -0.53362
1929 4.72918 -0.573795
1930 4.78538 -0.613643
1931 4.84165 -0.653301
1932 4.89799 -0.692828
1933 4.95445 -0.732225
1934 5.01096 -0.771537
1935 5.0675 -0.81072
1936 5.12414 -0.849813
1937 5.18088 -0.888866
1938 5.23766 -0.927838
1939 5.29447 -0.966744
1940 5.35129 -1.00557
1941 5.40814 -1.04436
1942 5.46501 -1.08308
1943 5.52193 -1.12175
1944 5.57887 -1.16038
1945 5.63588 -1.19902
1946 5.6929 -1.23764
1947 5.74994 -1.27623
1948 5.807 -1.31479
1949 5.86405 -1.3533
1950 5.92111 -1.3918
1951 5.97818 -1.43027
1952 6.03527 -1.46873
1953 6.09237 -1.50718
1954 6.14946 -1.54563
1955 6.20659 -1.58406
1956 6.26373 -1.62249
1957 6.32087 -1.66091
1958 6.378 -1.6993
1959 6.43514 -1.73769
1960 6.49229 -1.77608
1961 6.54944 -1.81445
1962 6.58237 -1.83664
1963 6.58996 -1.84169
1964 6.59734 -1.84611
1965 6.60489 -1.84949
1966 6.61274 -1.85159
1967 6.62023 -1.85217
1968 6.62498 -1.85117
1969 6.62646 -1.85086
1970 6.62738 -1.85094
1971 6.62924 -1.85046
1972 6.63173 -1.84841
1973 6.65497 -1.83675
1974 6.69407 -1.78523
1975 6.73406 -1.72892
1976 6.77467 -1.67308
1977 6.81589 -1.6177
1978 6.85772 -1.56296
1979 6.9002 -1.50883
1980 6.94329 -1.45505
1981 6.98679 -1.4017
1982 7.03072 -1.34879
1983 7.07525 -1.29598
1984 7.12016 -1.24327
1985 7.16518 -1.19102
1986 7.21043 -1.13904
1987 7.25589 -1.08726
1988 7.30155 -1.03568
1989 7.34727 -0.984346
1990 7.39312 -0.933205
1991 7.43919 -0.882015
1992 7.48543 -0.830913
1993 7.53175 -0.779874
1994 7.57811 -0.728952
1995 7.62456 -0.678088
1996 7.6711 -0.627234
1997 7.71768 -0.576465
1998 7.76427 -0.525778
1999 7.81089 -0.47512
2000 7.85756 -0.424493
2001 7.88406 -0.393577
2002 7.88852 -0.388737
2003 7.8911 -0.386263
2004 7.89347 -0.38427
2005 7.89586 -0.38248
2006 7.89881 -0.380564
2007 7.90218 -0.378668
2008 7.92971 -0.362699
2009 7.99034 -0.33819
2010 8.05475 -0.314153
2011 8.11928 -0.290272
2012 8.18383 -0.266459
2013 8.24839 -0.242593
2014 8.31296 -0.218679
2015 8.37749 -0.194751
2016 8.442 -0.170775
2017 8.50649 -0.146774
2018 8.57101 -0.122735
2019 8.63553 -0.0986639
2020 8.69998 -0.0745698
2021 8.76443 -0.0504671
2022 8.82892 -0.0263329
2023 8.8934 -0.00219552
2024 8.95787 0.0219554
2025 9.02234 0.0461196
2026 9.08679 0.070299
2027 9.15124 0.0944785
2028 9.21568 0.118685
2029 9.28014 0.142893
2030 9.34458 0.167119
2031 9.40901 0.191356
2032 9.47345 0.215587
2033 9.53789 0.239829
2034 9.60233 0.264072
2035 9.66677 0.288315
2036 9.73119 0.312588
2037 9.79561 0.336855
2038 9.86003 0.361115
2039 9.92444 0.385396
2040 9.96183 0.398923
2041 9.9706 0.402221
2042 9.97746 0.404558
2043 9.98202 0.405845
2044 9.98587 0.406705
2045 9.9895 0.407221
2046 9.9929 0.407503
2047 10.0238 0.411069
2048 10.0883 0.406093
2049 10.1567 0.398936
2050 10.2252 0.391999
2051 10.2938 0.385431
2052 10.3624 0.379327
2053 10.431 0.37372
2054 10.4997 0.368539
2055 10.5684 0.363716
2056 10.6372 0.359188
2057 10.7061 0.354896
2058 10.775 0.350811
2059 10.8439 0.346916
2060 10.9126 0.343194
2061 10.9806 0.339667
2062 11.05 0.33615
2063 11.1188 0.332757
2064 11.1876 0.329461
2065 11.2564 0.326228
2066 11.3251 0.323052
2067 11.3939 0.319934
2068 11.4626 0.316831
2069 11.5314 0.313766
2070 11.6002 0.310735
2071 11.6468 0.30795
2072 11.6681 0.307058
2073 11.6835 0.306572
2074 11.6957 0.306237
2075 11.7085 0.305488
2076 11.7203 0.304155
2077 11.7286 0.302596
2078 11.7329 0.301391
2079 11.7348 0.300808
2080 11.7368 0.300226
2081 11.7391 0.299076
2082 11.7415 0.297704
2083 11.7441 0.29594
2084 11.7465 0.293862
2085 11.749 0.291484
2086 11.7516 0.288414
2087 11.7536 0.285173
2088 11.7553 0.282152
2089 11.7568 0.278555
2090 11.7578 0.274861
2091 11.7583 0.271436
2092 11.7585 0.267991
2093 11.7582 0.264597
2094 11.7576 0.261904
2095 11.7605 0.237666
2096 11.7405 0.177008
2097 11.7166 0.111978
2098 11.6932 0.0468829
2099 11.6706 -0.0182817
2100 11.6487 -0.0838068
2101 11.6273 -0.149702
2102 11.6067 -0.215686
2103 11.5866 -0.281796
2104 11.567 -0.347976
2105 11.5499 -0.389137
2106 11.5476 -0.397197
2107 11.5461 -0.404431
2108 11.5453 -0.412291
2109 11.5454 -0.420009
2110 11.5468 -0.427104
2111 11.5483 -0.430246
2112 11.5486 -0.431401
2113 11.5508 -0.433538
2114 11.5531 -0.434974
2115 11.5555 -0.43596
2116 11.5585 -0.436307
2117 11.5614 -0.436072
2118 11.5644 -0.435476
2119 11.5865 -0.436848
2120 11.6448 -0.41243
2121 11.7077 -0.38336
2122 11.7712 -0.35541
2123 11.8167 -0.329535
2124 11.8309 -0.323157
2125 11.8394 -0.320147
2126 11.8454 -0.318513
2127 11.8497 -0.317913
2128 11.8535 -0.317768
2129 11.8567 -0.318008
2130 11.8589 -0.318423
2131 11.8603 -0.318855
2132 11.8617 -0.319413
2133 11.8635 -0.320265
2134 11.866 -0.321679
2135 11.8686 -0.323396
2136 11.8939 -0.338233
2137 11.9454 -0.378862
2138 11.9987 -0.422651
2139 12.0521 -0.466389
2140 12.1056 -0.510059
2141 12.1591 -0.553621
2142 12.2126 -0.597031
2143 12.2663 -0.640355
2144 12.3199 -0.683607
2145 12.3736 -0.726781
2146 12.4046 -0.754188
2147 12.4112 -0.759391
2148 12.4173 -0.763709
2149 12.4242 -0.767395
2150 12.4315 -0.769943
2151 12.4388 -0.771038
2152 12.4435 -0.770481
2153 12.4452 -0.770174
2154 12.4466 -0.76999
2155 12.4487 -0.769252
2156 12.4747 -0.763407
2157 12.528 -0.728906
2158 12.5849 -0.689586
2159 12.6423 -0.651178
2160 12.7002 -0.613677
2161 12.7585 -0.577249
2162 12.8174 -0.54174
2163 12.877 -0.506937
2164 12.937 -0.472873
2165 12.9968 -0.439693
2166 13.0567 -0.40748
2167 13.1172 -0.375525
2168 13.178 -0.344246
2169 13.2394 -0.313301
2170 13.3013 -0.282659
2171 13.3636 -0.252175
2172 13.4256 -0.222135
2173 13.4877 -0.192363
2174 13.55 -0.162745
2175 13.6123 -0.133267
2176 13.6746 -0.103959
2177 13.737 -0.0747656
2178 13.7994 -0.0456545
2179 13.8618 -0.0166405
2180 13.9242 0.0123073
2181 13.9866 0.0411496
2182 14.0491 0.0699774
2183 14.1119 0.0988769
2184 14.1746 0.127667
2185 14.2373 0.156353
2186 14.2989 0.184507
2187 14.3629 0.21368
2188 14.4256 0.24222
2189 14.4882 0.270702
2190 14.5509 0.299174
2191 14.6136 0.327633
2192 14.6762 0.356103
2193 14.7389 0.384566
2194 14.8016 0.413024
2195 14.8643 0.441482
2196 14.927 0.469935
2197 14.9896 0.498381
2198 15.0523 0.526825
2199 15.115 0.55527
2200 15.1777 0.583715
2201 15.2404 0.612149
2202 15.3031 0.6406
2203 15.3658 0.669027
2204 15.4285 0.69747
2205 15.4912 0.725874
2206 15.527 0.742359
2207 15.5348 0.745859
2208 15.5426 0.748974
2209 15.5514 0.751446
2210 15.5609 0.75278
2211 15.5709 0.752684
2212 15.5808 0.750818
2213 15.5863 0.747445
2214 15.5885 0.746828
2215 15.5911 0.744642
2216 15.5931 0.7418
2217 15.5944 0.738355
2218 15.5943 0.73479
2219 15.5937 0.732553
2220 15.5931 0.731272
2221 15.5926 0.730259
2222 15.586 0.718268
2223 15.5342 0.687049
2224 15.471 0.655621
2225 15.4093 0.624349
2226 15.3488 0.591024
2227 15.2899 0.555639
2228 15.233 0.518252
2229 15.1771 0.478495
2230 15.1223 0.436788
2231 15.0688 0.393575
2232 15.0164 0.348947
2233 14.965 0.303101
2234 14.9285 0.272346
2235 14.9246 0.26886
2236 14.9248 0.268956
2237 14.925 0.269013
2238 14.9252 0.269268
2239 14.9255 0.269492
2240 14.9255 0.269465
2241 14.9246 0.268131
2242 14.9227 0.265053
2243 14.9213 0.26173
2244 14.9203 0.25826
2245 14.9197 0.254739
2246 14.9195 0.25146
2247 14.9155 0.2246
2248 14.9198 0.160369
2249 14.9263 0.0914868
2250 14.9347 0.0477832
2251 14.9357 0.0422218
2252 14.9356 0.0422985
2253 14.9355 0.0423734
2254 14.9354 0.0424448
2255 14.9354 0.0425408
2256 14.9353 0.0426068
2257 14.9353 0.042664
2258 14.9353 0.0427148
2259 14.9352 0.0427599
2260 14.9352 0.0427996
2261 14.9352 0.0428345
2262 14.9351 0.0428652
2263 14.9351 0.0428921
2264 14.9351 0.0429147
2265 14.9351 0.0429339
2266 14.9351 0.0429512
2267 14.9351 0.0429665
2268 14.935 0.0429798
2269 14.935 0.0429914
2270 14.935 0.0430005
2271 14.935 0.043008
2272 14.935 0.0430151
2273 14.935 0.0430204
2274 14.935 0.0430245
2275 14.935 0.0430281
2276 14.935 0.0430308
2277 14.935 0.043033
2278 14.935 0.0430347
2279 14.935 0.0430349
2280 14.935 0.0430349
2281 14.935 0.0430354
2282 14.935 0.0430352
2283 14.935 0.0430347
2284 14.935 0.043034
2285 14.935 0.043033
2286 14.935 0.0430319
2287 14.935 0.04303
2288 14.935 0.0430271
2289 14.935 0.0430246
2290 14.935 0.0430212
2291 14.935 0.0430187
2292 14.935 0.0430161
2293 14.935 0.0430137
2294 14.935 0.0430112
2295 14.935 0.0430082
2296 14.935 0.0430045
2297 14.935 0.0430012
2298 14.935 0.0429985
2299 14.935 0.0429951
2300 14.935 0.0429913
2301 14.935 0.042988
2302 14.935 0.0429847
2303 14.935 0.0429811
2304 14.935 0.0429778
2305 14.935 0.0429745
2306 14.935 0.0429705
2307 14.935 0.042966
2308 14.935 0.0429622
2309 14.935 0.0429582
2310 14.935 0.0429539
2311 14.935 0.0429499
2312 14.935 0.0429462
2313 14.935 0.0429427
2314 14.935 0.0429394
2315 14.935 0.0429362
2316 14.935 0.0429321
2317 14.935 0.042928
2318 14.935 0.0429247
2319 14.935 0.0429213
2320 14.935 0.0429178
2321 14.935 0.0429143
2322 14.935 0.0429109
2323 14.935 0.0429073
2324 14.935 0.0429038
2325 14.935 0.0429
2326 14.935 0.0428953
2327 14.935 0.0428902
2328 14.935 0.042886
2329 14.935 0.042882
2330 14.935 0.0428778
2331 14.935 0.042874
2332 14.935 0.0428701
2333 14.935 0.0428662
2334 14.935 0.0428625
2335 14.935 0.0428592
2336 14.935 0.0428552
2337 14.935 0.0428505
2338 14.935 0.0428464
2339 14.935 0.042843
2340 14.935 0.0428392
2341 14.935 0.0428351
2342 14.935 0.0428312
2343 14.935 0.0428276
2344 14.935 0.0428242
2345 14.935 0.0428209
2346 14.935 0.0428167
2347 14.935 0.0428115
2348 14.935 0.0428072
2349 14.935 0.0428038
2350 14.935 0.0428002
2351 14.935 0.0427962
2352 14.935 0.0427924
2353 14.935 0.0427889
2354 14.935 0.0427854
2355 14.935 0.042782
2356 14.935 0.0427779
2357 14.935 0.0427728
2358 14.935 0.0427685
2359 14.935 0.042765
2360 14.935 0.0427609
2361 14.935 0.0427566
2362 14.935 0.0427528
2363 14.935 0.0427492
2364 14.935 0.0427457
2365 14.935 0.0427424
2366 14.935 0.0427385
2367 14.935 0.0427338
2368 14.935 0.0427298
2369 14.935 0.0427264
2370 14.935 0.0427221
2371 14.935 0.0427174
2372 14.935 0.0427136
2373 14.935 0.04271
2374 14.935 0.0427065
2375 14.935 0.0427032
2376 14.935 0.0426995
2377 14.935 0.0426949
2378 14.935 0.0426907
2379 14.935 0.0426873
2380 14.935 0.042683
2381 14.935 0.0426784
2382 14.935 0.0426742
2383 14.935 0.0426703
2384 14.935 0.0426667
2385 14.935 0.0426632
2386 14.935 0.0426599
2387 14.935 0.0426562
2388 14.935 0.0426518
2389 14.935 0.0426471
2390 14.935 0.042643
2391 14.935 0.0426396
2392 14.935 0.0426352
2393 14.935 0.0426305
2394 14.935 0.0426267
2395 14.935 0.0426229
2396 14.935 0.0426189
2397 14.935 0.0426152
2398 14.935 0.0426118
2399 14.935 0.0426079
2400 14.935 0.0426033
2401 14.935 0.0425992
2402 14.935 0.0425958
2403 14.935 0.0425918
2404 14.935 0.0425876
2405 14.935 0.0425837
2406 14.935 0.04258
2407 14.935 0.0425763
2408 14.935 0.0425729
2409 14.935 0.0425695
2410 14.935 0.0425657
2411 14.935 0.0425609
2412 14.935 0.0425557
2413 14.935 0.0425514
2414 14.935 0.0425479
2415 14.935 0.0425438
2416 14.935 0.0425395
2417 14.935 0.0425359
2418 14.935 0.0425323
2419 14.935 0.0425287
2420 14.935 0.0425252
2421 14.935 0.0425218
2422 14.935 0.0425176
2423 14.935 0.0425126
2424 14.935 0.0425083
2425 14.935 0.0425049
2426 14.935 0.0425012
2427 14.935 0.0424975
2428 14.935 0.0424938
2429 14.935 0.0424903
2430 14.935 0.0424869
2431 14.935 0.0424828
2432 14.935 0.0424786
2433 14.935 0.0424752
2434 14.935 0.0424714
2435 14.935 0.0424677
2436 14.935 0.0424642
2437 14.935 0.0424605
2438 14.935 0.042457
2439 14.935 0.0424531
2440 14.935 0.0424492
2441 14.935 0.0424458
2442 14.935 0.0424416
2443 14.935 0.0424373
2444 14.935 0.0424337
2445 14.935 0.0424302
2446 14.935 0.0424267
2447 14.935 0.0424228
2448 14.935 0.042418
2449 14.935 0.0424137
2450 14.935 0.0424103
2451 14.935 0.0424067
2452 14.935 0.0424029
2453 14.935 0.0423992
2454 14.935 0.0423955
2455 14.935 0.042392
2456 14.935 0.0423877
2457 14.935 0.0423835
2458 14.935 0.04238
2459 14.935 0.0423758
2460 14.935 0.0423712
2461 14.935 0.0423673
2462 14.935 0.0423638
2463 14.935 0.0423605
2464 14.935 0.0423568
2465 14.935 0.0423524
2466 14.935 0.0423484
2467 14.935 0.042344
2468 14.935 0.0423394
2469 14.935 0.0423355
2470 14.935 0.0423317
2471 14.935 0.042328
2472 14.935 0.0423241
2473 14.935 0.0423195
2474 14.935 0.0423155
2475 14.935 0.0423115
2476 14.935 0.0423073
2477 14.935 0.0423036
2478 14.935 0.0423001
2479 14.935 0.0422966
2480 14.935 0.0422928
2481 14.935 0.042288
2482 14.935 0.0422828
2483 14.935 0.0422785
2484 14.935 0.0422745
2485 14.935 0.0422702
2486 14.935 0.0422666
2487 14.935 0.0422631
2488 14.935 0.0422596
2489 14.935 0.0422563
2490 14.935 0.0422522
2491 14.935 0.042248
2492 14.935 0.0422446
2493 14.935 0.0422411
2494 14.9349 0.0422375
2495 14.9349 0.0422337
2496 14.9349 0.04223
2497 14.9349 0.0422263
2498 14.9349 0.0422228
2499 14.9349 0.0422185
2500 14.9349 0.0422134
2501 14.9349 0.0422091
2502 14.9349 0.0422049
2503 14.9349 0.0422003
2504 14.9349 0.0421961
2505 14.9349 0.0421922
2506 14.9349 0.0421888
2507 14.9349 0.0421855
2508 14.9349 0.0421818
2509 14.9349 0.0421774
2510 14.9349 0.0421733
2511 14.9349 0.0421699
2512 14.9349 0.0421658
2513 14.9349 0.0421611
2514 14.9349 0.0421573
2515 14.9349 0.0421533
2516 14.9349 0.0421496
2517 14.9349 0.0421456
2518 14.9349 0.042141
2519 14.9349 0.042137
2520 14.9349 0.042133
2521 14.9349 0.0421288
2522 14.9349 0.042125
2523 14.9349 0.0421212
2524 14.9349 0.0421176
2525 14.9349 0.042114
2526 14.9349 0.0421101
2527 14.9349 0.0421054
2528 14.9349 0.0421011
2529 14.9349 0.0420976
2530 14.9349 0.0420935
2531 14.9349 0.0420894
2532 14.9349 0.0420859
2533 14.9349 0.0420822
2534 14.9349 0.0420787
2535 14.9349 0.0420748
2536 14.9349 0.04207
2537 14.9349 0.0420657
2538 14.9349 0.0420623
2539 14.9349 0.0420585
2540 14.9349 0.0420544
2541 14.9349 0.0420506
2542 14.9349 0.0420471
2543 14.9349 0.0420435
2544 14.9349 0.0420402
2545 14.9349 0.0420359
2546 14.9349 0.0420317
2547 14.9349 0.0420282
2548 14.9349 0.042024
2549 14.9349 0.0420194
2550 14.9349 0.0420155
2551 14.9349 0.0420118
2552 14.9349 0.0420083
2553 14.9349 0.0420047
2554 14.9349 0.0420003
2555 14.9349 0.0419956
2556 14.9349 0.0419915
2557 14.9349 0.0419872
2558 14.9349 0.0419825
2559 14.9349 0.0419787
2560 14.9349 0.0419749
2561 14.9349 0.0419712
2562 14.9349 0.0419679
2563 14.9349 0.0419639
2564 14.9349 0.04196
2565 14.9349 0.0419566
2566 14.9349 0.0419525
2567 14.9349 0.0419483
2568 14.9349 0.0419447
2569 14.9349 0.0419411
2570 14.9349 0.0419376
2571 14.9349 0.0419338
2572 14.9349 0.041929
2573 14.9349 0.0419239
2574 14.9349 0.0419196
2575 14.9349 0.0419155
2576 14.9349 0.0419113
2577 14.9349 0.0419077
2578 14.9349 0.0419042
2579 14.9349 0.0419007
2580 14.9349 0.0418974
2581 14.9349 0.0418932
2582 14.9349 0.041889
2583 14.9349 0.0418856
2584 14.9349 0.0418822
2585 14.9349 0.0418786
2586 14.9349 0.0418747
2587 14.9349 0.0418711
2588 14.9349 0.0418674
2589 14.9349 0.0418638
2590 14.9349 0.0418596
2591 14.9349 0.0418544
2592 14.9349 0.0418502
2593 14.9349 0.041846
2594 14.9349 0.0418413
2595 14.9349 0.0418372
2596 14.9349 0.0418333
2597 14.9349 0.0418298
2598 14.9349 0.0418265
2599 14.9349 0.0418228
2600 14.9349 0.0418185
2601 14.9349 0.0418144
2602 14.9349 0.0418109
2603 14.9349 0.0418066
2604 14.9349 0.0418022
2605 14.9349 0.0417984
2606 14.9349 0.0417944
2607 14.9349 0.0417907
2608 14.9349 0.0417868
2609 14.9349 0.0417822
2610 14.9349 0.0417781
2611 14.9349 0.0417742
2612 14.9349 0.0417699
2613 14.9349 0.0417661
2614 14.9349 0.0417624
2615 14.9349 0.0417587
2616 14.9349 0.0417551
2617 14.9349 0.0417512
2618 14.9349 0.0417465
2619 14.9349 0.0417422
2620 14.9349 0.0417387
2621 14.9349 0.0417346
2622 14.9349 0.0417306
2623 14.9349 0.041727
2624 14.9349 0.0417234
2625 14.9349 0.0417198
2626 14.9349 0.0417159
2627 14.9349 0.0417111
2628 14.9349 0.0417071
2629 14.9349 0.0417035
2630 14.9349 0.0416997
2631 14.9349 0.0416956
2632 14.9349 0.0416918
2633 14.9349 0.0416882
2634 14.9349 0.0416847
2635 14.9349 0.0416814
2636 14.9349 0.0416771
2637 14.9349 0.0416728
2638 14.9349 0.0416694
2639 14.9349 0.0416652
2640 14.9349 0.0416608
2641 14.9349 0.0416567
2642 14.9349 0.041653
2643 14.9349 0.0416496
2644 14.9349 0.0416459
2645 14.9349 0.0416416
2646 14.9349 0.0416369
2647 14.9349 0.0416328
2648 14.9349 0.0416284
2649 14.9349 0.0416238
2650 14.9349 0.0416199
2651 14.9349 0.0416162
2652 14.9349 0.0416125
2653 14.9349 0.0416091
2654 14.9349 0.0416051
2655 14.9349 0.0416012
2656 14.9349 0.0415978
2657 14.9349 0.0415938
2658 14.9349 0.0415895
2659 14.9349 0.0415859
2660 14.9349 0.0415824
2661 14.9349 0.0415789
2662 14.9349 0.0415751
2663 14.9349 0.0415703
2664 14.9349 0.0415651
2665 14.9349 0.0415608
2666 14.9349 0.0415567
2667 14.9349 0.0415525
2668 14.9349 0.0415489
2669 14.9349 0.0415454
2670 14.9349 0.0415419
2671 14.9349 0.0415386
2672 14.9349 0.0415345
2673 14.9349 0.0415303
2674 14.9349 0.0415269
2675 14.9349 0.0415234
2676 14.9349 0.0415197
2677 14.9349 0.041516
2678 14.9349 0.0415123
2679 14.9349 0.0415086
2680 14.9349 0.0415051
2681 14.9349 0.0415008
2682 14.9349 0.0414957
2683 14.9349 0.0414914
2684 14.9349 0.0414872
2685 14.9349 0.0414826
2686 14.9349 0.0414785
2687 14.9349 0.0414746
2688 14.9349 0.0414711
2689 14.9349 0.0414678
2690 14.9349 0.0414641
2691 14.9349 0.0414597
2692 14.9349 0.0414556
2693 14.9349 0.0414522
2694 14.9349 0.0414479
2695 14.9349 0.0414435
2696 14.9349 0.0414397
2697 14.9349 0.0414357
2698 14.9349 0.041432
2699 14.9349 0.041428
2700 14.9349 0.0414234
2701 14.9349 0.0414194
2702 14.9349 0.0414154
2703 14.9349 0.0414112
2704 14.9349 0.0414074
2705 14.9349 0.0414036
2706 14.9349 0.0414
2707 14.9349 0.0413964
2708 14.9349 0.0413925
2709 14.9349 0.0413878
2710 14.9349 0.0413835
2711 14.9349 0.04138
2712 14.9349 0.0413759
2713 14.9349 0.0413718
2714 14.9349 0.0413683
2715 14.9349 0.0413649
2716 14.9349 0.0413611
2717 14.9349 0.0413572
2718 14.9349 0.0413524
2719 14.9349 0.0413482
2720 14.9349 0.0413448
2721 14.9349 0.041341
2722 14.9349 0.0413368
2723 14.9349 0.0413332
2724 14.9349 0.0413295
2725 14.9349 0.041326
2726 14.9349 0.0413226
2727 14.9349 0.0413184
2728 14.9349 0.0413141
2729 14.9349 0.0413107
2730 14.9349 0.0413064
2731 14.9349 0.0413018
2732 14.9349 0.0412979
2733 14.9349 0.0412942
2734 14.9349 0.0412908
2735 14.9349 0.0412872
2736 14.9349 0.0412828
2737 14.9349 0.0412781
2738 14.9349 0.041274
2739 14.9349 0.0412697
2740 14.9349 0.041265
2741 14.9349 0.0412611
2742 14.9349 0.0412574
2743 14.9349 0.0412537
2744 14.9349 0.0412503
2745 14.9349 0.0412464
2746 14.9349 0.0412424
2747 14.9349 0.041239
2748 14.9349 0.041235
2749 14.9349 0.0412308
2750 14.9349 0.0412271
2751 14.9349 0.0412236
2752 14.9349 0.0412201
2753 14.9349 0.0412163
2754 14.9349 0.0412115
2755 14.9349 0.0412066
2756 14.9349 0.041202
2757 14.9349 0.041198
2758 14.9349 0.0411938
2759 14.9349 0.0411902
2760 14.9349 0.0411866
2761 14.9349 0.0411832
2762 14.9349 0.0411799
2763 14.9349 0.0411757
2764 14.9349 0.0411715
2765 14.9349 0.0411681
2766 14.9349 0.0411647
2767 14.9349 0.041161
2768 14.9349 0.0411573
2769 14.9349 0.0411536
2770 14.9349 0.0411499
2771 14.9349 0.0411463
2772 14.9349 0.0411422
2773 14.9349 0.0411369
2774 14.9349 0.0411326
2775 14.9349 0.0411284
2776 14.9349 0.0411238
2777 14.9349 0.0411197
2778 14.9349 0.0411158
2779 14.9349 0.0411121
2780 14.9349 0.0411087
2781 14.9349 0.0411053
2782 14.9349 0.0411017
2783 14.9349 0.0410973
2784 14.9349 0.0410926
2785 14.9349 0.0410885
2786 14.9349 0.041085
2787 14.9349 0.0410807
2788 14.9349 0.0410764
2789 14.9349 0.0410723
2790 14.9349 0.0410685
2791 14.9349 0.0410645
2792 14.9349 0.0410608
2793 14.9349 0.0410574
2794 14.9349 0.0410535
2795 14.9349 0.0410489
2796 14.9349 0.0410448
2797 14.9349 0.0410414
2798 14.9349 0.0410374
2799 14.9349 0.0410332
2800 14.9349 0.0410293
2801 14.9349 0.0410257
2802 14.9349 0.0410221
2803 14.9349 0.0410184
2804 14.9349 0.0410149
2805 14.9349 0.041011
2806 14.9349 0.0410062
2807 14.9349 0.041002
2808 14.9349 0.0409979
2809 14.9349 0.0409936
2810 14.9349 0.0409901
2811 14.9349 0.0409865
2812 14.9349 0.0409831
2813 14.9349 0.0409798
2814 14.9349 0.0409759
2815 14.9349 0.040972
2816 14.9349 0.0409685
2817 14.9349 0.0409651
2818 14.9349 0.0409613
2819 14.9349 0.0409574
2820 14.9349 0.0409537
2821 14.9349 0.04095
2822 14.9349 0.0409465
2823 14.9349 0.0409423
2824 14.9349 0.0409371
2825 14.9349 0.0409328
2826 14.9349 0.0409286
2827 14.9349 0.040924
2828 14.9349 0.0409199
2829 14.9349 0.040916
2830 14.9349 0.0409125
2831 14.9349 0.0409092
2832 14.9349 0.0409055
2833 14.9349 0.0409011
2834 14.9349 0.0408971
2835 14.9349 0.0408936
2836 14.9349 0.0408893
2837 14.9349 0.0408849
2838 14.9349 0.0408811
2839 14.9349 0.0408771
2840 14.9349 0.0408734
2841 14.9349 0.0408695
2842 14.9349 0.0408649
2843 14.9349 0.0408609
2844 14.9349 0.0408567
2845 14.9349 0.0408522
2846 14.9349 0.0408484
2847 14.9349 0.0408448
2848 14.9349 0.0408412
2849 14.9349 0.0408376
2850 14.9349 0.0408337
2851 14.9349 0.040829
2852 14.9349 0.0408247
2853 14.9349 0.0408213
2854 14.9349 0.0408172
2855 14.9349 0.0408132
2856 14.9349 0.0408097
2857 14.9349 0.040806
2858 14.9349 0.0408025
2859 14.9349 0.0407987
2860 14.9349 0.0407939
2861 14.9349 0.0407896
2862 14.9349 0.0407862
2863 14.9349 0.0407824
2864 14.9349 0.0407783
2865 14.9349 0.0407744
2866 14.9349 0.0407707
2867 14.9349 0.0407672
2868 14.9349 0.0407638
2869 14.9349 0.0407596
2870 14.9349 0.0407553
2871 14.9349 0.0407519
2872 14.9349 0.0407476
2873 14.9349 0.040743
2874 14.9349 0.0407391
2875 14.9349 0.0407355
2876 14.9349 0.040732
2877 14.9349 0.0407284
2878 14.9349 0.040724
2879 14.9349 0.0407193
2880 14.9349 0.0407152
2881 14.9349 0.0407109
2882 14.9349 0.0407062
2883 14.9349 0.0407024
2884 14.9349 0.0406986
2885 14.9349 0.0406949
2886 14.9349 0.0406916
2887 14.9349 0.0406876
2888 14.9349 0.0406837
2889 14.9349 0.0406803
2890 14.9349 0.0406763
2891 14.9349 0.040672
2892 14.9349 0.0406684
2893 14.9349 0.0406649
2894 14.9349 0.0406612
2895 14.9349 0.0406573
2896 14.9349 0.0406527
2897 14.9349 0.0406475
2898 14.9349 0.0406433
2899 14.9349 0.0406392
2900 14.9349 0.040635
2901 14.9349 0.0406315
2902 14.9349 0.0406279
2903 14.9349 0.0406244
2904 14.9349 0.0406211
2905 14.9349 0.0406173
2906 14.9349 0.0406133
2907 14.9349 0.0406099
2908 14.9349 0.0406064
2909 14.9349 0.0406026
2910 14.9349 0.0405987
2911 14.9349 0.0405951
2912 14.9349 0.0405914
2913 14.9349 0.0405879
2914 14.9349 0.0405836
2915 14.9349 0.0405785
2916 14.9349 0.0405742
2917 14.9349 0.04057
2918 14.9349 0.0405654
2919 14.9349 0.0405612
2920 14.9349 0.0405573
2921 14.9349 0.0405539
2922 14.9349 0.0405506
2923 14.9349 0.0405469
2924 14.9349 0.0405425
2925 14.9349 0.0405384
2926 14.9349 0.040535
2927 14.9349 0.0405306
2928 14.9349 0.0405263
2929 14.9349 0.0405225
2930 14.9349 0.0405185
2931 14.9349 0.0405148
2932 14.9349 0.0405109
2933 14.9349 0.0405063
2934 14.9349 0.0405022
2935 14.9349 0.040498
2936 14.9349 0.0404936
2937 14.9349 0.0404898
2938 14.9349 0.0404861
2939 14.9349 0.0404825
2940 14.9349 0.040479
2941 14.9349 0.0404751
2942 14.9349 0.0404704
2943 14.9349 0.0404661
2944 14.9349 0.0404626
2945 14.9349 0.0404586
2946 14.9349 0.0404546
2947 14.9349 0.0404511
2948 14.9349 0.0404474
2949 14.9349 0.0404439
2950 14.9349 0.0404401
2951 14.9349 0.0404353
2952 14.9349 0.040431
2953 14.9349 0.0404276
2954 14.9349 0.0404239
2955 14.9349 0.0404197
2956 14.9349 0.0404158
2957 14.9349 0.0404121
2958 14.9349 0.0404086
2959 14.9349 0.0404052
2960 14.9349 0.040401
2961 14.9349 0.0403967
2962 14.9349 0.0403933
2963 14.9349 0.040389
2964 14.9349 0.0403844
2965 14.9349 0.0403805
2966 14.9349 0.0403769
2967 14.9349 0.0403734
2968 14.9349 0.0403698
2969 14.9349 0.0403654
2970 14.9349 0.0403607
2971 14.9349 0.0403568
2972 14.9349 0.0403523
2973 14.9349 0.0403477
2974 14.9349 0.0403438
2975 14.9349 0.0403401
2976 14.9349 0.0403364
2977 14.9349 0.040333
2978 14.9349 0.0403291
2979 14.9349 0.0403251
2980 14.9349 0.0403217
2981 14.9349 0.0403177
2982 14.9349 0.0403135
2983 14.9349 0.0403099
2984 14.9349 0.0403063
2985 14.9349 0.0403026
2986 14.9349 0.0402987
2987 14.9349 0.0402941
2988 14.9349 0.040289
2989 14.9349 0.0402847
2990 14.9349 0.0402808
2991 14.9349 0.0402764
2992 14.9349 0.0402728
2993 14.9349 0.0402693
2994 14.9349 0.0402659
2995 14.9349 0.040262
2996 14.9349 0.0402572
2997 14.9349 0.0402529
2998 14.9349 0.0402495
2999 14.9349 0.0402458
3000 14.9349 0.0402419
3001 14.9349 0.0402382
3002 14.9349 0.0402347
